0.0107421875, 0.080078125, 0.228515625
0.0087890625, 0.087890625, 0.2314453125
0.0107421875, 0.0908203125, 0.2412109375
0.01171875, 0.0771484375, 0.2490234375
0.0126953125, 0.076171875, 0.2314453125
0.009765625, 0.078125, 0.232421875
0.01171875, 0.080078125, 0.23828125
0.0078125, 0.0869140625, 0.21875
0.0087890625, 0.0927734375, 0.2216796875
0.01171875, 0.078125, 0.240234375
0.0126953125, 0.0693359375, 0.232421875
0.009765625, 0.0830078125, 0.23828125
0.0107421875, 0.083984375, 0.23046875
0.013671875, 0.0771484375, 0.2314453125
0.01171875, 0.0732421875, 0.2216796875
0.0126953125, 0.0888671875, 0.2451171875
0.01171875, 0.0849609375, 0.2373046875
0.01171875, 0.078125, 0.2197265625
0.01171875, 0.08203125, 0.232421875
0.0126953125, 0.0869140625, 0.2275390625
0.01171875, 0.0791015625, 0.236328125
0.0126953125, 0.0791015625, 0.228515625
0.0146484375, 0.078125, 0.2275390625
0.0126953125, 0.0791015625, 0.224609375
0.0126953125, 0.080078125, 0.236328125
0.0087890625, 0.0732421875, 0.2333984375
0.01171875, 0.0791015625, 0.2412109375
0.01171875, 0.078125, 0.236328125
0.01171875, 0.0869140625, 0.2294921875
0.0126953125, 0.08203125, 0.2265625
0.0146484375, 0.087890625, 0.228515625
0.0107421875, 0.0830078125, 0.2314453125
0.015625, 0.076171875, 0.236328125
0.013671875, 0.080078125, 0.2373046875
0.013671875, 0.08984375, 0.2265625
0.01171875, 0.087890625, 0.2177734375
0.01171875, 0.080078125, 0.2255859375
0.0126953125, 0.08984375, 0.236328125
0.013671875, 0.076171875, 0.224609375
0.0107421875, 0.072265625, 0.2236328125
0.0126953125, 0.080078125, 0.240234375
0.013671875, 0.087890625, 0.2373046875
0.013671875, 0.091796875, 0.2177734375
0.0126953125, 0.08984375, 0.2255859375
0.013671875, 0.076171875, 0.2353515625
0.0107421875, 0.068359375, 0.244140625
0.0146484375, 0.0751953125, 0.2373046875
0.01171875, 0.083984375, 0.228515625
0.01171875, 0.0849609375, 0.21875
0.009765625, 0.0908203125, 0.232421875
0.0107421875, 0.0810546875, 0.2373046875
0.015625, 0.0712890625, 0.2392578125
0.01171875, 0.078125, 0.2373046875
0.0146484375, 0.0869140625, 0.228515625
0.01171875, 0.0810546875, 0.2216796875
0.013671875, 0.08984375, 0.2197265625
0.01171875, 0.0947265625, 0.2353515625
0.009765625, 0.078125, 0.236328125
0.0107421875, 0.07421875, 0.2314453125
0.015625, 0.0849609375, 0.228515625
0.0126953125, 0.087890625, 0.228515625
0.01171875, 0.091796875, 0.2314453125
0.0126953125, 0.07421875, 0.2353515625
0.01171875, 0.0712890625, 0.234375
0.009765625, 0.08203125, 0.2421875
0.01171875, 0.080078125, 0.2373046875
0.0087890625, 0.0810546875, 0.2255859375
0.0126953125, 0.09375, 0.2275390625
0.01171875, 0.08984375, 0.228515625
0.01171875, 0.0771484375, 0.2314453125
0.01171875, 0.0732421875, 0.2314453125
0.0126953125, 0.0751953125, 0.23828125
0.0107421875, 0.0771484375, 0.228515625
0.0107421875, 0.0849609375, 0.2138671875
0.013671875, 0.08984375, 0.2275390625
0.013671875, 0.0830078125, 0.24609375
0.0126953125, 0.0703125, 0.248046875
0.0126953125, 0.078125, 0.2373046875
0.0126953125, 0.095703125, 0.228515625
0.013671875, 0.0966796875, 0.2333984375
0.013671875, 0.0791015625, 0.232421875
0.015625, 0.0859375, 0.2353515625
0.017578125, 0.0849609375, 0.2275390625
0.017578125, 0.091796875, 0.2255859375
0.017578125, 0.0908203125, 0.234375
0.013671875, 0.080078125, 0.240234375
0.017578125, 0.0751953125, 0.2421875
0.0224609375, 0.07421875, 0.2236328125
0.029296875, 0.0751953125, 0.212890625
0.025390625, 0.0615234375, 0.2041015625
0.0205078125, 0.0361328125, 0.197265625
0.0166015625, 0.0302734375, 0.216796875
0.013671875, 0.0380859375, 0.244140625
0.0107421875, 0.033203125, 0.228515625
0.0107421875, 0.017578125, 0.19921875
-0.0078125, -0.009765625, 0.169921875
-0.005859375, -0.0556640625, 0.171875
-0.01953125, -0.0576171875, 0.158203125
-0.0341796875, -0.0419921875, 0.1318359375
-0.046875, -0.05859375, 0.15234375
-0.068359375, -0.0888671875, 0.1982421875
-0.08984375, -0.1533203125, 0.1708984375
-0.1123046875, -0.1533203125, 0.1474609375
-0.130859375, -0.1025390625, 0.11328125
-0.1533203125, -0.0849609375, 0.068359375
-0.181640625, -0.0654296875, 0.0615234375
-0.193359375, -0.0546875, 0.1455078125
-0.212890625, -0.087890625, 0.248046875
-0.2119140625, -0.158203125, 0.3115234375
-0.228515625, -0.0927734375, 0.376953125
-0.224609375, 0.0439453125, 0.3525390625
-0.22265625, 0.111328125, 0.33203125
-0.216796875, 0.083984375, 0.4482421875
-0.216796875, 0.017578125, 0.5302734375
-0.232421875, 0.0107421875, 0.5205078125
-0.240234375, 0.1845703125, 0.5380859375
-0.26953125, 0.26953125, 0.4658203125
-0.3203125, -0.01171875, 0.490234375
-0.353515625, -0.044921875, 0.66015625
-0.4072265625, -0.1748046875, 0.6748046875
-0.451171875, -0.2275390625, 0.5205078125
-0.451171875, -0.234375, 0.3193359375
-0.462890625, -0.1884765625, 0.3955078125
-0.4658203125, -0.318359375, 0.42578125
-0.49609375, -0.451171875, 0.37109375
-0.5107421875, -0.4296875, 0.2734375
-0.4716796875, -0.30859375, 0.1337890625
-0.4130859375, -0.2255859375, 0.037109375
-0.3564453125, -0.296875, 0.025390625
-0.3125, -0.3310546875, 0.0263671875
-0.2607421875, -0.25390625, -0.0244140625
-0.205078125, -0.224609375, -0.0771484375
-0.158203125, -0.23828125, -0.1044921875
-0.1201171875, -0.26953125, -0.1044921875
-0.0947265625, -0.166015625, -0.09765625
-0.0693359375, -0.0869140625, -0.103515625
-0.037109375, -0.05859375, -0.2177734375
0.00390625, -0.0146484375, -0.2919921875
0.0068359375, -0.048828125, -0.322265625
0.0078125, 0.0126953125, -0.3447265625
-0.0087890625, 0.1640625, -0.3212890625
-0.0263671875, 0.259765625, -0.30078125
-0.064453125, 0.2841796875, -0.2138671875
-0.111328125, 0.2177734375, -0.0859375
-0.162109375, 0.1416015625, 0.02734375
-0.1767578125, 0.1533203125, 0.1728515625
-0.171875, 0.27734375, 0.3857421875
-0.1708984375, 0.228515625, 0.525390625
-0.177734375, 0.0126953125, 0.564453125
-0.173828125, -0.0361328125, 0.5439453125
-0.17578125, -0.0673828125, 0.6474609375
-0.1630859375, -0.0791015625, 0.765625
-0.1533203125, -0.115234375, 0.861328125
-0.16015625, -0.13671875, 0.8544921875
-0.1630859375, -0.140625, 0.697265625
-0.1650390625, -0.1611328125, 0.5927734375
-0.162109375, -0.1513671875, 0.59375
-0.1943359375, -0.1728515625, 0.673828125
-0.2578125, -0.271484375, 0.5166015625
-0.2578125, -0.2548828125, 0.2685546875
-0.2333984375, -0.1572265625, 0.1689453125
-0.2353515625, -0.119140625, 0.099609375
-0.2216796875, -0.23046875, 0.0
-0.1875, -0.2001953125, -0.16015625
-0.1142578125, 0.0009765625, -0.275390625
-0.0478515625, 0.1328125, -0.2333984375
-0.0068359375, 0.1416015625, -0.2265625
0.0263671875, 0.236328125, -0.2822265625
0.056640625, 0.2734375, -0.3271484375
0.080078125, 0.294921875, -0.3740234375
0.0947265625, 0.3486328125, -0.40234375
0.08203125, 0.3837890625, -0.4189453125
0.0458984375, 0.306640625, -0.35546875
0.0126953125, 0.201171875, -0.267578125
-0.048828125, 0.2021484375, -0.140625
-0.1064453125, 0.2294921875, -0.0654296875
-0.1376953125, 0.3046875, -0.0400390625
-0.1943359375, 0.306640625, -0.0283203125
-0.2861328125, 0.1142578125, 0.05078125
-0.318359375, 0.064453125, 0.228515625
-0.3203125, 0.060546875, 0.4951171875
-0.2685546875, 0.0498046875, 0.7841796875
-0.2021484375, 0.09375, 0.904296875
-0.140625, 0.080078125, 0.6142578125
-0.1220703125, 0.1123046875, 0.5517578125
-0.1123046875, 0.091796875, 0.615234375
-0.0927734375, 0.0400390625, 0.5625
-0.0830078125, 0.033203125, 0.431640625
-0.072265625, 0.0771484375, 0.400390625
-0.068359375, 0.1044921875, 0.359375
-0.068359375, 0.08984375, 0.3134765625
-0.0576171875, 0.0751953125, 0.3173828125
-0.0419921875, 0.08984375, 0.3017578125
-0.0341796875, 0.111328125, 0.263671875
-0.0322265625, 0.1201171875, 0.2255859375
-0.03125, 0.091796875, 0.2236328125
-0.025390625, 0.052734375, 0.2470703125
-0.021484375, 0.056640625, 0.263671875
-0.009765625, 0.0732421875, 0.2333984375
-0.001953125, 0.0693359375, 0.21484375
0.0048828125, 0.0595703125, 0.2265625
0.0078125, 0.07421875, 0.2509765625
0.005859375, 0.0986328125, 0.2373046875
0.0009765625, 0.1083984375, 0.2236328125
-0.0107421875, 0.109375, 0.220703125
-0.013671875, 0.119140625, 0.212890625
-0.0078125, 0.1083984375, 0.224609375
-0.0087890625, 0.1025390625, 0.203125
0.0, 0.103515625, 0.2021484375
-0.0009765625, 0.087890625, 0.208984375
-0.0029296875, 0.091796875, 0.2001953125
0.0, 0.1025390625, 0.2041015625
0.0, 0.115234375, 0.220703125
0.0009765625, 0.091796875, 0.205078125
0.001953125, 0.1123046875, 0.177734375
0.001953125, 0.1123046875, 0.2060546875
0.0, 0.083984375, 0.224609375
0.0, 0.0849609375, 0.23828125
0.0009765625, 0.0908203125, 0.2431640625
0.001953125, 0.1103515625, 0.224609375
0.0009765625, 0.0830078125, 0.236328125
0.0009765625, 0.064453125, 0.220703125
0.0, 0.08203125, 0.2197265625
0.0, 0.078125, 0.2421875
0.0009765625, 0.078125, 0.2490234375
0.001953125, 0.087890625, 0.2333984375
0.0009765625, 0.1103515625, 0.2138671875
0.001953125, 0.109375, 0.2138671875
0.0029296875, 0.0986328125, 0.244140625
0.0009765625, 0.1005859375, 0.2333984375
0.0048828125, 0.0908203125, 0.2255859375
0.0009765625, 0.0810546875, 0.21875
0.0029296875, 0.0830078125, 0.2373046875
0.005859375, 0.08984375, 0.2265625
0.0029296875, 0.1025390625, 0.224609375
0.001953125, 0.0947265625, 0.2275390625
0.0048828125, 0.107421875, 0.2294921875
0.005859375, 0.091796875, 0.248046875
0.001953125, 0.08984375, 0.22265625
0.005859375, 0.1015625, 0.22265625
0.0048828125, 0.0849609375, 0.2353515625
0.00390625, 0.099609375, 0.22265625
0.0078125, 0.0966796875, 0.240234375
0.005859375, 0.0732421875, 0.2529296875
0.0078125, 0.080078125, 0.2216796875
0.01171875, 0.08984375, 0.2080078125
0.005859375, 0.103515625, 0.1923828125
0.0078125, 0.1025390625, 0.203125
0.009765625, 0.0947265625, 0.2314453125
0.0126953125, 0.0947265625, 0.24609375
0.0078125, 0.09375, 0.2265625
0.009765625, 0.0908203125, 0.21875
0.0087890625, 0.09765625, 0.23046875
0.0087890625, 0.103515625, 0.2490234375
0.0078125, 0.0947265625, 0.2392578125
0.0107421875, 0.087890625, 0.2412109375
0.009765625, 0.0986328125, 0.240234375
0.009765625, 0.0869140625, 0.23046875
0.01171875, 0.0771484375, 0.2265625
0.009765625, 0.0830078125, 0.21875
0.0146484375, 0.0966796875, 0.212890625
0.0146484375, 0.1015625, 0.2021484375
0.013671875, 0.10546875, 0.197265625
0.0146484375, 0.0927734375, 0.224609375
0.0126953125, 0.08203125, 0.2451171875
0.0146484375, 0.0849609375, 0.234375
0.0146484375, 0.091796875, 0.228515625
0.015625, 0.0859375, 0.22265625
0.0107421875, 0.08984375, 0.2236328125
0.013671875, 0.0986328125, 0.2255859375
0.0126953125, 0.087890625, 0.2421875
0.0146484375, 0.078125, 0.220703125
0.0146484375, 0.0751953125, 0.2412109375
0.013671875, 0.095703125, 0.2275390625
0.017578125, 0.1005859375, 0.2216796875
0.013671875, 0.08984375, 0.21875
0.013671875, 0.0966796875, 0.2265625
0.0126953125, 0.078125, 0.248046875
0.013671875, 0.083984375, 0.234375
0.0146484375, 0.10546875, 0.220703125
0.017578125, 0.1005859375, 0.2060546875
0.0166015625, 0.0830078125, 0.2255859375
0.013671875, 0.072265625, 0.236328125
0.0166015625, 0.08984375, 0.2353515625
0.0146484375, 0.0947265625, 0.228515625
0.015625, 0.0849609375, 0.21875
0.0166015625, 0.0849609375, 0.2197265625
0.017578125, 0.0888671875, 0.240234375
0.0166015625, 0.0947265625, 0.232421875
0.015625, 0.0986328125, 0.2216796875
0.017578125, 0.09765625, 0.2314453125
0.015625, 0.0830078125, 0.228515625
0.0146484375, 0.0888671875, 0.21875
0.015625, 0.111328125, 0.2236328125
0.015625, 0.0966796875, 0.2255859375
0.0166015625, 0.0869140625, 0.2392578125
0.015625, 0.0888671875, 0.2177734375
0.0166015625, 0.0927734375, 0.2099609375
0.015625, 0.0927734375, 0.23046875
0.017578125, 0.0859375, 0.240234375
0.015625, 0.0869140625, 0.236328125
0.015625, 0.091796875, 0.21484375
0.0146484375, 0.091796875, 0.2216796875
0.0146484375, 0.091796875, 0.2255859375
0.017578125, 0.08984375, 0.2294921875
0.0166015625, 0.0908203125, 0.236328125
0.015625, 0.08984375, 0.2236328125
0.017578125, 0.087890625, 0.2265625
0.015625, 0.0771484375, 0.2353515625
0.013671875, 0.0830078125, 0.251953125
0.013671875, 0.09765625, 0.236328125
0.0166015625, 0.083984375, 0.22265625
0.0185546875, 0.072265625, 0.22265625
0.015625, 0.087890625, 0.2294921875
0.013671875, 0.09765625, 0.2373046875
0.0166015625, 0.0849609375, 0.2216796875
0.0146484375, 0.0771484375, 0.2236328125
0.0166015625, 0.091796875, 0.220703125
0.017578125, 0.0966796875, 0.2255859375
0.0146484375, 0.091796875, 0.22265625
0.0185546875, 0.083984375, 0.2275390625
0.0166015625, 0.0791015625, 0.2265625
0.0166015625, 0.09375, 0.2353515625
0.017578125, 0.0908203125, 0.23046875
0.015625, 0.0859375, 0.2333984375
0.015625, 0.091796875, 0.228515625
0.015625, 0.0927734375, 0.2314453125
0.0146484375, 0.0859375, 0.232421875
0.0146484375, 0.068359375, 0.2216796875
0.0166015625, 0.0791015625, 0.232421875
0.0146484375, 0.0869140625, 0.21875
0.0146484375, 0.0869140625, 0.2255859375
0.0126953125, 0.099609375, 0.2314453125
0.0166015625, 0.10546875, 0.2294921875
0.015625, 0.0927734375, 0.2421875
0.0146484375, 0.0703125, 0.2255859375
0.0146484375, 0.076171875, 0.2197265625
0.015625, 0.1044921875, 0.2197265625
0.0146484375, 0.1005859375, 0.216796875
0.013671875, 0.080078125, 0.2421875
0.0146484375, 0.080078125, 0.2294921875
0.0166015625, 0.0947265625, 0.2294921875
0.0146484375, 0.080078125, 0.2412109375
0.0146484375, 0.076171875, 0.240234375
0.015625, 0.0947265625, 0.2314453125
0.015625, 0.0927734375, 0.2138671875
0.0126953125, 0.0771484375, 0.224609375
0.01171875, 0.0830078125, 0.2275390625
0.015625, 0.095703125, 0.2353515625
0.017578125, 0.09375, 0.2314453125
0.0126953125, 0.0830078125, 0.2265625
0.013671875, 0.0849609375, 0.2333984375
0.0166015625, 0.1005859375, 0.2265625
0.0166015625, 0.0888671875, 0.2265625
0.0146484375, 0.0859375, 0.2255859375
0.0166015625, 0.095703125, 0.232421875
0.0185546875, 0.0908203125, 0.232421875
0.0146484375, 0.0810546875, 0.22265625
0.0146484375, 0.0859375, 0.2265625
0.015625, 0.1015625, 0.232421875
0.015625, 0.0927734375, 0.2294921875
0.015625, 0.087890625, 0.220703125
0.013671875, 0.0869140625, 0.2236328125
0.015625, 0.078125, 0.232421875
0.0166015625, 0.0849609375, 0.23046875
0.015625, 0.09375, 0.2119140625
0.0185546875, 0.087890625, 0.220703125
0.0166015625, 0.080078125, 0.244140625
0.015625, 0.0869140625, 0.2294921875
0.017578125, 0.0927734375, 0.23046875
0.013671875, 0.0859375, 0.2294921875
0.0185546875, 0.0859375, 0.2294921875
0.015625, 0.0830078125, 0.228515625
0.015625, 0.0927734375, 0.2216796875
0.013671875, 0.08984375, 0.2294921875
0.0166015625, 0.083984375, 0.2236328125
0.0166015625, 0.0859375, 0.2314453125
0.015625, 0.080078125, 0.23828125
0.0146484375, 0.0849609375, 0.220703125
0.0166015625, 0.09375, 0.23046875
0.0166015625, 0.091796875, 0.232421875
0.0166015625, 0.080078125, 0.2373046875
0.0107421875, 0.0849609375, 0.224609375
0.01171875, 0.0966796875, 0.236328125
0.015625, 0.0908203125, 0.2314453125
0.0126953125, 0.083984375, 0.2314453125
0.013671875, 0.087890625, 0.2265625
0.0146484375, 0.09375, 0.232421875
0.0166015625, 0.087890625, 0.228515625
0.015625, 0.07421875, 0.232421875
0.0166015625, 0.0830078125, 0.22265625
0.017578125, 0.0966796875, 0.2275390625
0.0146484375, 0.09765625, 0.228515625
0.015625, 0.083984375, 0.23828125
0.0146484375, 0.08203125, 0.2275390625
0.0166015625, 0.08984375, 0.2353515625
0.015625, 0.0771484375, 0.23828125
0.0166015625, 0.076171875, 0.2314453125
0.017578125, 0.0849609375, 0.2158203125
0.015625, 0.0849609375, 0.2158203125
0.017578125, 0.0908203125, 0.234375
0.01953125, 0.0927734375, 0.2421875
0.015625, 0.08984375, 0.2255859375
0.0146484375, 0.080078125, 0.224609375
0.0166015625, 0.080078125, 0.2294921875
0.0166015625, 0.0908203125, 0.2275390625
0.017578125, 0.095703125, 0.2275390625
0.01953125, 0.0810546875, 0.2265625
0.0146484375, 0.072265625, 0.224609375
0.0185546875, 0.0908203125, 0.2236328125
0.015625, 0.0888671875, 0.228515625
0.017578125, 0.0849609375, 0.2421875
0.0166015625, 0.083984375, 0.2392578125
0.0166015625, 0.0908203125, 0.23046875
0.017578125, 0.0849609375, 0.2236328125
0.017578125, 0.0693359375, 0.2177734375
0.0146484375, 0.083984375, 0.236328125
0.0146484375, 0.083984375, 0.244140625
0.013671875, 0.0859375, 0.236328125
0.0166015625, 0.0908203125, 0.216796875
0.015625, 0.0947265625, 0.228515625
0.0146484375, 0.0771484375, 0.2255859375
0.0166015625, 0.080078125, 0.23046875
0.0166015625, 0.0888671875, 0.23046875
0.0185546875, 0.091796875, 0.23828125
0.0185546875, 0.0849609375, 0.236328125
0.01953125, 0.0810546875, 0.216796875
0.0166015625, 0.0859375, 0.220703125
0.0166015625, 0.08984375, 0.234375
0.0166015625, 0.0849609375, 0.2373046875
0.01953125, 0.076171875, 0.2236328125
0.017578125, 0.083984375, 0.2158203125
0.0166015625, 0.0869140625, 0.2333984375
0.0146484375, 0.083984375, 0.2392578125
0.0166015625, 0.08203125, 0.2392578125
0.0146484375, 0.08984375, 0.2294921875
0.015625, 0.087890625, 0.220703125
0.0126953125, 0.0869140625, 0.23046875
0.017578125, 0.0830078125, 0.2421875
0.0185546875, 0.0771484375, 0.2373046875
0.017578125, 0.083984375, 0.2197265625
0.015625, 0.09375, 0.2216796875
0.017578125, 0.0888671875, 0.2373046875
0.017578125, 0.0771484375, 0.2451171875
0.01953125, 0.0771484375, 0.2294921875
0.017578125, 0.0947265625, 0.2255859375
0.0185546875, 0.099609375, 0.234375
0.021484375, 0.099609375, 0.2333984375
0.025390625, 0.1005859375, 0.2470703125
0.025390625, 0.115234375, 0.271484375
