0.0322265625, 0.013671875, 0.2470703125
0.0341796875, 0.0078125, 0.248046875
0.0322265625, -0.0009765625, 0.240234375
0.0341796875, 0.0029296875, 0.2412109375
0.03125, 0.0205078125, 0.244140625
0.03125, 0.0244140625, 0.2373046875
0.03125, 0.0068359375, 0.23828125
0.033203125, 0.0009765625, 0.2373046875
0.03125, 0.0107421875, 0.2451171875
0.029296875, 0.015625, 0.24609375
0.029296875, 0.0048828125, 0.248046875
0.03125, 0.001953125, 0.2470703125
0.0302734375, 0.01171875, 0.24609375
0.0302734375, 0.0126953125, 0.2470703125
0.02734375, 0.0048828125, 0.248046875
0.029296875, 0.0029296875, 0.244140625
0.033203125, 0.01171875, 0.2451171875
0.0283203125, 0.01171875, 0.248046875
0.0302734375, 0.009765625, 0.24609375
0.0322265625, 0.00390625, 0.24609375
0.03125, 0.009765625, 0.248046875
0.0341796875, 0.00390625, 0.2470703125
0.0322265625, 0.015625, 0.2392578125
0.0302734375, 0.0234375, 0.2392578125
0.0341796875, 0.0107421875, 0.2373046875
0.0302734375, -0.0029296875, 0.2392578125
0.03125, 0.0078125, 0.2431640625
0.03125, 0.0263671875, 0.24609375
0.029296875, 0.017578125, 0.244140625
0.02734375, 0.0009765625, 0.2470703125
0.0322265625, 0.001953125, 0.2490234375
0.0302734375, 0.0126953125, 0.2470703125
0.0302734375, 0.013671875, 0.24609375
0.029296875, 0.015625, 0.23828125
0.03125, 0.0087890625, 0.248046875
0.0302734375, 0.00390625, 0.255859375
0.03125, 0.0009765625, 0.25
0.029296875, -0.0009765625, 0.248046875
0.0322265625, 0.001953125, 0.248046875
0.03125, 0.0185546875, 0.2392578125
0.033203125, 0.0126953125, 0.2353515625
0.0322265625, 0.0009765625, 0.23828125
0.03125, 0.00390625, 0.2412109375
0.0341796875, 0.0166015625, 0.2470703125
0.03125, 0.01171875, 0.248046875
0.033203125, 0.0009765625, 0.2451171875
0.03125, 0.0087890625, 0.2470703125
0.0322265625, 0.0126953125, 0.24609375
0.03125, 0.0078125, 0.2470703125
0.03125, 0.001953125, 0.2353515625
0.0302734375, 0.0185546875, 0.24609375
0.033203125, 0.0244140625, 0.2421875
0.02734375, 0.0087890625, 0.2412109375
0.0341796875, 0.0029296875, 0.248046875
0.0322265625, 0.015625, 0.2490234375
0.0302734375, 0.0126953125, 0.24609375
0.0322265625, 0.0107421875, 0.2412109375
0.0302734375, 0.0009765625, 0.2490234375
0.029296875, 0.0087890625, 0.2392578125
0.029296875, 0.015625, 0.2431640625
0.033203125, 0.0107421875, 0.2392578125
0.0341796875, -0.00390625, 0.2490234375
0.0341796875, 0.0029296875, 0.25
0.03125, 0.015625, 0.248046875
0.0341796875, 0.015625, 0.24609375
0.03125, 0.0068359375, 0.2392578125
0.03125, 0.0087890625, 0.2421875
0.0322265625, 0.0107421875, 0.2412109375
0.033203125, 0.01171875, 0.2373046875
0.033203125, 0.009765625, 0.244140625
0.033203125, 0.009765625, 0.25
0.03125, 0.0126953125, 0.2470703125
0.029296875, 0.013671875, 0.2353515625
0.0341796875, 0.0029296875, 0.244140625
0.03125, 0.0078125, 0.251953125
0.03125, 0.0107421875, 0.24609375
0.03125, 0.015625, 0.2431640625
0.0322265625, 0.00390625, 0.2470703125
0.03125, 0.0, 0.25390625
0.0302734375, 0.0078125, 0.24609375
0.0322265625, 0.013671875, 0.2392578125
0.029296875, 0.0087890625, 0.2470703125
0.029296875, 0.0087890625, 0.24609375
0.0322265625, 0.01171875, 0.24609375
0.03125, 0.013671875, 0.25
0.03125, 0.0068359375, 0.2451171875
0.03515625, 0.001953125, 0.2412109375
0.03515625, -0.001953125, 0.23828125
0.03515625, 0.0, 0.248046875
0.02734375, 0.021484375, 0.2470703125
0.02734375, 0.0302734375, 0.2412109375
0.0263671875, 0.0068359375, 0.2412109375
0.029296875, -0.0078125, 0.2509765625
0.0283203125, 0.0048828125, 0.25390625
0.03125, 0.0263671875, 0.2470703125
0.0322265625, 0.015625, 0.2392578125
0.0302734375, 0.00390625, 0.2392578125
0.0302734375, 0.009765625, 0.24609375
0.0322265625, 0.01953125, 0.248046875
0.0322265625, 0.0107421875, 0.240234375
0.03125, 0.0087890625, 0.244140625
0.03125, 0.0107421875, 0.251953125
0.03125, 0.01171875, 0.2451171875
0.0302734375, 0.0029296875, 0.2490234375
0.03125, 0.0166015625, 0.248046875
0.03125, 0.0126953125, 0.2421875
0.0322265625, 0.013671875, 0.23046875
0.0302734375, 0.005859375, 0.2470703125
0.029296875, 0.0107421875, 0.240234375
0.03125, 0.0087890625, 0.24609375
0.03125, 0.009765625, 0.2451171875
0.0302734375, 0.01171875, 0.2451171875
0.0302734375, 0.013671875, 0.2470703125
0.0322265625, 0.0146484375, 0.2412109375
0.0302734375, 0.0166015625, 0.248046875
0.0341796875, 0.0068359375, 0.2451171875
0.033203125, 0.00390625, 0.25
0.029296875, 0.009765625, 0.24609375
0.0302734375, 0.0146484375, 0.248046875
0.0302734375, 0.0087890625, 0.2412109375
0.0302734375, -0.0009765625, 0.2470703125
0.0302734375, 0.0087890625, 0.24609375
0.03125, 0.013671875, 0.2431640625
0.0341796875, 0.013671875, 0.244140625
0.033203125, 0.001953125, 0.2431640625
0.0302734375, 0.0068359375, 0.2392578125
0.03125, 0.0166015625, 0.244140625
0.0263671875, 0.01953125, 0.244140625
0.0322265625, 0.001953125, 0.2412109375
0.0302734375, 0.0029296875, 0.25
0.0283203125, 0.0185546875, 0.251953125
0.03125, 0.0166015625, 0.2451171875
0.0283203125, 0.0185546875, 0.2431640625
0.025390625, 0.0205078125, 0.2509765625
0.029296875, 0.0205078125, 0.2451171875
0.0322265625, 0.0205078125, 0.251953125
0.0283203125, 0.0263671875, 0.25
0.0224609375, 0.037109375, 0.2470703125
0.0224609375, 0.056640625, 0.2666015625
0.02734375, 0.0615234375, 0.291015625
0.0380859375, 0.029296875, 0.2958984375
0.0458984375, 0.021484375, 0.30859375
0.0556640625, 0.03515625, 0.306640625
0.0703125, 0.0126953125, 0.3408203125
0.08203125, -0.0625, 0.36328125
0.078125, -0.1201171875, 0.38671875
0.0771484375, -0.1123046875, 0.384765625
0.0703125, -0.0859375, 0.34375
0.06640625, -0.05859375, 0.2998046875
0.076171875, -0.060546875, 0.310546875
0.0673828125, -0.0498046875, 0.3701171875
0.0537109375, 0.00390625, 0.4375
0.0419921875, 0.02734375, 0.3583984375
0.0498046875, 0.0224609375, 0.24609375
0.0546875, -0.0009765625, 0.2353515625
0.0576171875, -0.0556640625, 0.2734375
0.0458984375, -0.10546875, 0.27734375
0.0380859375, -0.142578125, 0.216796875
0.025390625, -0.10546875, 0.1015625
0.0302734375, -0.146484375, 0.001953125
0.03515625, -0.177734375, -0.09375
0.0048828125, -0.2041015625, -0.10546875
-0.033203125, -0.115234375, -0.1181640625
-0.05859375, 0.0322265625, -0.138671875
-0.09765625, 0.1962890625, -0.169921875
-0.11328125, 0.3837890625, -0.220703125
-0.13671875, 0.69921875, -0.2822265625
-0.1298828125, 0.9814453125, -0.33984375
-0.1640625, 0.9794921875, -0.4326171875
-0.248046875, 0.767578125, -0.4013671875
-0.3544921875, 0.4990234375, -0.3916015625
-0.50390625, 0.2705078125, -0.380859375
-0.6396484375, 0.05078125, -0.119140625
-0.6650390625, -0.271484375, 0.271484375
-0.5107421875, -0.5546875, 0.6220703125
-0.3271484375, -0.58203125, 0.580078125
-0.19921875, -0.6572265625, 0.2734375
-0.1474609375, -0.501953125, 0.2021484375
-0.1494140625, -0.2783203125, 0.330078125
-0.1298828125, -0.4228515625, 0.712890625
-0.076171875, -0.802734375, 0.728515625
-0.0390625, -1.0, 0.529296875
-0.0576171875, -0.7509765625, 0.458984375
-0.091796875, -0.45703125, 0.451171875
-0.1103515625, -0.3388671875, 0.4013671875
-0.1396484375, -0.36328125, 0.3203125
-0.1826171875, -0.357421875, 0.2421875
-0.236328125, -0.2548828125, 0.1611328125
-0.26171875, -0.080078125, 0.0986328125
-0.2587890625, 0.0751953125, 0.0517578125
-0.236328125, 0.2529296875, 0.0849609375
-0.185546875, 0.390625, 0.15625
-0.087890625, 0.5859375, 0.1171875
0.0126953125, 0.6796875, 0.0869140625
0.0341796875, 0.5947265625, 0.140625
0.0107421875, 0.35546875, 0.271484375
0.0107421875, 0.1826171875, 0.3232421875
0.029296875, 0.0400390625, 0.2587890625
0.041015625, -0.0322265625, 0.1884765625
0.05078125, -0.0751953125, 0.171875
0.048828125, -0.009765625, 0.232421875
0.046875, 0.0458984375, 0.275390625
0.0478515625, 0.0517578125, 0.275390625
0.0478515625, -0.00390625, 0.244140625
0.0380859375, 0.0029296875, 0.251953125
0.03125, 0.0595703125, 0.2607421875
0.03515625, 0.015625, 0.2626953125
0.041015625, -0.0078125, 0.25
0.044921875, -0.00390625, 0.2548828125
0.044921875, 0.021484375, 0.240234375
0.0458984375, -0.0009765625, 0.24609375
0.0419921875, -0.0224609375, 0.2490234375
0.0400390625, -0.0107421875, 0.232421875
0.0380859375, 0.001953125, 0.216796875
0.0322265625, 0.0234375, 0.2412109375
0.033203125, 0.02734375, 0.251953125
0.037109375, 0.0087890625, 0.2392578125
0.037109375, 0.0, 0.234375
0.03515625, 0.0302734375, 0.2490234375
0.0361328125, 0.025390625, 0.2626953125
0.0361328125, -0.005859375, 0.2587890625
0.0361328125, -0.013671875, 0.267578125
0.0390625, 0.0068359375, 0.267578125
0.03515625, 0.01171875, 0.24609375
0.0380859375, 0.025390625, 0.236328125
0.037109375, 0.017578125, 0.2265625
0.037109375, 0.0029296875, 0.2265625
0.037109375, 0.001953125, 0.2431640625
0.0380859375, 0.0224609375, 0.234375
0.0380859375, 0.0234375, 0.22265625
0.041015625, 0.017578125, 0.2314453125
0.0390625, 0.013671875, 0.2470703125
0.0400390625, 0.0009765625, 0.2451171875
0.0390625, 0.01171875, 0.2509765625
0.0390625, 0.0185546875, 0.2685546875
0.0361328125, 0.0244140625, 0.28125
0.0390625, 0.0126953125, 0.2626953125
0.0390625, 0.0166015625, 0.2353515625
0.041015625, 0.0126953125, 0.220703125
0.041015625, -0.0068359375, 0.2197265625
0.0400390625, -0.0068359375, 0.2177734375
0.0380859375, 0.0263671875, 0.2294921875
0.041015625, 0.0341796875, 0.244140625
0.0419921875, 0.001953125, 0.2353515625
0.041015625, -0.0048828125, 0.2509765625
0.041015625, 0.0029296875, 0.2607421875
0.0439453125, 0.0078125, 0.25390625
0.04296875, -0.00390625, 0.2470703125
0.041015625, -0.001953125, 0.248046875
0.04296875, 0.01171875, 0.2431640625
0.041015625, 0.005859375, 0.24609375
0.04296875, 0.0009765625, 0.2470703125
0.04296875, 0.001953125, 0.25
0.04296875, 0.0087890625, 0.259765625
0.04296875, 0.0048828125, 0.2509765625
0.0439453125, 0.0029296875, 0.2451171875
0.04296875, -0.0107421875, 0.2333984375
0.04296875, -0.0068359375, 0.224609375
0.044921875, 0.02734375, 0.2275390625
0.0439453125, 0.021484375, 0.23828125
0.0439453125, -0.00390625, 0.2333984375
0.044921875, 0.0087890625, 0.2333984375
0.0458984375, 0.013671875, 0.2392578125
0.044921875, -0.00390625, 0.25390625
0.04296875, -0.0107421875, 0.251953125
0.0458984375, 0.0126953125, 0.2421875
0.044921875, 0.025390625, 0.2431640625
0.04296875, -0.005859375, 0.248046875
0.044921875, -0.005859375, 0.2333984375
0.0439453125, 0.0078125, 0.234375
0.044921875, 0.021484375, 0.2314453125
0.04296875, 0.0029296875, 0.23828125
0.04296875, 0.0, 0.2451171875
0.046875, -0.001953125, 0.248046875
0.0439453125, 0.0068359375, 0.2470703125
0.0419921875, 0.009765625, 0.2431640625
0.04296875, 0.009765625, 0.2451171875
0.044921875, -0.00390625, 0.2353515625
0.04296875, -0.001953125, 0.2451171875
0.0458984375, 0.001953125, 0.2451171875
0.044921875, 0.00390625, 0.2431640625
0.044921875, 0.0009765625, 0.2392578125
0.044921875, 0.001953125, 0.2392578125
0.044921875, 0.001953125, 0.240234375
0.0439453125, -0.0107421875, 0.234375
0.04296875, -0.0185546875, 0.2509765625
0.0400390625, -0.0009765625, 0.2646484375
0.04296875, 0.01171875, 0.2509765625
0.0439453125, 0.00390625, 0.2333984375
0.044921875, 0.001953125, 0.2314453125
0.044921875, 0.0087890625, 0.23828125
0.04296875, 0.009765625, 0.2490234375
0.04296875, -0.0068359375, 0.24609375
0.0458984375, 0.0078125, 0.2431640625
0.0439453125, 0.029296875, 0.2470703125
0.044921875, 0.0107421875, 0.23828125
0.04296875, -0.005859375, 0.22265625
0.044921875, 0.0078125, 0.232421875
0.0419921875, 0.025390625, 0.2451171875
0.04296875, 0.02734375, 0.240234375
0.0439453125, 0.0029296875, 0.240234375
0.0458984375, 0.0068359375, 0.2587890625
0.0439453125, 0.0068359375, 0.265625
0.0439453125, 0.013671875, 0.255859375
0.0439453125, 0.01171875, 0.2421875
0.044921875, 0.0029296875, 0.2421875
0.044921875, 0.0009765625, 0.2470703125
0.0419921875, 0.009765625, 0.240234375
0.0439453125, 0.009765625, 0.234375
0.0458984375, 0.005859375, 0.232421875
0.044921875, -0.009765625, 0.23828125
0.0419921875, 0.0009765625, 0.23828125
0.0439453125, 0.009765625, 0.248046875
0.046875, 0.01171875, 0.244140625
0.0419921875, 0.0048828125, 0.2294921875
0.0400390625, -0.0068359375, 0.248046875
0.0419921875, 0.00390625, 0.2490234375
0.04296875, 0.0166015625, 0.234375
0.0458984375, -0.009765625, 0.2431640625
0.0439453125, -0.0107421875, 0.2587890625
0.0458984375, 0.0048828125, 0.2451171875
0.0458984375, -0.00390625, 0.2373046875
0.0419921875, 0.0048828125, 0.2431640625
0.0390625, 0.0234375, 0.2431640625
0.04296875, 0.009765625, 0.2421875
0.0439453125, -0.0068359375, 0.2373046875
0.044921875, 0.0068359375, 0.2412109375
0.0419921875, 0.0244140625, 0.2392578125
0.0419921875, 0.0224609375, 0.23828125
0.0419921875, 0.0029296875, 0.2255859375
0.04296875, -0.0087890625, 0.2275390625
0.04296875, -0.001953125, 0.24609375
0.0380859375, 0.009765625, 0.259765625
0.0400390625, 0.001953125, 0.2568359375
0.0380859375, 0.0, 0.2568359375
0.0380859375, -0.0009765625, 0.251953125
0.0400390625, 0.0009765625, 0.25
0.0400390625, 0.0, 0.2451171875
0.041015625, 0.0029296875, 0.2373046875
0.037109375, 0.0234375, 0.2431640625
0.0419921875, 0.0166015625, 0.2236328125
0.041015625, 0.0009765625, 0.2373046875
0.0439453125, 0.00390625, 0.2392578125
0.04296875, 0.009765625, 0.2353515625
0.04296875, 0.009765625, 0.234375
0.0400390625, 0.0, 0.2373046875
0.0390625, 0.0, 0.25
0.0380859375, 0.00390625, 0.2578125
0.0400390625, 0.0029296875, 0.2578125
0.0390625, -0.0146484375, 0.2451171875
0.0400390625, -0.0078125, 0.251953125
0.0400390625, 0.001953125, 0.25390625
0.0361328125, -0.0078125, 0.2451171875
0.0341796875, -0.0068359375, 0.2333984375
0.033203125, 0.0068359375, 0.234375
0.0390625, 0.0107421875, 0.2373046875
0.041015625, 0.0029296875, 0.2412109375
0.041015625, 0.0029296875, 0.2490234375
0.041015625, 0.0146484375, 0.25
0.041015625, 0.0126953125, 0.2509765625
0.0390625, 0.001953125, 0.25390625
0.0400390625, 0.0048828125, 0.2412109375
0.0390625, 0.0126953125, 0.2373046875
0.0380859375, 0.0078125, 0.234375
0.0390625, -0.005859375, 0.240234375
0.041015625, 0.0029296875, 0.248046875
0.041015625, 0.0166015625, 0.25
0.041015625, 0.0087890625, 0.2373046875
0.0458984375, -0.0244140625, 0.240234375
0.0400390625, -0.0029296875, 0.2412109375
0.0380859375, 0.01171875, 0.255859375
0.0400390625, 0.009765625, 0.24609375
0.0400390625, -0.00390625, 0.2412109375
0.037109375, -0.00390625, 0.2373046875
0.0380859375, 0.0107421875, 0.2392578125
0.0380859375, 0.0029296875, 0.2421875
0.0400390625, -0.0087890625, 0.2490234375
0.0380859375, 0.0, 0.2451171875
0.0380859375, 0.0048828125, 0.251953125
0.041015625, 0.0029296875, 0.2490234375
0.0380859375, 0.0029296875, 0.2431640625
0.0380859375, 0.00390625, 0.2421875
0.037109375, 0.0078125, 0.23828125
0.0390625, 0.0029296875, 0.234375
0.0400390625, -0.0009765625, 0.2392578125
0.0400390625, 0.0029296875, 0.244140625
0.0400390625, 0.005859375, 0.2392578125
0.0390625, -0.0009765625, 0.248046875
0.0400390625, -0.0029296875, 0.2431640625
0.041015625, 0.0029296875, 0.2470703125
0.0419921875, -0.0048828125, 0.2548828125
0.0390625, -0.001953125, 0.2392578125
0.0400390625, -0.0146484375, 0.2529296875
0.0380859375, 0.0078125, 0.2412109375
0.0390625, 0.0224609375, 0.236328125
0.0380859375, 0.0146484375, 0.23046875
0.0400390625, -0.009765625, 0.2451171875
0.0390625, 0.001953125, 0.2470703125
0.037109375, 0.009765625, 0.2509765625
0.0390625, 0.0048828125, 0.2412109375
0.0390625, -0.001953125, 0.24609375
0.0419921875, 0.0068359375, 0.2353515625
0.0390625, 0.0078125, 0.23828125
0.0390625, 0.0068359375, 0.2529296875
0.0400390625, 0.0078125, 0.2431640625
0.0400390625, -0.0009765625, 0.24609375
0.0390625, 0.0, 0.2392578125
0.0390625, 0.0, 0.263671875
0.037109375, 0.001953125, 0.275390625
0.041015625, 0.0, 0.2490234375
0.0419921875, 0.0029296875, 0.2265625
0.0419921875, 0.0078125, 0.2265625
0.041015625, -0.0048828125, 0.232421875
0.0419921875, 0.0048828125, 0.234375
0.0400390625, 0.00390625, 0.2353515625
0.0419921875, -0.001953125, 0.2412109375
0.041015625, -0.009765625, 0.251953125
0.0390625, -0.0009765625, 0.2529296875
0.0400390625, 0.0078125, 0.2490234375
0.0400390625, 0.0029296875, 0.2373046875
0.0419921875, 0.0009765625, 0.244140625
0.041015625, 0.001953125, 0.2373046875
0.04296875, 0.0107421875, 0.2421875
0.0380859375, 0.0009765625, 0.2451171875
0.041015625, 0.0068359375, 0.2392578125
0.04296875, -0.0068359375, 0.251953125
0.041015625, -0.0068359375, 0.2431640625
0.0419921875, 0.0, 0.2431640625
0.0400390625, 0.0029296875, 0.2509765625
0.0390625, 0.0029296875, 0.2392578125
0.041015625, -0.001953125, 0.2490234375
0.0419921875, -0.0009765625, 0.240234375
0.0400390625, 0.0029296875, 0.234375
0.041015625, -0.001953125, 0.2431640625
0.0419921875, 0.0, 0.248046875
0.041015625, 0.0009765625, 0.25
0.0400390625, -0.001953125, 0.248046875
0.0390625, 0.0029296875, 0.2373046875
0.0390625, 0.013671875, 0.228515625
0.041015625, 0.001953125, 0.236328125
0.0380859375, 0.0, 0.248046875
0.0380859375, 0.0029296875, 0.25
0.0419921875, 0.0087890625, 0.2470703125
0.0400390625, 0.0009765625, 0.2451171875
0.0400390625, -0.0078125, 0.2470703125
0.041015625, 0.0029296875, 0.244140625
0.0390625, 0.01171875, 0.2412109375
0.0390625, 0.005859375, 0.240234375
0.0380859375, 0.0, 0.2392578125
0.0400390625, 0.0048828125, 0.25
