0.0458984375, 0.07421875, 0.2392578125
0.0498046875, 0.0751953125, 0.25390625
0.048828125, 0.0810546875, 0.23046875
0.0478515625, 0.080078125, 0.212890625
0.0478515625, 0.0703125, 0.220703125
0.05078125, 0.0751953125, 0.220703125
0.052734375, 0.0869140625, 0.216796875
0.0498046875, 0.087890625, 0.2255859375
0.0517578125, 0.0927734375, 0.232421875
0.0498046875, 0.087890625, 0.23046875
0.0498046875, 0.08203125, 0.224609375
0.0537109375, 0.0810546875, 0.2158203125
0.0498046875, 0.0830078125, 0.21484375
0.05078125, 0.0849609375, 0.220703125
0.05078125, 0.0869140625, 0.2314453125
0.0439453125, 0.0908203125, 0.2421875
0.0458984375, 0.083984375, 0.248046875
0.04296875, 0.0712890625, 0.232421875
0.048828125, 0.0712890625, 0.228515625
0.0478515625, 0.0703125, 0.224609375
0.0478515625, 0.0703125, 0.2236328125
0.048828125, 0.083984375, 0.2216796875
0.046875, 0.0859375, 0.216796875
0.0458984375, 0.07421875, 0.22265625
0.046875, 0.0654296875, 0.2255859375
0.048828125, 0.0859375, 0.2236328125
0.0478515625, 0.083984375, 0.2294921875
0.048828125, 0.072265625, 0.2255859375
0.05078125, 0.07421875, 0.220703125
0.048828125, 0.083984375, 0.2197265625
0.044921875, 0.0771484375, 0.2275390625
0.052734375, 0.076171875, 0.23046875
0.05078125, 0.0810546875, 0.2255859375
0.0478515625, 0.0810546875, 0.2236328125
0.0458984375, 0.0751953125, 0.2333984375
0.0517578125, 0.0751953125, 0.2353515625
0.05078125, 0.080078125, 0.2314453125
0.048828125, 0.0703125, 0.2314453125
0.0478515625, 0.0751953125, 0.2275390625
0.0498046875, 0.0849609375, 0.2353515625
0.052734375, 0.0810546875, 0.22265625
0.046875, 0.0791015625, 0.220703125
0.046875, 0.0791015625, 0.2275390625
0.0478515625, 0.0888671875, 0.2265625
0.046875, 0.0830078125, 0.2314453125
0.0478515625, 0.08203125, 0.220703125
0.0478515625, 0.0751953125, 0.22265625
0.0498046875, 0.072265625, 0.2373046875
0.044921875, 0.083984375, 0.224609375
0.048828125, 0.0888671875, 0.2197265625
0.0478515625, 0.08203125, 0.2255859375
0.0478515625, 0.078125, 0.2333984375
0.05078125, 0.0751953125, 0.2314453125
0.048828125, 0.0703125, 0.2255859375
0.0498046875, 0.0791015625, 0.2294921875
0.0478515625, 0.0869140625, 0.23046875
0.0458984375, 0.0751953125, 0.2294921875
0.048828125, 0.07421875, 0.2275390625
0.0458984375, 0.07421875, 0.2353515625
0.0458984375, 0.0732421875, 0.2392578125
0.046875, 0.0771484375, 0.228515625
0.046875, 0.0888671875, 0.2177734375
0.05078125, 0.0859375, 0.2177734375
0.05078125, 0.080078125, 0.2216796875
0.048828125, 0.0703125, 0.2314453125
0.0458984375, 0.078125, 0.2373046875
0.046875, 0.0927734375, 0.232421875
0.05078125, 0.099609375, 0.2265625
0.05078125, 0.0986328125, 0.2255859375
0.0546875, 0.0888671875, 0.2314453125
0.0537109375, 0.0888671875, 0.23046875
0.0498046875, 0.0947265625, 0.228515625
0.0517578125, 0.1064453125, 0.224609375
0.0546875, 0.12109375, 0.228515625
0.052734375, 0.1416015625, 0.2255859375
0.0556640625, 0.146484375, 0.2275390625
0.0595703125, 0.138671875, 0.24609375
0.0625, 0.1484375, 0.2353515625
0.064453125, 0.1748046875, 0.20703125
0.0625, 0.1865234375, 0.173828125
0.0595703125, 0.20703125, 0.17578125
0.0537109375, 0.2255859375, 0.1845703125
0.048828125, 0.2421875, 0.21484375
0.0390625, 0.23046875, 0.228515625
0.017578125, 0.2353515625, 0.244140625
0.01171875, 0.25390625, 0.25
0.0087890625, 0.2685546875, 0.244140625
0.0, 0.2421875, 0.1982421875
-0.0185546875, 0.2041015625, 0.17578125
-0.03125, 0.123046875, 0.21484375
-0.0322265625, 0.0625, 0.2451171875
-0.0380859375, 0.076171875, 0.2138671875
-0.052734375, 0.1357421875, 0.1669921875
-0.068359375, 0.1328125, 0.1826171875
-0.0771484375, 0.07421875, 0.2138671875
-0.08984375, 0.0439453125, 0.2421875
-0.08984375, 0.015625, 0.234375
-0.08984375, -0.0341796875, 0.2099609375
-0.078125, -0.060546875, 0.21484375
-0.0751953125, -0.0654296875, 0.2333984375
-0.0732421875, -0.0576171875, 0.224609375
-0.0771484375, -0.0771484375, 0.2236328125
-0.0712890625, -0.1162109375, 0.2421875
-0.0673828125, -0.125, 0.2509765625
-0.0625, -0.1279296875, 0.2490234375
-0.123046875, -0.13671875, 0.25390625
-0.044921875, -0.2119140625, 0.1640625
-0.0625, -0.322265625, 0.2216796875
-0.052734375, -0.3330078125, 0.2900390625
-0.0576171875, -0.419921875, 0.3662109375
-0.072265625, -0.482421875, 0.3330078125
-0.076171875, -0.4443359375, 0.24609375
-0.095703125, -0.3740234375, 0.166015625
-0.119140625, -0.3291015625, 0.1875
-0.1474609375, -0.3271484375, 0.2275390625
-0.181640625, -0.322265625, 0.2646484375
-0.2119140625, -0.25, 0.2724609375
-0.24609375, -0.189453125, 0.236328125
-0.275390625, -0.1162109375, 0.216796875
-0.2880859375, -0.06640625, 0.3017578125
-0.287109375, 0.001953125, 0.4365234375
-0.2763671875, 0.1318359375, 0.4892578125
-0.2421875, 0.1796875, 0.3701171875
-0.212890625, 0.193359375, 0.3037109375
-0.1953125, 0.16796875, 0.34765625
-0.228515625, 0.2509765625, 0.54296875
-0.201171875, 0.3837890625, 0.5634765625
-0.2021484375, 0.5009765625, 0.435546875
-0.1884765625, 0.517578125, 0.2685546875
-0.1552734375, 0.5498046875, 0.25
-0.126953125, 0.5908203125, 0.26953125
-0.109375, 0.546875, 0.2138671875
-0.08984375, 0.51953125, 0.119140625
-0.0703125, 0.4375, 0.03125
-0.037109375, 0.287109375, 0.0419921875
-0.013671875, 0.216796875, 0.0341796875
0.0048828125, 0.2412109375, -0.0517578125
0.02734375, 0.2587890625, -0.12890625
0.0498046875, 0.24609375, -0.162109375
0.0634765625, 0.201171875, -0.107421875
0.068359375, 0.142578125, -0.0654296875
0.072265625, 0.1142578125, -0.0439453125
0.0673828125, 0.1328125, -0.046875
0.060546875, 0.13671875, -0.107421875
0.0517578125, 0.0693359375, -0.134765625
0.0458984375, 0.03515625, -0.0703125
0.033203125, 0.0419921875, -0.001953125
0.0234375, 0.107421875, 0.052734375
0.0068359375, 0.0771484375, 0.0322265625
0.0, 0.0380859375, 0.029296875
-0.0087890625, 0.03125, 0.0986328125
-0.0146484375, 0.0205078125, 0.146484375
-0.021484375, -0.0341796875, 0.16796875
-0.0146484375, -0.0712890625, 0.19921875
-0.021484375, -0.0732421875, 0.2001953125
-0.0341796875, -0.0576171875, 0.126953125
-0.05859375, -0.095703125, 0.140625
-0.0654296875, -0.1533203125, 0.2724609375
-0.0830078125, -0.2158203125, 0.3310546875
-0.08203125, -0.2021484375, 0.26953125
-0.095703125, -0.275390625, 0.294921875
-0.1015625, -0.314453125, 0.388671875
-0.1103515625, -0.35546875, 0.458984375
-0.1220703125, -0.408203125, 0.5078125
-0.1162109375, -0.443359375, 0.548828125
-0.1181640625, -0.3916015625, 0.47265625
-0.1298828125, -0.2587890625, 0.380859375
-0.15234375, -0.1552734375, 0.345703125
-0.16015625, -0.0771484375, 0.390625
-0.1591796875, -0.0068359375, 0.443359375
-0.154296875, 0.001953125, 0.423828125
-0.154296875, 0.0078125, 0.3291015625
-0.1494140625, 0.0419921875, 0.28515625
-0.142578125, 0.1025390625, 0.3134765625
-0.1396484375, 0.1298828125, 0.3173828125
-0.126953125, 0.1572265625, 0.287109375
-0.1220703125, 0.1982421875, 0.3095703125
-0.111328125, 0.2294921875, 0.3076171875
-0.08984375, 0.2314453125, 0.216796875
-0.0771484375, 0.1865234375, 0.11328125
-0.0654296875, 0.2705078125, 0.1494140625
-0.0478515625, 0.322265625, 0.1953125
-0.0224609375, 0.27734375, 0.1767578125
-0.0029296875, 0.2333984375, 0.1513671875
0.001953125, 0.2421875, 0.1337890625
0.0126953125, 0.2412109375, 0.171875
0.02734375, 0.20703125, 0.2119140625
0.03515625, 0.171875, 0.1904296875
0.037109375, 0.1474609375, 0.18359375
0.037109375, 0.130859375, 0.1806640625
0.0400390625, 0.109375, 0.18359375
0.044921875, 0.1279296875, 0.1748046875
0.0458984375, 0.1279296875, 0.1484375
0.041015625, 0.1123046875, 0.1494140625
0.0322265625, 0.064453125, 0.185546875
0.0322265625, 0.0341796875, 0.263671875
0.0322265625, 0.0595703125, 0.2724609375
0.0322265625, 0.1005859375, 0.2333984375
0.033203125, 0.103515625, 0.2080078125
0.0361328125, 0.068359375, 0.2216796875
0.033203125, 0.0458984375, 0.244140625
0.0341796875, 0.044921875, 0.2470703125
0.03515625, 0.0615234375, 0.2490234375
0.03515625, 0.05859375, 0.248046875
0.033203125, 0.056640625, 0.2275390625
0.033203125, 0.0751953125, 0.228515625
0.033203125, 0.068359375, 0.2431640625
0.0302734375, 0.0546875, 0.251953125
0.033203125, 0.060546875, 0.23828125
0.0302734375, 0.0771484375, 0.2158203125
0.029296875, 0.0771484375, 0.2177734375
0.0302734375, 0.0400390625, 0.2548828125
0.0322265625, 0.056640625, 0.251953125
0.03515625, 0.05859375, 0.2412109375
0.0341796875, 0.060546875, 0.2275390625
0.0322265625, 0.044921875, 0.2490234375
0.033203125, 0.044921875, 0.2578125
0.0302734375, 0.0673828125, 0.2509765625
0.03125, 0.072265625, 0.232421875
0.033203125, 0.0634765625, 0.2294921875
0.037109375, 0.06640625, 0.236328125
0.03515625, 0.072265625, 0.234375
0.033203125, 0.064453125, 0.2353515625
0.0361328125, 0.0625, 0.240234375
0.03515625, 0.0703125, 0.2177734375
0.0390625, 0.0673828125, 0.2158203125
0.041015625, 0.060546875, 0.22265625
0.041015625, 0.0654296875, 0.220703125
0.0361328125, 0.078125, 0.2236328125
0.0380859375, 0.068359375, 0.2314453125
0.0390625, 0.05859375, 0.240234375
0.0390625, 0.0537109375, 0.2412109375
0.0380859375, 0.068359375, 0.2392578125
0.041015625, 0.0771484375, 0.251953125
0.041015625, 0.0771484375, 0.2373046875
0.0390625, 0.072265625, 0.2060546875
0.0400390625, 0.0791015625, 0.203125
0.0380859375, 0.080078125, 0.21484375
0.0400390625, 0.0888671875, 0.2255859375
0.0390625, 0.0849609375, 0.21484375
0.0419921875, 0.0693359375, 0.2275390625
0.0400390625, 0.06640625, 0.2421875
0.0400390625, 0.072265625, 0.2431640625
0.0390625, 0.08984375, 0.2333984375
0.0390625, 0.087890625, 0.228515625
0.041015625, 0.0712890625, 0.24609375
0.0361328125, 0.0703125, 0.25
0.037109375, 0.083984375, 0.2294921875
0.0361328125, 0.0751953125, 0.244140625
0.041015625, 0.0751953125, 0.2431640625
0.0380859375, 0.0869140625, 0.2177734375
0.037109375, 0.064453125, 0.234375
0.0361328125, 0.0556640625, 0.25
0.0380859375, 0.078125, 0.2373046875
0.0400390625, 0.0771484375, 0.2294921875
0.0400390625, 0.0703125, 0.2177734375
0.0361328125, 0.0634765625, 0.2216796875
0.0458984375, 0.0615234375, 0.232421875
0.0390625, 0.0732421875, 0.22265625
0.037109375, 0.0712890625, 0.220703125
0.0419921875, 0.0703125, 0.2412109375
0.0439453125, 0.0830078125, 0.2490234375
0.0400390625, 0.0859375, 0.24609375
0.0390625, 0.0810546875, 0.224609375
0.037109375, 0.0810546875, 0.203125
0.04296875, 0.0908203125, 0.2109375
0.0419921875, 0.0830078125, 0.2158203125
0.0390625, 0.05859375, 0.234375
0.0400390625, 0.0419921875, 0.26171875
0.041015625, 0.0556640625, 0.259765625
0.0400390625, 0.072265625, 0.234375
0.0390625, 0.0751953125, 0.2236328125
0.0419921875, 0.064453125, 0.2392578125
0.0439453125, 0.060546875, 0.244140625
0.0390625, 0.0703125, 0.2275390625
0.0390625, 0.0791015625, 0.2158203125
0.0390625, 0.0751953125, 0.2294921875
0.0400390625, 0.06640625, 0.2470703125
0.0419921875, 0.08203125, 0.23046875
0.0400390625, 0.0888671875, 0.19921875
0.0390625, 0.0654296875, 0.2177734375
0.041015625, 0.0537109375, 0.248046875
0.0439453125, 0.0576171875, 0.244140625
0.0458984375, 0.0751953125, 0.2080078125
0.0439453125, 0.0703125, 0.2041015625
0.0439453125, 0.0439453125, 0.2421875
0.041015625, 0.0556640625, 0.2412109375
0.044921875, 0.0791015625, 0.2255859375
0.0439453125, 0.078125, 0.2265625
0.04296875, 0.0712890625, 0.2255859375
0.044921875, 0.080078125, 0.236328125
0.046875, 0.08984375, 0.23046875
0.044921875, 0.0888671875, 0.2421875
0.0419921875, 0.078125, 0.2451171875
0.0400390625, 0.076171875, 0.2470703125
0.041015625, 0.0849609375, 0.2333984375
0.0419921875, 0.0830078125, 0.2314453125
0.041015625, 0.07421875, 0.25
0.041015625, 0.078125, 0.244140625
0.044921875, 0.0849609375, 0.2099609375
0.04296875, 0.083984375, 0.1904296875
0.0400390625, 0.0625, 0.2158203125
0.0400390625, 0.0625, 0.2421875
0.0400390625, 0.0791015625, 0.234375
0.04296875, 0.080078125, 0.2197265625
0.04296875, 0.0693359375, 0.224609375
0.037109375, 0.0712890625, 0.2470703125
0.041015625, 0.0703125, 0.24609375
0.0419921875, 0.072265625, 0.203125
0.048828125, 0.0703125, 0.1943359375
0.0419921875, 0.0615234375, 0.236328125
0.0439453125, 0.056640625, 0.248046875
0.044921875, 0.0615234375, 0.2294921875
0.048828125, 0.0673828125, 0.2138671875
0.041015625, 0.0673828125, 0.2333984375
0.0400390625, 0.072265625, 0.24609375
0.037109375, 0.0810546875, 0.2373046875
0.0380859375, 0.0732421875, 0.2353515625
0.041015625, 0.060546875, 0.240234375
0.0390625, 0.0615234375, 0.2421875
0.0439453125, 0.06640625, 0.2294921875
0.0419921875, 0.0732421875, 0.220703125
0.0419921875, 0.0693359375, 0.2236328125
0.0390625, 0.0771484375, 0.22265625
0.0400390625, 0.068359375, 0.2421875
0.04296875, 0.0625, 0.240234375
0.04296875, 0.0771484375, 0.224609375
0.041015625, 0.072265625, 0.224609375
0.0400390625, 0.07421875, 0.22265625
0.041015625, 0.0693359375, 0.2275390625
0.041015625, 0.0693359375, 0.228515625
0.04296875, 0.0751953125, 0.2294921875
0.0419921875, 0.0732421875, 0.234375
0.04296875, 0.06640625, 0.234375
0.041015625, 0.0703125, 0.2265625
0.0439453125, 0.0712890625, 0.2265625
0.0400390625, 0.0673828125, 0.228515625
0.041015625, 0.0654296875, 0.25
0.041015625, 0.078125, 0.2490234375
0.0390625, 0.0810546875, 0.2373046875
0.0419921875, 0.0703125, 0.2353515625
0.0400390625, 0.0771484375, 0.2314453125
0.04296875, 0.0791015625, 0.2294921875
0.0380859375, 0.064453125, 0.2275390625
0.0400390625, 0.0673828125, 0.2412109375
0.041015625, 0.0771484375, 0.24609375
0.0419921875, 0.0673828125, 0.2431640625
0.0400390625, 0.0673828125, 0.2197265625
0.0380859375, 0.0751953125, 0.2255859375
0.0390625, 0.076171875, 0.236328125
0.0400390625, 0.07421875, 0.23046875
0.04296875, 0.06640625, 0.2119140625
0.0419921875, 0.0693359375, 0.2158203125
0.0390625, 0.064453125, 0.2373046875
0.0419921875, 0.0703125, 0.234375
0.041015625, 0.0673828125, 0.2314453125
0.041015625, 0.078125, 0.2236328125
0.041015625, 0.08203125, 0.232421875
0.0439453125, 0.0732421875, 0.2314453125
0.0439453125, 0.0693359375, 0.2255859375
0.0439453125, 0.0673828125, 0.2197265625
0.041015625, 0.0693359375, 0.2314453125
0.0400390625, 0.06640625, 0.2431640625
0.0419921875, 0.0791015625, 0.2373046875
0.04296875, 0.0791015625, 0.2373046875
0.0419921875, 0.0615234375, 0.2392578125
0.04296875, 0.064453125, 0.2255859375
0.0380859375, 0.0791015625, 0.22265625
0.04296875, 0.072265625, 0.2373046875
0.0419921875, 0.06640625, 0.2373046875
0.0419921875, 0.0771484375, 0.2216796875
0.046875, 0.080078125, 0.2216796875
0.041015625, 0.0634765625, 0.2333984375
0.0419921875, 0.064453125, 0.2373046875
0.0419921875, 0.0791015625, 0.224609375
0.044921875, 0.080078125, 0.2099609375
0.04296875, 0.0654296875, 0.2275390625
0.0439453125, 0.060546875, 0.24609375
0.04296875, 0.064453125, 0.23828125
0.041015625, 0.06640625, 0.232421875
0.0400390625, 0.0625, 0.240234375
0.0380859375, 0.0615234375, 0.2470703125
0.0390625, 0.0634765625, 0.23828125
0.0439453125, 0.07421875, 0.224609375
0.0419921875, 0.0712890625, 0.21484375
0.041015625, 0.0634765625, 0.228515625
0.037109375, 0.0625, 0.2451171875
0.0380859375, 0.0693359375, 0.248046875
0.041015625, 0.072265625, 0.2373046875
0.0400390625, 0.0634765625, 0.228515625
0.041015625, 0.0595703125, 0.2333984375
0.0400390625, 0.0615234375, 0.234375
0.0419921875, 0.0693359375, 0.224609375
0.0390625, 0.076171875, 0.21875
0.041015625, 0.0712890625, 0.236328125
0.0400390625, 0.0654296875, 0.2470703125
0.0400390625, 0.0732421875, 0.2392578125
0.041015625, 0.068359375, 0.2314453125
0.0400390625, 0.0693359375, 0.23046875
0.0361328125, 0.0810546875, 0.23828125
0.0419921875, 0.076171875, 0.2373046875
0.041015625, 0.0703125, 0.2255859375
0.04296875, 0.0732421875, 0.2314453125
0.0439453125, 0.0703125, 0.240234375
0.041015625, 0.0693359375, 0.2265625
0.037109375, 0.0751953125, 0.216796875
0.0400390625, 0.0654296875, 0.2353515625
0.041015625, 0.0732421875, 0.244140625
0.041015625, 0.0654296875, 0.2373046875
0.04296875, 0.068359375, 0.224609375
0.0380859375, 0.0732421875, 0.2294921875
0.037109375, 0.068359375, 0.2373046875
0.0390625, 0.06640625, 0.234375
0.041015625, 0.072265625, 0.236328125
0.0419921875, 0.06640625, 0.228515625
0.0390625, 0.0615234375, 0.2333984375
0.0400390625, 0.0673828125, 0.2314453125
0.0390625, 0.0673828125, 0.2314453125
0.0419921875, 0.0634765625, 0.23828125
0.0400390625, 0.0673828125, 0.236328125
0.041015625, 0.0693359375, 0.2373046875
0.0400390625, 0.0693359375, 0.2314453125
0.0400390625, 0.0693359375, 0.228515625
0.0400390625, 0.072265625, 0.2333984375
0.041015625, 0.07421875, 0.244140625
0.0400390625, 0.0732421875, 0.234375
0.0419921875, 0.0703125, 0.22265625
0.04296875, 0.0703125, 0.22265625
0.041015625, 0.0673828125, 0.23046875
0.0419921875, 0.076171875, 0.224609375
0.0400390625, 0.0771484375, 0.21875
0.0458984375, 0.07421875, 0.234375
0.044921875, 0.0693359375, 0.2451171875
0.0439453125, 0.0693359375, 0.2392578125
0.0419921875, 0.07421875, 0.224609375
0.0419921875, 0.0712890625, 0.228515625
0.041015625, 0.06640625, 0.234375
0.04296875, 0.0693359375, 0.2353515625
0.0439453125, 0.0732421875, 0.224609375
0.0390625, 0.072265625, 0.2255859375
0.0380859375, 0.0732421875, 0.2412109375
0.041015625, 0.072265625, 0.2490234375
0.041015625, 0.0693359375, 0.2392578125
0.0419921875, 0.0703125, 0.236328125
0.0390625, 0.0673828125, 0.2412109375
0.037109375, 0.0673828125, 0.2373046875
0.0400390625, 0.078125, 0.2314453125
0.0390625, 0.0771484375, 0.2333984375
0.0400390625, 0.0771484375, 0.2314453125
0.041015625, 0.0703125, 0.236328125
