0.013671875, 0.072265625, 0.240234375
0.015625, 0.0732421875, 0.2431640625
0.0146484375, 0.0810546875, 0.2333984375
0.0107421875, 0.0966796875, 0.232421875
0.015625, 0.080078125, 0.2314453125
0.015625, 0.0634765625, 0.2333984375
0.0146484375, 0.0595703125, 0.2412109375
0.0126953125, 0.076171875, 0.232421875
0.0126953125, 0.0869140625, 0.2353515625
0.0126953125, 0.0859375, 0.232421875
0.0126953125, 0.06640625, 0.23046875
0.01171875, 0.0634765625, 0.2275390625
0.0126953125, 0.083984375, 0.22265625
0.01171875, 0.095703125, 0.2333984375
0.01171875, 0.08203125, 0.2470703125
0.0126953125, 0.05859375, 0.2421875
0.013671875, 0.0595703125, 0.236328125
0.017578125, 0.07421875, 0.2294921875
0.017578125, 0.0712890625, 0.23828125
0.013671875, 0.0654296875, 0.2421875
0.0146484375, 0.06640625, 0.2392578125
0.013671875, 0.06640625, 0.232421875
0.0126953125, 0.07421875, 0.232421875
0.0166015625, 0.0654296875, 0.2294921875
0.015625, 0.0751953125, 0.2294921875
0.0126953125, 0.0791015625, 0.228515625
0.0146484375, 0.08203125, 0.234375
0.0107421875, 0.076171875, 0.240234375
0.013671875, 0.072265625, 0.232421875
0.013671875, 0.0732421875, 0.2333984375
0.01171875, 0.0791015625, 0.2314453125
0.0107421875, 0.0771484375, 0.234375
0.01171875, 0.0712890625, 0.2333984375
0.0126953125, 0.0634765625, 0.2392578125
0.0166015625, 0.0634765625, 0.2412109375
0.015625, 0.064453125, 0.2392578125
0.015625, 0.0673828125, 0.248046875
0.0166015625, 0.0693359375, 0.2451171875
0.013671875, 0.0791015625, 0.23828125
0.0166015625, 0.0869140625, 0.2294921875
0.015625, 0.0849609375, 0.2265625
0.0126953125, 0.083984375, 0.22265625
0.0126953125, 0.0751953125, 0.2216796875
0.01171875, 0.0849609375, 0.2265625
0.01171875, 0.095703125, 0.232421875
0.0068359375, 0.10546875, 0.2314453125
0.0087890625, 0.099609375, 0.232421875
0.01171875, 0.0888671875, 0.2421875
0.0107421875, 0.072265625, 0.2373046875
0.0146484375, 0.060546875, 0.234375
0.0166015625, 0.0576171875, 0.236328125
0.017578125, 0.0634765625, 0.234375
0.015625, 0.0712890625, 0.2373046875
0.017578125, 0.0712890625, 0.2353515625
0.0166015625, 0.0556640625, 0.2314453125
0.0146484375, 0.0625, 0.2294921875
0.0146484375, 0.0673828125, 0.2314453125
0.013671875, 0.0693359375, 0.2412109375
0.015625, 0.0654296875, 0.2421875
0.0126953125, 0.0732421875, 0.2373046875
0.0146484375, 0.07421875, 0.236328125
0.01171875, 0.072265625, 0.2412109375
0.0126953125, 0.068359375, 0.236328125
0.013671875, 0.06640625, 0.2255859375
0.01171875, 0.0654296875, 0.23046875
0.01171875, 0.078125, 0.23046875
0.009765625, 0.08984375, 0.23046875
0.013671875, 0.0888671875, 0.2373046875
0.0107421875, 0.087890625, 0.2333984375
0.0126953125, 0.0791015625, 0.2353515625
0.01171875, 0.07421875, 0.2333984375
0.0146484375, 0.0654296875, 0.2392578125
0.0126953125, 0.0693359375, 0.236328125
0.015625, 0.0771484375, 0.23828125
0.0126953125, 0.07421875, 0.232421875
0.013671875, 0.06640625, 0.23828125
0.0126953125, 0.072265625, 0.2353515625
0.013671875, 0.0771484375, 0.236328125
0.0078125, 0.07421875, 0.232421875
0.01171875, 0.0751953125, 0.228515625
0.0146484375, 0.076171875, 0.234375
0.013671875, 0.083984375, 0.232421875
0.013671875, 0.072265625, 0.2392578125
0.013671875, 0.064453125, 0.23046875
0.01171875, 0.0771484375, 0.2294921875
0.01171875, 0.078125, 0.2314453125
0.01171875, 0.0712890625, 0.23828125
0.017578125, 0.064453125, 0.240234375
0.015625, 0.0693359375, 0.2314453125
0.0146484375, 0.0703125, 0.232421875
0.0146484375, 0.0751953125, 0.232421875
0.0146484375, 0.0751953125, 0.23828125
0.0107421875, 0.076171875, 0.236328125
0.01171875, 0.0771484375, 0.232421875
0.013671875, 0.06640625, 0.2333984375
0.013671875, 0.0703125, 0.2353515625
0.013671875, 0.07421875, 0.2353515625
0.01171875, 0.0830078125, 0.236328125
0.013671875, 0.07421875, 0.23828125
0.0146484375, 0.068359375, 0.2373046875
0.0126953125, 0.0732421875, 0.2353515625
0.0107421875, 0.0751953125, 0.232421875
0.0146484375, 0.0712890625, 0.2294921875
0.0146484375, 0.07421875, 0.2353515625
0.013671875, 0.07421875, 0.2373046875
0.009765625, 0.07421875, 0.236328125
0.013671875, 0.078125, 0.236328125
0.0126953125, 0.076171875, 0.244140625
0.013671875, 0.0751953125, 0.2412109375
0.0146484375, 0.080078125, 0.25390625
0.0078125, 0.1171875, 0.26953125
0.005859375, 0.1259765625, 0.2861328125
0.0068359375, 0.1259765625, 0.2919921875
0.0068359375, 0.1318359375, 0.2822265625
0.0048828125, 0.1328125, 0.279296875
0.013671875, 0.12109375, 0.271484375
0.0146484375, 0.103515625, 0.2412109375
0.01171875, 0.0771484375, 0.193359375
0.005859375, 0.0791015625, 0.1669921875
0.017578125, 0.095703125, 0.17578125
0.021484375, 0.0732421875, 0.181640625
0.0302734375, 0.0361328125, 0.1630859375
0.033203125, 0.01953125, 0.1279296875
0.0380859375, 0.01953125, 0.0849609375
0.02734375, -0.0380859375, 0.01953125
0.00390625, -0.09765625, -0.0712890625
-0.015625, -0.185546875, -0.130859375
-0.0322265625, -0.0986328125, -0.12109375
-0.0908203125, 0.06640625, 0.0009765625
-0.130859375, 0.1474609375, 0.1689453125
-0.1220703125, 0.1455078125, 0.2744140625
-0.123046875, 0.0380859375, 0.2763671875
-0.134765625, -0.0439453125, 0.203125
-0.169921875, -0.0517578125, 0.1787109375
-0.2470703125, 0.0107421875, 0.2744140625
-0.3037109375, 0.1484375, 0.556640625
-0.279296875, 0.21875, 0.8330078125
-0.25390625, 0.0654296875, 0.91796875
-0.25, -0.1396484375, 0.8583984375
-0.248046875, -0.091796875, 0.8662109375
-0.2568359375, 0.12890625, 0.9296875
-0.3056640625, 0.2373046875, 0.8857421875
-0.37890625, 0.0771484375, 0.72265625
-0.4248046875, -0.0634765625, 0.4951171875
-0.4052734375, -0.015625, 0.3505859375
-0.384765625, 0.1484375, 0.3408203125
-0.38671875, 0.240234375, 0.306640625
-0.40625, 0.134765625, 0.205078125
-0.3955078125, -0.09765625, 0.0625
-0.3359375, -0.1318359375, -0.078125
-0.2265625, -0.09375, -0.208984375
-0.134765625, -0.060546875, -0.2548828125
-0.103515625, -0.015625, -0.291015625
-0.0517578125, -0.072265625, -0.32421875
-0.0166015625, -0.123046875, -0.3720703125
0.009765625, -0.1201171875, -0.3984375
0.0126953125, -0.0224609375, -0.435546875
-0.0341796875, 0.0732421875, -0.4345703125
-0.0908203125, 0.158203125, -0.4365234375
-0.1376953125, 0.2451171875, -0.3671875
-0.236328125, 0.296875, -0.08203125
-0.30859375, 0.373046875, 0.1767578125
-0.3134765625, 0.4453125, 0.361328125
-0.2939453125, 0.494140625, 0.4833984375
-0.275390625, 0.5185546875, 0.5458984375
-0.259765625, 0.4658203125, 0.6435546875
-0.2822265625, 0.2216796875, 0.646484375
-0.265625, -0.1396484375, 0.56640625
-0.16796875, -0.3681640625, 0.56640625
-0.12109375, -0.4501953125, 0.546875
-0.06640625, -0.353515625, 0.5
-0.08203125, -0.16796875, 0.466796875
-0.0576171875, 0.0205078125, 0.4775390625
-0.0595703125, 0.0087890625, 0.453125
-0.078125, -0.064453125, 0.5107421875
-0.07421875, -0.236328125, 0.4619140625
-0.0966796875, -0.3662109375, 0.3974609375
-0.142578125, -0.388671875, 0.3720703125
-0.1796875, -0.330078125, 0.3125
-0.216796875, -0.19140625, 0.2783203125
-0.25, -0.0615234375, 0.29296875
-0.2705078125, 0.0400390625, 0.2802734375
-0.2919921875, 0.126953125, 0.2373046875
-0.294921875, 0.228515625, 0.1826171875
-0.2607421875, 0.39453125, 0.1455078125
-0.2373046875, 0.5244140625, 0.0888671875
-0.16796875, 0.5478515625, -0.0185546875
-0.0625, 0.4599609375, -0.0537109375
-0.0166015625, 0.3662109375, -0.0107421875
-0.017578125, 0.2373046875, 0.1220703125
-0.0107421875, 0.19140625, 0.1904296875
0.0, 0.197265625, 0.2177734375
0.0087890625, 0.1904296875, 0.2216796875
0.017578125, 0.1767578125, 0.22265625
0.0185546875, 0.1630859375, 0.228515625
0.0244140625, 0.1513671875, 0.236328125
0.0283203125, 0.1171875, 0.2275390625
0.0341796875, 0.0859375, 0.2236328125
0.03515625, 0.0703125, 0.2158203125
0.029296875, 0.08203125, 0.2001953125
0.0302734375, 0.0966796875, 0.1953125
0.0263671875, 0.0947265625, 0.2216796875
0.0244140625, 0.064453125, 0.244140625
0.0126953125, 0.04296875, 0.24609375
0.015625, 0.044921875, 0.236328125
0.0205078125, 0.076171875, 0.23046875
0.0244140625, 0.072265625, 0.2314453125
0.0283203125, 0.0751953125, 0.240234375
0.03125, 0.0888671875, 0.24609375
0.03515625, 0.0673828125, 0.2412109375
0.03125, 0.044921875, 0.248046875
0.0302734375, 0.0498046875, 0.2509765625
0.0244140625, 0.0859375, 0.248046875
0.0185546875, 0.115234375, 0.2568359375
0.017578125, 0.0908203125, 0.251953125
0.0234375, 0.0615234375, 0.248046875
0.0234375, 0.0419921875, 0.234375
0.0283203125, 0.0302734375, 0.212890625
0.0302734375, 0.0380859375, 0.2001953125
0.0361328125, 0.0634765625, 0.208984375
0.0380859375, 0.080078125, 0.2333984375
0.0380859375, 0.0791015625, 0.2509765625
0.033203125, 0.076171875, 0.2421875
0.03125, 0.07421875, 0.2412109375
0.03125, 0.0693359375, 0.240234375
0.025390625, 0.072265625, 0.240234375
0.0283203125, 0.0673828125, 0.232421875
0.029296875, 0.06640625, 0.2294921875
0.02734375, 0.0703125, 0.224609375
0.0283203125, 0.076171875, 0.220703125
0.02734375, 0.0634765625, 0.2275390625
0.0263671875, 0.0634765625, 0.220703125
0.0322265625, 0.060546875, 0.21875
0.03125, 0.06640625, 0.234375
0.033203125, 0.0634765625, 0.2568359375
0.0263671875, 0.0673828125, 0.2626953125
0.0302734375, 0.064453125, 0.2646484375
0.025390625, 0.0556640625, 0.2646484375
0.025390625, 0.05859375, 0.25390625
0.0244140625, 0.0673828125, 0.228515625
0.0283203125, 0.064453125, 0.212890625
0.025390625, 0.0625, 0.22265625
0.025390625, 0.0712890625, 0.236328125
0.02734375, 0.080078125, 0.23828125
0.0263671875, 0.0791015625, 0.232421875
0.02734375, 0.07421875, 0.2255859375
0.0283203125, 0.0673828125, 0.2333984375
0.029296875, 0.0625, 0.240234375
0.025390625, 0.0751953125, 0.244140625
0.0224609375, 0.078125, 0.2353515625
0.0283203125, 0.0849609375, 0.224609375
0.0263671875, 0.0693359375, 0.2275390625
0.025390625, 0.0654296875, 0.2294921875
0.02734375, 0.083984375, 0.2451171875
0.0234375, 0.0830078125, 0.2421875
0.0263671875, 0.0703125, 0.232421875
0.029296875, 0.068359375, 0.232421875
0.0244140625, 0.0712890625, 0.2353515625
0.0244140625, 0.0791015625, 0.2314453125
0.0244140625, 0.0751953125, 0.23046875
0.025390625, 0.0810546875, 0.2255859375
0.02734375, 0.068359375, 0.23046875
0.0263671875, 0.0732421875, 0.2255859375
0.02734375, 0.0849609375, 0.2333984375
0.0263671875, 0.0712890625, 0.2490234375
0.0244140625, 0.068359375, 0.2412109375
0.0244140625, 0.0654296875, 0.236328125
0.021484375, 0.07421875, 0.232421875
0.025390625, 0.0673828125, 0.234375
0.0234375, 0.060546875, 0.2353515625
0.0244140625, 0.06640625, 0.23046875
0.0234375, 0.0771484375, 0.232421875
0.02734375, 0.07421875, 0.2314453125
0.029296875, 0.060546875, 0.2392578125
0.02734375, 0.060546875, 0.2412109375
0.0244140625, 0.0615234375, 0.2412109375
0.025390625, 0.0556640625, 0.2412109375
0.0283203125, 0.060546875, 0.240234375
0.0263671875, 0.0712890625, 0.2373046875
0.0244140625, 0.0849609375, 0.2314453125
0.0224609375, 0.087890625, 0.2294921875
0.021484375, 0.0908203125, 0.2294921875
0.017578125, 0.0888671875, 0.2333984375
0.0205078125, 0.087890625, 0.2255859375
0.021484375, 0.0869140625, 0.224609375
0.0244140625, 0.076171875, 0.23046875
0.0234375, 0.0703125, 0.2392578125
0.0263671875, 0.0693359375, 0.23828125
0.025390625, 0.0703125, 0.2373046875
0.0244140625, 0.0634765625, 0.234375
0.0244140625, 0.0625, 0.23828125
0.025390625, 0.0615234375, 0.2373046875
0.0244140625, 0.0751953125, 0.228515625
0.0244140625, 0.076171875, 0.21875
0.0244140625, 0.068359375, 0.2197265625
0.02734375, 0.0771484375, 0.2333984375
0.0263671875, 0.0947265625, 0.244140625
0.0244140625, 0.083984375, 0.24609375
0.0224609375, 0.0615234375, 0.2421875
0.021484375, 0.048828125, 0.234375
0.0244140625, 0.0615234375, 0.2236328125
0.0224609375, 0.0615234375, 0.21875
0.0244140625, 0.0556640625, 0.21875
0.025390625, 0.0634765625, 0.2158203125
0.0224609375, 0.07421875, 0.2255859375
0.0224609375, 0.08984375, 0.2431640625
0.021484375, 0.095703125, 0.2548828125
0.0205078125, 0.078125, 0.25
0.0224609375, 0.0751953125, 0.2353515625
0.0205078125, 0.0693359375, 0.2353515625
0.0224609375, 0.0595703125, 0.2470703125
0.021484375, 0.05859375, 0.2509765625
0.025390625, 0.0654296875, 0.2451171875
0.0205078125, 0.078125, 0.2236328125
0.021484375, 0.076171875, 0.224609375
0.0185546875, 0.07421875, 0.2314453125
0.0185546875, 0.07421875, 0.2294921875
0.017578125, 0.0673828125, 0.2216796875
0.017578125, 0.0693359375, 0.216796875
0.021484375, 0.095703125, 0.224609375
0.0224609375, 0.1025390625, 0.23828125
0.0244140625, 0.0830078125, 0.2431640625
0.0224609375, 0.0625, 0.2451171875
0.017578125, 0.0634765625, 0.2431640625
0.021484375, 0.0712890625, 0.234375
0.017578125, 0.0751953125, 0.23828125
0.01953125, 0.0771484375, 0.2412109375
0.021484375, 0.0693359375, 0.240234375
0.0224609375, 0.072265625, 0.234375
0.01953125, 0.0712890625, 0.2333984375
0.0205078125, 0.072265625, 0.2275390625
0.0205078125, 0.0810546875, 0.23046875
0.01953125, 0.076171875, 0.2333984375
0.0185546875, 0.07421875, 0.2265625
0.0185546875, 0.0791015625, 0.23046875
0.01953125, 0.078125, 0.23046875
0.0224609375, 0.07421875, 0.2412109375
0.017578125, 0.0712890625, 0.2392578125
0.017578125, 0.0859375, 0.2294921875
0.017578125, 0.0888671875, 0.2294921875
0.021484375, 0.05859375, 0.240234375
0.0234375, 0.0576171875, 0.2412109375
0.0205078125, 0.0771484375, 0.2392578125
0.0205078125, 0.0908203125, 0.23828125
0.0166015625, 0.0791015625, 0.2294921875
0.01953125, 0.0625, 0.2255859375
0.021484375, 0.068359375, 0.2255859375
0.0205078125, 0.0810546875, 0.22265625
0.01953125, 0.072265625, 0.2216796875
0.0224609375, 0.0654296875, 0.2275390625
0.017578125, 0.08203125, 0.2265625
0.017578125, 0.08984375, 0.236328125
0.01953125, 0.0869140625, 0.2529296875
0.0205078125, 0.072265625, 0.2568359375
0.0205078125, 0.0693359375, 0.2373046875
0.0205078125, 0.076171875, 0.2216796875
0.0224609375, 0.076171875, 0.2138671875
0.0185546875, 0.0693359375, 0.232421875
0.0185546875, 0.06640625, 0.2421875
0.0166015625, 0.0732421875, 0.2451171875
0.017578125, 0.08203125, 0.236328125
0.0185546875, 0.0732421875, 0.232421875
0.01953125, 0.0751953125, 0.2294921875
0.01953125, 0.0673828125, 0.2392578125
0.0205078125, 0.0673828125, 0.2373046875
0.0185546875, 0.0732421875, 0.2314453125
0.01953125, 0.07421875, 0.2294921875
0.0185546875, 0.0849609375, 0.2265625
0.0205078125, 0.0810546875, 0.2392578125
0.01953125, 0.0595703125, 0.23828125
0.015625, 0.072265625, 0.228515625
0.021484375, 0.0859375, 0.2265625
0.015625, 0.091796875, 0.2275390625
0.0205078125, 0.0908203125, 0.2265625
0.0205078125, 0.068359375, 0.2373046875
0.021484375, 0.0654296875, 0.2353515625
0.021484375, 0.0751953125, 0.2392578125
0.017578125, 0.091796875, 0.23046875
0.0205078125, 0.08984375, 0.2294921875
0.01953125, 0.0703125, 0.2275390625
0.0224609375, 0.0615234375, 0.232421875
0.0205078125, 0.0771484375, 0.232421875
0.021484375, 0.0869140625, 0.236328125
0.0205078125, 0.080078125, 0.2353515625
0.021484375, 0.0703125, 0.2314453125
0.017578125, 0.0791015625, 0.2294921875
0.0205078125, 0.080078125, 0.232421875
0.0166015625, 0.068359375, 0.2314453125
0.0205078125, 0.0634765625, 0.236328125
0.021484375, 0.060546875, 0.240234375
0.021484375, 0.0732421875, 0.244140625
0.01953125, 0.0830078125, 0.236328125
0.0185546875, 0.076171875, 0.240234375
0.0234375, 0.0693359375, 0.2353515625
0.021484375, 0.0703125, 0.2373046875
0.021484375, 0.080078125, 0.2294921875
0.021484375, 0.0849609375, 0.2275390625
0.0185546875, 0.083984375, 0.220703125
0.0185546875, 0.087890625, 0.2236328125
0.01953125, 0.0849609375, 0.2314453125
0.021484375, 0.0634765625, 0.2373046875
0.0185546875, 0.0615234375, 0.2333984375
0.0205078125, 0.0771484375, 0.234375
0.017578125, 0.0966796875, 0.2353515625
0.0166015625, 0.0908203125, 0.236328125
0.021484375, 0.0595703125, 0.240234375
0.0205078125, 0.0478515625, 0.2373046875
0.0185546875, 0.064453125, 0.2353515625
0.021484375, 0.0849609375, 0.2353515625
0.0224609375, 0.0791015625, 0.2353515625
0.0234375, 0.0625, 0.2373046875
0.0224609375, 0.056640625, 0.2373046875
0.01953125, 0.0712890625, 0.234375
0.0185546875, 0.076171875, 0.236328125
0.0185546875, 0.07421875, 0.2373046875
0.0185546875, 0.076171875, 0.236328125
0.01953125, 0.080078125, 0.232421875
0.01953125, 0.080078125, 0.2275390625
0.017578125, 0.0712890625, 0.2294921875
0.017578125, 0.0576171875, 0.234375
0.0185546875, 0.0576171875, 0.2353515625
0.0205078125, 0.0732421875, 0.23828125
0.0205078125, 0.076171875, 0.240234375
0.0224609375, 0.0615234375, 0.2509765625
0.0166015625, 0.068359375, 0.2353515625
0.01953125, 0.080078125, 0.2275390625
0.017578125, 0.0810546875, 0.22265625
0.0224609375, 0.0751953125, 0.2275390625
0.021484375, 0.0673828125, 0.2373046875
0.0185546875, 0.0712890625, 0.234375
0.01953125, 0.087890625, 0.2314453125
0.01953125, 0.0771484375, 0.232421875
0.01953125, 0.076171875, 0.2353515625
0.021484375, 0.0634765625, 0.234375
0.021484375, 0.0703125, 0.2275390625
0.01953125, 0.0771484375, 0.232421875
0.0185546875, 0.078125, 0.232421875
0.0205078125, 0.0712890625, 0.2373046875
0.0205078125, 0.0615234375, 0.23828125
0.017578125, 0.0693359375, 0.23828125
0.017578125, 0.078125, 0.232421875
0.0185546875, 0.0732421875, 0.2314453125
0.01953125, 0.0654296875, 0.236328125
0.01953125, 0.0693359375, 0.232421875
0.01953125, 0.0771484375, 0.2353515625
0.01953125, 0.078125, 0.234375
0.0224609375, 0.0703125, 0.236328125
0.0205078125, 0.0712890625, 0.232421875
0.0146484375, 0.080078125, 0.234375
0.01953125, 0.08984375, 0.236328125
