-0.005859375, 0.0068359375, 0.25
-0.0029296875, 0.0087890625, 0.2451171875
-0.0068359375, 0.0087890625, 0.2451171875
-0.0068359375, 0.005859375, 0.251953125
-0.005859375, 0.00390625, 0.2431640625
-0.0048828125, 0.0048828125, 0.2451171875
-0.0078125, 0.0, 0.2490234375
-0.0078125, 0.0009765625, 0.25
-0.0068359375, 0.0078125, 0.2509765625
-0.0087890625, 0.0, 0.2412109375
-0.0029296875, 0.0, 0.2470703125
-0.0078125, 0.0048828125, 0.248046875
-0.0087890625, 0.0, 0.24609375
-0.0048828125, -0.001953125, 0.2421875
-0.0029296875, 0.0009765625, 0.2529296875
-0.0048828125, 0.00390625, 0.2490234375
-0.001953125, 0.00390625, 0.2412109375
-0.0068359375, 0.0, 0.244140625
-0.005859375, 0.00390625, 0.2431640625
-0.0068359375, 0.0029296875, 0.2578125
-0.0068359375, 0.00390625, 0.2490234375
-0.009765625, 0.0068359375, 0.2509765625
-0.0078125, 0.009765625, 0.24609375
-0.0048828125, 0.00390625, 0.240234375
-0.001953125, 0.009765625, 0.240234375
-0.0009765625, 0.001953125, 0.2451171875
-0.0029296875, 0.0, 0.2451171875
0.0, 0.005859375, 0.24609375
-0.0009765625, 0.0087890625, 0.2421875
-0.0048828125, 0.0009765625, 0.25
-0.0048828125, 0.0, 0.2548828125
-0.00390625, 0.0068359375, 0.2470703125
-0.0048828125, 0.013671875, 0.25
-0.00390625, 0.01171875, 0.2509765625
-0.00390625, 0.0087890625, 0.2451171875
-0.0048828125, 0.0068359375, 0.2392578125
-0.005859375, 0.001953125, 0.2421875
-0.0048828125, 0.005859375, 0.25390625
-0.005859375, 0.0029296875, 0.2509765625
-0.005859375, 0.00390625, 0.244140625
-0.005859375, 0.0, 0.2470703125
-0.005859375, 0.009765625, 0.23828125
-0.00390625, 0.0078125, 0.248046875
-0.00390625, 0.0, 0.25
-0.005859375, 0.0107421875, 0.25
-0.0068359375, 0.0087890625, 0.25
-0.001953125, 0.0048828125, 0.25
-0.00390625, 0.0, 0.251953125
-0.005859375, 0.0068359375, 0.2529296875
-0.0068359375, 0.0107421875, 0.2548828125
-0.0029296875, 0.0029296875, 0.24609375
-0.005859375, 0.0029296875, 0.2431640625
-0.00390625, 0.009765625, 0.24609375
-0.0009765625, 0.005859375, 0.24609375
-0.005859375, 0.0009765625, 0.2451171875
-0.0068359375, 0.0078125, 0.24609375
-0.00390625, 0.0009765625, 0.248046875
-0.0068359375, 0.0, 0.25390625
-0.0087890625, 0.001953125, 0.244140625
-0.0009765625, 0.0068359375, 0.2431640625
0.0, 0.0048828125, 0.2490234375
-0.001953125, 0.0009765625, 0.244140625
-0.00390625, -0.001953125, 0.2509765625
-0.005859375, 0.0029296875, 0.2509765625
-0.00390625, 0.00390625, 0.2470703125
-0.001953125, 0.0068359375, 0.24609375
-0.0029296875, 0.0087890625, 0.244140625
-0.0048828125, 0.009765625, 0.24609375
-0.0009765625, 0.0087890625, 0.2421875
-0.0029296875, 0.0, 0.25
-0.0048828125, 0.0048828125, 0.25
-0.0009765625, 0.0029296875, 0.25390625
-0.005859375, 0.0087890625, 0.251953125
-0.0068359375, 0.0048828125, 0.24609375
-0.0087890625, 0.00390625, 0.2421875
-0.001953125, 0.0009765625, 0.2412109375
-0.001953125, 0.0009765625, 0.2490234375
-0.005859375, 0.0029296875, 0.248046875
-0.005859375, 0.00390625, 0.248046875
-0.005859375, 0.005859375, 0.24609375
-0.00390625, 0.0009765625, 0.2548828125
-0.001953125, 0.001953125, 0.2529296875
-0.00390625, 0.0048828125, 0.24609375
-0.0029296875, 0.001953125, 0.2490234375
-0.00390625, 0.0, 0.2529296875
-0.00390625, 0.0048828125, 0.24609375
-0.0048828125, 0.013671875, 0.2421875
-0.0048828125, 0.005859375, 0.2470703125
-0.00390625, 0.0009765625, 0.248046875
-0.001953125, 0.0009765625, 0.25
-0.0068359375, 0.0009765625, 0.248046875
-0.0048828125, 0.0009765625, 0.251953125
-0.0068359375, -0.0009765625, 0.251953125
-0.0029296875, 0.0029296875, 0.248046875
-0.0048828125, 0.00390625, 0.248046875
-0.0029296875, -0.0009765625, 0.25
-0.0029296875, 0.0, 0.25390625
-0.00390625, -0.001953125, 0.25390625
-0.0009765625, 0.0029296875, 0.25
-0.0029296875, 0.013671875, 0.2529296875
-0.0029296875, 0.0302734375, 0.2744140625
-0.0029296875, 0.01171875, 0.302734375
0.00390625, -0.033203125, 0.3193359375
0.03125, -0.0693359375, 0.341796875
0.0517578125, -0.0224609375, 0.3564453125
0.0458984375, 0.0390625, 0.2998046875
0.0361328125, 0.046875, 0.2490234375
0.033203125, 0.048828125, 0.26953125
0.0302734375, 0.07421875, 0.3115234375
0.033203125, 0.091796875, 0.3173828125
0.0439453125, 0.0546875, 0.30078125
0.044921875, 0.0224609375, 0.318359375
0.0380859375, 0.0947265625, 0.2890625
0.0322265625, 0.162109375, 0.3154296875
0.0263671875, 0.1416015625, 0.2578125
0.0283203125, 0.0595703125, 0.1845703125
0.033203125, -0.0107421875, 0.1806640625
0.0302734375, -0.015625, 0.2216796875
0.0234375, 0.0615234375, 0.2451171875
0.0166015625, 0.109375, 0.2490234375
0.0087890625, 0.09375, 0.2158203125
0.0009765625, 0.1044921875, 0.1904296875
0.0009765625, 0.08984375, 0.193359375
0.001953125, 0.0439453125, 0.2158203125
0.001953125, 0.0029296875, 0.2265625
0.0087890625, 0.009765625, 0.2138671875
0.00390625, 0.0693359375, 0.193359375
-0.0009765625, 0.0859375, 0.1748046875
-0.0009765625, 0.0126953125, 0.1787109375
0.00390625, -0.099609375, 0.1787109375
0.0146484375, -0.13671875, 0.1455078125
0.0166015625, -0.068359375, 0.1484375
0.015625, -0.080078125, 0.1884765625
0.0263671875, -0.1630859375, 0.2138671875
0.0341796875, -0.197265625, 0.23046875
0.041015625, -0.158203125, 0.21484375
0.044921875, -0.1142578125, 0.2119140625
0.0458984375, -0.119140625, 0.212890625
0.0478515625, -0.125, 0.212890625
0.041015625, -0.197265625, 0.234375
0.0458984375, -0.39453125, 0.2431640625
0.041015625, -0.5166015625, 0.220703125
0.033203125, -0.4931640625, 0.19921875
0.0224609375, -0.3837890625, 0.189453125
0.013671875, -0.3876953125, 0.1796875
0.0009765625, -0.412109375, 0.185546875
-0.0263671875, -0.3955078125, 0.1884765625
-0.0654296875, -0.3388671875, 0.134765625
-0.09375, -0.15625, 0.150390625
-0.103515625, 0.0263671875, 0.1650390625
-0.095703125, 0.125, 0.171875
-0.0771484375, 0.1962890625, 0.1533203125
-0.056640625, 0.22265625, 0.1640625
-0.0380859375, 0.291015625, 0.173828125
-0.029296875, 0.37109375, 0.16015625
-0.0078125, 0.4541015625, 0.1240234375
0.00390625, 0.52734375, 0.095703125
0.02734375, 0.5205078125, 0.068359375
0.0361328125, 0.5244140625, 0.0498046875
0.0322265625, 0.5, 0.0107421875
0.01171875, 0.41015625, -0.0205078125
0.0048828125, 0.3359375, -0.017578125
0.001953125, 0.3203125, 0.029296875
-0.013671875, 0.3056640625, 0.1611328125
-0.0263671875, 0.275390625, 0.2392578125
-0.048828125, 0.2802734375, 0.2197265625
-0.0703125, -0.0048828125, 0.3095703125
-0.0615234375, -0.3056640625, 0.4638671875
-0.0205078125, -0.265625, 0.5576171875
-0.0234375, -0.15234375, 0.5537109375
-0.0234375, -0.2236328125, 0.4169921875
-0.025390625, -0.30078125, 0.3037109375
-0.0068359375, -0.2978515625, 0.1953125
0.0029296875, -0.2109375, 0.1396484375
0.0048828125, -0.162109375, 0.09765625
0.0048828125, -0.2158203125, 0.0615234375
0.0029296875, -0.2783203125, 0.0458984375
0.00390625, -0.322265625, -0.005859375
0.0029296875, -0.28125, -0.0390625
-0.005859375, -0.2626953125, -0.0546875
-0.0126953125, -0.224609375, -0.083984375
-0.0234375, -0.1982421875, -0.1103515625
-0.0576171875, -0.267578125, -0.138671875
-0.107421875, -0.2822265625, -0.1455078125
-0.162109375, -0.1572265625, -0.0234375
-0.2001953125, 0.0, 0.330078125
-0.181640625, 0.1533203125, 0.6533203125
-0.138671875, 0.16015625, 0.6455078125
-0.12109375, 0.1181640625, 0.556640625
-0.095703125, 0.138671875, 0.57421875
-0.0673828125, 0.146484375, 0.5341796875
-0.0478515625, 0.142578125, 0.4619140625
-0.04296875, 0.16015625, 0.46875
-0.04296875, 0.0869140625, 0.421875
-0.0419921875, 0.0244140625, 0.36328125
-0.0361328125, 0.03515625, 0.3291015625
-0.0361328125, 0.076171875, 0.310546875
-0.0400390625, 0.0498046875, 0.2939453125
-0.0439453125, 0.0029296875, 0.3017578125
-0.0458984375, -0.0234375, 0.2841796875
-0.0478515625, -0.0146484375, 0.2568359375
-0.048828125, -0.0078125, 0.2333984375
-0.0498046875, -0.0244140625, 0.2197265625
-0.0458984375, -0.0263671875, 0.220703125
-0.0478515625, -0.0439453125, 0.220703125
-0.0458984375, -0.0517578125, 0.220703125
-0.044921875, -0.0185546875, 0.203125
-0.044921875, -0.0029296875, 0.2119140625
-0.04296875, -0.037109375, 0.2275390625
-0.0380859375, -0.0634765625, 0.2412109375
-0.03515625, -0.0400390625, 0.26171875
-0.0341796875, 0.0009765625, 0.25390625
-0.0380859375, 0.0009765625, 0.216796875
-0.0322265625, -0.0048828125, 0.2138671875
-0.0263671875, 0.0146484375, 0.2333984375
-0.0234375, 0.0068359375, 0.2490234375
-0.0205078125, -0.0458984375, 0.2587890625
-0.0185546875, -0.041015625, 0.255859375
-0.01953125, 0.0009765625, 0.2294921875
-0.01953125, -0.0078125, 0.2255859375
-0.0166015625, -0.0185546875, 0.251953125
-0.015625, -0.0009765625, 0.255859375
-0.021484375, 0.0263671875, 0.2470703125
-0.0224609375, 0.0029296875, 0.2470703125
-0.0185546875, -0.0205078125, 0.2568359375
-0.0166015625, -0.001953125, 0.26953125
-0.0166015625, 0.001953125, 0.24609375
-0.0146484375, -0.0009765625, 0.2177734375
-0.015625, -0.009765625, 0.2294921875
-0.0107421875, -0.0322265625, 0.24609375
-0.0078125, -0.0322265625, 0.2421875
-0.005859375, -0.0087890625, 0.2490234375
-0.0078125, 0.0029296875, 0.234375
-0.0087890625, -0.0078125, 0.2333984375
-0.00390625, -0.025390625, 0.2470703125
-0.0048828125, -0.0185546875, 0.2509765625
-0.0068359375, -0.01171875, 0.240234375
-0.0048828125, 0.01171875, 0.2197265625
-0.0048828125, 0.017578125, 0.228515625
-0.005859375, 0.0068359375, 0.2431640625
-0.0029296875, -0.017578125, 0.25
-0.005859375, -0.0126953125, 0.2392578125
-0.0029296875, 0.0087890625, 0.236328125
-0.0068359375, 0.0185546875, 0.255859375
-0.0048828125, 0.009765625, 0.2529296875
-0.001953125, 0.009765625, 0.240234375
0.0, 0.0166015625, 0.23828125
0.0, 0.0166015625, 0.240234375
0.0009765625, 0.001953125, 0.26953125
-0.001953125, -0.01171875, 0.2900390625
-0.0029296875, -0.0263671875, 0.27734375
-0.0068359375, -0.005859375, 0.2646484375
-0.01171875, 0.0107421875, 0.2353515625
-0.00390625, 0.0078125, 0.2216796875
-0.00390625, -0.0126953125, 0.2314453125
-0.0029296875, -0.0068359375, 0.2392578125
-0.001953125, -0.00390625, 0.248046875
0.0, 0.0, 0.2470703125
0.0, -0.0107421875, 0.236328125
0.00390625, -0.0087890625, 0.22265625
0.001953125, 0.0, 0.224609375
0.001953125, 0.0009765625, 0.25390625
0.0009765625, 0.0, 0.2548828125
0.0009765625, 0.0078125, 0.2451171875
0.0, 0.0224609375, 0.2451171875
0.0, 0.0205078125, 0.2236328125
0.0009765625, 0.0009765625, 0.2314453125
0.0029296875, -0.0185546875, 0.2548828125
0.00390625, -0.001953125, 0.2587890625
0.0029296875, 0.015625, 0.267578125
0.0029296875, 0.0048828125, 0.2509765625
0.0009765625, -0.01171875, 0.2265625
0.0029296875, -0.0068359375, 0.2392578125
0.0029296875, 0.0, 0.26171875
0.0, 0.0078125, 0.255859375
-0.0009765625, 0.015625, 0.2568359375
0.0, 0.0048828125, 0.251953125
0.0, -0.0087890625, 0.240234375
0.0009765625, -0.01171875, 0.2392578125
0.0, -0.0146484375, 0.24609375
0.0, -0.0146484375, 0.234375
0.001953125, -0.0009765625, 0.251953125
0.001953125, 0.0, 0.2412109375
0.0068359375, -0.0185546875, 0.2392578125
0.00390625, -0.0224609375, 0.240234375
0.0048828125, -0.01171875, 0.2509765625
0.0048828125, -0.015625, 0.255859375
0.0029296875, 0.009765625, 0.2490234375
0.001953125, 0.0048828125, 0.25
0.0009765625, -0.013671875, 0.25
0.0009765625, -0.0029296875, 0.2470703125
0.0009765625, 0.001953125, 0.2490234375
0.0009765625, -0.0068359375, 0.2587890625
0.001953125, -0.0009765625, 0.25
0.0009765625, -0.00390625, 0.2470703125
0.0009765625, -0.0009765625, 0.2314453125
0.001953125, -0.0009765625, 0.2431640625
0.0009765625, 0.0048828125, 0.2548828125
0.0009765625, 0.0, 0.248046875
0.0029296875, -0.0087890625, 0.2421875
0.0029296875, -0.0087890625, 0.24609375
0.001953125, 0.00390625, 0.25
0.00390625, 0.0009765625, 0.2509765625
0.001953125, -0.005859375, 0.255859375
0.0009765625, 0.00390625, 0.255859375
0.0, 0.00390625, 0.244140625
0.00390625, -0.0009765625, 0.25
0.001953125, 0.001953125, 0.2431640625
0.0048828125, -0.005859375, 0.2412109375
0.00390625, -0.0009765625, 0.236328125
0.0029296875, -0.0009765625, 0.25
0.00390625, 0.0, 0.2529296875
0.001953125, 0.0, 0.2490234375
0.0029296875, -0.001953125, 0.2431640625
0.0029296875, -0.013671875, 0.23828125
0.00390625, -0.0078125, 0.248046875
0.0048828125, 0.0068359375, 0.2451171875
0.0029296875, 0.001953125, 0.2451171875
0.0029296875, 0.0, 0.251953125
0.0029296875, 0.0029296875, 0.23828125
0.0029296875, -0.0166015625, 0.2470703125
0.001953125, -0.0029296875, 0.248046875
0.0009765625, 0.0126953125, 0.2578125
0.001953125, 0.0, 0.2470703125
0.0029296875, -0.0078125, 0.2421875
0.00390625, -0.0078125, 0.2470703125
0.0009765625, -0.0029296875, 0.24609375
0.0009765625, -0.0048828125, 0.23828125
0.0009765625, -0.00390625, 0.2451171875
0.0009765625, -0.0048828125, 0.251953125
0.0029296875, -0.0048828125, 0.25
0.0029296875, 0.0048828125, 0.2451171875
0.00390625, -0.001953125, 0.248046875
0.0009765625, -0.009765625, 0.2509765625
0.0009765625, 0.0, 0.2529296875
0.00390625, 0.009765625, 0.24609375
0.0, 0.0009765625, 0.2470703125
0.0029296875, 0.0009765625, 0.251953125
0.00390625, 0.0029296875, 0.248046875
0.0029296875, -0.00390625, 0.2412109375
0.0029296875, -0.0078125, 0.2412109375
0.0029296875, 0.001953125, 0.24609375
0.0029296875, 0.0068359375, 0.2421875
0.001953125, 0.0009765625, 0.244140625
0.001953125, -0.0126953125, 0.24609375
0.0009765625, -0.0078125, 0.2509765625
0.0048828125, 0.0, 0.25390625
0.00390625, 0.001953125, 0.2490234375
0.0029296875, 0.0, 0.2470703125
0.00390625, -0.001953125, 0.251953125
0.001953125, -0.0087890625, 0.24609375
0.0029296875, -0.001953125, 0.240234375
0.0009765625, 0.0068359375, 0.248046875
0.0009765625, 0.001953125, 0.244140625
0.001953125, -0.009765625, 0.2431640625
0.001953125, -0.0078125, 0.2412109375
0.0029296875, 0.00390625, 0.2509765625
0.001953125, -0.0048828125, 0.2568359375
0.001953125, -0.0087890625, 0.248046875
0.001953125, -0.0068359375, 0.251953125
0.001953125, -0.001953125, 0.2470703125
0.001953125, -0.0087890625, 0.244140625
0.0029296875, -0.0068359375, 0.2451171875
0.0009765625, 0.009765625, 0.2353515625
0.0009765625, 0.0009765625, 0.2509765625
0.0009765625, 0.0009765625, 0.2490234375
0.0029296875, -0.0048828125, 0.2490234375
0.001953125, -0.0205078125, 0.2529296875
0.0, -0.0029296875, 0.248046875
0.001953125, 0.0029296875, 0.248046875
0.0, -0.00390625, 0.248046875
0.0009765625, -0.0029296875, 0.2470703125
0.0, 0.0, 0.24609375
0.0009765625, 0.0, 0.25
0.0, 0.00390625, 0.25
0.0009765625, 0.00390625, 0.2431640625
0.0029296875, -0.01171875, 0.2412109375
0.0009765625, -0.0107421875, 0.2421875
0.0009765625, -0.001953125, 0.25
0.0009765625, 0.00390625, 0.240234375
0.0009765625, -0.0048828125, 0.248046875
0.001953125, -0.0078125, 0.2490234375
0.0009765625, 0.0068359375, 0.2431640625
0.0029296875, -0.0009765625, 0.25
0.0009765625, -0.001953125, 0.25
0.0009765625, -0.0009765625, 0.251953125
0.0029296875, -0.0068359375, 0.25
0.0009765625, -0.0048828125, 0.2431640625
0.0009765625, 0.00390625, 0.2470703125
0.0009765625, 0.001953125, 0.24609375
0.0009765625, 0.0, 0.2490234375
0.001953125, 0.0, 0.2490234375
0.0009765625, -0.0009765625, 0.236328125
0.0, -0.001953125, 0.251953125
0.001953125, 0.00390625, 0.251953125
0.0, -0.0146484375, 0.25390625
0.0009765625, -0.0078125, 0.2578125
0.0, -0.0009765625, 0.2392578125
0.0, -0.001953125, 0.240234375
0.0029296875, 0.001953125, 0.24609375
0.0009765625, -0.001953125, 0.244140625
0.001953125, -0.013671875, 0.2431640625
0.0009765625, -0.009765625, 0.2451171875
0.001953125, 0.001953125, 0.2431640625
0.001953125, -0.0048828125, 0.2578125
0.0009765625, -0.0068359375, 0.248046875
0.00390625, 0.009765625, 0.2490234375
0.0009765625, 0.00390625, 0.2431640625
0.0009765625, -0.0068359375, 0.240234375
0.0009765625, -0.001953125, 0.2421875
0.0, 0.001953125, 0.24609375
0.001953125, -0.0048828125, 0.24609375
0.0, -0.0029296875, 0.251953125
0.0009765625, 0.0, 0.2490234375
0.0029296875, -0.01171875, 0.2509765625
0.001953125, -0.0048828125, 0.2529296875
0.0009765625, -0.009765625, 0.244140625
0.001953125, -0.0029296875, 0.25390625
0.0048828125, 0.0009765625, 0.2412109375
0.0029296875, -0.015625, 0.2548828125
0.001953125, -0.001953125, 0.2470703125
0.0009765625, 0.0009765625, 0.2353515625
0.0, -0.00390625, 0.2421875
0.001953125, 0.0068359375, 0.244140625
0.001953125, 0.00390625, 0.2470703125
0.001953125, -0.0087890625, 0.2451171875
0.001953125, 0.0009765625, 0.2490234375
0.0029296875, 0.0009765625, 0.2587890625
0.00390625, -0.0087890625, 0.251953125
0.001953125, -0.01171875, 0.2490234375
0.0029296875, -0.0029296875, 0.2470703125
0.001953125, -0.009765625, 0.244140625
0.001953125, -0.0107421875, 0.2421875
0.001953125, -0.001953125, 0.2412109375
0.001953125, -0.0029296875, 0.244140625
0.001953125, -0.005859375, 0.248046875
0.0, -0.0029296875, 0.248046875
0.0029296875, 0.001953125, 0.2490234375
0.0009765625, 0.0, 0.2470703125
0.001953125, -0.001953125, 0.24609375
0.0, -0.0029296875, 0.25
0.0009765625, -0.00390625, 0.251953125
0.0009765625, -0.0029296875, 0.2490234375
0.001953125, 0.0, 0.248046875
0.0009765625, -0.001953125, 0.251953125
0.0009765625, -0.0009765625, 0.2490234375
0.0, 0.001953125, 0.240234375
0.0, -0.0078125, 0.244140625
0.0009765625, -0.0068359375, 0.248046875
0.0, -0.0029296875, 0.2421875
