0.0, -0.0185546875, 0.2509765625
0.0, -0.0078125, 0.2490234375
0.0, -0.0029296875, 0.2421875
0.0, -0.0146484375, 0.234375
0.0, -0.0390625, 0.25
0.001953125, -0.0126953125, 0.251953125
0.0, 0.0009765625, 0.248046875
0.0, -0.0029296875, 0.240234375
0.0009765625, -0.01953125, 0.240234375
0.0, -0.0107421875, 0.2412109375
0.0, -0.0107421875, 0.2451171875
0.0, -0.0166015625, 0.2490234375
0.001953125, -0.015625, 0.25
0.0009765625, -0.0166015625, 0.2490234375
0.0009765625, -0.017578125, 0.248046875
0.0, -0.0068359375, 0.25
0.001953125, -0.017578125, 0.24609375
0.0009765625, -0.0185546875, 0.24609375
0.0009765625, -0.0078125, 0.2490234375
0.0009765625, -0.009765625, 0.2431640625
0.0, -0.0126953125, 0.2490234375
0.0009765625, -0.0126953125, 0.248046875
0.0, -0.0166015625, 0.236328125
0.0, -0.025390625, 0.2470703125
0.0, -0.017578125, 0.251953125
0.0, -0.021484375, 0.248046875
0.0, -0.0205078125, 0.25
-0.001953125, -0.005859375, 0.251953125
0.0009765625, -0.015625, 0.2412109375
0.0, -0.0087890625, 0.2333984375
0.0009765625, -0.0009765625, 0.23828125
0.0, -0.015625, 0.25390625
0.0, -0.015625, 0.25390625
0.0, -0.0166015625, 0.2490234375
0.0, -0.0146484375, 0.23828125
0.0009765625, -0.0146484375, 0.24609375
0.0009765625, -0.0146484375, 0.251953125
0.0, -0.013671875, 0.24609375
0.0009765625, -0.017578125, 0.2431640625
0.0009765625, -0.0087890625, 0.2392578125
0.001953125, -0.015625, 0.2529296875
0.001953125, -0.0234375, 0.2421875
0.0, -0.0126953125, 0.2509765625
0.0, -0.0087890625, 0.2490234375
0.0009765625, -0.0146484375, 0.24609375
0.0, -0.0224609375, 0.2470703125
0.0029296875, -0.013671875, 0.2412109375
0.0009765625, -0.01171875, 0.24609375
0.0009765625, -0.0146484375, 0.25
0.0009765625, -0.0166015625, 0.2431640625
0.0, -0.013671875, 0.2421875
0.0, -0.0107421875, 0.244140625
0.0, -0.0146484375, 0.2490234375
0.0, -0.015625, 0.25
0.0009765625, -0.0146484375, 0.2451171875
0.001953125, -0.0126953125, 0.2529296875
0.0, -0.0166015625, 0.2490234375
0.0, -0.0107421875, 0.248046875
0.0009765625, -0.0126953125, 0.2412109375
0.0, -0.021484375, 0.2470703125
0.0, -0.0126953125, 0.248046875
0.0009765625, -0.017578125, 0.2490234375
0.0009765625, -0.0146484375, 0.248046875
0.001953125, -0.017578125, 0.2392578125
0.0009765625, -0.0185546875, 0.2451171875
0.0009765625, -0.013671875, 0.24609375
0.0, -0.013671875, 0.2470703125
0.0009765625, -0.0166015625, 0.2490234375
0.0, -0.0078125, 0.2470703125
0.0009765625, -0.0166015625, 0.24609375
0.0, -0.013671875, 0.2421875
0.0, -0.0048828125, 0.24609375
0.0009765625, -0.0205078125, 0.2490234375
0.0009765625, -0.017578125, 0.2421875
0.0, -0.009765625, 0.248046875
0.001953125, -0.017578125, 0.2431640625
0.0009765625, -0.01171875, 0.2431640625
0.0, -0.0068359375, 0.248046875
0.0009765625, -0.0146484375, 0.25
0.0009765625, -0.0244140625, 0.25390625
0.0009765625, -0.017578125, 0.244140625
0.0, -0.01171875, 0.2470703125
0.0, -0.009765625, 0.2451171875
0.001953125, -0.013671875, 0.244140625
0.0009765625, -0.0107421875, 0.2431640625
-0.0009765625, -0.0126953125, 0.240234375
0.0, -0.025390625, 0.240234375
0.0, -0.03125, 0.2509765625
0.0, -0.01953125, 0.2548828125
0.0009765625, -0.0107421875, 0.2529296875
0.0009765625, -0.0126953125, 0.2509765625
0.001953125, -0.0146484375, 0.244140625
0.0, -0.0166015625, 0.2431640625
0.0, -0.0107421875, 0.2421875
0.0, -0.0087890625, 0.24609375
0.0, -0.017578125, 0.24609375
0.0, -0.01953125, 0.25
0.0009765625, -0.0185546875, 0.25
0.0, -0.0166015625, 0.2451171875
0.0009765625, -0.0166015625, 0.2431640625
0.0, -0.015625, 0.2490234375
0.0, -0.01171875, 0.2470703125
0.0, -0.0068359375, 0.2451171875
0.0, -0.01171875, 0.2431640625
0.0009765625, -0.0224609375, 0.2490234375
0.0009765625, -0.021484375, 0.248046875
0.0, -0.01953125, 0.251953125
0.0, -0.017578125, 0.248046875
0.0, -0.01953125, 0.2490234375
0.001953125, -0.017578125, 0.2509765625
0.0, -0.013671875, 0.2431640625
0.0, -0.0166015625, 0.2490234375
0.001953125, -0.0185546875, 0.25
0.0009765625, -0.01953125, 0.24609375
0.0, -0.017578125, 0.2470703125
0.0009765625, -0.0126953125, 0.2470703125
0.0, -0.0107421875, 0.24609375
0.0029296875, -0.01171875, 0.24609375
0.0029296875, -0.013671875, 0.2490234375
0.0009765625, -0.0126953125, 0.2548828125
0.0048828125, -0.0126953125, 0.24609375
0.0029296875, -0.0009765625, 0.2568359375
0.0, 0.001953125, 0.275390625
0.0107421875, -0.0205078125, 0.2919921875
0.033203125, -0.017578125, 0.30078125
0.041015625, 0.013671875, 0.2939453125
0.03515625, 0.0107421875, 0.2890625
0.0302734375, -0.001953125, 0.3173828125
0.0302734375, -0.0087890625, 0.359375
0.0302734375, 0.0244140625, 0.357421875
0.0341796875, 0.0546875, 0.3203125
0.02734375, 0.0595703125, 0.271484375
0.0439453125, 0.0400390625, 0.2578125
0.0634765625, 0.0224609375, 0.2685546875
0.025390625, 0.025390625, 0.3017578125
0.015625, 0.0654296875, 0.349609375
0.0078125, 0.1123046875, 0.39453125
0.0078125, 0.1298828125, 0.3232421875
0.0107421875, 0.0927734375, 0.2412109375
0.0244140625, 0.056640625, 0.21484375
0.0244140625, 0.0654296875, 0.2412109375
0.015625, 0.0673828125, 0.2470703125
0.0107421875, 0.056640625, 0.2421875
0.017578125, 0.0400390625, 0.224609375
0.0068359375, 0.03515625, 0.2021484375
0.00390625, 0.0205078125, 0.1767578125
0.00390625, 0.00390625, 0.16796875
0.0048828125, 0.0087890625, 0.1630859375
-0.0009765625, 0.013671875, 0.150390625
-0.009765625, -0.0673828125, 0.146484375
-0.021484375, -0.23828125, 0.1220703125
-0.0205078125, -0.43359375, 0.1484375
-0.025390625, -0.5869140625, 0.189453125
-0.021484375, -0.7138671875, 0.2001953125
-0.0380859375, -0.7568359375, 0.2314453125
-0.0537109375, -0.60546875, 0.1875
-0.076171875, -0.5302734375, 0.1162109375
-0.099609375, -0.4921875, 0.037109375
-0.126953125, -0.4208984375, 0.001953125
-0.1455078125, -0.3134765625, -0.001953125
-0.1845703125, -0.1962890625, 0.01171875
-0.1865234375, -0.0458984375, 0.0439453125
-0.1865234375, 0.162109375, 0.1357421875
-0.1572265625, 0.2744140625, 0.24609375
-0.12890625, 0.353515625, 0.23828125
-0.111328125, 0.494140625, 0.2041015625
-0.0478515625, 0.658203125, 0.048828125
0.0224609375, 0.7841796875, -0.0615234375
0.0244140625, 0.7607421875, -0.08984375
0.0166015625, 0.6318359375, -0.0068359375
0.0283203125, 0.5458984375, 0.0947265625
0.005859375, 0.5, 0.134765625
-0.0234375, 0.4091796875, 0.1904296875
-0.033203125, 0.33203125, 0.208984375
-0.033203125, 0.2041015625, 0.2470703125
-0.03515625, 0.1171875, 0.2802734375
-0.0439453125, 0.1396484375, 0.2529296875
-0.068359375, 0.00390625, 0.255859375
-0.05078125, -0.181640625, 0.2392578125
-0.0244140625, -0.3916015625, 0.2724609375
-0.0048828125, -0.54296875, 0.296875
0.00390625, -0.669921875, 0.31640625
0.0068359375, -0.646484375, 0.3203125
0.0458984375, -0.49609375, 0.1806640625
0.0458984375, -0.322265625, 0.056640625
0.0390625, -0.21875, 0.001953125
0.0283203125, -0.244140625, -0.025390625
0.0146484375, -0.2666015625, -0.08203125
-0.0107421875, -0.23828125, -0.0771484375
-0.0439453125, -0.2041015625, -0.025390625
-0.0693359375, -0.1630859375, 0.0146484375
-0.0966796875, -0.1044921875, 0.076171875
-0.1337890625, 0.046875, 0.14453125
-0.1484375, 0.1005859375, 0.234375
-0.14453125, 0.142578125, 0.4619140625
-0.1123046875, 0.248046875, 0.6025390625
-0.0634765625, 0.3115234375, 0.6201171875
-0.04296875, 0.220703125, 0.521484375
-0.0341796875, 0.15234375, 0.4404296875
-0.02734375, 0.11328125, 0.3876953125
-0.01953125, 0.078125, 0.3564453125
-0.017578125, 0.0693359375, 0.3603515625
-0.0126953125, 0.083984375, 0.333984375
-0.0087890625, 0.09375, 0.2939453125
-0.0146484375, 0.0869140625, 0.3134765625
-0.0185546875, 0.0361328125, 0.341796875
-0.01953125, 0.0, 0.33203125
-0.0224609375, -0.013671875, 0.2978515625
-0.0283203125, -0.009765625, 0.255859375
-0.03515625, -0.0029296875, 0.2333984375
-0.0341796875, -0.005859375, 0.224609375
-0.0302734375, 0.005859375, 0.2080078125
-0.02734375, 0.0361328125, 0.1962890625
-0.029296875, 0.0166015625, 0.2158203125
-0.029296875, -0.0400390625, 0.25
-0.0244140625, -0.041015625, 0.2646484375
-0.0234375, 0.0126953125, 0.2470703125
-0.0185546875, 0.041015625, 0.228515625
-0.0185546875, 0.0068359375, 0.2451171875
-0.013671875, -0.0439453125, 0.28515625
-0.0166015625, -0.03515625, 0.2548828125
-0.017578125, -0.0146484375, 0.2373046875
-0.0126953125, 0.0, 0.22265625
-0.01953125, -0.0029296875, 0.2373046875
-0.01953125, -0.0009765625, 0.2294921875
-0.0185546875, 0.001953125, 0.23046875
-0.015625, 0.015625, 0.2314453125
-0.013671875, 0.0068359375, 0.234375
-0.013671875, -0.0126953125, 0.2392578125
-0.015625, -0.015625, 0.2607421875
-0.01953125, -0.009765625, 0.283203125
-0.01953125, 0.0185546875, 0.271484375
-0.015625, 0.01953125, 0.2529296875
-0.015625, -0.005859375, 0.255859375
-0.015625, -0.0185546875, 0.2626953125
-0.0185546875, 0.0009765625, 0.267578125
-0.0205078125, 0.0234375, 0.2548828125
-0.0205078125, 0.009765625, 0.23828125
-0.015625, 0.0, 0.2421875
-0.0126953125, -0.0048828125, 0.2470703125
-0.0087890625, -0.0029296875, 0.240234375
-0.0126953125, 0.0009765625, 0.234375
-0.0107421875, 0.013671875, 0.24609375
-0.0107421875, 0.015625, 0.240234375
-0.00390625, 0.0107421875, 0.2353515625
-0.005859375, -0.0126953125, 0.2392578125
-0.01171875, -0.0302734375, 0.248046875
-0.0107421875, -0.0126953125, 0.2578125
-0.0107421875, 0.0087890625, 0.2529296875
-0.0087890625, 0.0263671875, 0.240234375
-0.009765625, 0.0126953125, 0.2412109375
-0.009765625, -0.02734375, 0.232421875
-0.009765625, -0.0244140625, 0.24609375
-0.0107421875, 0.0068359375, 0.2548828125
-0.009765625, 0.0185546875, 0.2490234375
-0.005859375, 0.015625, 0.2392578125
-0.0087890625, 0.00390625, 0.2392578125
-0.0078125, -0.0078125, 0.236328125
-0.005859375, -0.0048828125, 0.2353515625
-0.001953125, 0.0078125, 0.24609375
-0.0078125, 0.01171875, 0.24609375
-0.009765625, -0.0009765625, 0.24609375
-0.0068359375, -0.009765625, 0.2490234375
-0.009765625, -0.005859375, 0.251953125
-0.009765625, 0.0068359375, 0.25390625
-0.0087890625, 0.0048828125, 0.25
-0.0087890625, 0.001953125, 0.25
-0.0068359375, -0.0029296875, 0.2607421875
-0.0068359375, 0.0, 0.2548828125
-0.0078125, 0.001953125, 0.248046875
-0.0078125, 0.0068359375, 0.244140625
-0.0078125, 0.0048828125, 0.24609375
-0.0087890625, 0.005859375, 0.244140625
-0.00390625, 0.0078125, 0.248046875
-0.0068359375, 0.0048828125, 0.2470703125
-0.0048828125, 0.005859375, 0.248046875
-0.0048828125, 0.0048828125, 0.2470703125
-0.0068359375, 0.00390625, 0.25
-0.0029296875, 0.0029296875, 0.2412109375
-0.0078125, 0.0087890625, 0.23828125
-0.0048828125, 0.009765625, 0.244140625
-0.005859375, 0.0009765625, 0.25390625
-0.00390625, 0.0087890625, 0.2421875
-0.00390625, 0.0009765625, 0.2265625
-0.0068359375, 0.0009765625, 0.244140625
-0.0009765625, 0.00390625, 0.2373046875
-0.01171875, 0.0009765625, 0.2431640625
-0.0078125, -0.0009765625, 0.2412109375
-0.0283203125, -0.0546875, 0.271484375
-0.0185546875, -0.0205078125, 0.24609375
-0.0107421875, 0.033203125, 0.259765625
-0.0087890625, 0.0517578125, 0.2626953125
-0.009765625, 0.0224609375, 0.2578125
-0.0126953125, 0.015625, 0.2529296875
-0.0126953125, 0.0126953125, 0.2470703125
-0.01171875, 0.01953125, 0.244140625
-0.0107421875, 0.0185546875, 0.240234375
-0.013671875, 0.0205078125, 0.25390625
-0.0107421875, 0.013671875, 0.24609375
-0.0087890625, 0.0009765625, 0.251953125
-0.0107421875, -0.0078125, 0.244140625
-0.0107421875, 0.0087890625, 0.2431640625
-0.0087890625, 0.017578125, 0.2412109375
-0.009765625, 0.0107421875, 0.244140625
-0.0068359375, 0.0068359375, 0.2373046875
-0.0107421875, 0.001953125, 0.244140625
-0.0087890625, -0.0048828125, 0.248046875
-0.005859375, -0.0107421875, 0.248046875
-0.01171875, -0.01171875, 0.2490234375
-0.0107421875, 0.015625, 0.25
-0.01171875, 0.025390625, 0.248046875
-0.013671875, 0.0107421875, 0.25
-0.013671875, 0.001953125, 0.2490234375
-0.0107421875, 0.00390625, 0.25390625
-0.0087890625, 0.0009765625, 0.2490234375
-0.0087890625, -0.005859375, 0.2490234375
-0.01171875, -0.001953125, 0.25
-0.0107421875, 0.00390625, 0.2568359375
-0.0107421875, 0.00390625, 0.248046875
-0.0126953125, 0.00390625, 0.236328125
-0.01171875, 0.005859375, 0.232421875
-0.0107421875, 0.0009765625, 0.2451171875
-0.0126953125, -0.0009765625, 0.2587890625
-0.009765625, -0.001953125, 0.2578125
-0.0126953125, 0.0009765625, 0.2509765625
-0.0126953125, -0.0009765625, 0.2412109375
-0.0107421875, -0.0009765625, 0.2314453125
-0.0087890625, 0.0048828125, 0.2353515625
-0.009765625, 0.0107421875, 0.2392578125
-0.0107421875, 0.00390625, 0.24609375
-0.009765625, -0.00390625, 0.251953125
-0.01171875, 0.0, 0.2578125
-0.0107421875, 0.00390625, 0.2548828125
-0.0107421875, 0.0087890625, 0.25
-0.013671875, 0.001953125, 0.2421875
-0.009765625, 0.0009765625, 0.2373046875
-0.01171875, 0.001953125, 0.2509765625
-0.01171875, 0.005859375, 0.2451171875
-0.009765625, 0.001953125, 0.2431640625
-0.0078125, 0.001953125, 0.2451171875
-0.0107421875, 0.0, 0.24609375
-0.01171875, 0.0, 0.2490234375
-0.0107421875, 0.0, 0.248046875
-0.009765625, 0.0, 0.2509765625
-0.0087890625, 0.0009765625, 0.2421875
-0.0087890625, 0.0, 0.248046875
-0.01171875, -0.001953125, 0.2470703125
-0.0146484375, 0.0009765625, 0.2431640625
-0.009765625, 0.0087890625, 0.25
-0.009765625, 0.0, 0.2509765625
-0.0126953125, 0.0029296875, 0.25
-0.01171875, 0.0087890625, 0.2509765625
-0.0107421875, 0.0029296875, 0.244140625
-0.0126953125, 0.00390625, 0.240234375
-0.0107421875, 0.005859375, 0.2451171875
-0.0107421875, 0.00390625, 0.23828125
-0.0107421875, -0.0068359375, 0.2490234375
-0.01171875, -0.0107421875, 0.2529296875
-0.009765625, 0.0, 0.259765625
-0.0107421875, -0.009765625, 0.259765625
-0.009765625, 0.0126953125, 0.25
-0.009765625, 0.0205078125, 0.236328125
-0.0078125, -0.0068359375, 0.2392578125
-0.0126953125, -0.0166015625, 0.251953125
-0.0087890625, 0.0126953125, 0.255859375
-0.01171875, 0.0244140625, 0.24609375
-0.009765625, 0.0029296875, 0.2421875
-0.0107421875, -0.001953125, 0.244140625
-0.0087890625, 0.0068359375, 0.2373046875
-0.0087890625, 0.0068359375, 0.2392578125
-0.009765625, 0.0009765625, 0.25390625
-0.009765625, -0.00390625, 0.2568359375
-0.0107421875, 0.0, 0.251953125
-0.0126953125, 0.0, 0.251953125
-0.009765625, -0.0048828125, 0.251953125
-0.01171875, -0.0009765625, 0.248046875
-0.009765625, 0.005859375, 0.2392578125
-0.0107421875, 0.0068359375, 0.240234375
-0.0078125, 0.001953125, 0.24609375
-0.0078125, -0.0068359375, 0.248046875
-0.0068359375, -0.0029296875, 0.25
-0.0078125, 0.0048828125, 0.2509765625
-0.0107421875, 0.0009765625, 0.244140625
-0.009765625, -0.0009765625, 0.248046875
-0.01171875, 0.01171875, 0.25
-0.0107421875, 0.009765625, 0.2509765625
-0.0087890625, -0.00390625, 0.2470703125
-0.0068359375, 0.0078125, 0.248046875
-0.009765625, 0.0087890625, 0.2373046875
-0.009765625, -0.001953125, 0.2431640625
-0.0107421875, 0.001953125, 0.24609375
-0.009765625, -0.0029296875, 0.2431640625
-0.0107421875, -0.0126953125, 0.25390625
-0.0087890625, 0.0087890625, 0.2529296875
-0.01171875, 0.009765625, 0.2451171875
-0.01171875, -0.001953125, 0.240234375
-0.0068359375, 0.0048828125, 0.2431640625
-0.009765625, 0.01171875, 0.25
-0.01171875, 0.0029296875, 0.2470703125
-0.0087890625, 0.0087890625, 0.2412109375
-0.01171875, 0.01171875, 0.24609375
-0.0107421875, -0.005859375, 0.2509765625
-0.0107421875, -0.0107421875, 0.2509765625
-0.0107421875, 0.001953125, 0.2548828125
-0.0078125, 0.00390625, 0.2529296875
-0.009765625, 0.0009765625, 0.2490234375
-0.0126953125, 0.0, 0.24609375
-0.009765625, 0.0068359375, 0.248046875
-0.0107421875, 0.0029296875, 0.2470703125
-0.009765625, 0.0, 0.244140625
-0.0078125, 0.005859375, 0.236328125
-0.0107421875, -0.0078125, 0.2509765625
-0.0087890625, -0.001953125, 0.2490234375
-0.0107421875, 0.0146484375, 0.25
-0.009765625, 0.001953125, 0.248046875
-0.01171875, -0.0048828125, 0.244140625
-0.009765625, 0.005859375, 0.2421875
-0.0068359375, 0.0048828125, 0.2421875
-0.009765625, 0.001953125, 0.251953125
-0.01171875, 0.0, 0.2490234375
-0.0078125, 0.00390625, 0.251953125
-0.009765625, 0.0, 0.25
-0.0048828125, -0.01171875, 0.2451171875
-0.01171875, 0.013671875, 0.25
-0.0087890625, 0.0, 0.2490234375
-0.0107421875, 0.0009765625, 0.2490234375
-0.009765625, 0.0166015625, 0.2470703125
-0.0126953125, -0.0009765625, 0.248046875
-0.01171875, -0.001953125, 0.2470703125
-0.009765625, 0.009765625, 0.25
-0.0087890625, 0.0, 0.240234375
-0.0087890625, 0.001953125, 0.248046875
-0.0107421875, 0.0087890625, 0.2490234375
-0.0087890625, 0.0029296875, 0.240234375
-0.009765625, -0.0029296875, 0.2490234375
-0.0078125, 0.0, 0.2490234375
-0.009765625, 0.00390625, 0.24609375
-0.0087890625, 0.001953125, 0.25
-0.0087890625, 0.001953125, 0.2490234375
-0.009765625, -0.005859375, 0.25
-0.0068359375, 0.0, 0.25
-0.0107421875, 0.0048828125, 0.25
-0.0087890625, 0.001953125, 0.2412109375
-0.009765625, 0.001953125, 0.2451171875
-0.0087890625, 0.0068359375, 0.2470703125
-0.009765625, 0.001953125, 0.2509765625
-0.0107421875, 0.0009765625, 0.2509765625
-0.0107421875, 0.0009765625, 0.2529296875
-0.0087890625, -0.0009765625, 0.244140625
-0.0126953125, 0.0009765625, 0.24609375
