0.0322265625, 0.0029296875, 0.248046875
0.0322265625, 0.0, 0.244140625
0.02734375, 0.0107421875, 0.2421875
0.029296875, 0.01171875, 0.2373046875
0.0302734375, 0.0048828125, 0.23828125
0.0283203125, 0.0, 0.2529296875
0.03125, 0.0009765625, 0.2548828125
0.029296875, 0.0078125, 0.2392578125
0.0302734375, 0.0068359375, 0.240234375
0.0302734375, 0.001953125, 0.2431640625
0.029296875, 0.0078125, 0.2412109375
0.03125, 0.0068359375, 0.248046875
0.033203125, 0.0009765625, 0.2490234375
0.029296875, 0.00390625, 0.2490234375
0.029296875, 0.0, 0.2509765625
0.0283203125, -0.0166015625, 0.251953125
0.0302734375, -0.0107421875, 0.2529296875
0.0302734375, 0.025390625, 0.2548828125
0.033203125, 0.0283203125, 0.240234375
0.037109375, -0.00390625, 0.236328125
0.0341796875, -0.0009765625, 0.2353515625
0.0283203125, 0.02734375, 0.2412109375
0.0263671875, 0.029296875, 0.2568359375
0.025390625, 0.005859375, 0.255859375
0.0283203125, 0.0009765625, 0.236328125
0.0322265625, 0.0009765625, 0.2275390625
0.0322265625, -0.013671875, 0.2431640625
0.03125, -0.0224609375, 0.251953125
0.029296875, 0.005859375, 0.2578125
0.0244140625, 0.046875, 0.244140625
0.0302734375, 0.0361328125, 0.234375
0.0322265625, 0.0029296875, 0.2275390625
0.03125, 0.001953125, 0.2353515625
0.033203125, 0.017578125, 0.2490234375
0.02734375, 0.0029296875, 0.24609375
0.0263671875, -0.0078125, 0.25
0.0234375, 0.0, 0.25
0.0244140625, 0.0009765625, 0.2529296875
0.0263671875, -0.0048828125, 0.25
0.0302734375, 0.001953125, 0.2431640625
0.029296875, 0.0146484375, 0.2353515625
0.02734375, 0.0224609375, 0.23828125
0.02734375, 0.0029296875, 0.240234375
0.0263671875, -0.0126953125, 0.25390625
0.025390625, -0.00390625, 0.2607421875
0.02734375, 0.0068359375, 0.2509765625
0.02734375, 0.009765625, 0.2353515625
0.02734375, 0.0009765625, 0.240234375
0.025390625, -0.001953125, 0.25390625
0.0283203125, -0.0087890625, 0.2578125
0.029296875, 0.0, 0.24609375
0.025390625, 0.01171875, 0.2421875
0.0244140625, 0.0009765625, 0.2490234375
0.02734375, -0.0107421875, 0.248046875
0.0283203125, -0.0087890625, 0.2490234375
0.0263671875, 0.0107421875, 0.2421875
0.0302734375, 0.01171875, 0.234375
0.029296875, 0.0009765625, 0.2333984375
0.02734375, -0.0126953125, 0.25
0.02734375, -0.013671875, 0.251953125
0.0302734375, 0.005859375, 0.2578125
0.0302734375, 0.0078125, 0.2490234375
0.0263671875, 0.009765625, 0.240234375
0.0263671875, 0.001953125, 0.234375
0.029296875, 0.0048828125, 0.2392578125
0.02734375, 0.013671875, 0.2470703125
0.02734375, 0.0107421875, 0.2373046875
0.02734375, 0.005859375, 0.23828125
0.02734375, -0.0068359375, 0.2451171875
0.029296875, 0.0, 0.248046875
0.02734375, 0.017578125, 0.248046875
0.0322265625, 0.0205078125, 0.2421875
0.0322265625, 0.005859375, 0.2333984375
0.0322265625, 0.0029296875, 0.240234375
0.0322265625, 0.0009765625, 0.2470703125
0.025390625, 0.0, 0.2509765625
0.0283203125, 0.0, 0.2509765625
0.0302734375, 0.01171875, 0.25390625
0.0283203125, 0.001953125, 0.25
0.0302734375, 0.0, 0.2451171875
0.02734375, 0.0068359375, 0.244140625
0.0283203125, 0.0009765625, 0.2490234375
0.025390625, -0.001953125, 0.248046875
0.0263671875, -0.001953125, 0.25
0.0234375, 0.00390625, 0.2490234375
0.0263671875, 0.009765625, 0.2490234375
0.0263671875, 0.009765625, 0.23828125
0.0263671875, 0.0048828125, 0.23828125
0.0302734375, 0.0, 0.24609375
0.0302734375, 0.0, 0.2490234375
0.029296875, -0.001953125, 0.248046875
0.029296875, 0.0029296875, 0.2490234375
0.02734375, 0.0078125, 0.248046875
0.0283203125, 0.0068359375, 0.24609375
0.029296875, 0.0, 0.244140625
0.0302734375, 0.009765625, 0.2509765625
0.029296875, 0.0068359375, 0.25
0.0283203125, 0.0029296875, 0.248046875
0.029296875, 0.0068359375, 0.24609375
0.0302734375, 0.0146484375, 0.251953125
0.03125, 0.01953125, 0.2578125
0.03125, 0.0146484375, 0.2373046875
0.0302734375, 0.0146484375, 0.236328125
0.03125, 0.01953125, 0.25390625
0.03125, 0.0322265625, 0.2578125
0.03125, 0.068359375, 0.2421875
0.029296875, 0.091796875, 0.2470703125
0.0283203125, 0.08984375, 0.2744140625
0.02734375, 0.080078125, 0.2763671875
0.02734375, 0.0693359375, 0.275390625
0.0224609375, 0.1044921875, 0.2734375
0.0205078125, 0.130859375, 0.2646484375
0.0166015625, 0.126953125, 0.2353515625
0.0146484375, 0.095703125, 0.2119140625
0.015625, 0.0654296875, 0.21875
0.0234375, 0.0595703125, 0.2451171875
0.015625, 0.0859375, 0.2314453125
0.0029296875, 0.0810546875, 0.2021484375
-0.0068359375, 0.0400390625, 0.205078125
-0.0078125, 0.0048828125, 0.23828125
-0.005859375, -0.0263671875, 0.2607421875
-0.001953125, -0.0634765625, 0.251953125
-0.001953125, -0.109375, 0.2490234375
0.0029296875, -0.138671875, 0.21484375
0.005859375, -0.125, 0.1728515625
0.0087890625, -0.1064453125, 0.1416015625
0.0048828125, -0.103515625, 0.1650390625
0.0048828125, -0.1337890625, 0.1982421875
0.0107421875, -0.16796875, 0.232421875
0.001953125, -0.1591796875, 0.21875
-0.0078125, -0.1650390625, 0.17578125
-0.029296875, -0.2314453125, 0.1865234375
-0.033203125, -0.2978515625, 0.2802734375
-0.033203125, -0.291015625, 0.18359375
-0.0732421875, -0.2734375, 0.1767578125
-0.0625, -0.2783203125, 0.271484375
-0.0703125, -0.25, 0.3486328125
-0.08203125, -0.06640625, 0.3935546875
-0.099609375, 0.0625, 0.3583984375
-0.0966796875, -0.0595703125, 0.2822265625
-0.111328125, -0.1435546875, 0.365234375
-0.119140625, -0.013671875, 0.5283203125
-0.1630859375, 0.076171875, 0.6015625
-0.1767578125, 0.1982421875, 0.5048828125
-0.138671875, 0.4052734375, 0.4384765625
-0.1064453125, 0.4345703125, 0.3193359375
-0.0654296875, 0.4052734375, 0.203125
-0.029296875, 0.349609375, 0.16015625
-0.0107421875, 0.3125, 0.16796875
-0.001953125, 0.33984375, 0.2060546875
-0.0146484375, 0.3779296875, 0.2373046875
-0.0263671875, 0.37109375, 0.16796875
-0.025390625, 0.310546875, 0.05078125
-0.0126953125, 0.24609375, -0.0234375
-0.015625, 0.1826171875, -0.01953125
-0.0087890625, 0.103515625, 0.00390625
-0.0166015625, 0.0537109375, -0.0029296875
-0.025390625, 0.02734375, -0.0185546875
-0.0390625, -0.0419921875, -0.0087890625
-0.0419921875, -0.123046875, 0.01171875
-0.05859375, -0.162109375, 0.0498046875
-0.0615234375, -0.1923828125, 0.1220703125
-0.0556640625, -0.2607421875, 0.1904296875
-0.02734375, -0.34375, 0.2529296875
-0.005859375, -0.390625, 0.2822265625
0.00390625, -0.3564453125, 0.2763671875
-0.0048828125, -0.2919921875, 0.2333984375
-0.0048828125, -0.2509765625, 0.1923828125
-0.0107421875, -0.1962890625, 0.2578125
-0.0224609375, -0.2431640625, 0.265625
-0.029296875, -0.2734375, 0.259765625
-0.02734375, -0.26953125, 0.3173828125
-0.033203125, -0.234375, 0.3359375
-0.0439453125, -0.1962890625, 0.3505859375
-0.0458984375, -0.21484375, 0.3486328125
-0.0595703125, -0.203125, 0.390625
-0.091796875, -0.1943359375, 0.3916015625
-0.1201171875, -0.087890625, 0.376953125
-0.1162109375, 0.0556640625, 0.3408203125
-0.1015625, 0.2109375, 0.30859375
-0.078125, 0.2724609375, 0.263671875
-0.0517578125, 0.345703125, 0.2265625
-0.01171875, 0.3447265625, 0.189453125
0.0087890625, 0.2900390625, 0.150390625
0.0146484375, 0.275390625, 0.173828125
0.0234375, 0.1904296875, 0.1884765625
0.02734375, 0.109375, 0.228515625
0.03125, 0.072265625, 0.263671875
0.0341796875, 0.0439453125, 0.263671875
0.0322265625, 0.04296875, 0.248046875
0.0361328125, 0.0390625, 0.228515625
0.0361328125, 0.025390625, 0.24609375
0.0322265625, 0.0302734375, 0.2568359375
0.0361328125, 0.0009765625, 0.2265625
0.0361328125, 0.0185546875, 0.23046875
0.0322265625, 0.0302734375, 0.2509765625
0.0322265625, 0.044921875, 0.2529296875
0.033203125, 0.021484375, 0.255859375
0.0322265625, 0.0029296875, 0.240234375
0.0361328125, -0.064453125, 0.2333984375
0.0322265625, -0.029296875, 0.2421875
0.0341796875, -0.0009765625, 0.2431640625
0.0361328125, 0.0234375, 0.244140625
0.0361328125, 0.0400390625, 0.24609375
0.0361328125, 0.013671875, 0.2353515625
0.03515625, 0.0009765625, 0.23046875
0.03515625, 0.0048828125, 0.232421875
0.03515625, 0.009765625, 0.24609375
0.0322265625, 0.0068359375, 0.2470703125
0.03125, 0.0068359375, 0.23828125
0.0322265625, 0.0185546875, 0.2470703125
0.0322265625, 0.0048828125, 0.2490234375
0.0302734375, 0.0205078125, 0.2451171875
0.0322265625, 0.005859375, 0.2333984375
0.037109375, 0.009765625, 0.2412109375
0.0341796875, 0.0205078125, 0.2509765625
0.0361328125, 0.02734375, 0.2431640625
0.0380859375, -0.015625, 0.2314453125
0.03515625, -0.0087890625, 0.2294921875
0.0380859375, 0.01171875, 0.2431640625
0.0380859375, 0.0341796875, 0.244140625
0.03515625, 0.0078125, 0.2470703125
0.033203125, 0.001953125, 0.2470703125
0.033203125, 0.0068359375, 0.24609375
0.033203125, 0.0146484375, 0.2333984375
0.03125, 0.005859375, 0.2490234375
0.033203125, 0.0068359375, 0.255859375
0.03125, -0.0048828125, 0.2685546875
0.0322265625, 0.0126953125, 0.255859375
0.0322265625, 0.029296875, 0.2412109375
0.0322265625, 0.013671875, 0.2333984375
0.03515625, -0.005859375, 0.2392578125
0.03515625, 0.0009765625, 0.25390625
0.0341796875, 0.0048828125, 0.25390625
0.0341796875, 0.01171875, 0.236328125
0.0361328125, -0.0029296875, 0.2470703125
0.033203125, 0.0087890625, 0.2490234375
0.033203125, 0.0048828125, 0.25
0.03125, 0.0224609375, 0.2431640625
0.0322265625, 0.0068359375, 0.2470703125
0.033203125, 0.0, 0.24609375
0.0322265625, 0.00390625, 0.2373046875
0.0322265625, 0.00390625, 0.2314453125
0.03125, 0.0205078125, 0.2373046875
0.0361328125, 0.0029296875, 0.2490234375
0.03515625, -0.0107421875, 0.244140625
0.0322265625, 0.01171875, 0.2353515625
0.0341796875, 0.0302734375, 0.232421875
0.03125, 0.029296875, 0.2412109375
0.03515625, -0.00390625, 0.2509765625
0.03515625, -0.0166015625, 0.2529296875
0.033203125, 0.0068359375, 0.24609375
0.0341796875, 0.0244140625, 0.2353515625
0.0361328125, 0.005859375, 0.2314453125
0.0361328125, -0.015625, 0.244140625
0.0341796875, -0.00390625, 0.25
0.0341796875, 0.0263671875, 0.2578125
0.0302734375, 0.0234375, 0.2529296875
0.033203125, 0.009765625, 0.248046875
0.03125, 0.0166015625, 0.228515625
0.03515625, 0.0029296875, 0.2197265625
0.03515625, -0.009765625, 0.2490234375
0.03125, -0.0048828125, 0.26171875
0.0302734375, 0.0224609375, 0.2548828125
0.033203125, 0.02734375, 0.2392578125
0.0322265625, -0.0009765625, 0.2314453125
0.03125, -0.01171875, 0.2431640625
0.033203125, 0.0107421875, 0.255859375
0.0341796875, 0.0078125, 0.2529296875
0.0302734375, 0.00390625, 0.2470703125
0.033203125, 0.0029296875, 0.2451171875
0.0341796875, 0.0068359375, 0.2431640625
0.03515625, -0.0048828125, 0.24609375
0.033203125, 0.009765625, 0.2431640625
0.03125, 0.0224609375, 0.2451171875
0.033203125, 0.0029296875, 0.2490234375
0.0361328125, -0.0166015625, 0.2431640625
0.033203125, 0.0078125, 0.2431640625
0.0361328125, 0.0263671875, 0.244140625
0.033203125, 0.01171875, 0.2421875
0.0341796875, -0.0078125, 0.25
0.0341796875, 0.0048828125, 0.2529296875
0.033203125, 0.0146484375, 0.24609375
0.029296875, 0.0166015625, 0.2373046875
0.0341796875, 0.009765625, 0.2294921875
0.0380859375, 0.0009765625, 0.236328125
0.03125, 0.0078125, 0.236328125
0.03515625, -0.005859375, 0.248046875
0.0341796875, -0.00390625, 0.2490234375
0.0361328125, 0.0048828125, 0.2431640625
0.0341796875, 0.013671875, 0.23046875
0.033203125, 0.015625, 0.220703125
0.033203125, 0.00390625, 0.2412109375
0.0341796875, 0.0, 0.2548828125
0.0322265625, 0.00390625, 0.2509765625
0.033203125, 0.021484375, 0.244140625
0.03515625, 0.017578125, 0.2451171875
0.0361328125, -0.00390625, 0.2451171875
0.0341796875, -0.0146484375, 0.2431640625
0.0322265625, 0.0068359375, 0.251953125
0.029296875, 0.01953125, 0.2509765625
0.03125, 0.0185546875, 0.2451171875
0.0341796875, -0.013671875, 0.2470703125
0.029296875, -0.0029296875, 0.2431640625
0.03125, 0.0244140625, 0.240234375
0.0322265625, 0.025390625, 0.2421875
0.033203125, -0.0107421875, 0.2548828125
0.0322265625, -0.0126953125, 0.2568359375
0.033203125, 0.0107421875, 0.234375
0.029296875, 0.0224609375, 0.2294921875
0.0283203125, 0.0068359375, 0.2431640625
0.0341796875, 0.0009765625, 0.251953125
0.0322265625, 0.0087890625, 0.251953125
0.03125, 0.0087890625, 0.2451171875
0.0322265625, -0.001953125, 0.2451171875
0.03515625, 0.0, 0.2451171875
0.0361328125, 0.0185546875, 0.2421875
0.03125, 0.0419921875, 0.234375
0.02734375, 0.0283203125, 0.2451171875
0.02734375, 0.005859375, 0.25
0.03125, 0.0, 0.2470703125
0.033203125, 0.0009765625, 0.240234375
0.0341796875, -0.00390625, 0.2392578125
0.0283203125, -0.0087890625, 0.244140625
0.0283203125, 0.00390625, 0.25390625
0.029296875, -0.00390625, 0.2626953125
0.0341796875, -0.001953125, 0.2587890625
0.03125, 0.013671875, 0.2421875
0.03515625, 0.0224609375, 0.2236328125
0.0400390625, 0.0009765625, 0.232421875
0.0390625, -0.001953125, 0.24609375
0.03125, 0.005859375, 0.236328125
0.03125, 0.005859375, 0.2412109375
0.0361328125, -0.0283203125, 0.26171875
0.03515625, -0.0234375, 0.27734375
0.037109375, 0.017578125, 0.26953125
0.037109375, 0.0322265625, 0.240234375
0.033203125, 0.0107421875, 0.21875
0.03125, -0.00390625, 0.2314453125
0.0302734375, 0.0009765625, 0.251953125
0.0341796875, 0.015625, 0.25
0.03125, 0.0146484375, 0.2451171875
0.0341796875, -0.0068359375, 0.240234375
0.0341796875, -0.0107421875, 0.2412109375
0.0302734375, 0.0068359375, 0.2421875
0.0302734375, 0.017578125, 0.236328125
0.0322265625, 0.0068359375, 0.2412109375
0.0322265625, -0.0029296875, 0.2490234375
0.03125, -0.005859375, 0.2470703125
0.033203125, 0.0029296875, 0.2373046875
0.0341796875, -0.0087890625, 0.2333984375
0.033203125, -0.0205078125, 0.2421875
0.03125, 0.0126953125, 0.2451171875
0.03515625, 0.0234375, 0.25
0.0341796875, -0.001953125, 0.2431640625
0.0322265625, -0.021484375, 0.2470703125
0.033203125, -0.0048828125, 0.25
0.0322265625, 0.0, 0.25
0.033203125, -0.0068359375, 0.2490234375
0.03125, 0.0048828125, 0.240234375
0.033203125, 0.0068359375, 0.23828125
0.0361328125, 0.00390625, 0.236328125
0.033203125, 0.0087890625, 0.240234375
0.03125, 0.0107421875, 0.2451171875
0.0302734375, 0.0078125, 0.244140625
0.0302734375, 0.0, 0.2509765625
0.03515625, 0.0009765625, 0.251953125
0.033203125, 0.0, 0.25390625
0.033203125, 0.0, 0.2421875
0.0361328125, 0.0068359375, 0.2294921875
0.0341796875, 0.01171875, 0.240234375
0.0361328125, 0.0009765625, 0.248046875
0.03125, 0.0029296875, 0.2490234375
0.033203125, -0.001953125, 0.2509765625
0.03125, -0.0107421875, 0.255859375
0.0302734375, 0.0029296875, 0.2529296875
0.0302734375, 0.0224609375, 0.2392578125
0.029296875, 0.0048828125, 0.2265625
0.0302734375, -0.009765625, 0.232421875
0.033203125, -0.0029296875, 0.2451171875
0.03515625, 0.001953125, 0.2451171875
0.0322265625, 0.001953125, 0.240234375
0.0341796875, 0.0, 0.2431640625
0.0341796875, 0.005859375, 0.24609375
0.03515625, 0.0126953125, 0.2421875
0.033203125, 0.0087890625, 0.244140625
0.0341796875, -0.005859375, 0.2509765625
0.03125, 0.001953125, 0.2509765625
0.03515625, 0.00390625, 0.2490234375
0.03125, 0.005859375, 0.240234375
0.03125, 0.009765625, 0.2373046875
0.0322265625, 0.005859375, 0.244140625
0.03125, 0.0068359375, 0.2490234375
0.033203125, 0.0107421875, 0.2451171875
0.0341796875, 0.001953125, 0.248046875
0.0302734375, 0.00390625, 0.24609375
0.0341796875, 0.005859375, 0.2490234375
0.033203125, -0.0029296875, 0.2392578125
0.033203125, 0.0, 0.24609375
0.0302734375, 0.015625, 0.2568359375
0.033203125, 0.0107421875, 0.244140625
0.033203125, -0.015625, 0.2373046875
0.0322265625, -0.001953125, 0.236328125
0.03125, 0.0107421875, 0.25
0.0322265625, 0.009765625, 0.2431640625
0.0322265625, -0.0068359375, 0.25
0.0322265625, -0.001953125, 0.2529296875
0.033203125, 0.0087890625, 0.25390625
0.0322265625, 0.0009765625, 0.244140625
0.0302734375, 0.0009765625, 0.23046875
0.0322265625, -0.00390625, 0.24609375
0.03125, 0.0068359375, 0.2509765625
0.0322265625, 0.0107421875, 0.2509765625
0.03125, 0.009765625, 0.234375
0.03515625, -0.0009765625, 0.2353515625
0.033203125, -0.0009765625, 0.240234375
0.0341796875, 0.0, 0.251953125
0.03125, 0.0048828125, 0.2509765625
0.029296875, 0.0068359375, 0.236328125
0.0302734375, 0.013671875, 0.2392578125
0.0341796875, 0.0078125, 0.2421875
0.0322265625, 0.0048828125, 0.2431640625
0.033203125, 0.00390625, 0.244140625
0.0341796875, 0.0009765625, 0.25
0.0322265625, 0.005859375, 0.248046875
0.033203125, -0.0009765625, 0.2470703125
0.0341796875, -0.001953125, 0.248046875
0.0341796875, 0.001953125, 0.24609375
0.033203125, 0.015625, 0.2490234375
0.0341796875, 0.0048828125, 0.248046875
0.0322265625, -0.0048828125, 0.244140625
0.0322265625, -0.0009765625, 0.2470703125
0.033203125, 0.005859375, 0.2451171875
0.0322265625, 0.0048828125, 0.2353515625
0.0322265625, 0.0048828125, 0.2373046875
0.0322265625, 0.001953125, 0.2470703125
0.033203125, 0.0, 0.255859375
0.033203125, -0.0009765625, 0.2548828125
0.03125, 0.0068359375, 0.2421875
0.03125, 0.0126953125, 0.228515625
0.029296875, 0.00390625, 0.232421875
0.0322265625, -0.0009765625, 0.236328125
0.03125, 0.0068359375, 0.244140625
0.033203125, 0.0029296875, 0.2509765625
0.0322265625, -0.0029296875, 0.248046875
0.033203125, 0.0029296875, 0.23828125
0.0322265625, 0.0068359375, 0.2412109375
0.0341796875, -0.0009765625, 0.2412109375
0.03125, -0.0048828125, 0.234375
0.0341796875, 0.0048828125, 0.23828125
