0.0380859375, 0.0205078125, 0.2529296875
0.0390625, 0.0234375, 0.2412109375
0.0390625, 0.0126953125, 0.240234375
0.037109375, 0.0341796875, 0.23828125
0.0380859375, 0.0234375, 0.2333984375
0.0390625, 0.0322265625, 0.2294921875
0.0400390625, 0.0263671875, 0.2412109375
0.0390625, 0.0078125, 0.2529296875
0.0380859375, 0.025390625, 0.2412109375
0.0400390625, 0.013671875, 0.2392578125
0.0380859375, 0.0224609375, 0.240234375
0.0390625, 0.0234375, 0.2421875
0.0390625, 0.0166015625, 0.240234375
0.0361328125, 0.037109375, 0.228515625
0.03515625, 0.015625, 0.25
0.037109375, 0.0107421875, 0.2578125
0.0390625, 0.0361328125, 0.2412109375
0.0361328125, 0.0166015625, 0.234375
0.037109375, 0.01953125, 0.2294921875
0.0390625, 0.0244140625, 0.2412109375
0.0380859375, 0.013671875, 0.2509765625
0.0380859375, 0.029296875, 0.2509765625
0.0361328125, 0.0205078125, 0.248046875
0.0419921875, 0.0087890625, 0.2392578125
0.041015625, 0.0126953125, 0.2490234375
0.041015625, 0.0185546875, 0.2392578125
0.0380859375, 0.029296875, 0.22265625
0.037109375, 0.033203125, 0.2265625
0.0390625, 0.0166015625, 0.2490234375
0.0380859375, 0.01171875, 0.25390625
0.0400390625, 0.013671875, 0.24609375
0.03515625, 0.03515625, 0.23046875
0.0380859375, 0.029296875, 0.2353515625
0.0380859375, 0.0146484375, 0.2451171875
0.037109375, 0.013671875, 0.24609375
0.0380859375, 0.03125, 0.2412109375
0.0380859375, 0.017578125, 0.2451171875
0.037109375, 0.0107421875, 0.24609375
0.037109375, 0.0205078125, 0.240234375
0.037109375, 0.03515625, 0.232421875
0.0380859375, 0.0126953125, 0.2490234375
0.0361328125, 0.0087890625, 0.2529296875
0.0361328125, 0.0224609375, 0.2470703125
0.0390625, 0.037109375, 0.2294921875
0.037109375, 0.03515625, 0.2265625
0.0380859375, 0.0341796875, 0.2412109375
0.0380859375, 0.041015625, 0.251953125
0.041015625, 0.06640625, 0.259765625
0.0439453125, 0.0810546875, 0.2626953125
0.041015625, 0.0908203125, 0.2412109375
0.0361328125, 0.1015625, 0.220703125
0.0380859375, 0.1201171875, 0.2158203125
0.0361328125, 0.169921875, 0.1943359375
0.037109375, 0.177734375, 0.19140625
0.03125, 0.158203125, 0.1845703125
0.0263671875, 0.1357421875, 0.1748046875
0.0146484375, 0.109375, 0.185546875
0.0126953125, 0.11328125, 0.19921875
0.0068359375, 0.125, 0.216796875
-0.001953125, 0.1572265625, 0.2412109375
-0.01953125, 0.15234375, 0.21875
-0.033203125, 0.03125, 0.2041015625
-0.033203125, -0.0068359375, 0.248046875
-0.03515625, -0.017578125, 0.28125
-0.03515625, -0.021484375, 0.2998046875
-0.037109375, -0.0244140625, 0.2880859375
-0.03515625, -0.0380859375, 0.2587890625
-0.0361328125, -0.0234375, 0.236328125
-0.041015625, -0.03125, 0.234375
-0.041015625, -0.06640625, 0.26953125
-0.0380859375, -0.0703125, 0.3095703125
-0.033203125, -0.064453125, 0.2861328125
-0.0390625, -0.064453125, 0.2734375
-0.0390625, -0.068359375, 0.275390625
-0.0341796875, -0.046875, 0.25390625
-0.033203125, -0.033203125, 0.2255859375
-0.0341796875, -0.0322265625, 0.2392578125
-0.0322265625, -0.05078125, 0.2529296875
-0.029296875, -0.056640625, 0.25
-0.029296875, -0.03515625, 0.2392578125
-0.0263671875, -0.017578125, 0.25
-0.0283203125, -0.02734375, 0.2548828125
-0.0234375, -0.0390625, 0.26171875
-0.0234375, -0.017578125, 0.244140625
-0.021484375, -0.013671875, 0.23828125
-0.021484375, -0.0068359375, 0.2353515625
-0.017578125, 0.0, 0.2470703125
-0.017578125, -0.0087890625, 0.265625
-0.01953125, -0.0009765625, 0.2783203125
-0.017578125, 0.009765625, 0.265625
-0.0166015625, 0.013671875, 0.2548828125
-0.015625, 0.01171875, 0.236328125
-0.015625, 0.0068359375, 0.2294921875
-0.013671875, 0.00390625, 0.2392578125
-0.01171875, 0.0205078125, 0.248046875
-0.0126953125, 0.017578125, 0.25390625
-0.013671875, 0.0185546875, 0.2548828125
-0.013671875, 0.0302734375, 0.26171875
-0.0166015625, 0.0263671875, 0.2880859375
-0.021484375, 0.013671875, 0.3515625
-0.0302734375, -0.0185546875, 0.423828125
-0.03125, -0.03125, 0.4716796875
-0.0361328125, -0.0302734375, 0.5
-0.041015625, -0.03515625, 0.4775390625
-0.0478515625, -0.044921875, 0.43359375
-0.052734375, -0.0537109375, 0.4228515625
-0.0556640625, -0.0556640625, 0.4384765625
-0.0615234375, -0.068359375, 0.4091796875
-0.0634765625, -0.0908203125, 0.3701171875
-0.0615234375, -0.1025390625, 0.3359375
-0.0595703125, -0.0859375, 0.294921875
-0.060546875, -0.0732421875, 0.259765625
-0.0498046875, -0.0634765625, 0.21875
-0.0419921875, -0.0615234375, 0.1640625
-0.0263671875, -0.0576171875, 0.08203125
-0.0048828125, -0.0751953125, 0.0146484375
0.015625, -0.0693359375, -0.0078125
0.0322265625, -0.0546875, -0.0146484375
0.0439453125, -0.03515625, -0.064453125
0.0673828125, -0.0224609375, -0.087890625
0.080078125, 0.00390625, -0.1357421875
0.091796875, 0.025390625, -0.171875
0.099609375, 0.08984375, -0.1806640625
0.095703125, 0.1181640625, -0.1689453125
0.0771484375, 0.099609375, -0.181640625
0.0576171875, 0.0654296875, -0.1640625
0.025390625, 0.0576171875, -0.12890625
-0.0185546875, 0.0654296875, -0.1123046875
-0.060546875, 0.0576171875, -0.0849609375
-0.1083984375, 0.041015625, -0.0146484375
-0.1474609375, 0.04296875, 0.109375
-0.1748046875, 0.037109375, 0.18359375
-0.1884765625, 0.0712890625, 0.259765625
-0.212890625, 0.0986328125, 0.3134765625
-0.2265625, 0.0224609375, 0.36328125
-0.2314453125, -0.0078125, 0.3203125
-0.2587890625, 0.0009765625, 0.28125
-0.294921875, 0.0009765625, 0.4091796875
-0.3037109375, -0.0126953125, 0.5703125
-0.3017578125, -0.0234375, 0.591796875
-0.306640625, 0.0185546875, 0.4375
-0.3291015625, 0.0, 0.4140625
-0.3251953125, -0.0078125, 0.51171875
-0.3125, 0.0703125, 0.697265625
-0.298828125, 0.09765625, 0.7685546875
-0.2998046875, 0.05078125, 0.7041015625
-0.310546875, 0.021484375, 0.6123046875
-0.3212890625, 0.0302734375, 0.5810546875
-0.328125, 0.0791015625, 0.6123046875
-0.32421875, 0.1123046875, 0.658203125
-0.3564453125, 0.095703125, 0.677734375
-0.421875, 0.0146484375, 0.5419921875
-0.4501953125, -0.0498046875, 0.33203125
-0.4306640625, -0.0673828125, 0.1611328125
-0.369140625, 0.0068359375, 0.0947265625
-0.3037109375, 0.09765625, 0.0546875
-0.2333984375, 0.150390625, -0.064453125
-0.15234375, 0.1279296875, -0.130859375
-0.095703125, 0.0546875, -0.072265625
-0.044921875, 0.0380859375, -0.0986328125
0.00390625, 0.0029296875, -0.14453125
0.0458984375, -0.0458984375, -0.166015625
0.0732421875, -0.01171875, -0.16015625
0.0888671875, 0.0166015625, -0.2138671875
0.0966796875, 0.02734375, -0.294921875
0.107421875, 0.0048828125, -0.349609375
0.095703125, 0.0458984375, -0.359375
0.05078125, 0.0537109375, -0.306640625
-0.001953125, 0.017578125, -0.2685546875
-0.0634765625, 0.017578125, -0.2578125
-0.1630859375, 0.033203125, -0.2802734375
-0.2978515625, -0.021484375, -0.2197265625
-0.4345703125, -0.0244140625, -0.0595703125
-0.5, 0.087890625, 0.2705078125
-0.4716796875, 0.166015625, 0.5205078125
-0.4208984375, 0.140625, 0.7392578125
-0.35546875, -0.0263671875, 0.7099609375
-0.3466796875, -0.1552734375, 0.6650390625
-0.3359375, -0.1103515625, 0.6884765625
-0.298828125, -0.0244140625, 0.9189453125
-0.255859375, 0.029296875, 0.9990234375
-0.248046875, 0.0400390625, 0.9990234375
-0.2822265625, -0.0146484375, 0.89453125
-0.322265625, -0.05859375, 0.6611328125
-0.322265625, -0.015625, 0.4853515625
-0.3134765625, 0.03515625, 0.3896484375
-0.2939453125, 0.0830078125, 0.28125
-0.28125, 0.1201171875, 0.1484375
-0.2080078125, 0.123046875, -0.056640625
-0.123046875, 0.0771484375, -0.1640625
-0.052734375, 0.03125, -0.193359375
0.0, -0.0048828125, -0.2216796875
0.0390625, 0.0048828125, -0.16015625
0.056640625, 0.05078125, -0.044921875
0.06640625, 0.0478515625, 0.0087890625
0.072265625, 0.0166015625, 0.0234375
0.076171875, -0.0009765625, 0.0947265625
0.0751953125, -0.001953125, 0.1943359375
0.07421875, 0.0, 0.251953125
0.064453125, -0.001953125, 0.2490234375
0.052734375, -0.0224609375, 0.2490234375
0.044921875, -0.0107421875, 0.2470703125
0.0400390625, 0.025390625, 0.251953125
0.0419921875, 0.0341796875, 0.302734375
0.0439453125, 0.04296875, 0.3193359375
0.0400390625, 0.0283203125, 0.2978515625
0.04296875, 0.0341796875, 0.2412109375
0.0439453125, 0.0263671875, 0.21484375
0.044921875, 0.005859375, 0.2421875
0.0419921875, 0.0390625, 0.2392578125
0.0419921875, 0.009765625, 0.2724609375
0.0380859375, 0.0078125, 0.314453125
0.037109375, 0.02734375, 0.26953125
0.0380859375, 0.0087890625, 0.2392578125
0.0419921875, 0.0, 0.208984375
0.0400390625, -0.01171875, 0.2431640625
0.0478515625, 0.033203125, 0.2392578125
0.046875, 0.0517578125, 0.2294921875
0.0419921875, 0.01171875, 0.2294921875
0.0400390625, 0.0205078125, 0.220703125
0.044921875, 0.0361328125, 0.23828125
0.041015625, 0.0078125, 0.3037109375
0.0400390625, 0.025390625, 0.3076171875
0.0361328125, 0.0302734375, 0.2509765625
0.0390625, 0.021484375, 0.2138671875
0.044921875, 0.0419921875, 0.2099609375
0.0439453125, 0.0400390625, 0.2412109375
0.0419921875, 0.0078125, 0.2412109375
0.0419921875, 0.017578125, 0.2314453125
0.044921875, 0.03515625, 0.2255859375
0.04296875, 0.015625, 0.2275390625
0.0380859375, 0.0244140625, 0.2236328125
0.0380859375, 0.0380859375, 0.2275390625
0.0400390625, 0.0263671875, 0.240234375
0.0390625, 0.0263671875, 0.23828125
0.04296875, 0.0224609375, 0.2255859375
0.0400390625, 0.017578125, 0.244140625
0.0400390625, 0.0078125, 0.255859375
0.041015625, 0.017578125, 0.251953125
0.0380859375, 0.0341796875, 0.2265625
0.0390625, 0.03125, 0.2138671875
0.0380859375, 0.0244140625, 0.234375
0.037109375, 0.02734375, 0.2607421875
0.037109375, 0.0263671875, 0.2490234375
0.0361328125, 0.0078125, 0.23828125
0.0341796875, 0.033203125, 0.232421875
0.033203125, 0.0244140625, 0.232421875
0.03515625, 0.0244140625, 0.2431640625
0.0341796875, 0.04296875, 0.2548828125
0.03125, 0.013671875, 0.27734375
0.0302734375, 0.0224609375, 0.26171875
0.033203125, 0.0322265625, 0.2587890625
0.0302734375, 0.025390625, 0.2578125
0.029296875, 0.029296875, 0.2412109375
0.0322265625, 0.0234375, 0.23046875
0.03125, 0.0263671875, 0.2421875
0.033203125, 0.0029296875, 0.244140625
0.033203125, 0.0146484375, 0.2353515625
0.033203125, 0.009765625, 0.2392578125
0.0302734375, 0.0244140625, 0.2294921875
0.0302734375, 0.0390625, 0.248046875
0.0283203125, 0.0146484375, 0.2490234375
0.0302734375, 0.0244140625, 0.2392578125
0.029296875, 0.0234375, 0.2412109375
0.0302734375, 0.029296875, 0.2431640625
0.025390625, 0.03125, 0.244140625
0.029296875, 0.0234375, 0.251953125
0.03125, 0.0263671875, 0.2490234375
0.0341796875, 0.0185546875, 0.236328125
0.03125, 0.021484375, 0.2314453125
0.0302734375, 0.0341796875, 0.2451171875
0.029296875, 0.02734375, 0.251953125
0.029296875, 0.0302734375, 0.2421875
0.029296875, 0.025390625, 0.25
0.0302734375, 0.015625, 0.2548828125
0.03125, 0.021484375, 0.25
0.0283203125, 0.0205078125, 0.232421875
0.02734375, 0.0283203125, 0.234375
0.03125, 0.0205078125, 0.2509765625
0.0302734375, 0.0361328125, 0.2421875
0.0263671875, 0.0244140625, 0.251953125
0.0283203125, 0.02734375, 0.2470703125
0.02734375, 0.03125, 0.244140625
0.029296875, 0.015625, 0.2490234375
0.02734375, 0.0341796875, 0.2431640625
0.0263671875, 0.0224609375, 0.2431640625
0.0283203125, 0.0234375, 0.2275390625
0.03125, 0.0283203125, 0.244140625
0.0302734375, 0.005859375, 0.2568359375
0.0302734375, 0.0224609375, 0.23828125
0.0322265625, 0.0302734375, 0.23046875
0.03125, 0.017578125, 0.2421875
0.0283203125, 0.03125, 0.2529296875
0.029296875, 0.0224609375, 0.2451171875
0.0283203125, 0.029296875, 0.240234375
0.0283203125, 0.0458984375, 0.2509765625
0.0263671875, 0.015625, 0.25
0.0283203125, 0.0205078125, 0.236328125
0.03125, 0.0361328125, 0.2255859375
0.0322265625, 0.0341796875, 0.2392578125
0.029296875, 0.013671875, 0.2568359375
0.029296875, 0.01953125, 0.2421875
0.0283203125, 0.0322265625, 0.232421875
0.0302734375, 0.0341796875, 0.2275390625
0.0302734375, 0.037109375, 0.2431640625
0.03125, 0.0126953125, 0.2421875
0.029296875, 0.0380859375, 0.2236328125
0.0302734375, 0.041015625, 0.240234375
0.0244140625, 0.009765625, 0.2548828125
0.0244140625, 0.0244140625, 0.2509765625
0.025390625, 0.009765625, 0.2412109375
0.0283203125, 0.0107421875, 0.244140625
0.0302734375, 0.0302734375, 0.2392578125
0.0302734375, 0.0341796875, 0.2294921875
0.0322265625, 0.025390625, 0.2392578125
0.03125, 0.033203125, 0.2548828125
0.0283203125, 0.0390625, 0.2529296875
0.02734375, 0.037109375, 0.232421875
0.02734375, 0.037109375, 0.2412109375
0.03125, 0.0380859375, 0.2578125
0.03125, 0.0263671875, 0.2529296875
0.029296875, 0.01953125, 0.251953125
0.0302734375, 0.0283203125, 0.2490234375
0.033203125, 0.0302734375, 0.2509765625
0.029296875, 0.0302734375, 0.244140625
0.03125, 0.0263671875, 0.2333984375
0.029296875, 0.0380859375, 0.2265625
0.029296875, 0.033203125, 0.236328125
0.0322265625, 0.0166015625, 0.2509765625
0.02734375, 0.0166015625, 0.244140625
0.0263671875, 0.0341796875, 0.2314453125
0.02734375, 0.0283203125, 0.224609375
0.0322265625, 0.0205078125, 0.2392578125
0.0302734375, 0.021484375, 0.251953125
0.029296875, 0.021484375, 0.248046875
0.02734375, 0.0302734375, 0.234375
0.03125, 0.0244140625, 0.236328125
0.0283203125, 0.0341796875, 0.2431640625
0.029296875, 0.02734375, 0.2548828125
0.0322265625, 0.0361328125, 0.2431640625
0.029296875, 0.03125, 0.2490234375
0.029296875, 0.00390625, 0.259765625
0.0302734375, 0.03125, 0.2509765625
0.03125, 0.0361328125, 0.2392578125
0.0263671875, 0.0224609375, 0.2275390625
0.029296875, 0.0439453125, 0.23046875
0.0302734375, 0.03515625, 0.2421875
0.0263671875, 0.0302734375, 0.25
0.02734375, 0.033203125, 0.259765625
0.029296875, 0.037109375, 0.2451171875
0.0302734375, 0.021484375, 0.2392578125
0.0283203125, 0.0263671875, 0.236328125
0.029296875, 0.0166015625, 0.2490234375
0.0302734375, 0.0205078125, 0.244140625
0.0283203125, 0.0341796875, 0.232421875
0.029296875, 0.0302734375, 0.23046875
0.029296875, 0.0400390625, 0.232421875
0.0283203125, 0.0126953125, 0.2431640625
0.029296875, 0.0283203125, 0.2421875
0.0283203125, 0.05078125, 0.2490234375
0.0263671875, 0.0185546875, 0.2578125
0.025390625, 0.0244140625, 0.248046875
0.029296875, 0.037109375, 0.24609375
0.033203125, 0.0283203125, 0.2431640625
0.0302734375, 0.0302734375, 0.2470703125
0.02734375, 0.0400390625, 0.2353515625
0.0283203125, 0.0361328125, 0.248046875
0.03125, 0.0283203125, 0.248046875
0.0244140625, 0.0205078125, 0.2529296875
0.0283203125, 0.0322265625, 0.2412109375
0.029296875, 0.033203125, 0.248046875
0.0283203125, 0.017578125, 0.25
0.0302734375, 0.0380859375, 0.2470703125
0.0283203125, 0.0224609375, 0.23828125
0.029296875, 0.0283203125, 0.2333984375
0.03125, 0.048828125, 0.232421875
0.0244140625, 0.0302734375, 0.2255859375
0.029296875, 0.0234375, 0.2373046875
0.0322265625, 0.0302734375, 0.25390625
0.0302734375, 0.0263671875, 0.2509765625
0.0283203125, 0.0390625, 0.2314453125
0.029296875, 0.03125, 0.234375
0.0283203125, 0.01953125, 0.2529296875
0.0283203125, 0.0185546875, 0.2607421875
0.0283203125, 0.0234375, 0.2470703125
0.0322265625, 0.033203125, 0.2265625
0.0283203125, 0.0439453125, 0.2216796875
0.0244140625, 0.0341796875, 0.224609375
0.0244140625, 0.0224609375, 0.23046875
0.02734375, 0.01953125, 0.2412109375
0.02734375, 0.0322265625, 0.24609375
0.0283203125, 0.0302734375, 0.2314453125
0.0244140625, 0.0283203125, 0.234375
0.0263671875, 0.0224609375, 0.2587890625
0.0283203125, 0.0205078125, 0.271484375
0.02734375, 0.0283203125, 0.24609375
0.0283203125, 0.0341796875, 0.2421875
0.029296875, 0.0400390625, 0.236328125
0.029296875, 0.044921875, 0.2431640625
0.02734375, 0.033203125, 0.24609375
0.03125, 0.0224609375, 0.2548828125
0.0283203125, 0.0283203125, 0.2392578125
0.0302734375, 0.0546875, 0.2353515625
0.0263671875, 0.02734375, 0.2568359375
0.025390625, 0.0224609375, 0.25390625
0.0302734375, 0.033203125, 0.244140625
0.0263671875, 0.0478515625, 0.220703125
0.0263671875, 0.0400390625, 0.2275390625
0.0244140625, 0.0234375, 0.2490234375
0.029296875, 0.033203125, 0.2529296875
0.0283203125, 0.033203125, 0.2421875
0.0283203125, 0.044921875, 0.2265625
0.02734375, 0.033203125, 0.2333984375
0.0283203125, 0.0263671875, 0.2451171875
0.0283203125, 0.01953125, 0.2529296875
0.02734375, 0.0302734375, 0.23828125
0.029296875, 0.044921875, 0.224609375
0.0283203125, 0.0166015625, 0.2392578125
0.02734375, 0.021484375, 0.2529296875
0.029296875, 0.03125, 0.2421875
0.029296875, 0.0341796875, 0.2412109375
0.02734375, 0.0205078125, 0.2490234375
0.029296875, 0.01953125, 0.248046875
0.029296875, 0.029296875, 0.2373046875
0.02734375, 0.0380859375, 0.23046875
0.02734375, 0.0244140625, 0.2431640625
0.0283203125, 0.0224609375, 0.248046875
0.029296875, 0.03125, 0.2431640625
0.0283203125, 0.0419921875, 0.236328125
0.0263671875, 0.037109375, 0.23828125
0.029296875, 0.033203125, 0.248046875
0.029296875, 0.0322265625, 0.24609375
0.0283203125, 0.03125, 0.24609375
0.0283203125, 0.0224609375, 0.2509765625
0.02734375, 0.04296875, 0.2353515625
0.02734375, 0.0341796875, 0.2392578125
0.0283203125, 0.0322265625, 0.248046875
0.0283203125, 0.02734375, 0.2578125
0.0283203125, 0.0361328125, 0.23828125
0.029296875, 0.033203125, 0.2265625
0.0283203125, 0.0263671875, 0.244140625
0.0263671875, 0.0263671875, 0.2607421875
0.0263671875, 0.0263671875, 0.244140625
0.0283203125, 0.041015625, 0.2216796875
0.02734375, 0.0341796875, 0.234375
0.0283203125, 0.01953125, 0.2587890625
0.02734375, 0.021484375, 0.25390625
0.02734375, 0.0419921875, 0.2392578125
0.029296875, 0.0478515625, 0.23828125
0.029296875, 0.0419921875, 0.2451171875
