0.0576171875, 0.0703125, 0.21484375
0.0576171875, 0.060546875, 0.2080078125
0.0556640625, 0.0625, 0.2294921875
0.0556640625, 0.0693359375, 0.24609375
0.0576171875, 0.0693359375, 0.2314453125
0.0576171875, 0.0693359375, 0.2041015625
0.060546875, 0.0625, 0.2001953125
0.0615234375, 0.06640625, 0.22265625
0.0595703125, 0.0654296875, 0.24609375
0.056640625, 0.0595703125, 0.228515625
0.0556640625, 0.0634765625, 0.212890625
0.0556640625, 0.06640625, 0.2119140625
0.0556640625, 0.0673828125, 0.21875
0.052734375, 0.064453125, 0.2294921875
0.0498046875, 0.0732421875, 0.240234375
0.0498046875, 0.0751953125, 0.2275390625
0.0498046875, 0.078125, 0.224609375
0.0498046875, 0.076171875, 0.2353515625
0.048828125, 0.0712890625, 0.2529296875
0.0517578125, 0.064453125, 0.2451171875
0.0517578125, 0.0771484375, 0.232421875
0.0537109375, 0.0712890625, 0.23828125
0.052734375, 0.0693359375, 0.2294921875
0.048828125, 0.0673828125, 0.2392578125
0.0478515625, 0.0810546875, 0.2275390625
0.0478515625, 0.0771484375, 0.248046875
0.048828125, 0.064453125, 0.2578125
0.0498046875, 0.0771484375, 0.23046875
0.05078125, 0.0771484375, 0.20703125
0.052734375, 0.076171875, 0.2216796875
0.052734375, 0.0732421875, 0.244140625
0.05078125, 0.06640625, 0.2548828125
0.0498046875, 0.08203125, 0.220703125
0.05078125, 0.09375, 0.20703125
0.0517578125, 0.0791015625, 0.21875
0.0556640625, 0.0703125, 0.216796875
0.0546875, 0.0654296875, 0.220703125
0.0498046875, 0.080078125, 0.2255859375
0.0498046875, 0.08203125, 0.2333984375
0.052734375, 0.0654296875, 0.2314453125
0.0537109375, 0.07421875, 0.21875
0.05078125, 0.0751953125, 0.2197265625
0.05078125, 0.0732421875, 0.244140625
0.052734375, 0.06640625, 0.23828125
0.048828125, 0.060546875, 0.21484375
0.0546875, 0.0791015625, 0.21875
0.05078125, 0.0986328125, 0.2275390625
0.05078125, 0.0673828125, 0.236328125
0.0517578125, 0.0576171875, 0.2421875
0.0537109375, 0.06640625, 0.2333984375
0.0537109375, 0.0732421875, 0.23046875
0.0537109375, 0.0771484375, 0.2255859375
0.0537109375, 0.064453125, 0.2412109375
0.05078125, 0.060546875, 0.2275390625
0.05078125, 0.0634765625, 0.2177734375
0.0498046875, 0.0927734375, 0.228515625
0.05078125, 0.087890625, 0.2333984375
0.048828125, 0.064453125, 0.234375
0.0498046875, 0.0693359375, 0.2197265625
0.05078125, 0.0751953125, 0.2294921875
0.0517578125, 0.0703125, 0.224609375
0.0498046875, 0.076171875, 0.228515625
0.052734375, 0.07421875, 0.2294921875
0.05078125, 0.0849609375, 0.220703125
0.05078125, 0.0732421875, 0.224609375
0.052734375, 0.0673828125, 0.2333984375
0.052734375, 0.0791015625, 0.234375
0.048828125, 0.0849609375, 0.2216796875
0.0498046875, 0.076171875, 0.22265625
0.0517578125, 0.072265625, 0.228515625
0.05078125, 0.078125, 0.2158203125
0.0478515625, 0.083984375, 0.216796875
0.05078125, 0.080078125, 0.2490234375
0.0498046875, 0.0576171875, 0.251953125
0.0478515625, 0.0517578125, 0.234375
0.048828125, 0.064453125, 0.224609375
0.05078125, 0.08203125, 0.251953125
0.0498046875, 0.056640625, 0.255859375
0.048828125, 0.04296875, 0.2373046875
0.046875, 0.0693359375, 0.2109375
0.0458984375, 0.1064453125, 0.205078125
0.0439453125, 0.0947265625, 0.228515625
0.048828125, 0.0703125, 0.2431640625
0.048828125, 0.0693359375, 0.22265625
0.0498046875, 0.0849609375, 0.2099609375
0.0537109375, 0.0712890625, 0.21484375
0.052734375, 0.0712890625, 0.2314453125
0.0498046875, 0.0751953125, 0.2255859375
0.0498046875, 0.08984375, 0.236328125
0.05078125, 0.0791015625, 0.236328125
0.05078125, 0.068359375, 0.228515625
0.052734375, 0.0654296875, 0.228515625
0.0517578125, 0.0771484375, 0.228515625
0.0498046875, 0.07421875, 0.2451171875
0.0478515625, 0.056640625, 0.236328125
0.046875, 0.0634765625, 0.2314453125
0.0517578125, 0.068359375, 0.216796875
0.0517578125, 0.072265625, 0.21875
0.048828125, 0.06640625, 0.22265625
0.0478515625, 0.0703125, 0.2392578125
0.0498046875, 0.0693359375, 0.240234375
0.046875, 0.0634765625, 0.2333984375
0.05078125, 0.0703125, 0.224609375
0.0517578125, 0.0771484375, 0.2197265625
0.0478515625, 0.0791015625, 0.232421875
0.0517578125, 0.0654296875, 0.236328125
0.0546875, 0.060546875, 0.2265625
0.0634765625, 0.0732421875, 0.2099609375
0.0703125, 0.0830078125, 0.220703125
0.076171875, 0.076171875, 0.240234375
0.0927734375, 0.0791015625, 0.279296875
0.1025390625, 0.125, 0.3193359375
0.109375, 0.1455078125, 0.3076171875
0.111328125, 0.08984375, 0.255859375
0.107421875, 0.0166015625, 0.2646484375
0.1083984375, 0.0234375, 0.36328125
0.099609375, 0.044921875, 0.4609375
0.0791015625, 0.0390625, 0.4697265625
0.08203125, 0.08203125, 0.361328125
0.0712890625, 0.1083984375, 0.2978515625
0.0693359375, 0.11328125, 0.3212890625
0.0712890625, 0.0634765625, 0.3896484375
0.076171875, -0.033203125, 0.3779296875
0.0771484375, -0.080078125, 0.2978515625
0.068359375, -0.078125, 0.208984375
0.0546875, -0.0556640625, 0.1552734375
0.060546875, -0.017578125, 0.2236328125
0.0458984375, -0.0048828125, 0.34765625
0.0439453125, -0.0751953125, 0.3017578125
0.0302734375, -0.1435546875, 0.248046875
0.0224609375, -0.1376953125, 0.169921875
0.0087890625, -0.08984375, 0.1162109375
0.0126953125, -0.015625, 0.0966796875
0.0205078125, 0.076171875, 0.1396484375
0.0302734375, 0.064453125, 0.166015625
0.03125, -0.04296875, 0.115234375
0.0263671875, -0.0615234375, 0.09765625
0.03125, 0.0234375, 0.1064453125
0.044921875, 0.0986328125, 0.103515625
0.0546875, 0.1318359375, 0.1318359375
0.0673828125, 0.138671875, 0.1064453125
0.078125, 0.1123046875, 0.09765625
0.0791015625, 0.07421875, 0.103515625
0.0869140625, 0.056640625, 0.1396484375
0.0810546875, 0.0908203125, 0.138671875
0.0712890625, 0.22265625, 0.0888671875
0.064453125, 0.3681640625, 0.0283203125
0.06640625, 0.4912109375, -0.080078125
0.052734375, 0.5361328125, -0.103515625
0.0107421875, 0.4716796875, 0.001953125
-0.0166015625, 0.478515625, 0.0869140625
-0.056640625, 0.5185546875, 0.0986328125
-0.130859375, 0.5185546875, 0.109375
-0.236328125, 0.44140625, 0.1376953125
-0.361328125, 0.28125, 0.2841796875
-0.416015625, -0.0390625, 0.4619140625
-0.3994140625, -0.6728515625, 0.3974609375
-0.25390625, -1.0, 0.4599609375
-0.162109375, -0.87109375, 0.59375
-0.130859375, -0.4716796875, 0.7080078125
-0.125, -0.4697265625, 0.640625
-0.140625, -0.6494140625, 0.5078125
-0.16015625, -0.6162109375, 0.5322265625
-0.16796875, -0.4697265625, 0.6005859375
-0.1806640625, -0.37890625, 0.5654296875
-0.1943359375, -0.3154296875, 0.4892578125
-0.220703125, -0.244140625, 0.43359375
-0.2470703125, -0.0654296875, 0.3447265625
-0.2802734375, 0.064453125, 0.181640625
-0.279296875, 0.3203125, 0.03515625
-0.21484375, 0.5703125, -0.015625
-0.10546875, 0.767578125, -0.0712890625
-0.03125, 0.7685546875, -0.193359375
0.001953125, 0.57421875, -0.287109375
0.0126953125, 0.5361328125, -0.29296875
0.0087890625, 0.5595703125, -0.2861328125
-0.037109375, 0.5361328125, -0.2626953125
-0.1181640625, 0.4130859375, -0.302734375
-0.232421875, 0.3037109375, -0.3642578125
-0.3798828125, 0.2412109375, -0.3427734375
-0.533203125, 0.267578125, -0.0869140625
-0.5732421875, 0.31640625, 0.5546875
-0.4951171875, 0.2255859375, 0.931640625
-0.40625, -0.2197265625, 0.70703125
-0.3173828125, -0.62890625, 0.623046875
-0.2041015625, -0.6162109375, 0.6865234375
-0.1396484375, -0.3623046875, 0.888671875
-0.095703125, -0.1171875, 0.7998046875
-0.09765625, -0.04296875, 0.556640625
-0.1005859375, -0.0458984375, 0.4208984375
-0.0849609375, -0.0419921875, 0.365234375
-0.0751953125, -0.0205078125, 0.359375
-0.0732421875, 0.015625, 0.380859375
-0.0654296875, 0.0498046875, 0.3525390625
-0.0615234375, 0.095703125, 0.2861328125
-0.0546875, 0.1123046875, 0.2333984375
-0.0478515625, 0.0595703125, 0.1767578125
-0.0361328125, 0.0400390625, 0.1884765625
-0.03515625, 0.0498046875, 0.2080078125
-0.0341796875, 0.0537109375, 0.21875
-0.046875, 0.064453125, 0.232421875
-0.04296875, 0.0498046875, 0.15234375
-0.03125, 0.0419921875, 0.1220703125
-0.0224609375, 0.076171875, 0.08984375
-0.0078125, 0.1220703125, 0.1552734375
-0.013671875, 0.1064453125, 0.2294921875
-0.0048828125, 0.0830078125, 0.2177734375
0.0029296875, 0.060546875, 0.2021484375
0.0087890625, 0.0576171875, 0.2373046875
0.015625, 0.0654296875, 0.2529296875
0.0205078125, 0.0791015625, 0.2548828125
0.0234375, 0.0830078125, 0.2626953125
0.0302734375, 0.10546875, 0.27734375
0.0322265625, 0.0966796875, 0.244140625
0.033203125, 0.0634765625, 0.2236328125
0.037109375, 0.0712890625, 0.2294921875
0.041015625, 0.0810546875, 0.2412109375
0.037109375, 0.076171875, 0.2353515625
0.0390625, 0.0751953125, 0.2314453125
0.0380859375, 0.06640625, 0.248046875
0.0478515625, 0.052734375, 0.2216796875
0.0576171875, 0.0478515625, 0.20703125
0.060546875, 0.076171875, 0.232421875
0.0615234375, 0.0908203125, 0.2353515625
0.060546875, 0.095703125, 0.208984375
0.05859375, 0.060546875, 0.212890625
0.05078125, 0.0283203125, 0.23046875
0.041015625, 0.025390625, 0.24609375
0.0390625, 0.0419921875, 0.228515625
0.03515625, 0.060546875, 0.2490234375
0.0341796875, 0.0732421875, 0.240234375
0.0322265625, 0.048828125, 0.224609375
0.0341796875, 0.0439453125, 0.2109375
0.0419921875, 0.07421875, 0.234375
0.0400390625, 0.0908203125, 0.255859375
0.044921875, 0.0634765625, 0.244140625
0.046875, 0.0625, 0.212890625
0.044921875, 0.0771484375, 0.20703125
0.0478515625, 0.0859375, 0.2314453125
0.04296875, 0.0849609375, 0.26171875
0.04296875, 0.0751953125, 0.2578125
0.041015625, 0.0791015625, 0.2314453125
0.0400390625, 0.091796875, 0.2216796875
0.0400390625, 0.068359375, 0.2255859375
0.0439453125, 0.072265625, 0.2294921875
0.04296875, 0.0830078125, 0.2451171875
0.044921875, 0.0654296875, 0.23046875
0.0390625, 0.0810546875, 0.1875
0.046875, 0.0810546875, 0.2109375
0.0419921875, 0.052734375, 0.2529296875
0.0458984375, 0.0732421875, 0.2431640625
0.04296875, 0.091796875, 0.2197265625
0.044921875, 0.08984375, 0.2060546875
0.0458984375, 0.06640625, 0.21484375
0.0458984375, 0.0634765625, 0.2353515625
0.044921875, 0.0615234375, 0.2333984375
0.0400390625, 0.080078125, 0.244140625
0.0419921875, 0.0712890625, 0.248046875
0.0419921875, 0.0732421875, 0.22265625
0.04296875, 0.0732421875, 0.220703125
0.044921875, 0.0693359375, 0.2333984375
0.041015625, 0.0791015625, 0.2431640625
0.04296875, 0.0791015625, 0.24609375
0.0419921875, 0.0771484375, 0.228515625
0.04296875, 0.0869140625, 0.22265625
0.04296875, 0.0869140625, 0.216796875
0.044921875, 0.08203125, 0.232421875
0.04296875, 0.080078125, 0.25390625
0.04296875, 0.056640625, 0.244140625
0.04296875, 0.0673828125, 0.2177734375
0.0478515625, 0.08203125, 0.1943359375
0.0458984375, 0.09375, 0.2119140625
0.044921875, 0.080078125, 0.232421875
0.04296875, 0.0556640625, 0.2421875
0.044921875, 0.0556640625, 0.236328125
0.0458984375, 0.083984375, 0.2236328125
0.044921875, 0.1005859375, 0.216796875
0.044921875, 0.0888671875, 0.212890625
0.046875, 0.0654296875, 0.232421875
0.0419921875, 0.0732421875, 0.236328125
0.044921875, 0.08203125, 0.228515625
0.04296875, 0.06640625, 0.1982421875
0.0419921875, 0.0625, 0.1904296875
0.044921875, 0.06640625, 0.251953125
0.041015625, 0.0625, 0.2822265625
0.04296875, 0.0654296875, 0.240234375
0.0439453125, 0.08203125, 0.205078125
0.0439453125, 0.0771484375, 0.212890625
0.0458984375, 0.0751953125, 0.2373046875
0.04296875, 0.072265625, 0.251953125
0.0390625, 0.0869140625, 0.2265625
0.0380859375, 0.1025390625, 0.2021484375
0.0390625, 0.09765625, 0.1904296875
0.0419921875, 0.0908203125, 0.2177734375
0.037109375, 0.0693359375, 0.2841796875
0.0390625, 0.0498046875, 0.2607421875
0.0400390625, 0.05859375, 0.208984375
0.0390625, 0.0869140625, 0.2109375
0.0390625, 0.0966796875, 0.232421875
0.0380859375, 0.0888671875, 0.24609375
0.0380859375, 0.0673828125, 0.24609375
0.0341796875, 0.064453125, 0.232421875
0.0390625, 0.08203125, 0.2265625
0.041015625, 0.0869140625, 0.2216796875
0.041015625, 0.0947265625, 0.2578125
0.0380859375, 0.0703125, 0.2646484375
0.0361328125, 0.0625, 0.2275390625
0.0419921875, 0.072265625, 0.1923828125
0.0400390625, 0.087890625, 0.1826171875
0.041015625, 0.0927734375, 0.212890625
0.037109375, 0.068359375, 0.2587890625
0.0390625, 0.064453125, 0.259765625
0.04296875, 0.083984375, 0.2236328125
0.0419921875, 0.0927734375, 0.2138671875
0.0400390625, 0.0771484375, 0.2216796875
0.0400390625, 0.076171875, 0.2470703125
0.0419921875, 0.0888671875, 0.2353515625
0.04296875, 0.0927734375, 0.2158203125
0.0419921875, 0.078125, 0.21875
0.0439453125, 0.0673828125, 0.2275390625
0.041015625, 0.0732421875, 0.22265625
0.041015625, 0.0810546875, 0.2158203125
0.04296875, 0.0869140625, 0.2197265625
0.0390625, 0.0732421875, 0.232421875
0.0419921875, 0.0751953125, 0.2353515625
0.0439453125, 0.0791015625, 0.23828125
0.0419921875, 0.078125, 0.240234375
0.041015625, 0.076171875, 0.234375
0.0419921875, 0.0810546875, 0.2236328125
0.0439453125, 0.08203125, 0.2294921875
0.0419921875, 0.0849609375, 0.224609375
0.04296875, 0.0751953125, 0.2294921875
0.0458984375, 0.0595703125, 0.2373046875
0.04296875, 0.072265625, 0.244140625
0.04296875, 0.099609375, 0.24609375
0.04296875, 0.12109375, 0.244140625
0.0400390625, 0.0908203125, 0.2080078125
0.044921875, 0.0498046875, 0.1962890625
0.046875, 0.0380859375, 0.2060546875
0.046875, 0.0771484375, 0.220703125
0.0439453125, 0.103515625, 0.234375
0.0439453125, 0.08203125, 0.232421875
0.0439453125, 0.0712890625, 0.22265625
0.0439453125, 0.0869140625, 0.2080078125
0.0419921875, 0.078125, 0.2275390625
0.0478515625, 0.0625, 0.2431640625
0.0458984375, 0.0673828125, 0.2392578125
0.04296875, 0.083984375, 0.2177734375
0.044921875, 0.0888671875, 0.2109375
0.044921875, 0.0791015625, 0.220703125
0.0439453125, 0.0712890625, 0.2451171875
0.0419921875, 0.0771484375, 0.2509765625
0.04296875, 0.076171875, 0.2314453125
0.0458984375, 0.0712890625, 0.2275390625
0.0439453125, 0.072265625, 0.2177734375
0.0439453125, 0.0751953125, 0.23828125
0.041015625, 0.08203125, 0.2265625
0.0419921875, 0.0732421875, 0.2353515625
0.04296875, 0.0712890625, 0.2314453125
0.0458984375, 0.0810546875, 0.2197265625
0.046875, 0.0751953125, 0.2138671875
0.044921875, 0.064453125, 0.23828125
0.041015625, 0.0703125, 0.2421875
0.0419921875, 0.0908203125, 0.22265625
0.04296875, 0.080078125, 0.2119140625
0.0439453125, 0.0634765625, 0.23046875
0.0419921875, 0.0712890625, 0.2412109375
0.0419921875, 0.0888671875, 0.2314453125
0.041015625, 0.0849609375, 0.2255859375
0.0439453125, 0.0791015625, 0.2216796875
0.0419921875, 0.07421875, 0.23046875
0.041015625, 0.0771484375, 0.2451171875
0.041015625, 0.083984375, 0.228515625
0.0439453125, 0.0830078125, 0.21875
0.044921875, 0.072265625, 0.22265625
0.0439453125, 0.07421875, 0.232421875
0.0439453125, 0.080078125, 0.25
0.041015625, 0.0712890625, 0.2431640625
0.046875, 0.06640625, 0.224609375
0.044921875, 0.0791015625, 0.2099609375
0.044921875, 0.0830078125, 0.208984375
0.0419921875, 0.072265625, 0.232421875
0.041015625, 0.0732421875, 0.2548828125
0.044921875, 0.0771484375, 0.248046875
0.04296875, 0.08203125, 0.2109375
0.0419921875, 0.087890625, 0.201171875
0.0439453125, 0.0869140625, 0.224609375
0.041015625, 0.0732421875, 0.2490234375
0.044921875, 0.0625, 0.2392578125
0.0458984375, 0.0673828125, 0.2158203125
0.0458984375, 0.0712890625, 0.1982421875
0.041015625, 0.078125, 0.21484375
0.0439453125, 0.0712890625, 0.248046875
0.044921875, 0.0751953125, 0.2548828125
0.044921875, 0.0810546875, 0.2314453125
0.0458984375, 0.0751953125, 0.20703125
0.044921875, 0.076171875, 0.216796875
0.0439453125, 0.0771484375, 0.2490234375
0.041015625, 0.08984375, 0.2451171875
0.04296875, 0.076171875, 0.22265625
0.044921875, 0.072265625, 0.212890625
0.046875, 0.078125, 0.2255859375
0.0439453125, 0.0810546875, 0.2294921875
0.041015625, 0.0732421875, 0.23828125
0.04296875, 0.0771484375, 0.244140625
0.044921875, 0.076171875, 0.2333984375
0.0439453125, 0.072265625, 0.22265625
0.044921875, 0.076171875, 0.212890625
0.044921875, 0.0771484375, 0.2138671875
0.0419921875, 0.07421875, 0.2431640625
0.0419921875, 0.0791015625, 0.2529296875
0.046875, 0.0771484375, 0.23046875
0.0439453125, 0.0830078125, 0.212890625
0.0419921875, 0.08203125, 0.2216796875
0.0419921875, 0.072265625, 0.2470703125
0.0439453125, 0.078125, 0.2431640625
0.044921875, 0.0810546875, 0.2138671875
0.046875, 0.080078125, 0.2177734375
0.044921875, 0.0791015625, 0.234375
0.046875, 0.0625, 0.2177734375
0.04296875, 0.078125, 0.23828125
0.0439453125, 0.0888671875, 0.2470703125
0.0458984375, 0.072265625, 0.23046875
0.0458984375, 0.0712890625, 0.21875
0.0458984375, 0.0771484375, 0.2158203125
0.0458984375, 0.080078125, 0.2265625
0.0439453125, 0.0771484375, 0.2314453125
0.0419921875, 0.0771484375, 0.2314453125
0.044921875, 0.0791015625, 0.236328125
0.04296875, 0.0830078125, 0.2236328125
0.0458984375, 0.0751953125, 0.224609375
0.044921875, 0.0703125, 0.228515625
0.0439453125, 0.072265625, 0.24609375
0.04296875, 0.072265625, 0.224609375
0.0439453125, 0.0888671875, 0.2119140625
0.044921875, 0.0791015625, 0.232421875
0.0439453125, 0.0703125, 0.2333984375
0.044921875, 0.076171875, 0.236328125
0.0439453125, 0.072265625, 0.2236328125
0.04296875, 0.0751953125, 0.2314453125
0.0458984375, 0.08984375, 0.2373046875
0.044921875, 0.072265625, 0.2294921875
0.04296875, 0.0703125, 0.2236328125
0.0458984375, 0.0703125, 0.23046875
0.0439453125, 0.0771484375, 0.2177734375
0.0439453125, 0.078125, 0.2119140625
0.0458984375, 0.0830078125, 0.2275390625
0.048828125, 0.0732421875, 0.2333984375
0.0478515625, 0.0712890625, 0.2294921875
0.0478515625, 0.0771484375, 0.2255859375
