-0.015625, 0.1279296875, 0.2109375
-0.017578125, 0.130859375, 0.2060546875
-0.0166015625, 0.1328125, 0.2080078125
-0.0166015625, 0.1240234375, 0.2119140625
-0.015625, 0.126953125, 0.2041015625
-0.017578125, 0.13671875, 0.201171875
-0.0146484375, 0.1396484375, 0.203125
-0.013671875, 0.1298828125, 0.21484375
-0.0166015625, 0.1220703125, 0.2138671875
-0.017578125, 0.1328125, 0.201171875
-0.0166015625, 0.1259765625, 0.203125
-0.0146484375, 0.1259765625, 0.205078125
-0.0146484375, 0.1318359375, 0.2080078125
-0.015625, 0.134765625, 0.2119140625
-0.01953125, 0.1328125, 0.2158203125
-0.0166015625, 0.1240234375, 0.2138671875
-0.0185546875, 0.12890625, 0.20703125
-0.0205078125, 0.130859375, 0.1982421875
-0.0166015625, 0.1298828125, 0.1962890625
-0.0166015625, 0.130859375, 0.2060546875
-0.0166015625, 0.1279296875, 0.212890625
-0.015625, 0.123046875, 0.216796875
-0.017578125, 0.123046875, 0.2119140625
-0.015625, 0.130859375, 0.203125
-0.015625, 0.1376953125, 0.2080078125
-0.015625, 0.1298828125, 0.208984375
-0.0166015625, 0.1259765625, 0.208984375
-0.0185546875, 0.130859375, 0.2060546875
-0.01953125, 0.1318359375, 0.2021484375
-0.017578125, 0.125, 0.20703125
-0.0166015625, 0.1279296875, 0.2119140625
-0.017578125, 0.1298828125, 0.2119140625
-0.01953125, 0.1318359375, 0.2041015625
-0.017578125, 0.130859375, 0.2060546875
-0.015625, 0.125, 0.2138671875
-0.017578125, 0.1171875, 0.2158203125
-0.015625, 0.1220703125, 0.212890625
-0.0185546875, 0.134765625, 0.205078125
-0.015625, 0.134765625, 0.203125
-0.0166015625, 0.126953125, 0.208984375
-0.015625, 0.125, 0.2109375
-0.015625, 0.1279296875, 0.20703125
-0.0185546875, 0.1337890625, 0.203125
-0.017578125, 0.1337890625, 0.2021484375
-0.015625, 0.12109375, 0.2109375
-0.017578125, 0.1259765625, 0.21484375
-0.015625, 0.130859375, 0.2109375
-0.015625, 0.126953125, 0.203125
-0.0185546875, 0.1259765625, 0.2080078125
-0.0166015625, 0.125, 0.208984375
-0.0166015625, 0.126953125, 0.2138671875
-0.0166015625, 0.126953125, 0.212890625
-0.0166015625, 0.123046875, 0.2099609375
-0.0166015625, 0.1220703125, 0.2080078125
-0.017578125, 0.125, 0.2080078125
-0.017578125, 0.12890625, 0.203125
-0.015625, 0.1328125, 0.20703125
-0.0185546875, 0.1357421875, 0.2109375
-0.021484375, 0.130859375, 0.2119140625
-0.01953125, 0.1318359375, 0.205078125
-0.0224609375, 0.1259765625, 0.2041015625
-0.0166015625, 0.1220703125, 0.2099609375
-0.0166015625, 0.1318359375, 0.2109375
-0.01953125, 0.134765625, 0.208984375
-0.0166015625, 0.125, 0.2158203125
-0.015625, 0.1171875, 0.2138671875
-0.017578125, 0.1279296875, 0.2060546875
-0.017578125, 0.134765625, 0.2099609375
-0.0205078125, 0.13671875, 0.2080078125
-0.0185546875, 0.12890625, 0.208984375
-0.0166015625, 0.1259765625, 0.212890625
-0.0205078125, 0.1279296875, 0.2060546875
-0.0185546875, 0.1318359375, 0.2021484375
-0.017578125, 0.125, 0.2119140625
-0.0185546875, 0.125, 0.2138671875
-0.017578125, 0.125, 0.2109375
-0.0185546875, 0.1298828125, 0.2119140625
-0.017578125, 0.130859375, 0.2119140625
-0.017578125, 0.126953125, 0.203125
-0.0205078125, 0.12109375, 0.2119140625
-0.0185546875, 0.1328125, 0.201171875
-0.013671875, 0.134765625, 0.201171875
-0.0185546875, 0.1279296875, 0.2080078125
-0.0166015625, 0.12890625, 0.208984375
-0.017578125, 0.1279296875, 0.2109375
-0.017578125, 0.126953125, 0.2119140625
-0.01953125, 0.1240234375, 0.2080078125
-0.0185546875, 0.1259765625, 0.208984375
-0.0205078125, 0.1259765625, 0.2021484375
-0.015625, 0.1337890625, 0.208984375
-0.017578125, 0.1328125, 0.2119140625
-0.0166015625, 0.123046875, 0.2119140625
-0.017578125, 0.1171875, 0.2080078125
-0.021484375, 0.1240234375, 0.208984375
-0.0244140625, 0.1396484375, 0.21484375
-0.0234375, 0.1552734375, 0.2275390625
-0.017578125, 0.150390625, 0.23828125
-0.005859375, 0.125, 0.236328125
-0.0224609375, 0.12109375, 0.193359375
-0.0380859375, 0.13671875, 0.162109375
-0.02734375, 0.2607421875, 0.3046875
-0.0068359375, 0.2265625, 0.37890625
0.0068359375, 0.1845703125, 0.38671875
0.013671875, 0.197265625, 0.37890625
0.01953125, 0.181640625, 0.3427734375
0.025390625, 0.158203125, 0.33203125
0.0283203125, 0.130859375, 0.345703125
0.0263671875, 0.1279296875, 0.390625
0.017578125, 0.146484375, 0.421875
0.009765625, 0.09765625, 0.421875
0.0068359375, 0.046875, 0.35546875
0.009765625, 0.0244140625, 0.30078125
0.0087890625, 0.0625, 0.3046875
0.0126953125, 0.0888671875, 0.2919921875
0.01171875, 0.048828125, 0.2685546875
0.015625, 0.013671875, 0.2587890625
0.017578125, 0.00390625, 0.23046875
0.0185546875, 0.0029296875, 0.21875
0.0205078125, 0.021484375, 0.234375
0.021484375, 0.0458984375, 0.2158203125
0.0283203125, 0.046875, 0.154296875
0.0361328125, 0.048828125, 0.1171875
0.0361328125, 0.0625, 0.1064453125
0.048828125, 0.0927734375, 0.1162109375
0.060546875, 0.107421875, 0.1318359375
0.0654296875, 0.0595703125, 0.12109375
0.0703125, 0.0029296875, 0.0947265625
0.08203125, 0.0087890625, 0.1044921875
0.0791015625, 0.021484375, 0.1123046875
0.072265625, 0.0546875, 0.07421875
0.07421875, 0.046875, 0.0517578125
0.0712890625, 0.0146484375, 0.0517578125
0.0625, 0.0400390625, 0.0185546875
0.041015625, 0.0595703125, -0.0771484375
0.0302734375, 0.1259765625, -0.173828125
0.0205078125, 0.2509765625, -0.203125
0.0126953125, 0.3720703125, -0.21484375
0.001953125, 0.4912109375, -0.234375
-0.0087890625, 0.607421875, -0.265625
-0.0390625, 0.6982421875, -0.271484375
-0.0927734375, 0.59375, -0.25390625
-0.1728515625, 0.48046875, -0.240234375
-0.2900390625, 0.3759765625, -0.2333984375
-0.408203125, 0.3642578125, -0.0986328125
-0.50390625, 0.326171875, 0.185546875
-0.5390625, 0.2373046875, 0.470703125
-0.5166015625, -0.03125, 0.728515625
-0.443359375, -0.3154296875, 0.7421875
-0.3837890625, -0.505859375, 0.6357421875
-0.302734375, -0.6611328125, 0.7421875
-0.2109375, -0.642578125, 0.9921875
-0.181640625, -0.5380859375, 0.93359375
-0.169921875, -0.53125, 0.7900390625
-0.166015625, -0.5166015625, 0.71875
-0.1845703125, -0.49609375, 0.63671875
-0.2236328125, -0.4453125, 0.5771484375
-0.2646484375, -0.380859375, 0.533203125
-0.3095703125, -0.3173828125, 0.474609375
-0.37109375, -0.2578125, 0.359375
-0.4365234375, -0.140625, 0.28125
-0.509765625, 0.04296875, 0.1923828125
-0.5537109375, 0.2177734375, 0.0810546875
-0.54296875, 0.3857421875, -0.0673828125
-0.4609375, 0.6435546875, -0.2158203125
-0.3173828125, 0.8671875, -0.375
-0.1884765625, 0.8828125, -0.4765625
-0.11328125, 0.7001953125, -0.4853515625
-0.083984375, 0.611328125, -0.4140625
-0.0751953125, 0.6435546875, -0.296875
-0.1005859375, 0.63671875, -0.212890625
-0.1396484375, 0.52734375, -0.1796875
-0.177734375, 0.3828125, -0.1689453125
-0.208984375, 0.2939453125, -0.18359375
-0.265625, 0.2216796875, -0.109375
-0.3251953125, 0.109375, -0.0185546875
-0.3779296875, 0.029296875, 0.056640625
-0.408203125, 0.091796875, 0.2099609375
-0.4130859375, 0.0703125, 0.4638671875
-0.353515625, -0.0625, 0.7900390625
-0.2724609375, -0.1572265625, 0.96484375
-0.1767578125, -0.39453125, 0.8388671875
-0.1103515625, -0.4345703125, 0.7060546875
-0.0771484375, -0.263671875, 0.6005859375
-0.0634765625, -0.0576171875, 0.5361328125
-0.0615234375, 0.046875, 0.486328125
-0.0625, 0.0693359375, 0.4091796875
-0.0634765625, 0.0869140625, 0.3408203125
-0.0576171875, 0.08203125, 0.294921875
-0.052734375, 0.0771484375, 0.3017578125
-0.0458984375, 0.087890625, 0.3134765625
-0.0400390625, 0.1005859375, 0.271484375
-0.041015625, 0.109375, 0.21875
-0.037109375, 0.1015625, 0.17578125
-0.03125, 0.125, 0.13671875
-0.03125, 0.134765625, 0.13671875
-0.0322265625, 0.15625, 0.1357421875
-0.03515625, 0.1787109375, 0.1279296875
-0.0390625, 0.1796875, 0.166015625
-0.0390625, 0.166015625, 0.1845703125
-0.03125, 0.126953125, 0.1611328125
-0.0244140625, 0.0966796875, 0.134765625
-0.0146484375, 0.1201171875, 0.1474609375
-0.0146484375, 0.1416015625, 0.216796875
-0.0166015625, 0.1162109375, 0.2138671875
-0.017578125, 0.099609375, 0.1767578125
-0.0185546875, 0.1181640625, 0.212890625
-0.01953125, 0.134765625, 0.240234375
-0.0185546875, 0.1298828125, 0.251953125
-0.017578125, 0.1640625, 0.2236328125
-0.01953125, 0.255859375, 0.216796875
-0.0185546875, 0.2626953125, 0.1982421875
-0.0302734375, 0.1796875, 0.177734375
-0.03515625, 0.1142578125, 0.2080078125
-0.0302734375, 0.1142578125, 0.2568359375
-0.029296875, 0.1474609375, 0.275390625
-0.0244140625, 0.150390625, 0.2412109375
-0.0244140625, 0.123046875, 0.1904296875
-0.017578125, 0.1181640625, 0.1640625
-0.0166015625, 0.1416015625, 0.1669921875
-0.017578125, 0.1650390625, 0.1748046875
-0.0126953125, 0.1728515625, 0.1806640625
-0.009765625, 0.171875, 0.16796875
-0.0068359375, 0.1630859375, 0.15625
-0.0029296875, 0.14453125, 0.1787109375
-0.0107421875, 0.146484375, 0.1962890625
-0.0078125, 0.154296875, 0.1943359375
-0.0107421875, 0.166015625, 0.189453125
-0.0146484375, 0.1708984375, 0.1865234375
-0.015625, 0.1640625, 0.1845703125
-0.0185546875, 0.158203125, 0.189453125
-0.021484375, 0.1611328125, 0.1982421875
-0.0234375, 0.154296875, 0.21484375
-0.0205078125, 0.15625, 0.2177734375
-0.0185546875, 0.1533203125, 0.22265625
-0.0146484375, 0.1279296875, 0.2177734375
-0.0126953125, 0.11328125, 0.2080078125
-0.017578125, 0.1171875, 0.2001953125
-0.015625, 0.1357421875, 0.1962890625
-0.0126953125, 0.150390625, 0.1904296875
-0.0126953125, 0.140625, 0.1962890625
-0.0126953125, 0.1201171875, 0.205078125
-0.0087890625, 0.1201171875, 0.2138671875
-0.0087890625, 0.1142578125, 0.2060546875
-0.0107421875, 0.1259765625, 0.1962890625
-0.0107421875, 0.13671875, 0.193359375
-0.0087890625, 0.13671875, 0.2001953125
-0.009765625, 0.1328125, 0.2041015625
-0.01171875, 0.1318359375, 0.2099609375
-0.013671875, 0.1513671875, 0.2021484375
-0.013671875, 0.146484375, 0.203125
-0.0146484375, 0.14453125, 0.2021484375
-0.013671875, 0.1494140625, 0.1953125
-0.013671875, 0.146484375, 0.1923828125
-0.0126953125, 0.142578125, 0.1943359375
-0.0126953125, 0.1328125, 0.2021484375
-0.0087890625, 0.126953125, 0.216796875
-0.0107421875, 0.1318359375, 0.212890625
-0.0146484375, 0.140625, 0.2001953125
-0.013671875, 0.154296875, 0.1923828125
-0.0146484375, 0.1376953125, 0.1982421875
-0.0146484375, 0.134765625, 0.2001953125
-0.0146484375, 0.1416015625, 0.201171875
-0.0166015625, 0.1259765625, 0.2138671875
-0.0126953125, 0.1318359375, 0.201171875
-0.0126953125, 0.154296875, 0.19140625
-0.0107421875, 0.154296875, 0.193359375
-0.01171875, 0.130859375, 0.19921875
-0.013671875, 0.1318359375, 0.2021484375
-0.01171875, 0.12890625, 0.2236328125
-0.0146484375, 0.125, 0.212890625
-0.0107421875, 0.1396484375, 0.2001953125
-0.0126953125, 0.1474609375, 0.1884765625
-0.0126953125, 0.146484375, 0.189453125
-0.013671875, 0.1474609375, 0.19921875
-0.0126953125, 0.13671875, 0.216796875
-0.013671875, 0.1396484375, 0.2080078125
-0.013671875, 0.140625, 0.2001953125
-0.01171875, 0.138671875, 0.19921875
-0.01171875, 0.14453125, 0.201171875
-0.013671875, 0.1474609375, 0.197265625
-0.0146484375, 0.125, 0.20703125
-0.0146484375, 0.1318359375, 0.2060546875
-0.013671875, 0.150390625, 0.1982421875
-0.013671875, 0.1494140625, 0.1943359375
-0.0166015625, 0.1328125, 0.208984375
-0.013671875, 0.1259765625, 0.2080078125
-0.0126953125, 0.142578125, 0.2041015625
-0.009765625, 0.1474609375, 0.2001953125
-0.01171875, 0.140625, 0.1943359375
-0.013671875, 0.1328125, 0.2041015625
-0.01171875, 0.1318359375, 0.208984375
-0.013671875, 0.138671875, 0.2001953125
-0.01171875, 0.14453125, 0.19140625
-0.0107421875, 0.1396484375, 0.197265625
-0.01171875, 0.130859375, 0.2138671875
-0.0107421875, 0.1357421875, 0.20703125
-0.0107421875, 0.1416015625, 0.203125
-0.009765625, 0.138671875, 0.1982421875
-0.01171875, 0.14453125, 0.189453125
-0.0126953125, 0.138671875, 0.19140625
-0.013671875, 0.1455078125, 0.197265625
-0.0146484375, 0.1533203125, 0.208984375
-0.0166015625, 0.1318359375, 0.205078125
-0.0126953125, 0.12890625, 0.1953125
-0.0107421875, 0.140625, 0.1982421875
-0.0126953125, 0.142578125, 0.197265625
-0.013671875, 0.1328125, 0.203125
-0.013671875, 0.1337890625, 0.203125
-0.0146484375, 0.1513671875, 0.2041015625
-0.013671875, 0.13671875, 0.2119140625
-0.01171875, 0.1376953125, 0.2021484375
-0.0146484375, 0.1513671875, 0.1884765625
-0.0107421875, 0.140625, 0.2021484375
-0.0126953125, 0.1279296875, 0.2041015625
-0.01171875, 0.1455078125, 0.1943359375
-0.013671875, 0.142578125, 0.20703125
-0.013671875, 0.12890625, 0.20703125
-0.013671875, 0.140625, 0.193359375
-0.0107421875, 0.140625, 0.203125
-0.0126953125, 0.1328125, 0.2041015625
-0.015625, 0.138671875, 0.1943359375
-0.013671875, 0.142578125, 0.197265625
-0.0146484375, 0.1416015625, 0.19921875
-0.015625, 0.138671875, 0.1904296875
-0.015625, 0.14453125, 0.197265625
-0.013671875, 0.14453125, 0.208984375
-0.0166015625, 0.1259765625, 0.2138671875
-0.015625, 0.12890625, 0.20703125
-0.0166015625, 0.150390625, 0.20703125
-0.0166015625, 0.1376953125, 0.2138671875
-0.0166015625, 0.1259765625, 0.2158203125
-0.013671875, 0.123046875, 0.2119140625
-0.0126953125, 0.1220703125, 0.203125
-0.01171875, 0.140625, 0.1943359375
-0.0126953125, 0.1630859375, 0.189453125
-0.0107421875, 0.154296875, 0.1943359375
-0.0146484375, 0.1328125, 0.2001953125
-0.0166015625, 0.13671875, 0.1953125
-0.017578125, 0.1416015625, 0.203125
-0.015625, 0.14453125, 0.2099609375
-0.015625, 0.1357421875, 0.2138671875
-0.0146484375, 0.13671875, 0.203125
-0.0126953125, 0.1328125, 0.2021484375
-0.0126953125, 0.1279296875, 0.20703125
-0.0146484375, 0.1455078125, 0.1962890625
-0.0146484375, 0.140625, 0.1953125
-0.015625, 0.1357421875, 0.1923828125
-0.0146484375, 0.1396484375, 0.205078125
-0.0146484375, 0.138671875, 0.2158203125
-0.0126953125, 0.1455078125, 0.197265625
-0.015625, 0.1455078125, 0.189453125
-0.0126953125, 0.1376953125, 0.19140625
-0.01171875, 0.1337890625, 0.201171875
-0.0146484375, 0.140625, 0.2041015625
-0.0146484375, 0.140625, 0.2080078125
-0.015625, 0.138671875, 0.2001953125
-0.013671875, 0.1328125, 0.205078125
-0.0146484375, 0.13671875, 0.208984375
-0.0146484375, 0.1416015625, 0.1923828125
-0.0126953125, 0.1435546875, 0.1962890625
-0.0166015625, 0.1455078125, 0.2060546875
-0.017578125, 0.1376953125, 0.21484375
-0.0126953125, 0.126953125, 0.2060546875
-0.013671875, 0.1318359375, 0.19921875
-0.013671875, 0.1298828125, 0.1923828125
-0.0146484375, 0.126953125, 0.201171875
-0.0146484375, 0.130859375, 0.216796875
-0.013671875, 0.1484375, 0.203125
-0.015625, 0.1650390625, 0.1923828125
-0.015625, 0.1474609375, 0.2001953125
-0.0166015625, 0.1279296875, 0.2080078125
-0.015625, 0.12109375, 0.2138671875
-0.0146484375, 0.130859375, 0.212890625
-0.015625, 0.146484375, 0.19921875
-0.01171875, 0.1435546875, 0.1962890625
-0.01171875, 0.1337890625, 0.19921875
-0.0087890625, 0.1240234375, 0.2041015625
-0.0107421875, 0.126953125, 0.201171875
-0.01171875, 0.142578125, 0.197265625
-0.0126953125, 0.1611328125, 0.1943359375
-0.01171875, 0.1611328125, 0.1962890625
-0.0146484375, 0.1337890625, 0.2041015625
-0.0146484375, 0.1142578125, 0.2109375
-0.015625, 0.1181640625, 0.208984375
-0.015625, 0.1376953125, 0.208984375
-0.015625, 0.1513671875, 0.19921875
-0.0166015625, 0.138671875, 0.2099609375
-0.0146484375, 0.1259765625, 0.21484375
-0.0107421875, 0.1259765625, 0.2001953125
-0.01171875, 0.126953125, 0.19921875
-0.009765625, 0.1259765625, 0.208984375
-0.013671875, 0.1318359375, 0.2099609375
-0.0126953125, 0.1396484375, 0.2060546875
-0.0126953125, 0.1376953125, 0.2080078125
-0.01171875, 0.1298828125, 0.208984375
-0.013671875, 0.134765625, 0.203125
-0.01171875, 0.1416015625, 0.197265625
-0.01171875, 0.14453125, 0.1923828125
-0.0126953125, 0.1357421875, 0.1962890625
-0.0078125, 0.1279296875, 0.208984375
-0.013671875, 0.14453125, 0.20703125
-0.017578125, 0.150390625, 0.2001953125
-0.015625, 0.1298828125, 0.216796875
-0.013671875, 0.1455078125, 0.2041015625
-0.0107421875, 0.126953125, 0.2001953125
-0.0107421875, 0.1240234375, 0.19921875
-0.01171875, 0.1357421875, 0.19921875
-0.013671875, 0.15234375, 0.1943359375
-0.009765625, 0.14453125, 0.2021484375
-0.0107421875, 0.1328125, 0.2060546875
-0.01171875, 0.123046875, 0.2109375
-0.013671875, 0.134765625, 0.208984375
-0.0146484375, 0.1484375, 0.19921875
-0.013671875, 0.1494140625, 0.1943359375
-0.009765625, 0.134765625, 0.1982421875
-0.0126953125, 0.1279296875, 0.2021484375
-0.01171875, 0.1259765625, 0.20703125
-0.0107421875, 0.1328125, 0.2060546875
-0.0126953125, 0.1416015625, 0.2041015625
-0.0146484375, 0.1494140625, 0.2041015625
-0.0126953125, 0.140625, 0.205078125
-0.01171875, 0.1318359375, 0.203125
-0.01171875, 0.12890625, 0.1982421875
-0.01171875, 0.1376953125, 0.197265625
-0.01171875, 0.14453125, 0.19921875
-0.0107421875, 0.140625, 0.201171875
-0.0107421875, 0.1357421875, 0.2021484375
-0.0126953125, 0.1328125, 0.1982421875
-0.013671875, 0.1416015625, 0.2021484375
-0.01171875, 0.1396484375, 0.2080078125
-0.013671875, 0.14453125, 0.2001953125
-0.015625, 0.142578125, 0.19921875
-0.0107421875, 0.134765625, 0.2060546875
-0.0107421875, 0.134765625, 0.205078125
-0.01171875, 0.1328125, 0.2021484375
-0.0126953125, 0.13671875, 0.2021484375
-0.0126953125, 0.134765625, 0.2099609375
-0.009765625, 0.1357421875, 0.20703125
-0.0126953125, 0.1357421875, 0.189453125
-0.01171875, 0.1328125, 0.193359375
-0.01171875, 0.140625, 0.2001953125
-0.0126953125, 0.13671875, 0.2041015625
-0.0146484375, 0.1435546875, 0.2041015625
-0.013671875, 0.1533203125, 0.2080078125
-0.0185546875, 0.150390625, 0.2060546875
-0.0166015625, 0.140625, 0.1923828125
-0.01171875, 0.1337890625, 0.19921875
-0.01171875, 0.125, 0.201171875
-0.015625, 0.1318359375, 0.203125
-0.017578125, 0.1494140625, 0.208984375
