0.005859375, -0.0380859375, 0.1611328125
0.0029296875, -0.0029296875, 0.208984375
0.005859375, 0.0029296875, 0.267578125
0.0009765625, -0.001953125, 0.33984375
0.0009765625, -0.009765625, 0.302734375
-0.013671875, -0.013671875, 0.259765625
0.0068359375, -0.0078125, 0.212890625
0.00390625, -0.015625, 0.2001953125
0.0048828125, -0.0322265625, 0.232421875
0.0078125, -0.0224609375, 0.2607421875
0.0029296875, -0.02734375, 0.2451171875
0.0078125, -0.021484375, 0.2216796875
0.0068359375, 0.0, 0.234375
0.0068359375, 0.009765625, 0.2529296875
0.005859375, 0.005859375, 0.248046875
0.0068359375, -0.0341796875, 0.2373046875
0.01171875, -0.0458984375, 0.24609375
0.0078125, -0.01171875, 0.2705078125
0.0078125, -0.0087890625, 0.255859375
0.00390625, -0.017578125, 0.232421875
0.0205078125, -0.00390625, 0.2431640625
0.013671875, -0.0078125, 0.255859375
0.0087890625, 0.001953125, 0.2529296875
0.009765625, -0.009765625, 0.2470703125
0.01171875, -0.0263671875, 0.2333984375
0.015625, -0.0283203125, 0.240234375
0.0166015625, -0.005859375, 0.2509765625
0.0166015625, -0.005859375, 0.2294921875
0.0166015625, -0.0224609375, 0.2109375
0.013671875, -0.02734375, 0.216796875
0.0107421875, -0.009765625, 0.228515625
0.01171875, 0.005859375, 0.224609375
0.01171875, 0.017578125, 0.2353515625
0.015625, 0.0, 0.25
0.0107421875, -0.021484375, 0.244140625
0.01171875, -0.017578125, 0.240234375
0.0087890625, 0.001953125, 0.2431640625
0.0078125, -0.0087890625, 0.248046875
0.005859375, -0.0185546875, 0.25
0.0078125, -0.0166015625, 0.25390625
0.0107421875, -0.009765625, 0.2490234375
0.01171875, -0.0068359375, 0.265625
0.013671875, -0.0205078125, 0.27734375
0.0146484375, -0.0302734375, 0.263671875
0.013671875, -0.0126953125, 0.251953125
0.0126953125, -0.0009765625, 0.25
0.009765625, 0.0009765625, 0.2529296875
0.009765625, -0.0087890625, 0.251953125
0.0078125, -0.0078125, 0.2587890625
0.005859375, -0.017578125, 0.2587890625
0.0068359375, -0.013671875, 0.2490234375
0.0068359375, -0.0078125, 0.2490234375
0.0078125, -0.00390625, 0.25
0.009765625, 0.001953125, 0.2412109375
0.0078125, 0.01171875, 0.2275390625
0.0087890625, -0.0146484375, 0.24609375
0.0087890625, -0.013671875, 0.2353515625
0.0068359375, -0.0048828125, 0.23046875
0.0087890625, -0.0234375, 0.2529296875
0.0087890625, -0.01171875, 0.23828125
0.0087890625, -0.0166015625, 0.2333984375
0.0087890625, -0.00390625, 0.240234375
0.0126953125, 0.0078125, 0.24609375
0.009765625, -0.001953125, 0.251953125
0.0078125, -0.005859375, 0.2421875
0.0087890625, -0.0244140625, 0.251953125
0.009765625, -0.0146484375, 0.2509765625
0.009765625, -0.00390625, 0.2392578125
0.0126953125, 0.0126953125, 0.2431640625
0.0126953125, -0.0009765625, 0.244140625
0.0126953125, -0.0146484375, 0.236328125
0.013671875, -0.017578125, 0.2451171875
0.0126953125, -0.0048828125, 0.259765625
0.01171875, -0.0107421875, 0.251953125
0.0107421875, -0.0087890625, 0.23828125
0.0107421875, -0.0107421875, 0.2470703125
0.0107421875, 0.0126953125, 0.2490234375
0.013671875, -0.00390625, 0.2578125
0.01171875, -0.0107421875, 0.2421875
0.0126953125, -0.0009765625, 0.2421875
0.01171875, -0.0009765625, 0.2421875
0.0126953125, 0.0, 0.2431640625
0.01171875, -0.013671875, 0.248046875
0.0107421875, -0.0029296875, 0.23828125
0.0126953125, -0.0107421875, 0.23828125
0.01171875, 0.001953125, 0.2470703125
0.0107421875, 0.0048828125, 0.2470703125
0.009765625, -0.017578125, 0.2509765625
0.0087890625, -0.0107421875, 0.2529296875
0.0126953125, -0.0029296875, 0.2451171875
0.013671875, -0.0107421875, 0.2451171875
0.015625, -0.00390625, 0.2509765625
0.0107421875, -0.0068359375, 0.248046875
0.009765625, 0.0, 0.2421875
0.01171875, -0.0146484375, 0.25
0.0126953125, -0.01953125, 0.2392578125
0.0146484375, -0.0068359375, 0.2392578125
0.01171875, 0.0029296875, 0.248046875
0.0126953125, 0.00390625, 0.2470703125
0.0146484375, -0.0166015625, 0.240234375
0.013671875, -0.009765625, 0.2431640625
0.01171875, 0.001953125, 0.24609375
0.015625, -0.0078125, 0.248046875
0.0126953125, -0.0146484375, 0.244140625
0.01171875, -0.009765625, 0.2373046875
0.015625, -0.0029296875, 0.2421875
0.0146484375, 0.0009765625, 0.244140625
0.01171875, 0.0087890625, 0.24609375
0.015625, -0.0068359375, 0.2509765625
0.01953125, -0.0146484375, 0.2509765625
0.0263671875, 0.017578125, 0.283203125
0.0341796875, 0.025390625, 0.287109375
0.0341796875, 0.0126953125, 0.3134765625
0.041015625, -0.021484375, 0.359375
0.044921875, -0.0615234375, 0.392578125
0.0576171875, -0.0849609375, 0.419921875
0.0576171875, -0.0732421875, 0.4423828125
0.048828125, -0.0498046875, 0.4541015625
0.04296875, -0.0478515625, 0.4404296875
0.037109375, -0.068359375, 0.427734375
0.0302734375, -0.099609375, 0.4248046875
0.0224609375, -0.095703125, 0.421875
0.013671875, -0.0498046875, 0.38671875
0.0078125, 0.0, 0.341796875
0.0146484375, -0.0048828125, 0.314453125
0.0224609375, -0.0458984375, 0.3017578125
0.021484375, -0.0771484375, 0.2919921875
0.0244140625, -0.091796875, 0.2607421875
0.0283203125, -0.0947265625, 0.236328125
0.0302734375, -0.0703125, 0.19921875
0.033203125, -0.0927734375, 0.15625
0.041015625, -0.1328125, 0.1005859375
0.048828125, -0.10546875, 0.0732421875
0.041015625, -0.03125, 0.0380859375
0.044921875, 0.0732421875, -0.0244140625
0.056640625, 0.109375, -0.07421875
0.0771484375, 0.09765625, -0.033203125
0.091796875, 0.1318359375, 0.0625
0.10546875, 0.0830078125, 0.0908203125
0.109375, 0.0361328125, 0.076171875
0.119140625, 0.0458984375, 0.0458984375
0.1279296875, 0.080078125, 0.09375
0.134765625, 0.0751953125, 0.125
0.1396484375, 0.0185546875, 0.130859375
0.1494140625, -0.0126953125, 0.1044921875
0.16015625, -0.0302734375, 0.130859375
0.162109375, -0.009765625, 0.1201171875
0.16796875, 0.0087890625, 0.0517578125
0.16015625, 0.01171875, 0.021484375
0.1611328125, 0.015625, 0.0751953125
0.140625, 0.0712890625, 0.0927734375
0.115234375, 0.09765625, -0.0126953125
0.103515625, 0.1142578125, -0.1171875
0.0849609375, 0.3330078125, -0.0556640625
0.046875, 0.529296875, -0.0546875
0.0087890625, 0.5703125, -0.169921875
-0.0615234375, 0.58984375, -0.1943359375
-0.166015625, 0.583984375, -0.0517578125
-0.2744140625, 0.5576171875, 0.21484375
-0.3701171875, 0.3076171875, 0.2890625
-0.4091796875, -0.052734375, 0.4091796875
-0.4140625, -0.130859375, 0.5458984375
-0.4130859375, -0.4267578125, 0.4453125
-0.3310546875, -0.798828125, 0.556640625
-0.2412109375, -0.9814453125, 0.7490234375
-0.189453125, -1.0, 0.83984375
-0.1689453125, -0.994140625, 0.79296875
-0.1669921875, -0.845703125, 0.6865234375
-0.2001953125, -0.677734375, 0.5849609375
-0.2373046875, -0.5478515625, 0.46484375
-0.2724609375, -0.46875, 0.4404296875
-0.33203125, -0.4111328125, 0.486328125
-0.4443359375, -0.306640625, 0.4638671875
-0.564453125, -0.0859375, 0.2919921875
-0.6142578125, 0.236328125, 0.111328125
-0.5478515625, 0.5732421875, 0.021484375
-0.419921875, 0.7470703125, -0.1328125
-0.2822265625, 0.77734375, -0.3798828125
-0.1494140625, 0.7802734375, -0.5205078125
-0.072265625, 0.83984375, -0.455078125
-0.056640625, 0.8271484375, -0.396484375
-0.0830078125, 0.689453125, -0.32421875
-0.1513671875, 0.5283203125, -0.2958984375
-0.2275390625, 0.412109375, -0.1953125
-0.3232421875, 0.4013671875, -0.150390625
-0.447265625, 0.443359375, -0.068359375
-0.5693359375, 0.376953125, 0.1923828125
-0.6123046875, 0.0810546875, 0.5048828125
-0.5283203125, -0.169921875, 0.744140625
-0.41796875, -0.341796875, 0.71875
-0.2890625, -0.5205078125, 0.705078125
-0.1904296875, -0.5322265625, 0.849609375
-0.1328125, -0.328125, 0.794921875
-0.1083984375, -0.208984375, 0.640625
-0.0888671875, -0.27734375, 0.5712890625
-0.078125, -0.240234375, 0.462890625
-0.0751953125, -0.08203125, 0.36328125
-0.0703125, 0.07421875, 0.298828125
-0.0556640625, 0.1064453125, 0.2763671875
-0.0439453125, 0.0478515625, 0.2919921875
-0.03515625, 0.013671875, 0.2509765625
-0.0322265625, 0.0478515625, 0.212890625
-0.0302734375, 0.07421875, 0.20703125
-0.029296875, 0.08984375, 0.1982421875
-0.0263671875, 0.080078125, 0.181640625
-0.03125, 0.0693359375, 0.1708984375
-0.0341796875, 0.0732421875, 0.19921875
-0.0322265625, 0.06640625, 0.220703125
-0.0302734375, 0.052734375, 0.2080078125
-0.0263671875, 0.0498046875, 0.2080078125
-0.0283203125, 0.0673828125, 0.2138671875
-0.0263671875, 0.037109375, 0.2412109375
-0.0224609375, 0.021484375, 0.2548828125
-0.0283203125, 0.0439453125, 0.251953125
-0.025390625, 0.0498046875, 0.2080078125
-0.0224609375, 0.04296875, 0.1904296875
-0.01953125, 0.041015625, 0.2265625
-0.0234375, 0.04296875, 0.251953125
-0.0205078125, 0.009765625, 0.271484375
-0.025390625, 0.0078125, 0.2978515625
-0.0224609375, 0.0517578125, 0.271484375
-0.021484375, 0.08984375, 0.220703125
-0.0205078125, 0.0693359375, 0.201171875
-0.0185546875, 0.0341796875, 0.234375
-0.0166015625, 0.037109375, 0.2490234375
-0.0166015625, 0.0712890625, 0.2509765625
-0.021484375, 0.0869140625, 0.2744140625
-0.0263671875, 0.037109375, 0.2197265625
-0.0234375, -0.033203125, 0.193359375
-0.021484375, 0.0078125, 0.25
-0.0146484375, 0.060546875, 0.27734375
-0.015625, 0.0703125, 0.2587890625
-0.017578125, 0.0283203125, 0.2548828125
-0.0087890625, 0.0048828125, 0.2509765625
-0.0126953125, 0.0302734375, 0.2412109375
-0.015625, 0.0517578125, 0.2294921875
-0.0146484375, 0.0615234375, 0.234375
-0.01171875, 0.056640625, 0.2568359375
-0.0126953125, 0.05859375, 0.2724609375
-0.013671875, 0.05859375, 0.255859375
-0.0166015625, 0.044921875, 0.2421875
-0.013671875, 0.0419921875, 0.232421875
-0.0126953125, 0.0244140625, 0.228515625
-0.0087890625, 0.0302734375, 0.2373046875
-0.0068359375, 0.056640625, 0.2548828125
-0.0087890625, 0.044921875, 0.255859375
-0.0068359375, 0.0205078125, 0.228515625
-0.0029296875, 0.03125, 0.2109375
-0.0029296875, 0.052734375, 0.2236328125
-0.00390625, 0.0732421875, 0.2265625
-0.0068359375, 0.0498046875, 0.2587890625
-0.0029296875, 0.029296875, 0.24609375
-0.0048828125, 0.029296875, 0.2431640625
-0.005859375, 0.0439453125, 0.2431640625
-0.0078125, 0.056640625, 0.240234375
-0.005859375, 0.064453125, 0.2314453125
-0.0029296875, 0.0537109375, 0.2412109375
-0.0029296875, 0.021484375, 0.25
-0.0029296875, 0.025390625, 0.240234375
-0.0029296875, 0.044921875, 0.244140625
-0.001953125, 0.056640625, 0.2421875
-0.0029296875, 0.0537109375, 0.2333984375
0.0, 0.03125, 0.2373046875
0.0, 0.033203125, 0.240234375
-0.0009765625, 0.0595703125, 0.234375
0.0, 0.0634765625, 0.240234375
-0.001953125, 0.048828125, 0.2470703125
-0.0029296875, 0.0283203125, 0.2333984375
-0.0009765625, 0.041015625, 0.2314453125
-0.001953125, 0.0654296875, 0.2373046875
-0.0078125, 0.0634765625, 0.244140625
-0.00390625, 0.0439453125, 0.2412109375
-0.001953125, 0.0361328125, 0.23828125
-0.001953125, 0.044921875, 0.244140625
-0.00390625, 0.0517578125, 0.248046875
-0.0029296875, 0.0498046875, 0.2509765625
-0.0068359375, 0.0380859375, 0.2509765625
-0.0068359375, 0.046875, 0.2294921875
-0.0048828125, 0.044921875, 0.2294921875
-0.00390625, 0.056640625, 0.248046875
-0.00390625, 0.04296875, 0.2509765625
-0.005859375, 0.03125, 0.25
-0.00390625, 0.0439453125, 0.232421875
-0.0009765625, 0.0595703125, 0.2373046875
-0.0009765625, 0.060546875, 0.2490234375
-0.0068359375, 0.044921875, 0.251953125
-0.0068359375, 0.0341796875, 0.2548828125
-0.0029296875, 0.033203125, 0.2490234375
-0.001953125, 0.048828125, 0.2353515625
-0.00390625, 0.0517578125, 0.2353515625
-0.0068359375, 0.046875, 0.244140625
-0.00390625, 0.0390625, 0.25
-0.005859375, 0.0400390625, 0.23828125
-0.0009765625, 0.04296875, 0.2275390625
0.0, 0.05859375, 0.2255859375
0.0, 0.056640625, 0.2353515625
-0.0048828125, 0.05078125, 0.2421875
0.0, 0.0283203125, 0.234375
-0.001953125, 0.0283203125, 0.2373046875
0.0, 0.0498046875, 0.24609375
-0.0029296875, 0.0546875, 0.2529296875
-0.0029296875, 0.046875, 0.26171875
-0.0048828125, 0.0302734375, 0.2578125
-0.0029296875, 0.0185546875, 0.2490234375
-0.00390625, 0.03515625, 0.2421875
-0.0029296875, 0.041015625, 0.24609375
-0.005859375, 0.0361328125, 0.248046875
-0.00390625, 0.0458984375, 0.25
-0.005859375, 0.0625, 0.248046875
-0.00390625, 0.060546875, 0.228515625
0.0, 0.0400390625, 0.22265625
0.0, 0.037109375, 0.24609375
-0.0009765625, 0.0439453125, 0.2646484375
-0.0068359375, 0.037109375, 0.24609375
-0.0107421875, 0.02734375, 0.2412109375
-0.00390625, 0.03125, 0.2265625
-0.001953125, 0.0478515625, 0.2451171875
-0.00390625, 0.044921875, 0.2529296875
-0.0009765625, 0.0380859375, 0.236328125
-0.0009765625, 0.0458984375, 0.23828125
-0.00390625, 0.0439453125, 0.240234375
-0.0029296875, 0.0341796875, 0.2451171875
0.0, 0.0341796875, 0.244140625
-0.001953125, 0.0361328125, 0.2353515625
-0.001953125, 0.029296875, 0.2314453125
-0.0029296875, 0.0341796875, 0.2431640625
-0.0009765625, 0.0439453125, 0.2548828125
-0.0048828125, 0.0380859375, 0.2529296875
-0.00390625, 0.0263671875, 0.2490234375
0.0, 0.025390625, 0.2421875
-0.00390625, 0.03515625, 0.244140625
-0.001953125, 0.0263671875, 0.251953125
0.0, 0.01953125, 0.25
-0.001953125, 0.0302734375, 0.23046875
0.0, 0.0390625, 0.23046875
0.0, 0.0322265625, 0.2470703125
0.0, 0.025390625, 0.2412109375
0.0, 0.0302734375, 0.2490234375
-0.0009765625, 0.033203125, 0.2490234375
-0.001953125, 0.029296875, 0.2412109375
-0.005859375, 0.025390625, 0.234375
-0.0029296875, 0.029296875, 0.2421875
-0.001953125, 0.0439453125, 0.23828125
-0.0029296875, 0.04296875, 0.2314453125
-0.0009765625, 0.029296875, 0.228515625
-0.001953125, 0.01953125, 0.244140625
-0.0068359375, 0.0263671875, 0.2607421875
-0.0029296875, 0.02734375, 0.2607421875
-0.0009765625, 0.0244140625, 0.2509765625
-0.0029296875, 0.029296875, 0.2412109375
-0.00390625, 0.0234375, 0.2431640625
-0.0009765625, 0.0146484375, 0.2490234375
0.0009765625, 0.01171875, 0.275390625
-0.0029296875, 0.029296875, 0.2626953125
-0.001953125, 0.0380859375, 0.220703125
-0.0009765625, 0.0478515625, 0.2099609375
-0.00390625, 0.03125, 0.2265625
0.0029296875, 0.0341796875, 0.248046875
0.001953125, 0.0107421875, 0.2724609375
0.0, 0.0087890625, 0.2802734375
0.001953125, 0.015625, 0.26171875
-0.001953125, 0.01171875, 0.234375
0.0009765625, 0.021484375, 0.25390625
0.0029296875, 0.02734375, 0.2626953125
0.001953125, 0.009765625, 0.24609375
0.0, -0.0048828125, 0.21484375
-0.0029296875, 0.0107421875, 0.1806640625
0.0009765625, 0.0048828125, 0.2119140625
0.001953125, 0.00390625, 0.2646484375
0.0009765625, 0.0302734375, 0.2763671875
0.0009765625, 0.05859375, 0.2724609375
-0.001953125, 0.052734375, 0.2421875
-0.0048828125, 0.041015625, 0.2255859375
-0.00390625, 0.0478515625, 0.224609375
0.0, 0.0458984375, 0.2314453125
0.0, 0.0263671875, 0.2333984375
0.0, 0.001953125, 0.2333984375
-0.009765625, 0.001953125, 0.236328125
-0.00390625, 0.0380859375, 0.2294921875
-0.0009765625, 0.0576171875, 0.2392578125
-0.0029296875, 0.052734375, 0.248046875
-0.005859375, 0.0224609375, 0.2490234375
-0.0009765625, 0.015625, 0.25
0.0029296875, 0.021484375, 0.234375
0.001953125, 0.0009765625, 0.2333984375
0.0048828125, -0.0087890625, 0.236328125
0.00390625, -0.001953125, 0.240234375
0.0029296875, 0.0107421875, 0.234375
0.0009765625, 0.029296875, 0.2568359375
0.0, 0.033203125, 0.267578125
-0.00390625, 0.025390625, 0.2744140625
-0.0078125, 0.0107421875, 0.2646484375
-0.0068359375, 0.0068359375, 0.2451171875
-0.0078125, 0.001953125, 0.23828125
-0.0087890625, -0.015625, 0.2431640625
-0.0029296875, -0.0615234375, 0.259765625
-0.005859375, -0.0283203125, 0.2626953125
-0.0009765625, 0.044921875, 0.2412109375
0.0, 0.06640625, 0.2265625
0.0, 0.0361328125, 0.2216796875
0.001953125, 0.01953125, 0.2373046875
0.0, 0.015625, 0.2568359375
0.001953125, 0.0185546875, 0.25390625
0.0, 0.021484375, 0.2529296875
0.0, 0.0185546875, 0.25
0.001953125, 0.0244140625, 0.2451171875
-0.0009765625, 0.015625, 0.2490234375
0.0009765625, 0.0029296875, 0.263671875
0.0, 0.0146484375, 0.2607421875
0.0, 0.0185546875, 0.25
-0.0029296875, 0.0205078125, 0.23828125
-0.0029296875, 0.0234375, 0.2421875
-0.0009765625, 0.0146484375, 0.244140625
-0.00390625, 0.01171875, 0.248046875
-0.001953125, 0.0048828125, 0.2568359375
-0.0048828125, 0.0244140625, 0.2392578125
-0.00390625, 0.037109375, 0.232421875
-0.001953125, 0.0205078125, 0.232421875
-0.0009765625, -0.0078125, 0.2548828125
-0.00390625, -0.001953125, 0.2568359375
-0.0029296875, -0.0009765625, 0.248046875
0.0, 0.01171875, 0.2392578125
0.0009765625, 0.0205078125, 0.2333984375
0.0, 0.017578125, 0.2412109375
-0.001953125, 0.0078125, 0.251953125
-0.001953125, 0.021484375, 0.24609375
-0.0009765625, 0.021484375, 0.25
0.0, 0.0029296875, 0.2470703125
0.0, 0.001953125, 0.2490234375
-0.001953125, 0.0205078125, 0.2470703125
0.0, 0.0234375, 0.248046875
-0.0009765625, 0.01171875, 0.25
-0.0029296875, 0.0029296875, 0.2490234375
0.0, 0.0185546875, 0.2451171875
0.0009765625, 0.03125, 0.2421875
0.0009765625, 0.0146484375, 0.2451171875
-0.0029296875, 0.0048828125, 0.248046875
0.0009765625, 0.0166015625, 0.2353515625
0.0, 0.0361328125, 0.244140625
-0.0009765625, 0.025390625, 0.2451171875
0.0, 0.0029296875, 0.25
0.0, 0.0107421875, 0.23828125
0.0009765625, 0.0087890625, 0.2353515625
0.0, 0.0146484375, 0.2451171875
0.0, 0.0205078125, 0.255859375
0.0, 0.005859375, 0.2490234375
-0.0009765625, 0.0087890625, 0.23828125
0.0, 0.0029296875, 0.2607421875
0.0009765625, 0.0, 0.24609375
0.0, 0.0244140625, 0.2451171875
