0.015625, 0.0986328125, 0.220703125
0.0166015625, 0.111328125, 0.2275390625
0.01953125, 0.1181640625, 0.22265625
0.017578125, 0.1123046875, 0.2099609375
0.0146484375, 0.1103515625, 0.201171875
0.01171875, 0.1220703125, 0.2109375
0.015625, 0.1162109375, 0.2255859375
0.0146484375, 0.103515625, 0.2255859375
0.0126953125, 0.103515625, 0.21875
0.0107421875, 0.119140625, 0.21484375
0.0107421875, 0.1171875, 0.2158203125
0.015625, 0.1181640625, 0.228515625
0.015625, 0.1103515625, 0.2236328125
0.0126953125, 0.111328125, 0.2138671875
0.01171875, 0.107421875, 0.21875
0.0166015625, 0.1064453125, 0.23046875
0.0146484375, 0.1044921875, 0.22265625
0.015625, 0.11328125, 0.2099609375
0.01171875, 0.1279296875, 0.2080078125
0.015625, 0.119140625, 0.2197265625
0.0166015625, 0.1044921875, 0.2294921875
0.0166015625, 0.1005859375, 0.216796875
0.015625, 0.1162109375, 0.203125
0.0146484375, 0.1240234375, 0.2041015625
0.0166015625, 0.1220703125, 0.2138671875
0.015625, 0.1220703125, 0.2216796875
0.013671875, 0.115234375, 0.21484375
0.015625, 0.10546875, 0.21484375
0.0166015625, 0.1044921875, 0.22265625
0.015625, 0.10546875, 0.2294921875
0.01171875, 0.111328125, 0.2080078125
0.0087890625, 0.12109375, 0.2001953125
0.013671875, 0.1201171875, 0.2275390625
0.0166015625, 0.1083984375, 0.2421875
0.017578125, 0.1083984375, 0.228515625
0.0146484375, 0.10546875, 0.21484375
0.015625, 0.111328125, 0.216796875
0.0146484375, 0.111328125, 0.220703125
0.0146484375, 0.109375, 0.21484375
0.013671875, 0.115234375, 0.2060546875
0.0126953125, 0.1181640625, 0.21484375
0.013671875, 0.111328125, 0.23046875
0.0146484375, 0.1005859375, 0.228515625
0.015625, 0.1162109375, 0.2197265625
0.0146484375, 0.12890625, 0.21484375
0.013671875, 0.1298828125, 0.21484375
0.0205078125, 0.115234375, 0.2197265625
0.0166015625, 0.1005859375, 0.224609375
0.015625, 0.1044921875, 0.2060546875
0.015625, 0.1220703125, 0.208984375
0.0166015625, 0.1171875, 0.220703125
0.0146484375, 0.109375, 0.212890625
0.0146484375, 0.111328125, 0.2109375
0.0146484375, 0.1171875, 0.208984375
0.0185546875, 0.111328125, 0.2275390625
0.013671875, 0.1103515625, 0.23046875
0.015625, 0.1083984375, 0.21875
0.0146484375, 0.1162109375, 0.2158203125
0.015625, 0.1201171875, 0.2197265625
0.0126953125, 0.1083984375, 0.212890625
0.0185546875, 0.1103515625, 0.21484375
0.0146484375, 0.109375, 0.21484375
0.01953125, 0.103515625, 0.220703125
0.017578125, 0.1083984375, 0.2275390625
0.0166015625, 0.1171875, 0.208984375
0.0205078125, 0.1142578125, 0.2099609375
0.0166015625, 0.109375, 0.2158203125
0.0146484375, 0.1162109375, 0.2109375
0.015625, 0.125, 0.220703125
0.017578125, 0.119140625, 0.23046875
0.015625, 0.1181640625, 0.212890625
0.0166015625, 0.1220703125, 0.19921875
0.0166015625, 0.1162109375, 0.21484375
0.017578125, 0.10546875, 0.224609375
0.0146484375, 0.1005859375, 0.2177734375
0.0146484375, 0.107421875, 0.2080078125
0.013671875, 0.12109375, 0.21875
0.015625, 0.1181640625, 0.21875
0.0146484375, 0.1044921875, 0.234375
0.015625, 0.111328125, 0.2236328125
0.0146484375, 0.119140625, 0.2099609375
0.0166015625, 0.1103515625, 0.2197265625
0.0166015625, 0.1103515625, 0.21875
0.0166015625, 0.1201171875, 0.2158203125
0.0146484375, 0.1171875, 0.2158203125
0.015625, 0.115234375, 0.212890625
0.015625, 0.111328125, 0.21875
0.015625, 0.1103515625, 0.2216796875
0.0166015625, 0.103515625, 0.2119140625
0.015625, 0.1123046875, 0.203125
0.015625, 0.11328125, 0.21484375
0.015625, 0.1181640625, 0.2265625
0.0185546875, 0.115234375, 0.2255859375
0.0185546875, 0.1064453125, 0.220703125
0.0166015625, 0.10546875, 0.2216796875
0.0166015625, 0.1201171875, 0.21875
0.0146484375, 0.1181640625, 0.2197265625
0.015625, 0.109375, 0.21875
0.0185546875, 0.10546875, 0.216796875
0.0166015625, 0.109375, 0.2177734375
0.0205078125, 0.1171875, 0.2197265625
0.0185546875, 0.1181640625, 0.21484375
0.0185546875, 0.115234375, 0.2177734375
0.0185546875, 0.111328125, 0.2158203125
0.0185546875, 0.123046875, 0.2109375
0.01953125, 0.1357421875, 0.216796875
0.0234375, 0.1328125, 0.2197265625
0.025390625, 0.12109375, 0.240234375
0.0302734375, 0.1328125, 0.2880859375
0.0283203125, 0.1591796875, 0.2919921875
0.0341796875, 0.166015625, 0.263671875
0.046875, 0.1611328125, 0.2236328125
0.0576171875, 0.14453125, 0.2353515625
0.0625, 0.1259765625, 0.291015625
0.0634765625, 0.130859375, 0.3291015625
0.064453125, 0.1337890625, 0.3369140625
0.0732421875, 0.146484375, 0.3154296875
0.0751953125, 0.1416015625, 0.3173828125
0.076171875, 0.1494140625, 0.3251953125
0.0703125, 0.13671875, 0.3671875
0.0712890625, 0.0517578125, 0.3720703125
0.078125, -0.0087890625, 0.3427734375
0.0830078125, 0.0390625, 0.3359375
0.0732421875, 0.0869140625, 0.3203125
0.056640625, 0.0400390625, 0.2919921875
0.048828125, -0.021484375, 0.3330078125
0.048828125, -0.0419921875, 0.328125
0.0419921875, 0.00390625, 0.2802734375
0.01953125, 0.0078125, 0.2216796875
-0.0087890625, -0.0537109375, 0.1875
-0.0205078125, -0.1064453125, 0.1943359375
-0.0048828125, -0.0205078125, 0.3115234375
0.0087890625, 0.08984375, 0.3671875
0.033203125, 0.0478515625, 0.216796875
0.0498046875, -0.04296875, 0.0673828125
0.0625, -0.1240234375, 0.015625
0.05859375, -0.1298828125, 0.0517578125
0.0439453125, -0.083984375, 0.0869140625
0.009765625, 0.0009765625, 0.01171875
-0.013671875, 0.158203125, -0.0849609375
-0.0283203125, 0.291015625, -0.150390625
-0.03125, 0.37890625, -0.15625
-0.044921875, 0.423828125, -0.146484375
-0.0615234375, 0.484375, -0.166015625
-0.0673828125, 0.6318359375, -0.248046875
-0.0849609375, 0.7958984375, -0.2939453125
-0.1328125, 0.75, -0.2333984375
-0.1875, 0.580078125, -0.2353515625
-0.271484375, 0.439453125, -0.2314453125
-0.3544921875, 0.3310546875, -0.1298828125
-0.4091796875, 0.2607421875, -0.0166015625
-0.4658203125, 0.1748046875, 0.3115234375
-0.4541015625, -0.0888671875, 0.701171875
-0.3466796875, -0.3447265625, 0.7294921875
-0.27734375, -0.4990234375, 0.6318359375
-0.240234375, -0.62109375, 0.6806640625
-0.1962890625, -0.560546875, 0.9306640625
-0.1767578125, -0.458984375, 0.9990234375
-0.146484375, -0.45703125, 0.9990234375
-0.1552734375, -0.58203125, 0.865234375
-0.18359375, -0.5224609375, 0.77734375
-0.2333984375, -0.384765625, 0.7099609375
-0.287109375, -0.25, 0.6015625
-0.349609375, -0.1123046875, 0.482421875
-0.400390625, 0.0361328125, 0.39453125
-0.4345703125, 0.2509765625, 0.291015625
-0.40625, 0.4306640625, 0.1337890625
-0.345703125, 0.552734375, -0.0068359375
-0.2763671875, 0.568359375, -0.1708984375
-0.2109375, 0.5, -0.3330078125
-0.1513671875, 0.50390625, -0.46875
-0.09375, 0.59375, -0.4345703125
-0.0654296875, 0.6591796875, -0.3486328125
-0.064453125, 0.6376953125, -0.333984375
-0.1015625, 0.544921875, -0.3330078125
-0.1552734375, 0.486328125, -0.2939453125
-0.220703125, 0.4775390625, -0.22265625
-0.3046875, 0.4189453125, -0.201171875
-0.4052734375, 0.375, -0.0751953125
-0.4833984375, 0.357421875, 0.0908203125
-0.5224609375, 0.2958984375, 0.2890625
-0.5224609375, -0.001953125, 0.533203125
-0.4384765625, -0.3505859375, 0.798828125
-0.2724609375, -0.4326171875, 0.9990234375
-0.16015625, -0.3642578125, 0.9990234375
-0.07421875, -0.2470703125, 0.9072265625
-0.0517578125, -0.146484375, 0.638671875
-0.0458984375, -0.0546875, 0.4794921875
-0.0400390625, 0.0048828125, 0.3984375
-0.0400390625, 0.0400390625, 0.427734375
-0.046875, 0.0830078125, 0.3896484375
-0.0478515625, 0.1162109375, 0.259765625
-0.0380859375, 0.1005859375, 0.19140625
-0.0322265625, 0.0869140625, 0.224609375
-0.033203125, 0.1015625, 0.2587890625
-0.0380859375, 0.1416015625, 0.25390625
-0.041015625, 0.1689453125, 0.162109375
-0.0341796875, 0.1689453125, 0.0927734375
-0.0224609375, 0.15625, 0.1064453125
-0.0048828125, 0.13671875, 0.15625
0.0087890625, 0.150390625, 0.1572265625
0.02734375, 0.1767578125, 0.1416015625
0.033203125, 0.1748046875, 0.177734375
0.015625, 0.1455078125, 0.20703125
0.0, 0.1181640625, 0.224609375
-0.0087890625, 0.076171875, 0.2373046875
-0.01171875, 0.056640625, 0.2470703125
-0.0078125, 0.07421875, 0.1943359375
0.0, 0.1201171875, 0.177734375
0.0009765625, 0.13671875, 0.1923828125
0.001953125, 0.1201171875, 0.2373046875
0.0, 0.1064453125, 0.2587890625
0.0009765625, 0.107421875, 0.2373046875
0.00390625, 0.1357421875, 0.2197265625
0.005859375, 0.1484375, 0.2265625
0.0029296875, 0.1240234375, 0.208984375
0.0009765625, 0.068359375, 0.189453125
0.0029296875, 0.072265625, 0.212890625
0.0029296875, 0.12109375, 0.2099609375
0.005859375, 0.13671875, 0.2041015625
0.009765625, 0.0927734375, 0.2197265625
0.009765625, 0.072265625, 0.2470703125
0.0078125, 0.0927734375, 0.23828125
0.00390625, 0.125, 0.20703125
0.0078125, 0.11328125, 0.2080078125
0.009765625, 0.09375, 0.240234375
0.0087890625, 0.0927734375, 0.23046875
0.00390625, 0.0947265625, 0.21484375
0.0048828125, 0.111328125, 0.203125
0.0068359375, 0.1298828125, 0.1904296875
0.00390625, 0.138671875, 0.185546875
0.005859375, 0.1259765625, 0.19140625
0.01171875, 0.1005859375, 0.21875
0.0068359375, 0.083984375, 0.2548828125
0.0087890625, 0.095703125, 0.26171875
0.0048828125, 0.125, 0.2490234375
0.00390625, 0.1357421875, 0.2138671875
0.00390625, 0.115234375, 0.2138671875
0.0029296875, 0.0947265625, 0.2294921875
0.0068359375, 0.09375, 0.22265625
0.005859375, 0.09765625, 0.21875
0.0068359375, 0.0986328125, 0.2275390625
0.009765625, 0.103515625, 0.2265625
0.0068359375, 0.1044921875, 0.2177734375
0.0068359375, 0.10546875, 0.203125
0.0087890625, 0.1123046875, 0.2138671875
0.0087890625, 0.1142578125, 0.2333984375
0.0087890625, 0.126953125, 0.23046875
0.005859375, 0.1279296875, 0.21484375
0.0068359375, 0.1220703125, 0.2001953125
0.0087890625, 0.0986328125, 0.19921875
0.009765625, 0.1103515625, 0.2138671875
0.009765625, 0.111328125, 0.224609375
0.0107421875, 0.1142578125, 0.21484375
0.0087890625, 0.11328125, 0.2099609375
0.01171875, 0.1171875, 0.2041015625
0.0078125, 0.11328125, 0.201171875
0.0107421875, 0.09765625, 0.23046875
0.0087890625, 0.1044921875, 0.24609375
0.005859375, 0.1123046875, 0.23828125
0.0068359375, 0.115234375, 0.216796875
0.0068359375, 0.109375, 0.2060546875
0.0107421875, 0.1083984375, 0.2314453125
0.01171875, 0.1103515625, 0.236328125
0.0078125, 0.1171875, 0.2197265625
0.0078125, 0.123046875, 0.21484375
0.0107421875, 0.109375, 0.2109375
0.0087890625, 0.0966796875, 0.224609375
0.0107421875, 0.1025390625, 0.2265625
0.0078125, 0.119140625, 0.2216796875
0.0078125, 0.119140625, 0.2197265625
0.0087890625, 0.1015625, 0.22265625
0.0107421875, 0.0810546875, 0.232421875
0.0087890625, 0.0927734375, 0.2412109375
0.0087890625, 0.115234375, 0.2255859375
0.009765625, 0.12109375, 0.212890625
0.0087890625, 0.119140625, 0.21484375
0.0126953125, 0.0986328125, 0.220703125
0.01171875, 0.09375, 0.22265625
0.01171875, 0.1123046875, 0.2138671875
0.0126953125, 0.1103515625, 0.2158203125
0.009765625, 0.1103515625, 0.2216796875
0.01171875, 0.115234375, 0.2080078125
0.009765625, 0.1181640625, 0.1962890625
0.0107421875, 0.1142578125, 0.21484375
0.0126953125, 0.0986328125, 0.23046875
0.013671875, 0.099609375, 0.220703125
0.01171875, 0.1220703125, 0.19921875
0.01171875, 0.12890625, 0.185546875
0.009765625, 0.109375, 0.1943359375
0.015625, 0.08203125, 0.228515625
0.01171875, 0.0810546875, 0.2314453125
0.0087890625, 0.1142578125, 0.220703125
0.009765625, 0.1318359375, 0.22265625
0.0068359375, 0.1201171875, 0.232421875
0.0087890625, 0.0986328125, 0.240234375
0.0087890625, 0.0986328125, 0.23828125
0.01171875, 0.1015625, 0.2353515625
0.0078125, 0.1064453125, 0.2236328125
0.0068359375, 0.11328125, 0.21875
0.009765625, 0.1142578125, 0.21875
0.0068359375, 0.11328125, 0.2109375
0.0107421875, 0.099609375, 0.2197265625
0.01171875, 0.103515625, 0.23046875
0.0068359375, 0.1015625, 0.22265625
0.009765625, 0.1083984375, 0.2216796875
0.0126953125, 0.1220703125, 0.2158203125
0.005859375, 0.123046875, 0.2119140625
0.009765625, 0.099609375, 0.2216796875
0.0087890625, 0.103515625, 0.2265625
0.009765625, 0.1103515625, 0.2265625
0.0107421875, 0.1025390625, 0.2177734375
0.0126953125, 0.109375, 0.208984375
0.0107421875, 0.126953125, 0.2099609375
0.0107421875, 0.1171875, 0.208984375
0.0107421875, 0.111328125, 0.21484375
0.013671875, 0.10546875, 0.224609375
0.0126953125, 0.10546875, 0.2255859375
0.013671875, 0.107421875, 0.216796875
0.0087890625, 0.103515625, 0.2236328125
0.01171875, 0.111328125, 0.2216796875
0.0126953125, 0.115234375, 0.2119140625
0.0107421875, 0.1162109375, 0.20703125
0.0107421875, 0.1064453125, 0.2255859375
0.013671875, 0.091796875, 0.2373046875
0.0087890625, 0.0947265625, 0.2265625
0.0107421875, 0.1123046875, 0.203125
0.0146484375, 0.1220703125, 0.2216796875
0.013671875, 0.099609375, 0.2373046875
0.009765625, 0.0908203125, 0.236328125
0.0126953125, 0.09375, 0.228515625
0.013671875, 0.107421875, 0.2177734375
0.013671875, 0.10546875, 0.2197265625
0.0146484375, 0.107421875, 0.2197265625
0.0126953125, 0.11328125, 0.2138671875
0.009765625, 0.1181640625, 0.1982421875
0.0146484375, 0.1005859375, 0.2197265625
0.0126953125, 0.1015625, 0.2265625
0.0146484375, 0.115234375, 0.224609375
0.009765625, 0.1240234375, 0.2138671875
0.0107421875, 0.115234375, 0.2216796875
0.0087890625, 0.0986328125, 0.2197265625
0.013671875, 0.0966796875, 0.2177734375
0.013671875, 0.109375, 0.2236328125
0.013671875, 0.1162109375, 0.2275390625
0.01171875, 0.1103515625, 0.2265625
0.013671875, 0.1015625, 0.21875
0.01171875, 0.099609375, 0.2060546875
0.0146484375, 0.0986328125, 0.220703125
0.0126953125, 0.1103515625, 0.2294921875
0.0107421875, 0.109375, 0.220703125
0.013671875, 0.109375, 0.2158203125
0.01171875, 0.11328125, 0.2158203125
0.0107421875, 0.119140625, 0.224609375
0.01171875, 0.1064453125, 0.2216796875
0.0107421875, 0.1044921875, 0.2158203125
0.01171875, 0.1044921875, 0.20703125
0.013671875, 0.109375, 0.2109375
0.013671875, 0.1015625, 0.224609375
0.01171875, 0.107421875, 0.22265625
0.013671875, 0.1123046875, 0.216796875
0.0146484375, 0.1083984375, 0.2216796875
0.01171875, 0.091796875, 0.2255859375
0.0146484375, 0.0888671875, 0.2333984375
0.0107421875, 0.099609375, 0.2265625
0.009765625, 0.1005859375, 0.2109375
0.0126953125, 0.1123046875, 0.203125
0.01171875, 0.1181640625, 0.21484375
0.0107421875, 0.1083984375, 0.2265625
0.0087890625, 0.1015625, 0.2294921875
0.0078125, 0.119140625, 0.224609375
0.01171875, 0.1259765625, 0.2177734375
0.0078125, 0.1171875, 0.2236328125
0.009765625, 0.1044921875, 0.2255859375
0.009765625, 0.1064453125, 0.2275390625
0.013671875, 0.103515625, 0.2216796875
0.013671875, 0.103515625, 0.21875
0.01171875, 0.099609375, 0.2158203125
0.01171875, 0.09375, 0.2158203125
0.0107421875, 0.1064453125, 0.224609375
0.0126953125, 0.107421875, 0.2333984375
0.0126953125, 0.095703125, 0.2236328125
0.0146484375, 0.1064453125, 0.21875
0.0126953125, 0.1162109375, 0.21875
0.013671875, 0.1142578125, 0.2197265625
0.0126953125, 0.1123046875, 0.22265625
0.009765625, 0.1103515625, 0.21484375
0.0126953125, 0.1162109375, 0.2216796875
0.01171875, 0.1083984375, 0.2236328125
0.0126953125, 0.1015625, 0.21484375
0.01171875, 0.111328125, 0.2138671875
0.0126953125, 0.1083984375, 0.2197265625
0.01171875, 0.1044921875, 0.2138671875
0.01171875, 0.10546875, 0.2197265625
0.013671875, 0.1083984375, 0.220703125
0.013671875, 0.1005859375, 0.2255859375
0.015625, 0.099609375, 0.23046875
0.0126953125, 0.11328125, 0.22265625
0.01171875, 0.1123046875, 0.22265625
0.0107421875, 0.1083984375, 0.2138671875
0.013671875, 0.1083984375, 0.2158203125
0.0146484375, 0.103515625, 0.23046875
0.0126953125, 0.0986328125, 0.22265625
0.01171875, 0.107421875, 0.216796875
0.0126953125, 0.111328125, 0.2119140625
0.013671875, 0.103515625, 0.2119140625
0.0126953125, 0.1123046875, 0.220703125
0.0166015625, 0.111328125, 0.2216796875
0.0146484375, 0.099609375, 0.2197265625
0.0126953125, 0.0947265625, 0.208984375
0.013671875, 0.10546875, 0.21484375
0.0126953125, 0.1220703125, 0.2265625
0.015625, 0.1171875, 0.21875
0.0126953125, 0.1015625, 0.2216796875
0.013671875, 0.0966796875, 0.22265625
0.0146484375, 0.1044921875, 0.220703125
0.0146484375, 0.109375, 0.21484375
0.0126953125, 0.1083984375, 0.22265625
0.013671875, 0.10546875, 0.228515625
0.013671875, 0.111328125, 0.2236328125
0.0146484375, 0.111328125, 0.21875
0.0126953125, 0.099609375, 0.216796875
0.015625, 0.0966796875, 0.2314453125
0.0126953125, 0.1005859375, 0.2265625
0.0126953125, 0.119140625, 0.216796875
0.0146484375, 0.1123046875, 0.2197265625
0.013671875, 0.0986328125, 0.2236328125
0.013671875, 0.091796875, 0.232421875
0.0126953125, 0.10546875, 0.2265625
0.01171875, 0.115234375, 0.2099609375
0.0126953125, 0.1123046875, 0.2119140625
0.013671875, 0.1103515625, 0.2255859375
0.013671875, 0.1005859375, 0.2216796875
0.0146484375, 0.109375, 0.216796875
0.013671875, 0.103515625, 0.2177734375
0.013671875, 0.09765625, 0.2216796875
0.013671875, 0.1025390625, 0.2255859375
0.013671875, 0.115234375, 0.224609375
0.0146484375, 0.111328125, 0.224609375
0.0146484375, 0.1015625, 0.2236328125
0.0166015625, 0.0966796875, 0.232421875
0.0146484375, 0.109375, 0.2197265625
0.0146484375, 0.1162109375, 0.2177734375
0.0126953125, 0.11328125, 0.220703125
0.013671875, 0.103515625, 0.2197265625
0.013671875, 0.1044921875, 0.2138671875
0.0146484375, 0.10546875, 0.22265625
0.0166015625, 0.1181640625, 0.2216796875
0.017578125, 0.1240234375, 0.208984375
0.0185546875, 0.1318359375, 0.2001953125
