0.0400390625, 0.0556640625, 0.2353515625
0.04296875, 0.056640625, 0.2353515625
0.0419921875, 0.0537109375, 0.23828125
0.0419921875, 0.0439453125, 0.24609375
0.041015625, 0.03515625, 0.2529296875
0.0390625, 0.0458984375, 0.2412109375
0.0400390625, 0.0556640625, 0.2265625
0.0390625, 0.0517578125, 0.234375
0.0400390625, 0.0478515625, 0.248046875
0.0390625, 0.033203125, 0.2587890625
0.0400390625, 0.0146484375, 0.259765625
0.0419921875, 0.0205078125, 0.2158203125
0.041015625, 0.05859375, 0.2451171875
0.041015625, 0.07421875, 0.234375
0.0419921875, 0.05859375, 0.2265625
0.041015625, 0.0341796875, 0.220703125
0.0439453125, 0.0400390625, 0.2294921875
0.04296875, 0.052734375, 0.232421875
0.04296875, 0.044921875, 0.2373046875
0.0380859375, 0.0322265625, 0.248046875
0.0400390625, 0.0390625, 0.248046875
0.0439453125, 0.0537109375, 0.228515625
0.0458984375, 0.05078125, 0.23046875
0.0419921875, 0.029296875, 0.2373046875
0.0400390625, 0.0166015625, 0.23828125
0.0400390625, 0.0361328125, 0.248046875
0.041015625, 0.0498046875, 0.25390625
0.0419921875, 0.046875, 0.2333984375
0.0439453125, 0.0517578125, 0.2138671875
0.0439453125, 0.0546875, 0.22265625
0.041015625, 0.0498046875, 0.251953125
0.0439453125, 0.033203125, 0.2509765625
0.0400390625, 0.0419921875, 0.224609375
0.0439453125, 0.060546875, 0.224609375
0.0458984375, 0.0556640625, 0.23828125
0.0400390625, 0.0380859375, 0.25390625
0.041015625, 0.0244140625, 0.255859375
0.041015625, 0.037109375, 0.2470703125
0.041015625, 0.05078125, 0.2451171875
0.0400390625, 0.044921875, 0.248046875
0.041015625, 0.0322265625, 0.23828125
0.0400390625, 0.033203125, 0.2353515625
0.041015625, 0.0361328125, 0.236328125
0.0419921875, 0.044921875, 0.2255859375
0.0390625, 0.0380859375, 0.2353515625
0.0380859375, 0.041015625, 0.2373046875
0.041015625, 0.044921875, 0.2373046875
0.04296875, 0.052734375, 0.2421875
0.0400390625, 0.052734375, 0.2412109375
0.041015625, 0.0400390625, 0.255859375
0.0400390625, 0.0361328125, 0.25
0.0390625, 0.0419921875, 0.2412109375
0.0400390625, 0.0576171875, 0.236328125
0.041015625, 0.048828125, 0.2314453125
0.0419921875, 0.033203125, 0.2509765625
0.0400390625, 0.033203125, 0.24609375
0.041015625, 0.04296875, 0.2333984375
0.0419921875, 0.05078125, 0.23046875
0.0390625, 0.044921875, 0.23046875
0.04296875, 0.0400390625, 0.2353515625
0.0400390625, 0.0390625, 0.232421875
0.0458984375, 0.046875, 0.2373046875
0.0419921875, 0.044921875, 0.23046875
0.0439453125, 0.04296875, 0.23828125
0.04296875, 0.0458984375, 0.2451171875
0.0419921875, 0.0498046875, 0.2568359375
0.04296875, 0.046875, 0.2421875
0.0419921875, 0.0341796875, 0.2392578125
0.0419921875, 0.0341796875, 0.25
0.0380859375, 0.03125, 0.2353515625
0.0390625, 0.0517578125, 0.236328125
0.044921875, 0.05078125, 0.2314453125
0.0419921875, 0.0283203125, 0.23828125
0.0419921875, 0.02734375, 0.234375
0.0439453125, 0.0390625, 0.228515625
0.044921875, 0.0458984375, 0.2470703125
0.0400390625, 0.0498046875, 0.224609375
0.04296875, 0.044921875, 0.2353515625
0.0439453125, 0.0400390625, 0.251953125
0.04296875, 0.0302734375, 0.2470703125
0.0439453125, 0.0439453125, 0.2353515625
0.04296875, 0.0458984375, 0.2451171875
0.0400390625, 0.041015625, 0.2353515625
0.0439453125, 0.03515625, 0.244140625
0.041015625, 0.0361328125, 0.234375
0.041015625, 0.0546875, 0.2216796875
0.044921875, 0.046875, 0.23828125
0.044921875, 0.0302734375, 0.248046875
0.0419921875, 0.03515625, 0.2490234375
0.0439453125, 0.0419921875, 0.2275390625
0.0419921875, 0.05078125, 0.234375
0.0390625, 0.03125, 0.244140625
0.04296875, 0.0419921875, 0.2431640625
0.0439453125, 0.0458984375, 0.2470703125
0.0439453125, 0.0400390625, 0.232421875
0.0439453125, 0.041015625, 0.232421875
0.044921875, 0.0302734375, 0.240234375
0.04296875, 0.0419921875, 0.2470703125
0.04296875, 0.05859375, 0.2265625
0.0390625, 0.037109375, 0.2412109375
0.0419921875, 0.0283203125, 0.2421875
0.041015625, 0.0498046875, 0.2373046875
0.0439453125, 0.0458984375, 0.236328125
0.0419921875, 0.0302734375, 0.2451171875
0.0439453125, 0.03125, 0.2333984375
0.0419921875, 0.052734375, 0.232421875
0.04296875, 0.05859375, 0.240234375
0.0419921875, 0.041015625, 0.25
0.04296875, 0.0205078125, 0.2490234375
0.041015625, 0.03515625, 0.234375
0.0419921875, 0.0576171875, 0.2314453125
0.0439453125, 0.056640625, 0.234375
0.04296875, 0.044921875, 0.2451171875
0.044921875, 0.044921875, 0.2421875
0.046875, 0.0546875, 0.2451171875
0.0576171875, 0.0458984375, 0.251953125
0.0615234375, 0.041015625, 0.2705078125
0.0634765625, 0.05859375, 0.2890625
0.0732421875, 0.0634765625, 0.2890625
0.083984375, 0.0625, 0.2861328125
0.091796875, 0.06640625, 0.345703125
0.0947265625, 0.0615234375, 0.369140625
0.095703125, 0.0244140625, 0.4111328125
0.0966796875, -0.00390625, 0.4443359375
0.0908203125, -0.0078125, 0.4541015625
0.083984375, 0.0322265625, 0.4404296875
0.078125, 0.048828125, 0.3916015625
0.072265625, -0.015625, 0.3515625
0.0732421875, -0.0615234375, 0.3525390625
0.0732421875, -0.0576171875, 0.353515625
0.0537109375, -0.064453125, 0.3251953125
0.0361328125, -0.037109375, 0.3203125
0.0390625, 0.009765625, 0.3203125
0.0361328125, -0.01171875, 0.287109375
0.029296875, -0.0546875, 0.1884765625
0.05859375, -0.08203125, 0.0888671875
0.0849609375, -0.1572265625, 0.107421875
0.0634765625, -0.166015625, 0.1982421875
0.04296875, -0.1318359375, 0.2724609375
0.03125, -0.0458984375, 0.2021484375
0.0283203125, -0.01953125, 0.1337890625
0.0224609375, -0.03125, 0.130859375
0.0126953125, -0.0224609375, 0.0771484375
0.0009765625, 0.0166015625, -0.03125
-0.0029296875, 0.08203125, -0.0859375
-0.00390625, 0.2197265625, -0.1044921875
-0.0087890625, 0.2763671875, -0.1806640625
-0.01953125, 0.2666015625, -0.2587890625
-0.0341796875, 0.357421875, -0.291015625
-0.0458984375, 0.5615234375, -0.2412109375
-0.05078125, 0.7470703125, -0.2177734375
-0.078125, 0.82421875, -0.2255859375
-0.1484375, 0.751953125, -0.2216796875
-0.25390625, 0.6005859375, -0.1884765625
-0.34375, 0.44921875, -0.1357421875
-0.419921875, 0.3935546875, 0.001953125
-0.5263671875, 0.3681640625, 0.2099609375
-0.6123046875, 0.0458984375, 0.3359375
-0.595703125, -0.349609375, 0.427734375
-0.5302734375, -0.6044921875, 0.5849609375
-0.419921875, -0.6484375, 0.8154296875
-0.3291015625, -0.73828125, 0.9990234375
-0.2470703125, -0.8505859375, 0.9990234375
-0.2109375, -0.8173828125, 0.9990234375
-0.2294921875, -0.6396484375, 0.84765625
-0.25, -0.494140625, 0.625
-0.271484375, -0.4033203125, 0.5947265625
-0.318359375, -0.3271484375, 0.6435546875
-0.3857421875, -0.2333984375, 0.599609375
-0.490234375, -0.1259765625, 0.4033203125
-0.53125, 0.0126953125, 0.177734375
-0.5068359375, 0.3134765625, 0.0576171875
-0.404296875, 0.6630859375, 0.0478515625
-0.2705078125, 0.84765625, -0.0498046875
-0.15625, 0.7890625, -0.3017578125
-0.064453125, 0.64453125, -0.3876953125
-0.0107421875, 0.5966796875, -0.3095703125
0.0205078125, 0.6279296875, -0.203125
0.0166015625, 0.646484375, -0.123046875
-0.0224609375, 0.552734375, -0.1357421875
-0.0693359375, 0.4462890625, -0.181640625
-0.125, 0.3935546875, -0.2041015625
-0.21484375, 0.34765625, -0.146484375
-0.3056640625, 0.26953125, -0.0625
-0.365234375, 0.1865234375, 0.0859375
-0.3876953125, 0.0859375, 0.3203125
-0.376953125, 0.1220703125, 0.5234375
-0.3740234375, 0.0791015625, 0.59765625
-0.310546875, -0.46875, 0.728515625
-0.1826171875, -0.662109375, 0.81640625
-0.1103515625, -0.380859375, 0.7236328125
-0.068359375, -0.220703125, 0.677734375
-0.0576171875, -0.1875, 0.6103515625
-0.0439453125, -0.158203125, 0.4931640625
-0.0419921875, -0.0546875, 0.3984375
-0.03515625, 0.0078125, 0.337890625
-0.02734375, 0.0107421875, 0.3251953125
-0.0224609375, 0.00390625, 0.3203125
-0.0205078125, 0.033203125, 0.291015625
-0.021484375, 0.0537109375, 0.2353515625
-0.01171875, 0.0673828125, 0.20703125
-0.0087890625, 0.0732421875, 0.22265625
-0.009765625, 0.0537109375, 0.2314453125
-0.009765625, 0.056640625, 0.21484375
-0.00390625, 0.0703125, 0.21484375
0.0, 0.078125, 0.232421875
0.001953125, 0.060546875, 0.224609375
0.001953125, 0.0478515625, 0.21484375
0.00390625, 0.0361328125, 0.2294921875
0.009765625, 0.0458984375, 0.2265625
0.0078125, 0.0625, 0.2451171875
0.0107421875, 0.068359375, 0.2373046875
0.0078125, 0.05078125, 0.23828125
0.0078125, 0.0458984375, 0.2275390625
0.0048828125, 0.0673828125, 0.2275390625
0.0068359375, 0.0810546875, 0.2197265625
0.0048828125, 0.0654296875, 0.224609375
0.0078125, 0.021484375, 0.24609375
0.00390625, 0.0263671875, 0.2607421875
0.0107421875, 0.0400390625, 0.2509765625
0.0126953125, 0.0810546875, 0.232421875
0.0107421875, 0.0859375, 0.22265625
0.01171875, 0.0537109375, 0.2080078125
0.0087890625, 0.015625, 0.2412109375
0.005859375, 0.001953125, 0.267578125
0.0126953125, 0.0322265625, 0.2705078125
0.015625, 0.0859375, 0.24609375
0.0205078125, 0.1005859375, 0.22265625
0.0185546875, 0.0185546875, 0.2373046875
0.021484375, -0.015625, 0.2705078125
0.01953125, 0.0126953125, 0.2841796875
0.017578125, 0.0341796875, 0.2353515625
0.0205078125, 0.0546875, 0.205078125
0.017578125, 0.0634765625, 0.201171875
0.01953125, 0.0654296875, 0.2197265625
0.0205078125, 0.0400390625, 0.2265625
0.0224609375, 0.046875, 0.21875
0.0205078125, 0.044921875, 0.2255859375
0.021484375, 0.02734375, 0.2509765625
0.0205078125, 0.015625, 0.2578125
0.0205078125, 0.044921875, 0.251953125
0.0166015625, 0.0849609375, 0.2353515625
0.017578125, 0.080078125, 0.2294921875
0.0205078125, 0.037109375, 0.232421875
0.0205078125, 0.0224609375, 0.2275390625
0.021484375, 0.0322265625, 0.2333984375
0.017578125, 0.04296875, 0.24609375
0.0205078125, 0.0458984375, 0.2587890625
0.021484375, 0.052734375, 0.2412109375
0.01953125, 0.056640625, 0.2333984375
0.01953125, 0.0498046875, 0.248046875
0.0205078125, 0.05078125, 0.2529296875
0.021484375, 0.0341796875, 0.244140625
0.0205078125, 0.033203125, 0.2509765625
0.0205078125, 0.0419921875, 0.2470703125
0.0205078125, 0.044921875, 0.2392578125
0.01953125, 0.0517578125, 0.2333984375
0.0185546875, 0.0595703125, 0.2255859375
0.0234375, 0.0419921875, 0.224609375
0.0263671875, 0.0126953125, 0.2373046875
0.021484375, 0.0146484375, 0.2509765625
0.0166015625, 0.0478515625, 0.2470703125
0.0185546875, 0.0849609375, 0.2353515625
0.021484375, 0.0615234375, 0.2294921875
0.021484375, 0.0283203125, 0.23828125
0.01953125, 0.01953125, 0.251953125
0.0146484375, 0.0361328125, 0.25
0.017578125, 0.05078125, 0.228515625
0.0224609375, 0.0498046875, 0.228515625
0.0205078125, 0.046875, 0.234375
0.0224609375, 0.0263671875, 0.2490234375
0.021484375, 0.0185546875, 0.251953125
0.0185546875, 0.0478515625, 0.24609375
0.0185546875, 0.068359375, 0.2353515625
0.0205078125, 0.0537109375, 0.2353515625
0.021484375, 0.0126953125, 0.251953125
0.0166015625, 0.01953125, 0.26171875
0.017578125, 0.0390625, 0.255859375
0.017578125, 0.052734375, 0.232421875
0.017578125, 0.0576171875, 0.2294921875
0.0185546875, 0.029296875, 0.2490234375
0.0205078125, 0.01953125, 0.24609375
0.021484375, 0.056640625, 0.220703125
0.021484375, 0.0439453125, 0.2255859375
0.0224609375, 0.01171875, 0.2431640625
0.0224609375, 0.021484375, 0.2666015625
0.017578125, 0.0380859375, 0.24609375
0.0166015625, 0.05078125, 0.2333984375
0.01953125, 0.0615234375, 0.232421875
0.0205078125, 0.044921875, 0.232421875
0.01953125, 0.0400390625, 0.23828125
0.0166015625, 0.060546875, 0.236328125
0.0185546875, 0.060546875, 0.2490234375
0.0185546875, 0.03125, 0.2509765625
0.021484375, 0.009765625, 0.2470703125
0.01953125, 0.0419921875, 0.2412109375
0.01953125, 0.0517578125, 0.2392578125
0.01953125, 0.03515625, 0.2470703125
0.0205078125, 0.0322265625, 0.255859375
0.0205078125, 0.0458984375, 0.2490234375
0.0205078125, 0.044921875, 0.2412109375
0.021484375, 0.0439453125, 0.2275390625
0.021484375, 0.0380859375, 0.232421875
0.0205078125, 0.04296875, 0.2392578125
0.0234375, 0.0458984375, 0.24609375
0.025390625, 0.0380859375, 0.244140625
0.0224609375, 0.0185546875, 0.2490234375
0.017578125, 0.0322265625, 0.240234375
0.0224609375, 0.046875, 0.2216796875
0.0224609375, 0.0615234375, 0.220703125
0.01953125, 0.0546875, 0.22265625
0.0185546875, 0.0361328125, 0.224609375
0.021484375, 0.02734375, 0.2548828125
0.0205078125, 0.041015625, 0.275390625
0.0205078125, 0.041015625, 0.259765625
0.0205078125, 0.0361328125, 0.2412109375
0.0185546875, 0.0400390625, 0.236328125
0.0205078125, 0.0419921875, 0.2431640625
0.0205078125, 0.044921875, 0.248046875
0.021484375, 0.0419921875, 0.2421875
0.021484375, 0.0361328125, 0.2353515625
0.0185546875, 0.0380859375, 0.2421875
0.017578125, 0.0458984375, 0.2431640625
0.0185546875, 0.0439453125, 0.24609375
0.0185546875, 0.0498046875, 0.2333984375
0.021484375, 0.033203125, 0.2529296875
0.0205078125, 0.033203125, 0.2607421875
0.021484375, 0.0361328125, 0.2451171875
0.0205078125, 0.03125, 0.2353515625
0.0205078125, 0.04296875, 0.23828125
0.01953125, 0.03515625, 0.2509765625
0.0205078125, 0.0361328125, 0.2353515625
0.0185546875, 0.041015625, 0.234375
0.021484375, 0.0419921875, 0.2333984375
0.021484375, 0.03125, 0.248046875
0.0234375, 0.0400390625, 0.2421875
0.0224609375, 0.0537109375, 0.236328125
0.0224609375, 0.0390625, 0.228515625
0.021484375, 0.0439453125, 0.2333984375
0.021484375, 0.0390625, 0.2490234375
0.0234375, 0.037109375, 0.2421875
0.021484375, 0.0419921875, 0.2333984375
0.021484375, 0.0439453125, 0.2392578125
0.0224609375, 0.0380859375, 0.25390625
0.021484375, 0.03515625, 0.2470703125
0.0205078125, 0.048828125, 0.2451171875
0.0234375, 0.041015625, 0.2451171875
0.0224609375, 0.0341796875, 0.2392578125
0.0244140625, 0.0390625, 0.244140625
0.0234375, 0.04296875, 0.2451171875
0.0224609375, 0.05078125, 0.2275390625
0.021484375, 0.0244140625, 0.2548828125
0.0205078125, 0.017578125, 0.24609375
0.0205078125, 0.05859375, 0.2255859375
0.0224609375, 0.0595703125, 0.2373046875
0.0224609375, 0.0234375, 0.24609375
0.0224609375, 0.03125, 0.232421875
0.0234375, 0.05078125, 0.2421875
0.0224609375, 0.041015625, 0.2490234375
0.021484375, 0.033203125, 0.248046875
0.0244140625, 0.0478515625, 0.234375
0.025390625, 0.0400390625, 0.2294921875
0.0234375, 0.0361328125, 0.2373046875
0.01953125, 0.0400390625, 0.25
0.021484375, 0.0439453125, 0.2490234375
0.0263671875, 0.0400390625, 0.240234375
0.021484375, 0.037109375, 0.2431640625
0.025390625, 0.0341796875, 0.25
0.0234375, 0.041015625, 0.2392578125
0.0244140625, 0.05859375, 0.2255859375
0.0234375, 0.0419921875, 0.2529296875
0.0234375, 0.0185546875, 0.25
0.0263671875, 0.0458984375, 0.2236328125
0.021484375, 0.0654296875, 0.2216796875
0.0224609375, 0.0380859375, 0.26171875
0.0263671875, 0.0224609375, 0.263671875
0.0283203125, 0.04296875, 0.2314453125
0.025390625, 0.0517578125, 0.25
0.0234375, 0.048828125, 0.244140625
0.0244140625, 0.0400390625, 0.240234375
0.0234375, 0.0361328125, 0.2333984375
0.0234375, 0.0341796875, 0.24609375
0.0263671875, 0.0341796875, 0.2451171875
0.0244140625, 0.0390625, 0.2392578125
0.025390625, 0.0380859375, 0.232421875
0.0234375, 0.046875, 0.240234375
0.025390625, 0.041015625, 0.2451171875
0.0263671875, 0.044921875, 0.2421875
0.0244140625, 0.0419921875, 0.2451171875
0.0234375, 0.0458984375, 0.2314453125
0.0283203125, 0.0361328125, 0.244140625
0.025390625, 0.0439453125, 0.23828125
0.0263671875, 0.0390625, 0.240234375
0.0234375, 0.044921875, 0.2392578125
0.0244140625, 0.0458984375, 0.2333984375
0.0234375, 0.0166015625, 0.255859375
0.025390625, 0.0263671875, 0.248046875
0.0263671875, 0.048828125, 0.2412109375
0.025390625, 0.0458984375, 0.2333984375
0.0244140625, 0.0400390625, 0.2470703125
0.025390625, 0.033203125, 0.25
0.0283203125, 0.037109375, 0.2421875
0.02734375, 0.041015625, 0.2392578125
0.0263671875, 0.0380859375, 0.2470703125
0.0244140625, 0.0361328125, 0.248046875
0.02734375, 0.0537109375, 0.248046875
0.025390625, 0.0517578125, 0.2265625
0.0263671875, 0.0341796875, 0.2294921875
0.02734375, 0.03125, 0.2509765625
0.025390625, 0.0400390625, 0.24609375
0.025390625, 0.05078125, 0.2353515625
0.02734375, 0.046875, 0.2353515625
0.029296875, 0.0361328125, 0.2451171875
0.025390625, 0.0302734375, 0.2314453125
0.0244140625, 0.03515625, 0.2392578125
0.0244140625, 0.052734375, 0.2392578125
0.0263671875, 0.0498046875, 0.240234375
0.0283203125, 0.037109375, 0.25
0.0263671875, 0.0400390625, 0.2490234375
0.025390625, 0.0390625, 0.240234375
0.025390625, 0.0361328125, 0.2333984375
0.0234375, 0.044921875, 0.240234375
0.0283203125, 0.0498046875, 0.2431640625
0.0263671875, 0.037109375, 0.2294921875
0.025390625, 0.03125, 0.2412109375
0.0244140625, 0.033203125, 0.2578125
0.02734375, 0.037109375, 0.251953125
0.0244140625, 0.048828125, 0.2294921875
0.0244140625, 0.0615234375, 0.2431640625
0.0263671875, 0.0390625, 0.2568359375
0.025390625, 0.029296875, 0.23828125
0.0283203125, 0.03515625, 0.2392578125
0.02734375, 0.0517578125, 0.23046875
0.029296875, 0.0400390625, 0.2431640625
0.025390625, 0.0361328125, 0.2333984375
0.02734375, 0.0478515625, 0.2392578125
0.0263671875, 0.04296875, 0.244140625
0.0283203125, 0.02734375, 0.2529296875
0.025390625, 0.0322265625, 0.2451171875
0.0283203125, 0.048828125, 0.23828125
0.0283203125, 0.0458984375, 0.236328125
0.025390625, 0.0322265625, 0.25
0.02734375, 0.0341796875, 0.244140625
0.0283203125, 0.0390625, 0.234375
0.02734375, 0.0400390625, 0.2353515625
0.0283203125, 0.0380859375, 0.240234375
0.029296875, 0.04296875, 0.2470703125
0.02734375, 0.0537109375, 0.2373046875
0.033203125, 0.060546875, 0.234375
0.0341796875, 0.0537109375, 0.2470703125
