0.01171875, 0.1083984375, 0.216796875
0.01171875, 0.095703125, 0.232421875
0.0126953125, 0.08984375, 0.2421875
0.015625, 0.09375, 0.2216796875
0.0107421875, 0.0986328125, 0.2138671875
0.0126953125, 0.0986328125, 0.2138671875
0.013671875, 0.0986328125, 0.216796875
0.013671875, 0.095703125, 0.2294921875
0.0126953125, 0.0771484375, 0.2451171875
0.0126953125, 0.080078125, 0.2294921875
0.013671875, 0.0947265625, 0.2265625
0.0146484375, 0.0986328125, 0.228515625
0.013671875, 0.09375, 0.228515625
0.01171875, 0.0791015625, 0.2314453125
0.01171875, 0.08984375, 0.234375
0.01171875, 0.1015625, 0.232421875
0.01171875, 0.0966796875, 0.2177734375
0.0087890625, 0.0947265625, 0.220703125
0.0107421875, 0.091796875, 0.2294921875
0.01171875, 0.1044921875, 0.228515625
0.0126953125, 0.0947265625, 0.2197265625
0.01171875, 0.0927734375, 0.2255859375
0.0107421875, 0.087890625, 0.2412109375
0.0146484375, 0.091796875, 0.2265625
0.0107421875, 0.1025390625, 0.220703125
0.0126953125, 0.09375, 0.2197265625
0.013671875, 0.0869140625, 0.224609375
0.0126953125, 0.0859375, 0.2314453125
0.0146484375, 0.0966796875, 0.232421875
0.013671875, 0.099609375, 0.228515625
0.0126953125, 0.0869140625, 0.216796875
0.0126953125, 0.0869140625, 0.224609375
0.0146484375, 0.1015625, 0.236328125
0.0146484375, 0.099609375, 0.234375
0.0146484375, 0.0947265625, 0.2099609375
0.0146484375, 0.1015625, 0.22265625
0.013671875, 0.08984375, 0.2255859375
0.013671875, 0.0888671875, 0.234375
0.009765625, 0.0908203125, 0.2177734375
0.013671875, 0.09765625, 0.2197265625
0.0107421875, 0.10546875, 0.2236328125
0.013671875, 0.0986328125, 0.2353515625
0.013671875, 0.0908203125, 0.2275390625
0.013671875, 0.095703125, 0.2216796875
0.01171875, 0.095703125, 0.2216796875
0.01171875, 0.0908203125, 0.224609375
0.0126953125, 0.083984375, 0.224609375
0.0146484375, 0.08984375, 0.2158203125
0.015625, 0.0947265625, 0.2236328125
0.0126953125, 0.091796875, 0.234375
0.0126953125, 0.0830078125, 0.2294921875
0.0107421875, 0.099609375, 0.224609375
0.0107421875, 0.1123046875, 0.224609375
0.0107421875, 0.10546875, 0.2314453125
0.0146484375, 0.0888671875, 0.2255859375
0.0107421875, 0.08984375, 0.2236328125
0.0126953125, 0.0947265625, 0.2314453125
0.0107421875, 0.0966796875, 0.2392578125
0.009765625, 0.1005859375, 0.224609375
0.0107421875, 0.1015625, 0.224609375
0.009765625, 0.099609375, 0.2373046875
0.0126953125, 0.0888671875, 0.2314453125
0.009765625, 0.091796875, 0.220703125
0.01171875, 0.0908203125, 0.23046875
0.0087890625, 0.1005859375, 0.2216796875
0.0107421875, 0.1025390625, 0.2265625
0.01171875, 0.095703125, 0.21875
0.0126953125, 0.0966796875, 0.234375
0.0107421875, 0.0888671875, 0.2373046875
0.0126953125, 0.09375, 0.216796875
0.013671875, 0.099609375, 0.2294921875
0.0107421875, 0.09375, 0.224609375
0.0107421875, 0.1005859375, 0.2177734375
0.0126953125, 0.1005859375, 0.232421875
0.013671875, 0.0947265625, 0.224609375
0.0146484375, 0.0859375, 0.23046875
0.0146484375, 0.08984375, 0.234375
0.013671875, 0.1015625, 0.2158203125
0.01171875, 0.0966796875, 0.2197265625
0.0126953125, 0.091796875, 0.2177734375
0.0126953125, 0.0927734375, 0.2314453125
0.0146484375, 0.0966796875, 0.232421875
0.013671875, 0.1044921875, 0.224609375
0.0126953125, 0.1005859375, 0.2255859375
0.0107421875, 0.0908203125, 0.2265625
0.0107421875, 0.091796875, 0.2236328125
0.0126953125, 0.103515625, 0.2255859375
0.0126953125, 0.09765625, 0.2197265625
0.0126953125, 0.0869140625, 0.23046875
0.0146484375, 0.0908203125, 0.234375
0.013671875, 0.09765625, 0.2314453125
0.0146484375, 0.09765625, 0.220703125
0.0166015625, 0.09375, 0.2294921875
0.013671875, 0.0849609375, 0.2314453125
0.0126953125, 0.0927734375, 0.216796875
0.0126953125, 0.0966796875, 0.212890625
0.0126953125, 0.0947265625, 0.2138671875
0.013671875, 0.0947265625, 0.224609375
0.01171875, 0.0966796875, 0.224609375
0.013671875, 0.1025390625, 0.2197265625
0.0107421875, 0.1044921875, 0.220703125
0.013671875, 0.09375, 0.2294921875
0.013671875, 0.08984375, 0.2314453125
0.0126953125, 0.1005859375, 0.2314453125
0.0107421875, 0.1220703125, 0.236328125
0.0126953125, 0.123046875, 0.240234375
0.01953125, 0.1083984375, 0.240234375
0.0283203125, 0.103515625, 0.2568359375
0.044921875, 0.1328125, 0.29296875
0.05859375, 0.1669921875, 0.310546875
0.0615234375, 0.169921875, 0.3701171875
0.0576171875, 0.12890625, 0.388671875
0.060546875, 0.0791015625, 0.349609375
0.0556640625, 0.109375, 0.3583984375
0.0439453125, 0.1328125, 0.3994140625
0.0439453125, 0.1044921875, 0.404296875
0.0380859375, 0.0703125, 0.345703125
0.0380859375, 0.0498046875, 0.3330078125
0.03515625, 0.05078125, 0.3740234375
0.03125, -0.0126953125, 0.4248046875
0.0205078125, -0.078125, 0.4052734375
0.01171875, -0.07421875, 0.365234375
0.00390625, -0.013671875, 0.3544921875
0.0009765625, -0.0322265625, 0.36328125
-0.001953125, -0.1240234375, 0.3798828125
-0.0166015625, -0.201171875, 0.3798828125
-0.0380859375, -0.22265625, 0.375
-0.06640625, -0.2001953125, 0.337890625
-0.0947265625, -0.1240234375, 0.2880859375
-0.1162109375, -0.083984375, 0.2265625
-0.13671875, -0.1376953125, 0.138671875
-0.1650390625, -0.0927734375, 0.0810546875
-0.19921875, 0.0419921875, 0.0791015625
-0.2275390625, 0.15234375, -0.09375
-0.208984375, 0.314453125, -0.3330078125
-0.154296875, 0.447265625, -0.4765625
-0.1162109375, 0.541015625, -0.4716796875
-0.0859375, 0.5830078125, -0.3876953125
-0.08984375, 0.7158203125, -0.2919921875
-0.08984375, 0.7958984375, -0.1845703125
-0.111328125, 0.7705078125, -0.15625
-0.162109375, 0.654296875, -0.2109375
-0.2529296875, 0.4853515625, -0.2607421875
-0.345703125, 0.3544921875, -0.2705078125
-0.4609375, 0.3017578125, -0.2109375
-0.5693359375, 0.24609375, -0.115234375
-0.658203125, 0.13671875, 0.099609375
-0.6826171875, -0.0419921875, 0.384765625
-0.654296875, -0.220703125, 0.6669921875
-0.578125, -0.3388671875, 0.7802734375
-0.4609375, -0.4560546875, 0.9970703125
-0.3330078125, -0.568359375, 0.9990234375
-0.236328125, -0.623046875, 0.9990234375
-0.1953125, -0.5673828125, 0.9267578125
-0.189453125, -0.421875, 0.943359375
-0.1884765625, -0.3359375, 0.919921875
-0.2353515625, -0.30078125, 0.88671875
-0.3134765625, -0.27734375, 0.7763671875
-0.3798828125, -0.2109375, 0.6015625
-0.431640625, -0.125, 0.4267578125
-0.4765625, 0.009765625, 0.3642578125
-0.5283203125, 0.2099609375, 0.3759765625
-0.541015625, 0.4072265625, 0.2080078125
-0.4609375, 0.4638671875, -0.103515625
-0.3193359375, 0.5185546875, -0.26953125
-0.189453125, 0.5380859375, -0.31640625
-0.1103515625, 0.4462890625, -0.2646484375
-0.052734375, 0.3291015625, -0.14453125
-0.037109375, 0.2685546875, -0.1982421875
-0.0029296875, 0.3984375, -0.37890625
0.01953125, 0.5615234375, -0.48046875
0.0224609375, 0.533203125, -0.4697265625
-0.0224609375, 0.4052734375, -0.3994140625
-0.0830078125, 0.337890625, -0.283203125
-0.1396484375, 0.3310546875, -0.0830078125
-0.2001953125, 0.2666015625, 0.0498046875
-0.236328125, 0.2060546875, -0.025390625
-0.2958984375, 0.28125, -0.0615234375
-0.4208984375, 0.2236328125, 0.0107421875
-0.494140625, 0.107421875, 0.2490234375
-0.4970703125, 0.14453125, 0.5185546875
-0.4384765625, 0.150390625, 0.7294921875
-0.3251953125, -0.0078125, 0.9951171875
-0.2080078125, -0.2333984375, 0.9892578125
-0.1298828125, -0.306640625, 0.7998046875
-0.0888671875, -0.3828125, 0.6748046875
-0.052734375, -0.330078125, 0.5224609375
-0.0390625, -0.1650390625, 0.4814453125
-0.0361328125, -0.029296875, 0.4560546875
-0.03125, 0.0791015625, 0.400390625
-0.02734375, 0.1005859375, 0.33203125
-0.0244140625, 0.0771484375, 0.2822265625
-0.025390625, 0.0517578125, 0.2509765625
-0.029296875, 0.076171875, 0.21875
-0.02734375, 0.1123046875, 0.240234375
-0.0205078125, 0.107421875, 0.2509765625
-0.01953125, 0.0859375, 0.216796875
-0.0107421875, 0.08984375, 0.1767578125
-0.001953125, 0.115234375, 0.1708984375
0.0, 0.134765625, 0.1953125
0.00390625, 0.1435546875, 0.19921875
0.00390625, 0.1474609375, 0.2109375
0.0029296875, 0.1220703125, 0.2412109375
0.0, 0.091796875, 0.232421875
0.0, 0.1064453125, 0.17578125
0.001953125, 0.1396484375, 0.1435546875
0.005859375, 0.1552734375, 0.181640625
0.0078125, 0.1328125, 0.2236328125
0.0078125, 0.1044921875, 0.240234375
0.0263671875, 0.08984375, 0.212890625
0.0283203125, 0.087890625, 0.212890625
0.037109375, 0.0751953125, 0.2392578125
0.041015625, 0.0986328125, 0.240234375
0.033203125, 0.1123046875, 0.240234375
0.0302734375, 0.0751953125, 0.240234375
0.01953125, 0.02734375, 0.2294921875
0.0, 0.013671875, 0.18359375
-0.013671875, 0.0537109375, 0.1767578125
-0.017578125, 0.1025390625, 0.2578125
-0.0263671875, 0.1103515625, 0.3232421875
-0.0244140625, 0.0888671875, 0.2861328125
-0.0263671875, 0.0751953125, 0.1884765625
-0.0224609375, 0.0634765625, 0.1630859375
-0.0126953125, 0.0654296875, 0.1796875
0.0, 0.0966796875, 0.1982421875
0.0263671875, 0.11328125, 0.1982421875
0.0966796875, 0.1298828125, 0.125
0.111328125, 0.1494140625, 0.130859375
0.0263671875, 0.1865234375, 0.2607421875
0.001953125, 0.142578125, 0.2880859375
-0.0009765625, 0.0458984375, 0.291015625
0.0205078125, -0.025390625, 0.2822265625
0.0361328125, -0.0087890625, 0.2607421875
0.0302734375, 0.072265625, 0.2333984375
0.0166015625, 0.14453125, 0.2138671875
0.0087890625, 0.16796875, 0.228515625
0.01171875, 0.126953125, 0.2158203125
0.01953125, 0.076171875, 0.2041015625
0.0224609375, 0.0361328125, 0.2158203125
0.0224609375, 0.03515625, 0.2275390625
0.021484375, 0.05859375, 0.2431640625
0.0224609375, 0.087890625, 0.25
0.021484375, 0.1005859375, 0.2353515625
0.0263671875, 0.1044921875, 0.240234375
0.0263671875, 0.095703125, 0.240234375
0.021484375, 0.0966796875, 0.240234375
0.0234375, 0.1025390625, 0.22265625
0.025390625, 0.109375, 0.2060546875
0.0244140625, 0.1005859375, 0.203125
0.02734375, 0.09375, 0.205078125
0.0244140625, 0.08984375, 0.22265625
0.0263671875, 0.083984375, 0.2255859375
0.0234375, 0.087890625, 0.2158203125
0.0263671875, 0.0947265625, 0.2216796875
0.0244140625, 0.09765625, 0.228515625
0.0234375, 0.0849609375, 0.2294921875
0.025390625, 0.0869140625, 0.216796875
0.0234375, 0.0908203125, 0.21875
0.025390625, 0.0966796875, 0.2265625
0.0224609375, 0.09765625, 0.2392578125
0.025390625, 0.0966796875, 0.2265625
0.0234375, 0.1044921875, 0.2216796875
0.0244140625, 0.0908203125, 0.234375
0.0244140625, 0.087890625, 0.2373046875
0.0224609375, 0.087890625, 0.2373046875
0.0234375, 0.083984375, 0.23828125
0.025390625, 0.1005859375, 0.21875
0.0234375, 0.1064453125, 0.23046875
0.0244140625, 0.0888671875, 0.2353515625
0.021484375, 0.0859375, 0.2177734375
0.0234375, 0.0869140625, 0.2392578125
0.0263671875, 0.080078125, 0.236328125
0.025390625, 0.091796875, 0.21875
0.0263671875, 0.09375, 0.216796875
0.0283203125, 0.103515625, 0.2041015625
0.02734375, 0.1044921875, 0.2177734375
0.0283203125, 0.08203125, 0.2314453125
0.025390625, 0.0771484375, 0.216796875
0.02734375, 0.095703125, 0.2265625
0.0263671875, 0.1025390625, 0.23046875
0.02734375, 0.1044921875, 0.2236328125
0.02734375, 0.099609375, 0.2314453125
0.0263671875, 0.0751953125, 0.2255859375
0.0283203125, 0.0947265625, 0.208984375
0.0263671875, 0.119140625, 0.212890625
0.0263671875, 0.1123046875, 0.228515625
0.0283203125, 0.083984375, 0.240234375
0.025390625, 0.0703125, 0.23046875
0.02734375, 0.087890625, 0.2158203125
0.0283203125, 0.103515625, 0.22265625
0.02734375, 0.08984375, 0.22265625
0.02734375, 0.0869140625, 0.2421875
0.029296875, 0.091796875, 0.2373046875
0.0283203125, 0.0966796875, 0.2275390625
0.025390625, 0.0966796875, 0.2216796875
0.02734375, 0.0927734375, 0.2255859375
0.029296875, 0.080078125, 0.236328125
0.025390625, 0.09375, 0.2314453125
0.025390625, 0.09765625, 0.2177734375
0.0302734375, 0.09765625, 0.2099609375
0.029296875, 0.0888671875, 0.23046875
0.02734375, 0.080078125, 0.2294921875
0.0263671875, 0.0927734375, 0.2138671875
0.025390625, 0.1064453125, 0.21484375
0.0302734375, 0.099609375, 0.2421875
0.0283203125, 0.0908203125, 0.2412109375
0.0283203125, 0.0888671875, 0.216796875
0.02734375, 0.09765625, 0.2138671875
0.02734375, 0.1103515625, 0.224609375
0.0263671875, 0.1025390625, 0.2099609375
0.0302734375, 0.0830078125, 0.2197265625
0.0263671875, 0.0810546875, 0.240234375
0.02734375, 0.1015625, 0.23046875
0.029296875, 0.10546875, 0.216796875
0.0283203125, 0.1044921875, 0.2177734375
0.025390625, 0.1005859375, 0.240234375
0.0263671875, 0.1005859375, 0.22265625
0.0263671875, 0.1015625, 0.2138671875
0.0302734375, 0.0927734375, 0.21875
0.02734375, 0.0830078125, 0.2275390625
0.0283203125, 0.083984375, 0.23046875
0.0283203125, 0.1005859375, 0.2197265625
0.0302734375, 0.1142578125, 0.23046875
0.025390625, 0.09375, 0.23046875
0.0263671875, 0.083984375, 0.2236328125
0.029296875, 0.0966796875, 0.232421875
0.0283203125, 0.0869140625, 0.228515625
0.025390625, 0.091796875, 0.2177734375
0.029296875, 0.107421875, 0.2255859375
0.0302734375, 0.1015625, 0.220703125
0.029296875, 0.0869140625, 0.220703125
0.0302734375, 0.08203125, 0.2255859375
0.0302734375, 0.083984375, 0.216796875
0.029296875, 0.1025390625, 0.2177734375
0.0302734375, 0.1064453125, 0.2099609375
0.02734375, 0.10546875, 0.2119140625
0.0302734375, 0.09375, 0.2451171875
0.0283203125, 0.095703125, 0.2490234375
0.0283203125, 0.1005859375, 0.2099609375
0.02734375, 0.103515625, 0.2060546875
0.029296875, 0.1005859375, 0.23046875
0.0302734375, 0.0908203125, 0.2373046875
0.0283203125, 0.0947265625, 0.2265625
0.029296875, 0.09375, 0.220703125
0.0283203125, 0.1015625, 0.2265625
0.029296875, 0.09765625, 0.22265625
0.0283203125, 0.0908203125, 0.2099609375
0.02734375, 0.1025390625, 0.2265625
0.029296875, 0.0986328125, 0.228515625
0.0302734375, 0.0927734375, 0.2216796875
0.0302734375, 0.0927734375, 0.228515625
0.029296875, 0.091796875, 0.228515625
0.029296875, 0.0986328125, 0.228515625
0.0302734375, 0.09765625, 0.228515625
0.029296875, 0.095703125, 0.2216796875
0.0283203125, 0.0966796875, 0.2236328125
0.02734375, 0.0927734375, 0.228515625
0.0302734375, 0.0927734375, 0.2275390625
0.0283203125, 0.0888671875, 0.228515625
0.0302734375, 0.09375, 0.2275390625
0.0302734375, 0.1005859375, 0.22265625
0.029296875, 0.1005859375, 0.22265625
0.02734375, 0.08984375, 0.2216796875
0.0322265625, 0.09765625, 0.2197265625
0.029296875, 0.1005859375, 0.2294921875
0.029296875, 0.09765625, 0.2138671875
0.029296875, 0.095703125, 0.21484375
0.0283203125, 0.095703125, 0.23046875
0.0302734375, 0.10546875, 0.22265625
0.0302734375, 0.109375, 0.2265625
0.0283203125, 0.09765625, 0.216796875
0.029296875, 0.099609375, 0.2216796875
0.03125, 0.1025390625, 0.21875
0.0302734375, 0.091796875, 0.224609375
0.0283203125, 0.0830078125, 0.228515625
0.0283203125, 0.099609375, 0.224609375
0.0302734375, 0.1123046875, 0.224609375
0.029296875, 0.1015625, 0.21875
0.029296875, 0.076171875, 0.2275390625
0.0283203125, 0.083984375, 0.2314453125
0.03125, 0.10546875, 0.2265625
0.0302734375, 0.1015625, 0.220703125
0.029296875, 0.103515625, 0.234375
0.029296875, 0.1005859375, 0.2197265625
0.0302734375, 0.099609375, 0.216796875
0.0263671875, 0.1015625, 0.2138671875
0.03125, 0.0908203125, 0.232421875
0.0302734375, 0.0849609375, 0.224609375
0.029296875, 0.1005859375, 0.216796875
0.0302734375, 0.1044921875, 0.23046875
0.0302734375, 0.095703125, 0.228515625
0.029296875, 0.078125, 0.2275390625
0.0263671875, 0.09375, 0.2275390625
0.0263671875, 0.1064453125, 0.2236328125
0.0302734375, 0.1044921875, 0.224609375
0.03125, 0.087890625, 0.2275390625
0.0302734375, 0.0947265625, 0.23046875
0.029296875, 0.09765625, 0.228515625
0.029296875, 0.1005859375, 0.2216796875
0.0283203125, 0.107421875, 0.2197265625
0.0302734375, 0.0947265625, 0.2255859375
0.0283203125, 0.095703125, 0.2138671875
0.03125, 0.103515625, 0.224609375
0.029296875, 0.0947265625, 0.2255859375
0.029296875, 0.1005859375, 0.224609375
0.0302734375, 0.0947265625, 0.2392578125
0.0322265625, 0.0927734375, 0.2216796875
0.03125, 0.09765625, 0.2138671875
0.0283203125, 0.0927734375, 0.22265625
0.03125, 0.09375, 0.2412109375
0.033203125, 0.0947265625, 0.2353515625
0.0322265625, 0.0849609375, 0.2177734375
0.029296875, 0.0869140625, 0.212890625
0.03125, 0.0966796875, 0.220703125
0.0302734375, 0.10546875, 0.22265625
0.02734375, 0.1083984375, 0.220703125
0.03125, 0.091796875, 0.2197265625
0.0283203125, 0.0908203125, 0.2265625
0.0244140625, 0.107421875, 0.21875
0.025390625, 0.1142578125, 0.2158203125
0.029296875, 0.1064453125, 0.21875
0.0322265625, 0.0966796875, 0.2216796875
0.033203125, 0.0888671875, 0.2236328125
0.0302734375, 0.095703125, 0.2314453125
0.0302734375, 0.1044921875, 0.2275390625
0.029296875, 0.107421875, 0.2197265625
0.03125, 0.1015625, 0.21875
0.03125, 0.09765625, 0.21875
0.0302734375, 0.0908203125, 0.228515625
0.0302734375, 0.095703125, 0.2265625
0.0302734375, 0.1005859375, 0.2177734375
0.0283203125, 0.099609375, 0.2216796875
0.029296875, 0.083984375, 0.23046875
0.0283203125, 0.0849609375, 0.2333984375
0.0302734375, 0.0908203125, 0.2373046875
0.029296875, 0.0986328125, 0.2294921875
0.02734375, 0.0908203125, 0.224609375
0.029296875, 0.0908203125, 0.232421875
0.033203125, 0.08984375, 0.2294921875
0.0283203125, 0.1005859375, 0.22265625
0.029296875, 0.091796875, 0.2177734375
0.0283203125, 0.087890625, 0.2275390625
0.03125, 0.09765625, 0.2294921875
0.0341796875, 0.0986328125, 0.2275390625
0.0302734375, 0.087890625, 0.22265625
0.029296875, 0.09375, 0.2197265625
0.0322265625, 0.1025390625, 0.22265625
0.0302734375, 0.10546875, 0.216796875
0.0322265625, 0.0986328125, 0.21484375
0.03125, 0.1015625, 0.2060546875
