0.0556640625, -0.0322265625, 0.240234375
0.0546875, -0.037109375, 0.2421875
0.056640625, -0.0380859375, 0.25
0.0576171875, -0.01953125, 0.2333984375
0.0546875, -0.025390625, 0.234375
0.060546875, -0.029296875, 0.23828125
0.056640625, -0.03125, 0.2451171875
0.05859375, -0.0205078125, 0.232421875
0.0595703125, -0.0166015625, 0.23046875
0.0576171875, -0.0146484375, 0.2314453125
0.0576171875, -0.0322265625, 0.2490234375
0.0576171875, -0.033203125, 0.25
0.05859375, -0.0322265625, 0.240234375
0.0576171875, -0.025390625, 0.2353515625
0.0595703125, -0.017578125, 0.236328125
0.0595703125, -0.0166015625, 0.228515625
0.0576171875, -0.029296875, 0.2294921875
0.0595703125, -0.02734375, 0.232421875
0.0576171875, -0.0361328125, 0.2529296875
0.0576171875, -0.0322265625, 0.248046875
0.0576171875, -0.01953125, 0.2353515625
0.0595703125, -0.0224609375, 0.240234375
0.0576171875, -0.0341796875, 0.244140625
0.056640625, -0.03515625, 0.2421875
0.056640625, -0.01953125, 0.2421875
0.0576171875, -0.0126953125, 0.2373046875
0.05859375, -0.033203125, 0.2314453125
0.0576171875, -0.05078125, 0.244140625
0.060546875, -0.044921875, 0.2421875
0.060546875, -0.021484375, 0.2314453125
0.05859375, -0.0048828125, 0.22265625
0.05859375, -0.013671875, 0.2373046875
0.05859375, -0.0341796875, 0.2412109375
0.0595703125, -0.0361328125, 0.234375
0.05859375, -0.021484375, 0.23828125
0.056640625, -0.0205078125, 0.240234375
0.0576171875, -0.02734375, 0.234375
0.0576171875, -0.01953125, 0.2373046875
0.0576171875, -0.017578125, 0.240234375
0.0595703125, -0.0322265625, 0.2451171875
0.056640625, -0.033203125, 0.2412109375
0.05859375, -0.029296875, 0.24609375
0.0576171875, -0.0341796875, 0.2490234375
0.0556640625, -0.029296875, 0.2412109375
0.0595703125, -0.021484375, 0.228515625
0.060546875, -0.041015625, 0.2431640625
0.0595703125, -0.037109375, 0.23828125
0.05859375, -0.0244140625, 0.2392578125
0.0556640625, -0.029296875, 0.236328125
0.056640625, -0.0361328125, 0.2373046875
0.05859375, -0.0244140625, 0.236328125
0.0595703125, -0.025390625, 0.234375
0.05859375, -0.0361328125, 0.232421875
0.060546875, -0.03125, 0.2412109375
0.0595703125, -0.0322265625, 0.2412109375
0.0556640625, -0.033203125, 0.2353515625
0.05859375, -0.01953125, 0.228515625
0.0615234375, -0.013671875, 0.2255859375
0.0576171875, -0.021484375, 0.2373046875
0.05859375, -0.04296875, 0.2470703125
0.05859375, -0.0546875, 0.24609375
0.056640625, -0.0390625, 0.240234375
0.056640625, -0.0185546875, 0.2470703125
0.060546875, -0.017578125, 0.234375
0.0576171875, -0.0283203125, 0.240234375
0.0576171875, -0.0478515625, 0.2470703125
0.05859375, -0.0576171875, 0.2548828125
0.0576171875, -0.0419921875, 0.2509765625
0.05859375, -0.0146484375, 0.2275390625
0.0615234375, -0.009765625, 0.2216796875
0.0625, -0.017578125, 0.2236328125
0.05859375, -0.0224609375, 0.2333984375
0.05859375, -0.0263671875, 0.232421875
0.060546875, -0.0078125, 0.2216796875
0.0615234375, -0.0078125, 0.2294921875
0.060546875, -0.02734375, 0.240234375
0.060546875, -0.03125, 0.240234375
0.0615234375, -0.029296875, 0.2421875
0.060546875, -0.03515625, 0.24609375
0.0615234375, -0.0380859375, 0.2509765625
0.0576171875, -0.0244140625, 0.2373046875
0.0615234375, -0.0146484375, 0.2314453125
0.05859375, -0.0263671875, 0.2353515625
0.0595703125, -0.0283203125, 0.24609375
0.0556640625, -0.0380859375, 0.2451171875
0.05859375, -0.033203125, 0.2392578125
0.0595703125, -0.02734375, 0.2431640625
0.0595703125, -0.033203125, 0.23828125
0.0576171875, -0.03125, 0.236328125
0.05859375, -0.0185546875, 0.228515625
0.05859375, -0.037109375, 0.236328125
0.05859375, -0.04296875, 0.248046875
0.0576171875, -0.0439453125, 0.2509765625
0.05859375, -0.0263671875, 0.2353515625
0.0595703125, -0.0205078125, 0.224609375
0.05859375, -0.0263671875, 0.2236328125
0.060546875, -0.033203125, 0.234375
0.0556640625, -0.02734375, 0.2392578125
0.0576171875, -0.029296875, 0.2392578125
0.056640625, -0.037109375, 0.2412109375
0.0595703125, -0.0341796875, 0.24609375
0.05859375, -0.0302734375, 0.23046875
0.060546875, -0.025390625, 0.234375
0.0615234375, -0.025390625, 0.228515625
0.060546875, -0.0302734375, 0.23046875
0.0625, -0.0283203125, 0.2373046875
0.0634765625, -0.017578125, 0.23828125
0.0625, -0.0244140625, 0.24609375
0.0634765625, -0.0224609375, 0.275390625
0.0712890625, -0.00390625, 0.275390625
0.068359375, 0.03125, 0.228515625
0.06640625, 0.08984375, 0.2119140625
0.072265625, 0.111328125, 0.2421875
0.0732421875, 0.0908203125, 0.26171875
0.076171875, 0.09765625, 0.2841796875
0.08203125, 0.0810546875, 0.240234375
0.0810546875, 0.0966796875, 0.197265625
0.0810546875, 0.1201171875, 0.173828125
0.08203125, 0.142578125, 0.1923828125
0.0830078125, 0.1376953125, 0.2060546875
0.0771484375, 0.119140625, 0.216796875
0.0751953125, 0.07421875, 0.2041015625
0.0693359375, 0.0498046875, 0.1904296875
0.06640625, 0.0478515625, 0.16796875
0.0625, 0.080078125, 0.134765625
0.046875, 0.087890625, 0.1181640625
0.03515625, 0.0703125, 0.158203125
0.0244140625, 0.0439453125, 0.22265625
0.0146484375, 0.0087890625, 0.2197265625
0.0048828125, 0.0244140625, 0.1591796875
-0.0029296875, -0.0244140625, 0.146484375
-0.015625, -0.0732421875, 0.181640625
-0.01953125, -0.060546875, 0.1796875
-0.033203125, -0.0234375, 0.1767578125
-0.0439453125, -0.0712890625, 0.19140625
-0.0517578125, -0.099609375, 0.1923828125
-0.0673828125, -0.0849609375, 0.140625
-0.083984375, -0.1064453125, 0.2392578125
-0.0947265625, -0.1748046875, 0.3408203125
-0.0908203125, -0.2099609375, 0.3310546875
-0.0849609375, -0.181640625, 0.3427734375
-0.0859375, -0.13671875, 0.3662109375
-0.0888671875, -0.1240234375, 0.4248046875
-0.08984375, -0.140625, 0.5400390625
-0.109375, -0.1630859375, 0.6376953125
-0.1328125, -0.2236328125, 0.6201171875
-0.158203125, -0.3359375, 0.6015625
-0.1826171875, -0.43359375, 0.6943359375
-0.23828125, -0.4501953125, 0.7919921875
-0.314453125, -0.4296875, 0.7275390625
-0.4072265625, -0.421875, 0.55859375
-0.453125, -0.3583984375, 0.275390625
-0.4345703125, -0.2529296875, 0.1005859375
-0.3740234375, -0.154296875, 0.0458984375
-0.33203125, -0.080078125, 0.0595703125
-0.3017578125, -0.0283203125, 0.0458984375
-0.2548828125, 0.0810546875, -0.0439453125
-0.193359375, 0.2109375, -0.1845703125
-0.119140625, 0.23046875, -0.25390625
-0.060546875, 0.2724609375, -0.2734375
-0.0146484375, 0.283203125, -0.3134765625
0.01953125, 0.3330078125, -0.4306640625
0.0576171875, 0.43359375, -0.5234375
0.076171875, 0.4521484375, -0.5595703125
0.064453125, 0.4052734375, -0.5341796875
0.0263671875, 0.3486328125, -0.470703125
-0.03125, 0.283203125, -0.392578125
-0.0927734375, 0.1884765625, -0.3525390625
-0.16015625, 0.134765625, -0.3720703125
-0.244140625, 0.154296875, -0.3828125
-0.376953125, 0.02734375, -0.28515625
-0.4638671875, -0.21484375, -0.1435546875
-0.5439453125, -0.2919921875, -0.1552734375
-0.6103515625, -0.3720703125, 0.0654296875
-0.5869140625, -0.62109375, 0.6220703125
-0.453125, -0.625, 0.7841796875
-0.380859375, -0.5068359375, 0.7548828125
-0.3369140625, -0.67578125, 0.908203125
-0.2744140625, -0.8369140625, 0.9990234375
-0.236328125, -0.5791015625, 0.9990234375
-0.2470703125, -0.3056640625, 0.873046875
-0.255859375, -0.1689453125, 0.6201171875
-0.2451171875, -0.0400390625, 0.423828125
-0.2119140625, 0.0419921875, 0.357421875
-0.171875, 0.11328125, 0.4189453125
-0.1396484375, 0.185546875, 0.4482421875
-0.1064453125, 0.2119140625, 0.3486328125
-0.07421875, 0.21484375, 0.2431640625
-0.0390625, 0.2255859375, 0.1298828125
-0.0068359375, 0.2373046875, 0.0771484375
0.017578125, 0.2177734375, 0.0634765625
0.0341796875, 0.1943359375, 0.083984375
0.0419921875, 0.1279296875, 0.0859375
0.0478515625, 0.0615234375, 0.1015625
0.048828125, 0.0439453125, 0.1171875
0.0556640625, 0.048828125, 0.140625
0.0537109375, 0.044921875, 0.1552734375
0.056640625, 0.0146484375, 0.1533203125
0.0576171875, -0.0078125, 0.154296875
0.0615234375, -0.017578125, 0.1787109375
0.0625, -0.0107421875, 0.2021484375
0.0625, -0.03125, 0.23046875
0.0576171875, -0.0654296875, 0.2294921875
0.056640625, -0.0546875, 0.234375
0.0537109375, -0.0205078125, 0.267578125
0.0478515625, -0.0322265625, 0.2861328125
0.0439453125, -0.044921875, 0.28125
0.0439453125, -0.025390625, 0.2587890625
0.0478515625, -0.037109375, 0.26171875
0.0458984375, -0.0341796875, 0.2666015625
0.0478515625, -0.0244140625, 0.2529296875
0.0498046875, -0.0185546875, 0.2470703125
0.0458984375, -0.0078125, 0.2333984375
0.044921875, -0.0283203125, 0.2470703125
0.0458984375, -0.021484375, 0.251953125
0.0498046875, -0.0205078125, 0.2490234375
0.046875, -0.0380859375, 0.244140625
0.046875, -0.017578125, 0.23046875
0.0498046875, -0.0234375, 0.2431640625
0.048828125, -0.0263671875, 0.240234375
0.048828125, -0.0400390625, 0.248046875
0.05078125, -0.009765625, 0.234375
0.048828125, -0.001953125, 0.25
0.05078125, -0.0166015625, 0.23828125
0.048828125, -0.0322265625, 0.2470703125
0.0537109375, -0.03515625, 0.23828125
0.0537109375, -0.0185546875, 0.2314453125
0.056640625, -0.0302734375, 0.2509765625
0.05859375, -0.0185546875, 0.2451171875
0.0537109375, -0.013671875, 0.2412109375
0.0498046875, -0.0185546875, 0.224609375
0.0517578125, -0.0087890625, 0.2353515625
0.05078125, -0.015625, 0.2529296875
0.0537109375, -0.0205078125, 0.2509765625
0.052734375, -0.0263671875, 0.2392578125
0.0546875, -0.01171875, 0.2158203125
0.0546875, -0.009765625, 0.2265625
0.0537109375, -0.009765625, 0.244140625
0.0546875, -0.03515625, 0.2626953125
0.0537109375, -0.0185546875, 0.2470703125
0.060546875, 0.0029296875, 0.2236328125
0.0576171875, -0.0107421875, 0.2294921875
0.0556640625, 0.0009765625, 0.2392578125
0.056640625, 0.005859375, 0.248046875
0.0517578125, -0.0146484375, 0.236328125
0.0546875, -0.0009765625, 0.240234375
0.052734375, -0.0146484375, 0.2490234375
0.052734375, -0.001953125, 0.2333984375
0.0537109375, -0.0126953125, 0.234375
0.0537109375, -0.0302734375, 0.2392578125
0.0537109375, -0.0263671875, 0.2470703125
0.05078125, -0.03125, 0.244140625
0.0537109375, -0.0244140625, 0.23046875
0.0546875, -0.0234375, 0.23828125
0.0546875, -0.0283203125, 0.2421875
0.0546875, -0.0244140625, 0.23828125
0.0498046875, -0.021484375, 0.2255859375
0.052734375, -0.0068359375, 0.22265625
0.052734375, -0.0224609375, 0.240234375
0.052734375, -0.033203125, 0.2490234375
0.0546875, -0.029296875, 0.25
0.0537109375, -0.029296875, 0.2431640625
0.0517578125, -0.0224609375, 0.234375
0.052734375, -0.0224609375, 0.2431640625
0.052734375, -0.0185546875, 0.248046875
0.0498046875, -0.0126953125, 0.248046875
0.05078125, -0.0341796875, 0.2392578125
0.0537109375, -0.0419921875, 0.24609375
0.0517578125, -0.03125, 0.240234375
0.05078125, -0.0322265625, 0.2412109375
0.052734375, -0.0390625, 0.25390625
0.0517578125, -0.03125, 0.2548828125
0.0517578125, -0.013671875, 0.240234375
0.052734375, -0.0146484375, 0.2275390625
0.0546875, -0.017578125, 0.224609375
0.0546875, -0.017578125, 0.240234375
0.0546875, -0.0244140625, 0.2431640625
0.0546875, -0.013671875, 0.240234375
0.056640625, -0.0009765625, 0.240234375
0.056640625, -0.0009765625, 0.23046875
0.0556640625, -0.0205078125, 0.232421875
0.0576171875, -0.0107421875, 0.25390625
0.0595703125, -0.0107421875, 0.2333984375
0.0556640625, -0.029296875, 0.232421875
0.0546875, -0.0205078125, 0.2421875
0.0556640625, -0.0107421875, 0.2431640625
0.0546875, -0.0166015625, 0.2392578125
0.0546875, -0.013671875, 0.2236328125
0.0556640625, -0.02734375, 0.232421875
0.0546875, -0.02734375, 0.2412109375
0.0576171875, -0.009765625, 0.24609375
0.0546875, -0.025390625, 0.2431640625
0.0546875, -0.029296875, 0.2431640625
0.0546875, -0.029296875, 0.2421875
0.052734375, -0.0224609375, 0.2373046875
0.0537109375, -0.0234375, 0.2421875
0.0546875, -0.017578125, 0.2451171875
0.0576171875, -0.021484375, 0.23828125
0.0556640625, -0.0205078125, 0.236328125
0.0556640625, -0.0205078125, 0.23828125
0.0546875, -0.0302734375, 0.2421875
0.0556640625, -0.0205078125, 0.2451171875
0.0576171875, -0.013671875, 0.23828125
0.056640625, -0.0224609375, 0.236328125
0.0546875, -0.025390625, 0.2421875
0.0546875, -0.029296875, 0.2451171875
0.0537109375, -0.0322265625, 0.2578125
0.0556640625, -0.01953125, 0.236328125
0.0546875, -0.0029296875, 0.2255859375
0.0556640625, -0.00390625, 0.2265625
0.05859375, -0.0283203125, 0.236328125
0.0576171875, -0.025390625, 0.2421875
0.056640625, -0.0185546875, 0.2431640625
0.0556640625, -0.0185546875, 0.2451171875
0.0546875, -0.0283203125, 0.24609375
0.05859375, -0.017578125, 0.236328125
0.0576171875, -0.013671875, 0.236328125
0.056640625, -0.0224609375, 0.232421875
0.0556640625, -0.025390625, 0.2431640625
0.0546875, -0.0205078125, 0.2412109375
0.056640625, -0.021484375, 0.2333984375
0.0537109375, -0.0146484375, 0.2392578125
0.0556640625, -0.0234375, 0.2431640625
0.052734375, -0.0224609375, 0.2412109375
0.056640625, -0.025390625, 0.2451171875
0.0556640625, -0.0185546875, 0.2412109375
0.0546875, -0.0087890625, 0.232421875
0.056640625, -0.009765625, 0.232421875
0.0556640625, -0.0234375, 0.2373046875
0.0537109375, -0.0390625, 0.2470703125
0.0546875, -0.02734375, 0.240234375
0.0546875, -0.0087890625, 0.244140625
0.0556640625, -0.0166015625, 0.2333984375
0.0546875, -0.0166015625, 0.23046875
0.056640625, -0.009765625, 0.2333984375
0.056640625, -0.0234375, 0.244140625
0.0537109375, -0.029296875, 0.244140625
0.052734375, -0.0234375, 0.24609375
0.0537109375, -0.0205078125, 0.25
0.0537109375, -0.0224609375, 0.248046875
0.056640625, -0.0263671875, 0.2373046875
0.0546875, -0.029296875, 0.2451171875
0.0546875, -0.025390625, 0.2412109375
0.0556640625, -0.0146484375, 0.2275390625
0.0537109375, -0.0048828125, 0.2216796875
0.0576171875, -0.0107421875, 0.236328125
0.0546875, -0.0302734375, 0.25390625
0.052734375, -0.04296875, 0.25
0.0546875, -0.029296875, 0.2529296875
0.0546875, -0.0205078125, 0.2412109375
0.0556640625, -0.0224609375, 0.2294921875
0.0556640625, -0.0234375, 0.224609375
0.0556640625, -0.0166015625, 0.2275390625
0.0556640625, -0.0166015625, 0.2392578125
0.0517578125, -0.029296875, 0.2353515625
0.052734375, -0.0302734375, 0.2392578125
0.0546875, -0.025390625, 0.2509765625
0.0537109375, -0.0361328125, 0.2470703125
0.052734375, -0.0244140625, 0.2373046875
0.0546875, -0.0205078125, 0.2421875
0.056640625, -0.0341796875, 0.2412109375
0.060546875, -0.03125, 0.234375
0.056640625, -0.0224609375, 0.232421875
0.0546875, -0.0224609375, 0.234375
0.0546875, -0.025390625, 0.23828125
0.0576171875, -0.021484375, 0.23828125
0.0556640625, -0.025390625, 0.23828125
0.0556640625, -0.0234375, 0.2431640625
0.0556640625, -0.0244140625, 0.24609375
0.0576171875, -0.017578125, 0.2333984375
0.0546875, -0.0302734375, 0.240234375
0.0576171875, -0.021484375, 0.234375
0.056640625, -0.021484375, 0.236328125
0.0576171875, -0.025390625, 0.2421875
0.0537109375, -0.0107421875, 0.248046875
0.0537109375, -0.0234375, 0.2529296875
0.0546875, -0.037109375, 0.23828125
0.0537109375, -0.0224609375, 0.234375
0.0546875, -0.0205078125, 0.2392578125
0.05859375, -0.0244140625, 0.2392578125
0.0537109375, -0.0341796875, 0.2392578125
0.0537109375, -0.02734375, 0.236328125
0.0546875, -0.0205078125, 0.2294921875
0.0546875, -0.01953125, 0.236328125
0.0546875, -0.0302734375, 0.2373046875
0.0537109375, -0.0263671875, 0.236328125
0.05859375, -0.0244140625, 0.232421875
0.0576171875, -0.01953125, 0.23828125
0.056640625, -0.0234375, 0.2431640625
0.0576171875, -0.0234375, 0.2421875
0.0556640625, -0.0126953125, 0.2392578125
0.0546875, -0.021484375, 0.23828125
0.0546875, -0.03125, 0.2451171875
0.0556640625, -0.033203125, 0.244140625
0.0537109375, -0.0283203125, 0.2431640625
0.0546875, -0.0146484375, 0.2294921875
0.0546875, -0.013671875, 0.232421875
0.0556640625, -0.017578125, 0.2275390625
0.056640625, -0.0244140625, 0.23046875
0.0556640625, -0.0302734375, 0.248046875
0.0537109375, -0.029296875, 0.2431640625
0.0556640625, -0.03125, 0.2431640625
0.0537109375, -0.021484375, 0.2412109375
0.056640625, -0.0205078125, 0.240234375
0.056640625, -0.02734375, 0.2314453125
0.052734375, -0.015625, 0.2333984375
0.0546875, -0.033203125, 0.236328125
0.0595703125, -0.037109375, 0.25
0.0595703125, -0.03125, 0.2490234375
0.0556640625, -0.0185546875, 0.23828125
0.056640625, -0.0107421875, 0.2392578125
0.056640625, -0.015625, 0.23828125
0.0546875, -0.029296875, 0.248046875
0.0556640625, -0.029296875, 0.234375
0.0546875, -0.01953125, 0.2294921875
0.0556640625, -0.021484375, 0.2412109375
0.0546875, -0.0302734375, 0.24609375
0.056640625, -0.033203125, 0.244140625
0.0546875, -0.0244140625, 0.240234375
0.05859375, -0.0234375, 0.2333984375
0.0595703125, -0.0234375, 0.2412109375
0.0537109375, -0.0185546875, 0.23828125
0.0576171875, -0.0302734375, 0.2431640625
0.056640625, -0.025390625, 0.2431640625
0.05859375, -0.033203125, 0.236328125
0.056640625, -0.021484375, 0.244140625
0.0556640625, -0.021484375, 0.244140625
0.056640625, -0.021484375, 0.236328125
0.0546875, -0.025390625, 0.244140625
0.056640625, -0.0322265625, 0.2431640625
0.0546875, -0.0244140625, 0.236328125
0.0556640625, -0.0205078125, 0.240234375
0.0537109375, -0.015625, 0.232421875
0.05859375, -0.0224609375, 0.240234375
0.0556640625, -0.0302734375, 0.244140625
0.056640625, -0.0302734375, 0.248046875
0.060546875, -0.0341796875, 0.23828125
0.0595703125, -0.03125, 0.2333984375
0.05859375, -0.01953125, 0.2314453125
0.0556640625, -0.0126953125, 0.236328125
0.052734375, -0.0244140625, 0.234375
0.0556640625, -0.03125, 0.244140625
0.05859375, -0.0283203125, 0.2314453125
0.056640625, -0.02734375, 0.236328125
0.05859375, -0.0234375, 0.24609375
0.0576171875, -0.0185546875, 0.2392578125
0.056640625, -0.015625, 0.232421875
0.056640625, -0.01953125, 0.2373046875
0.0595703125, -0.025390625, 0.2421875
0.0615234375, -0.017578125, 0.251953125
