0.041015625, -0.03125, 0.2587890625
0.0390625, -0.029296875, 0.2353515625
0.0380859375, -0.0234375, 0.232421875
0.0400390625, -0.01953125, 0.2451171875
0.041015625, -0.0205078125, 0.2451171875
0.0390625, -0.02734375, 0.2333984375
0.0341796875, -0.0224609375, 0.23828125
0.037109375, -0.03125, 0.2451171875
0.037109375, -0.0380859375, 0.2431640625
0.0380859375, -0.0322265625, 0.2255859375
0.0400390625, -0.0361328125, 0.2216796875
0.0390625, -0.037109375, 0.236328125
0.0380859375, -0.01953125, 0.2490234375
0.0400390625, -0.0234375, 0.244140625
0.0390625, -0.03125, 0.23828125
0.041015625, -0.01171875, 0.2421875
0.0390625, 0.0, 0.240234375
0.041015625, -0.0126953125, 0.2373046875
0.0380859375, -0.029296875, 0.2509765625
0.0380859375, -0.0185546875, 0.2548828125
0.03515625, -0.013671875, 0.259765625
0.0361328125, -0.0166015625, 0.2509765625
0.03515625, -0.0224609375, 0.251953125
0.0380859375, -0.029296875, 0.2578125
0.0390625, -0.0244140625, 0.25390625
0.03515625, -0.0146484375, 0.25
0.0380859375, -0.0166015625, 0.2470703125
0.0361328125, -0.0126953125, 0.2392578125
0.0400390625, -0.01171875, 0.2314453125
0.037109375, -0.0185546875, 0.244140625
0.0380859375, -0.0185546875, 0.2470703125
0.0390625, -0.0205078125, 0.2412109375
0.0361328125, -0.01171875, 0.2265625
0.0361328125, -0.00390625, 0.228515625
0.0361328125, -0.01171875, 0.23828125
0.0341796875, -0.033203125, 0.2509765625
0.03515625, -0.03515625, 0.2529296875
0.03125, -0.0185546875, 0.2373046875
0.0341796875, -0.015625, 0.2265625
0.037109375, -0.015625, 0.2353515625
0.0380859375, -0.0244140625, 0.2373046875
0.0390625, -0.02734375, 0.2294921875
0.0419921875, -0.025390625, 0.236328125
0.037109375, -0.025390625, 0.25390625
0.0400390625, -0.0283203125, 0.248046875
0.037109375, -0.0224609375, 0.2509765625
0.0380859375, -0.025390625, 0.2646484375
0.0361328125, -0.0322265625, 0.2607421875
0.037109375, -0.021484375, 0.2509765625
0.037109375, -0.01171875, 0.2470703125
0.0400390625, -0.009765625, 0.2392578125
0.0390625, -0.0146484375, 0.2333984375
0.0390625, -0.017578125, 0.2353515625
0.0390625, -0.0205078125, 0.2431640625
0.0380859375, -0.017578125, 0.2509765625
0.0390625, -0.0078125, 0.2353515625
0.0390625, -0.0009765625, 0.228515625
0.0390625, -0.013671875, 0.2392578125
0.037109375, -0.0126953125, 0.2392578125
0.0380859375, -0.0302734375, 0.2529296875
0.037109375, -0.0234375, 0.248046875
0.0380859375, -0.01171875, 0.2451171875
0.0380859375, -0.0185546875, 0.244140625
0.0400390625, -0.0087890625, 0.236328125
0.0390625, -0.0283203125, 0.2412109375
0.0390625, -0.0283203125, 0.2470703125
0.04296875, -0.0234375, 0.251953125
0.0361328125, -0.0244140625, 0.24609375
0.0390625, -0.009765625, 0.232421875
0.037109375, -0.0126953125, 0.236328125
0.0380859375, -0.0263671875, 0.2431640625
0.0419921875, -0.03515625, 0.255859375
0.041015625, -0.01171875, 0.2412109375
0.04296875, -0.017578125, 0.2373046875
0.041015625, -0.0234375, 0.23828125
0.0390625, -0.0126953125, 0.240234375
0.0390625, -0.0224609375, 0.240234375
0.0419921875, -0.015625, 0.23046875
0.04296875, -0.0234375, 0.2421875
0.037109375, -0.0263671875, 0.25
0.0380859375, -0.0185546875, 0.244140625
0.0419921875, -0.0146484375, 0.23046875
0.041015625, -0.0205078125, 0.2412109375
0.0380859375, -0.021484375, 0.236328125
0.0400390625, -0.0205078125, 0.2392578125
0.0400390625, -0.01953125, 0.2421875
0.0400390625, -0.015625, 0.240234375
0.04296875, -0.0126953125, 0.2490234375
0.041015625, -0.021484375, 0.25
0.0400390625, -0.01953125, 0.244140625
0.0400390625, -0.0283203125, 0.2451171875
0.0390625, -0.03125, 0.251953125
0.0390625, -0.01171875, 0.24609375
0.0390625, -0.01171875, 0.244140625
0.041015625, -0.021484375, 0.23828125
0.0400390625, -0.01953125, 0.2470703125
0.0390625, -0.0185546875, 0.2373046875
0.041015625, -0.0126953125, 0.240234375
0.041015625, -0.009765625, 0.24609375
0.041015625, -0.0205078125, 0.2412109375
0.041015625, -0.021484375, 0.2373046875
0.0419921875, -0.0185546875, 0.2373046875
0.041015625, -0.01953125, 0.248046875
0.0400390625, -0.0146484375, 0.244140625
0.041015625, -0.0126953125, 0.232421875
0.0439453125, -0.0078125, 0.2353515625
0.0458984375, -0.00390625, 0.2373046875
0.044921875, -0.0048828125, 0.236328125
0.046875, -0.009765625, 0.2392578125
0.0478515625, -0.0029296875, 0.2578125
0.05078125, 0.0146484375, 0.265625
0.0458984375, 0.0458984375, 0.26171875
0.048828125, 0.048828125, 0.267578125
0.0498046875, 0.0791015625, 0.2919921875
0.0517578125, 0.1259765625, 0.326171875
0.046875, 0.15234375, 0.287109375
0.046875, 0.1318359375, 0.234375
0.05078125, 0.12109375, 0.203125
0.044921875, 0.1005859375, 0.166015625
0.041015625, 0.0966796875, 0.1298828125
0.0419921875, 0.1171875, 0.1044921875
0.0322265625, 0.0869140625, 0.0947265625
0.0166015625, 0.0234375, 0.10546875
0.0029296875, -0.041015625, 0.1240234375
-0.005859375, -0.044921875, 0.123046875
-0.0126953125, 0.009765625, 0.125
-0.021484375, -0.0361328125, 0.1181640625
-0.0380859375, -0.05859375, 0.1591796875
-0.0478515625, -0.07421875, 0.2255859375
-0.0546875, -0.1123046875, 0.2685546875
-0.0576171875, -0.1318359375, 0.2763671875
-0.0634765625, -0.1044921875, 0.2568359375
-0.07421875, -0.091796875, 0.2265625
-0.08203125, -0.10546875, 0.1982421875
-0.091796875, -0.1064453125, 0.234375
-0.099609375, -0.1533203125, 0.2705078125
-0.103515625, -0.1982421875, 0.3330078125
-0.107421875, -0.1962890625, 0.3701171875
-0.1201171875, -0.1796875, 0.427734375
-0.13671875, -0.2744140625, 0.55078125
-0.1533203125, -0.4384765625, 0.6640625
-0.1796875, -0.615234375, 0.8310546875
-0.2333984375, -0.6201171875, 0.884765625
-0.298828125, -0.521484375, 0.7236328125
-0.3515625, -0.443359375, 0.576171875
-0.4013671875, -0.375, 0.4560546875
-0.4375, -0.296875, 0.3466796875
-0.462890625, -0.2734375, 0.26953125
-0.470703125, -0.2060546875, 0.2021484375
-0.451171875, -0.083984375, -0.001953125
-0.3837890625, -0.01171875, -0.15234375
-0.3115234375, -0.0419921875, -0.1787109375
-0.2607421875, -0.0205078125, -0.109375
-0.23046875, 0.0888671875, -0.158203125
-0.1796875, 0.21875, -0.322265625
-0.0888671875, 0.3408203125, -0.4208984375
-0.0146484375, 0.4169921875, -0.431640625
0.0283203125, 0.37890625, -0.453125
0.056640625, 0.4140625, -0.498046875
0.0634765625, 0.498046875, -0.5009765625
0.0556640625, 0.5126953125, -0.458984375
0.0224609375, 0.3994140625, -0.373046875
-0.0185546875, 0.287109375, -0.3154296875
-0.0615234375, 0.2119140625, -0.298828125
-0.1201171875, 0.1923828125, -0.3203125
-0.1962890625, 0.16015625, -0.2548828125
-0.279296875, 0.083984375, -0.1376953125
-0.33984375, 0.0029296875, -0.09375
-0.4189453125, -0.103515625, -0.0400390625
-0.453125, -0.228515625, 0.1435546875
-0.4091796875, -0.427734375, 0.408203125
-0.3486328125, -0.5908203125, 0.423828125
-0.369140625, -0.515625, 0.2978515625
-0.3994140625, -0.4755859375, 0.4833984375
-0.3515625, -0.587890625, 0.82421875
-0.283203125, -0.6279296875, 0.98828125
-0.24609375, -0.4658203125, 0.8486328125
-0.240234375, -0.4189453125, 0.625
-0.25, -0.390625, 0.4794921875
-0.24609375, -0.1552734375, 0.58203125
-0.248046875, 0.09765625, 0.7685546875
-0.26171875, 0.03125, 0.6298828125
-0.2587890625, 0.0595703125, 0.474609375
-0.2333984375, 0.140625, 0.3720703125
-0.1962890625, 0.2080078125, 0.2626953125
-0.1455078125, 0.18359375, 0.2099609375
-0.0947265625, 0.1318359375, 0.1884765625
-0.06640625, 0.1640625, 0.162109375
-0.0419921875, 0.205078125, 0.068359375
-0.013671875, 0.1669921875, 0.00390625
0.0205078125, 0.173828125, 0.0
0.041015625, 0.2109375, -0.0029296875
0.046875, 0.197265625, 0.029296875
0.0498046875, 0.130859375, 0.072265625
0.052734375, 0.0576171875, 0.107421875
0.0546875, 0.0595703125, 0.125
0.060546875, 0.048828125, 0.14453125
0.0625, 0.0, 0.1767578125
0.0625, -0.0517578125, 0.2119140625
0.0625, -0.07421875, 0.248046875
0.0625, -0.0712890625, 0.275390625
0.0625, -0.0419921875, 0.29296875
0.0556640625, -0.02734375, 0.2392578125
0.0537109375, -0.03125, 0.2255859375
0.048828125, -0.017578125, 0.224609375
0.0439453125, -0.009765625, 0.2724609375
0.041015625, 0.00390625, 0.3046875
0.0400390625, -0.0166015625, 0.3076171875
0.0400390625, -0.0302734375, 0.2783203125
0.044921875, -0.0224609375, 0.259765625
0.0439453125, -0.0029296875, 0.2431640625
0.044921875, -0.0205078125, 0.228515625
0.0439453125, -0.02734375, 0.23046875
0.044921875, -0.03125, 0.259765625
0.0400390625, -0.0126953125, 0.2509765625
0.04296875, -0.0087890625, 0.224609375
0.0439453125, -0.0419921875, 0.23046875
0.0458984375, -0.0283203125, 0.2373046875
0.046875, 0.0009765625, 0.2529296875
0.046875, -0.0146484375, 0.265625
0.0439453125, -0.048828125, 0.26171875
0.0439453125, -0.0322265625, 0.2373046875
0.0458984375, -0.015625, 0.216796875
0.048828125, -0.0166015625, 0.2216796875
0.0478515625, -0.0205078125, 0.2470703125
0.048828125, -0.0263671875, 0.2470703125
0.048828125, -0.0283203125, 0.2431640625
0.048828125, -0.01953125, 0.24609375
0.0478515625, -0.0068359375, 0.2490234375
0.046875, 0.001953125, 0.23828125
0.046875, -0.021484375, 0.2392578125
0.044921875, -0.0244140625, 0.248046875
0.0458984375, -0.009765625, 0.2421875
0.048828125, 0.0, 0.224609375
0.046875, -0.0087890625, 0.2275390625
0.048828125, -0.017578125, 0.2392578125
0.048828125, -0.0244140625, 0.2431640625
0.046875, -0.01171875, 0.236328125
0.0458984375, -0.021484375, 0.2470703125
0.046875, -0.0224609375, 0.2431640625
0.0478515625, -0.0234375, 0.244140625
0.0458984375, -0.0068359375, 0.23046875
0.046875, -0.005859375, 0.234375
0.0458984375, -0.033203125, 0.244140625
0.0439453125, -0.04296875, 0.248046875
0.0478515625, -0.0322265625, 0.2490234375
0.048828125, -0.0322265625, 0.2470703125
0.0478515625, -0.0107421875, 0.2451171875
0.044921875, 0.005859375, 0.2353515625
0.044921875, -0.0087890625, 0.240234375
0.046875, -0.01953125, 0.244140625
0.046875, -0.00390625, 0.2353515625
0.0439453125, 0.0009765625, 0.244140625
0.044921875, -0.0146484375, 0.2490234375
0.046875, -0.0205078125, 0.244140625
0.046875, -0.0078125, 0.244140625
0.046875, -0.00390625, 0.2373046875
0.044921875, -0.0048828125, 0.228515625
0.0478515625, -0.013671875, 0.2333984375
0.0478515625, -0.01171875, 0.236328125
0.044921875, -0.00390625, 0.2373046875
0.0458984375, -0.0078125, 0.2431640625
0.044921875, -0.025390625, 0.24609375
0.044921875, -0.02734375, 0.25
0.0458984375, -0.0205078125, 0.25390625
0.044921875, -0.009765625, 0.24609375
0.04296875, -0.0009765625, 0.2431640625
0.0419921875, -0.013671875, 0.240234375
0.0458984375, -0.0283203125, 0.240234375
0.044921875, -0.0341796875, 0.2451171875
0.044921875, -0.0244140625, 0.2470703125
0.04296875, -0.005859375, 0.2451171875
0.04296875, -0.009765625, 0.2373046875
0.0458984375, -0.0244140625, 0.23046875
0.044921875, -0.0263671875, 0.2412109375
0.0439453125, -0.0166015625, 0.25390625
0.0458984375, -0.025390625, 0.2412109375
0.0458984375, -0.0185546875, 0.2314453125
0.0478515625, -0.0087890625, 0.240234375
0.0458984375, -0.0068359375, 0.236328125
0.0478515625, -0.0166015625, 0.2255859375
0.048828125, -0.015625, 0.2353515625
0.0439453125, -0.0107421875, 0.25
0.044921875, -0.0126953125, 0.2548828125
0.044921875, -0.017578125, 0.2529296875
0.0458984375, -0.015625, 0.23828125
0.044921875, -0.01953125, 0.236328125
0.046875, -0.0234375, 0.244140625
0.0478515625, -0.029296875, 0.2587890625
0.044921875, -0.0234375, 0.248046875
0.0439453125, -0.0166015625, 0.2470703125
0.044921875, -0.0107421875, 0.2509765625
0.044921875, -0.00390625, 0.248046875
0.0458984375, -0.005859375, 0.2353515625
0.0478515625, -0.001953125, 0.234375
0.044921875, -0.0048828125, 0.2451171875
0.046875, -0.00390625, 0.2431640625
0.044921875, -0.013671875, 0.2490234375
0.0458984375, -0.0107421875, 0.2451171875
0.0478515625, -0.0068359375, 0.2314453125
0.0517578125, -0.0205078125, 0.234375
0.05078125, -0.0322265625, 0.240234375
0.048828125, -0.015625, 0.2353515625
0.0478515625, -0.013671875, 0.2373046875
0.048828125, -0.0234375, 0.2373046875
0.048828125, -0.005859375, 0.2314453125
0.046875, -0.005859375, 0.228515625
0.046875, -0.0185546875, 0.2470703125
0.05078125, -0.0166015625, 0.2470703125
0.0478515625, -0.0078125, 0.244140625
0.0478515625, -0.015625, 0.2373046875
0.044921875, -0.0234375, 0.2392578125
0.046875, -0.0205078125, 0.2470703125
0.0478515625, 0.0, 0.228515625
0.046875, -0.015625, 0.248046875
0.048828125, -0.0244140625, 0.2529296875
0.0478515625, 0.001953125, 0.248046875
0.0478515625, -0.0107421875, 0.2451171875
0.046875, -0.0078125, 0.2373046875
0.0478515625, -0.017578125, 0.24609375
0.048828125, -0.025390625, 0.2431640625
0.05078125, 0.0068359375, 0.2373046875
0.046875, -0.0048828125, 0.2373046875
0.0478515625, -0.021484375, 0.2431640625
0.046875, -0.021484375, 0.251953125
0.05078125, -0.0029296875, 0.2333984375
0.0498046875, 0.001953125, 0.23828125
0.044921875, -0.005859375, 0.2451171875
0.0458984375, -0.01171875, 0.2470703125
0.048828125, -0.01953125, 0.23828125
0.048828125, -0.0107421875, 0.228515625
0.0498046875, -0.0126953125, 0.232421875
0.0478515625, -0.0126953125, 0.2421875
0.046875, -0.017578125, 0.2431640625
0.044921875, -0.0185546875, 0.248046875
0.0458984375, -0.017578125, 0.2509765625
0.046875, -0.0166015625, 0.25
0.044921875, -0.0263671875, 0.2412109375
0.0458984375, -0.0146484375, 0.23828125
0.046875, -0.0068359375, 0.234375
0.0478515625, -0.0107421875, 0.2314453125
0.048828125, -0.0390625, 0.255859375
0.0478515625, -0.0322265625, 0.2587890625
0.0458984375, -0.0029296875, 0.24609375
0.0458984375, -0.005859375, 0.2294921875
0.048828125, -0.0126953125, 0.2392578125
0.0498046875, -0.00390625, 0.2392578125
0.046875, 0.0009765625, 0.234375
0.048828125, -0.0029296875, 0.234375
0.0517578125, -0.0224609375, 0.2412109375
0.0478515625, -0.009765625, 0.2421875
0.048828125, -0.001953125, 0.2333984375
0.0498046875, -0.0009765625, 0.2275390625
0.0498046875, 0.0, 0.244140625
0.048828125, -0.0126953125, 0.2451171875
0.0478515625, -0.0205078125, 0.25
0.048828125, -0.0166015625, 0.25
0.05078125, 0.001953125, 0.2392578125
0.0517578125, -0.005859375, 0.2265625
0.0498046875, -0.01953125, 0.236328125
0.046875, -0.0126953125, 0.2490234375
0.0458984375, 0.0, 0.2470703125
0.048828125, -0.0048828125, 0.236328125
0.044921875, -0.0126953125, 0.240234375
0.044921875, -0.021484375, 0.248046875
0.0458984375, -0.013671875, 0.240234375
0.0458984375, 0.001953125, 0.2265625
0.0458984375, -0.00390625, 0.2333984375
0.048828125, -0.01953125, 0.2431640625
0.048828125, -0.013671875, 0.240234375
0.048828125, -0.0048828125, 0.236328125
0.046875, -0.0107421875, 0.24609375
0.0458984375, -0.0234375, 0.25
0.0439453125, -0.01953125, 0.255859375
0.04296875, -0.013671875, 0.25
0.0478515625, -0.009765625, 0.2470703125
0.0478515625, -0.009765625, 0.2470703125
0.0478515625, -0.005859375, 0.234375
0.046875, -0.0146484375, 0.2412109375
0.046875, -0.021484375, 0.2470703125
0.0458984375, -0.01953125, 0.2509765625
0.044921875, -0.0087890625, 0.244140625
0.0458984375, -0.0048828125, 0.2451171875
0.0458984375, -0.013671875, 0.2431640625
0.0458984375, -0.0185546875, 0.2392578125
0.0439453125, -0.0166015625, 0.240234375
0.04296875, 0.0048828125, 0.236328125
0.0458984375, -0.0146484375, 0.2451171875
0.0478515625, -0.015625, 0.2373046875
0.0478515625, 0.0, 0.232421875
0.0478515625, -0.015625, 0.2333984375
0.0517578125, -0.0029296875, 0.2353515625
0.0478515625, -0.009765625, 0.251953125
0.048828125, -0.01953125, 0.248046875
0.0458984375, -0.0263671875, 0.2509765625
0.0478515625, -0.01953125, 0.248046875
0.0498046875, -0.0087890625, 0.2470703125
0.048828125, 0.0078125, 0.240234375
0.0478515625, 0.0, 0.240234375
0.048828125, -0.013671875, 0.2373046875
0.0458984375, -0.01171875, 0.2490234375
0.0478515625, -0.0166015625, 0.236328125
0.0458984375, -0.0048828125, 0.2470703125
0.046875, -0.0029296875, 0.2470703125
0.0458984375, -0.0166015625, 0.240234375
0.0478515625, -0.0166015625, 0.2353515625
0.046875, -0.0029296875, 0.2353515625
0.048828125, -0.00390625, 0.2373046875
0.0498046875, -0.0146484375, 0.240234375
0.048828125, -0.001953125, 0.23828125
0.0458984375, -0.0009765625, 0.2373046875
0.0478515625, -0.01171875, 0.23046875
0.0478515625, -0.013671875, 0.236328125
0.0498046875, -0.0048828125, 0.24609375
0.048828125, -0.009765625, 0.2451171875
0.0478515625, -0.015625, 0.24609375
0.0478515625, -0.015625, 0.25
0.0478515625, -0.0146484375, 0.2548828125
0.0478515625, -0.0078125, 0.25
0.0478515625, -0.0009765625, 0.244140625
0.048828125, -0.0009765625, 0.2412109375
0.05078125, -0.0107421875, 0.240234375
0.048828125, -0.017578125, 0.24609375
0.046875, -0.013671875, 0.2431640625
0.046875, -0.0009765625, 0.2373046875
0.0478515625, 0.0048828125, 0.2451171875
0.046875, 0.0009765625, 0.248046875
0.048828125, -0.0009765625, 0.2412109375
0.0478515625, -0.009765625, 0.2412109375
0.044921875, -0.013671875, 0.2451171875
0.0478515625, -0.0126953125, 0.25
0.0478515625, -0.0087890625, 0.244140625
0.0478515625, 0.0009765625, 0.23046875
0.0498046875, -0.0087890625, 0.236328125
0.046875, -0.0107421875, 0.2353515625
0.048828125, -0.0087890625, 0.2431640625
0.0498046875, -0.013671875, 0.248046875
0.0458984375, -0.021484375, 0.248046875
0.046875, -0.0146484375, 0.24609375
0.048828125, -0.0107421875, 0.2431640625
0.0458984375, -0.001953125, 0.2373046875
0.0478515625, -0.0068359375, 0.2392578125
0.048828125, -0.013671875, 0.23828125
0.048828125, -0.0078125, 0.2392578125
0.0478515625, 0.0, 0.23828125
0.048828125, 0.0, 0.2373046875
0.0458984375, 0.01171875, 0.244140625
0.04296875, 0.015625, 0.2294921875
0.0419921875, 0.0224609375, 0.224609375
0.052734375, 0.0263671875, 0.2236328125
