0.046875, -0.0419921875, 0.2373046875
0.05078125, -0.0546875, 0.224609375
0.0498046875, -0.0546875, 0.22265625
0.0458984375, -0.0498046875, 0.236328125
0.046875, -0.0517578125, 0.2392578125
0.0478515625, -0.046875, 0.224609375
0.0458984375, -0.0458984375, 0.2333984375
0.046875, -0.060546875, 0.24609375
0.0458984375, -0.0771484375, 0.240234375
0.0498046875, -0.076171875, 0.240234375
0.048828125, -0.052734375, 0.2236328125
0.0439453125, -0.017578125, 0.2216796875
0.044921875, -0.0087890625, 0.2392578125
0.0458984375, -0.03125, 0.25
0.0458984375, -0.048828125, 0.248046875
0.044921875, -0.037109375, 0.2470703125
0.0478515625, -0.04296875, 0.2548828125
0.0419921875, -0.048828125, 0.2509765625
0.0439453125, -0.0537109375, 0.2578125
0.044921875, -0.056640625, 0.267578125
0.044921875, -0.0517578125, 0.2548828125
0.04296875, -0.0498046875, 0.2412109375
0.0458984375, -0.056640625, 0.232421875
0.0478515625, -0.0537109375, 0.2275390625
0.046875, -0.064453125, 0.2353515625
0.048828125, -0.072265625, 0.2421875
0.044921875, -0.052734375, 0.2197265625
0.0400390625, -0.0322265625, 0.2041015625
0.0400390625, -0.021484375, 0.21484375
0.037109375, -0.0205078125, 0.25
0.0390625, -0.0283203125, 0.259765625
0.03515625, -0.0439453125, 0.259765625
0.0400390625, -0.0517578125, 0.2509765625
0.0439453125, -0.056640625, 0.244140625
0.0478515625, -0.0703125, 0.240234375
0.052734375, -0.083984375, 0.240234375
0.05078125, -0.0615234375, 0.2275390625
0.048828125, -0.04296875, 0.205078125
0.044921875, -0.0498046875, 0.2158203125
0.044921875, -0.0498046875, 0.25
0.0400390625, -0.0400390625, 0.255859375
0.037109375, -0.0283203125, 0.2431640625
0.0400390625, -0.0302734375, 0.2421875
0.041015625, -0.046875, 0.2548828125
0.04296875, -0.0595703125, 0.2470703125
0.04296875, -0.056640625, 0.240234375
0.04296875, -0.0478515625, 0.2392578125
0.0458984375, -0.0439453125, 0.2373046875
0.04296875, -0.041015625, 0.2333984375
0.0458984375, -0.0380859375, 0.232421875
0.0439453125, -0.05078125, 0.240234375
0.0419921875, -0.0517578125, 0.244140625
0.04296875, -0.046875, 0.2412109375
0.0439453125, -0.0380859375, 0.236328125
0.041015625, -0.037109375, 0.23046875
0.041015625, -0.0517578125, 0.2373046875
0.0439453125, -0.0517578125, 0.2451171875
0.046875, -0.0458984375, 0.244140625
0.0439453125, -0.05078125, 0.24609375
0.0419921875, -0.04296875, 0.2314453125
0.041015625, -0.0498046875, 0.234375
0.0439453125, -0.0498046875, 0.2314453125
0.046875, -0.0595703125, 0.2470703125
0.041015625, -0.0546875, 0.2353515625
0.04296875, -0.0478515625, 0.2255859375
0.0419921875, -0.056640625, 0.236328125
0.0439453125, -0.0341796875, 0.2392578125
0.0458984375, -0.033203125, 0.2431640625
0.0419921875, -0.0478515625, 0.232421875
0.0419921875, -0.0615234375, 0.2421875
0.04296875, -0.0458984375, 0.2431640625
0.0458984375, -0.0439453125, 0.2373046875
0.0458984375, -0.0478515625, 0.23828125
0.0439453125, -0.0283203125, 0.228515625
0.0439453125, -0.0400390625, 0.2353515625
0.037109375, -0.0703125, 0.2451171875
0.0380859375, -0.0830078125, 0.2587890625
0.0419921875, -0.056640625, 0.2646484375
0.041015625, -0.021484375, 0.2412109375
0.0390625, -0.01953125, 0.21875
0.0419921875, -0.046875, 0.234375
0.0458984375, -0.0576171875, 0.251953125
0.046875, -0.048828125, 0.24609375
0.046875, -0.044921875, 0.234375
0.0419921875, -0.0380859375, 0.22265625
0.046875, -0.0498046875, 0.2197265625
0.048828125, -0.05078125, 0.2314453125
0.046875, -0.0458984375, 0.2431640625
0.0439453125, -0.0546875, 0.25
0.0439453125, -0.0576171875, 0.2470703125
0.044921875, -0.04296875, 0.240234375
0.0439453125, -0.0419921875, 0.2373046875
0.0458984375, -0.0556640625, 0.2353515625
0.04296875, -0.048828125, 0.2373046875
0.046875, -0.046875, 0.23046875
0.044921875, -0.056640625, 0.232421875
0.044921875, -0.0517578125, 0.2353515625
0.0458984375, -0.0302734375, 0.2392578125
0.0458984375, -0.037109375, 0.232421875
0.0458984375, -0.0654296875, 0.23828125
0.05078125, -0.0537109375, 0.2470703125
0.05078125, -0.0283203125, 0.2421875
0.05078125, -0.0205078125, 0.234375
0.048828125, -0.0107421875, 0.234375
0.05078125, -0.01171875, 0.2451171875
0.0517578125, -0.0048828125, 0.2744140625
0.0556640625, 0.001953125, 0.306640625
0.056640625, 0.0283203125, 0.3115234375
0.0595703125, 0.060546875, 0.2724609375
0.0625, 0.0771484375, 0.24609375
0.064453125, 0.0966796875, 0.23828125
0.0625, 0.0908203125, 0.244140625
0.0615234375, 0.07421875, 0.2666015625
0.0595703125, 0.03125, 0.267578125
0.056640625, 0.00390625, 0.2294921875
0.0556640625, 0.0029296875, 0.166015625
0.0546875, 0.01953125, 0.12109375
0.0517578125, 0.0361328125, 0.1162109375
0.0361328125, 0.02734375, 0.1279296875
0.0244140625, -0.0009765625, 0.171875
0.0146484375, -0.005859375, 0.2021484375
0.0029296875, -0.0361328125, 0.193359375
-0.005859375, -0.0517578125, 0.1748046875
-0.01953125, -0.02734375, 0.1142578125
-0.041015625, -0.0361328125, 0.0556640625
-0.0673828125, -0.07421875, 0.0322265625
-0.0888671875, -0.1435546875, 0.115234375
-0.0927734375, -0.20703125, 0.205078125
-0.091796875, -0.2177734375, 0.279296875
-0.099609375, -0.1650390625, 0.2666015625
-0.1142578125, -0.177734375, 0.2021484375
-0.125, -0.2294921875, 0.2138671875
-0.12890625, -0.23046875, 0.3349609375
-0.1357421875, -0.2236328125, 0.451171875
-0.1533203125, -0.2021484375, 0.4892578125
-0.177734375, -0.29296875, 0.4716796875
-0.201171875, -0.412109375, 0.5166015625
-0.2265625, -0.44921875, 0.578125
-0.2529296875, -0.580078125, 0.751953125
-0.3232421875, -0.677734375, 0.8505859375
-0.4111328125, -0.609375, 0.693359375
-0.5029296875, -0.4755859375, 0.474609375
-0.541015625, -0.3798828125, 0.236328125
-0.5224609375, -0.3330078125, 0.083984375
-0.4970703125, -0.2587890625, 0.025390625
-0.4599609375, -0.2158203125, -0.025390625
-0.427734375, -0.0869140625, -0.0625
-0.3603515625, 0.095703125, -0.1416015625
-0.2607421875, 0.16015625, -0.201171875
-0.1845703125, 0.16015625, -0.2080078125
-0.123046875, 0.1962890625, -0.2197265625
-0.0693359375, 0.2744140625, -0.2314453125
-0.0283203125, 0.33984375, -0.220703125
0.0068359375, 0.41796875, -0.263671875
0.0439453125, 0.5341796875, -0.33984375
0.0703125, 0.634765625, -0.4091796875
0.0830078125, 0.6416015625, -0.4697265625
0.064453125, 0.5302734375, -0.4775390625
0.01953125, 0.3779296875, -0.373046875
-0.033203125, 0.322265625, -0.3232421875
-0.1015625, 0.3076171875, -0.306640625
-0.1796875, 0.2646484375, -0.296875
-0.287109375, 0.1923828125, -0.3037109375
-0.392578125, 0.11328125, -0.3017578125
-0.5185546875, 0.03125, -0.2705078125
-0.6181640625, -0.1181640625, -0.1494140625
-0.615234375, -0.2548828125, 0.1298828125
-0.6015625, -0.2109375, 0.3203125
-0.6123046875, -0.2412109375, 0.2216796875
-0.6611328125, -0.51171875, 0.0859375
-0.6669921875, -0.6845703125, 0.2802734375
-0.6396484375, -0.69140625, 0.5986328125
-0.5625, -0.734375, 0.9111328125
-0.4638671875, -0.869140625, 0.9990234375
-0.388671875, -0.9482421875, 0.9609375
-0.39453125, -0.8212890625, 0.7890625
-0.431640625, -0.587890625, 0.8369140625
-0.466796875, -0.3623046875, 0.69921875
-0.4658203125, -0.1240234375, 0.470703125
-0.42578125, 0.095703125, 0.3359375
-0.34375, 0.2099609375, 0.2373046875
-0.2724609375, 0.1796875, 0.2216796875
-0.208984375, 0.1123046875, 0.134765625
-0.16796875, 0.19921875, 0.111328125
-0.1123046875, 0.32421875, 0.0751953125
-0.0458984375, 0.376953125, 0.0263671875
0.00390625, 0.318359375, 0.0087890625
0.0244140625, 0.2412109375, 0.0341796875
0.03515625, 0.19140625, 0.048828125
0.0419921875, 0.1513671875, 0.0830078125
0.0517578125, 0.1162109375, 0.1259765625
0.0595703125, 0.08984375, 0.1630859375
0.0615234375, 0.0556640625, 0.138671875
0.0634765625, 0.0048828125, 0.1259765625
0.0703125, -0.0302734375, 0.1396484375
0.0654296875, -0.033203125, 0.1669921875
0.0654296875, -0.0390625, 0.1982421875
0.0625, -0.052734375, 0.2099609375
0.0615234375, -0.0849609375, 0.1953125
0.0654296875, -0.1171875, 0.2119140625
0.06640625, -0.126953125, 0.26171875
0.0634765625, -0.1103515625, 0.2841796875
0.0615234375, -0.0419921875, 0.248046875
0.0625, -0.0380859375, 0.2177734375
0.05859375, -0.0693359375, 0.234375
0.0556640625, -0.099609375, 0.25
0.0537109375, -0.0654296875, 0.2509765625
0.05078125, -0.0634765625, 0.2607421875
0.048828125, -0.07421875, 0.2626953125
0.05078125, -0.09765625, 0.251953125
0.056640625, -0.087890625, 0.25
0.0537109375, -0.0908203125, 0.2373046875
0.0517578125, -0.0634765625, 0.2236328125
0.0537109375, -0.05078125, 0.2265625
0.052734375, -0.048828125, 0.2412109375
0.056640625, -0.0810546875, 0.2373046875
0.0595703125, -0.080078125, 0.240234375
0.05859375, -0.0546875, 0.2333984375
0.056640625, -0.044921875, 0.216796875
0.0595703125, -0.0498046875, 0.2099609375
0.060546875, -0.04296875, 0.2001953125
0.0625, -0.052734375, 0.220703125
0.0595703125, -0.0595703125, 0.2314453125
0.056640625, -0.076171875, 0.228515625
0.052734375, -0.0888671875, 0.2197265625
0.056640625, -0.0751953125, 0.2431640625
0.052734375, -0.0830078125, 0.2607421875
0.05078125, -0.056640625, 0.23828125
0.0537109375, -0.0556640625, 0.2216796875
0.0546875, -0.052734375, 0.2099609375
0.056640625, -0.0703125, 0.2373046875
0.0576171875, -0.064453125, 0.23828125
0.056640625, -0.0576171875, 0.240234375
0.060546875, -0.0693359375, 0.2236328125
0.0576171875, -0.0517578125, 0.2265625
0.056640625, -0.05859375, 0.2412109375
0.056640625, -0.0703125, 0.2412109375
0.0595703125, -0.0810546875, 0.2607421875
0.05859375, -0.0693359375, 0.251953125
0.060546875, -0.0654296875, 0.234375
0.0576171875, -0.06640625, 0.2275390625
0.0576171875, -0.0458984375, 0.2265625
0.060546875, -0.0625, 0.236328125
0.05859375, -0.0703125, 0.2294921875
0.060546875, -0.0478515625, 0.212890625
0.0576171875, -0.0576171875, 0.2177734375
0.0576171875, -0.0576171875, 0.2294921875
0.056640625, -0.04296875, 0.240234375
0.0556640625, -0.0419921875, 0.2373046875
0.0556640625, -0.0703125, 0.232421875
0.0537109375, -0.0673828125, 0.2197265625
0.0537109375, -0.0595703125, 0.2265625
0.052734375, -0.072265625, 0.228515625
0.0556640625, -0.0859375, 0.23828125
0.05859375, -0.0791015625, 0.240234375
0.060546875, -0.0791015625, 0.2255859375
0.0576171875, -0.0810546875, 0.2236328125
0.056640625, -0.056640625, 0.2392578125
0.0576171875, -0.0439453125, 0.2470703125
0.0576171875, -0.05078125, 0.2421875
0.0556640625, -0.0615234375, 0.2275390625
0.056640625, -0.0556640625, 0.21875
0.0517578125, -0.052734375, 0.2177734375
0.056640625, -0.0732421875, 0.2216796875
0.0546875, -0.076171875, 0.2451171875
0.0546875, -0.0615234375, 0.240234375
0.0546875, -0.0546875, 0.22265625
0.0517578125, -0.0439453125, 0.2041015625
0.048828125, -0.048828125, 0.19921875
0.0517578125, -0.072265625, 0.220703125
0.05078125, -0.1103515625, 0.26171875
0.0498046875, -0.111328125, 0.2783203125
0.048828125, -0.0947265625, 0.2529296875
0.0537109375, -0.0703125, 0.2197265625
0.0537109375, -0.052734375, 0.2236328125
0.0546875, -0.0556640625, 0.228515625
0.0537109375, -0.060546875, 0.240234375
0.0576171875, -0.0634765625, 0.244140625
0.056640625, -0.0546875, 0.2294921875
0.0556640625, -0.0478515625, 0.2197265625
0.056640625, -0.05078125, 0.2158203125
0.056640625, -0.0576171875, 0.21875
0.05859375, -0.0615234375, 0.22265625
0.0576171875, -0.078125, 0.2314453125
0.0517578125, -0.0849609375, 0.2529296875
0.052734375, -0.0693359375, 0.255859375
0.05078125, -0.0615234375, 0.2451171875
0.052734375, -0.0615234375, 0.2275390625
0.05078125, -0.06640625, 0.2158203125
0.0537109375, -0.07421875, 0.232421875
0.056640625, -0.080078125, 0.2421875
0.052734375, -0.072265625, 0.2431640625
0.052734375, -0.064453125, 0.2314453125
0.0537109375, -0.0625, 0.2109375
0.0576171875, -0.0615234375, 0.201171875
0.0576171875, -0.0703125, 0.2138671875
0.0537109375, -0.0771484375, 0.2314453125
0.0546875, -0.0654296875, 0.2294921875
0.0556640625, -0.052734375, 0.2294921875
0.0556640625, -0.0595703125, 0.228515625
0.0537109375, -0.072265625, 0.2294921875
0.0576171875, -0.0771484375, 0.220703125
0.0595703125, -0.060546875, 0.2197265625
0.0556640625, -0.0419921875, 0.2265625
0.052734375, -0.0478515625, 0.2275390625
0.0546875, -0.068359375, 0.2236328125
0.0546875, -0.07421875, 0.23046875
0.0517578125, -0.07421875, 0.251953125
0.0517578125, -0.060546875, 0.2490234375
0.0537109375, -0.060546875, 0.244140625
0.052734375, -0.068359375, 0.2333984375
0.052734375, -0.0771484375, 0.2392578125
0.0537109375, -0.068359375, 0.2353515625
0.0517578125, -0.0654296875, 0.2509765625
0.05078125, -0.064453125, 0.2451171875
0.0517578125, -0.0654296875, 0.234375
0.052734375, -0.060546875, 0.2353515625
0.052734375, -0.072265625, 0.236328125
0.048828125, -0.0830078125, 0.234375
0.052734375, -0.06640625, 0.2412109375
0.0498046875, -0.05859375, 0.2451171875
0.0517578125, -0.0546875, 0.2255859375
0.048828125, -0.0576171875, 0.2158203125
0.052734375, -0.06640625, 0.22265625
0.0537109375, -0.0693359375, 0.2333984375
0.0537109375, -0.0751953125, 0.2470703125
0.0537109375, -0.064453125, 0.228515625
0.0517578125, -0.0595703125, 0.2158203125
0.0517578125, -0.0615234375, 0.220703125
0.048828125, -0.0703125, 0.240234375
0.0517578125, -0.0791015625, 0.2470703125
0.0517578125, -0.078125, 0.23828125
0.0556640625, -0.0615234375, 0.2255859375
0.05078125, -0.05078125, 0.220703125
0.052734375, -0.05078125, 0.2197265625
0.0556640625, -0.0673828125, 0.232421875
0.052734375, -0.0673828125, 0.2392578125
0.052734375, -0.060546875, 0.244140625
0.0517578125, -0.0546875, 0.2392578125
0.0478515625, -0.0615234375, 0.2353515625
0.05078125, -0.07421875, 0.2412109375
0.0546875, -0.0810546875, 0.24609375
0.0546875, -0.076171875, 0.23828125
0.052734375, -0.0615234375, 0.2216796875
0.0546875, -0.0537109375, 0.212890625
0.0556640625, -0.0537109375, 0.2080078125
0.0546875, -0.0595703125, 0.23046875
0.052734375, -0.05859375, 0.2421875
0.05078125, -0.0625, 0.234375
0.0498046875, -0.0654296875, 0.23046875
0.052734375, -0.056640625, 0.228515625
0.052734375, -0.0576171875, 0.232421875
0.05078125, -0.060546875, 0.236328125
0.0537109375, -0.068359375, 0.2333984375
0.0546875, -0.0693359375, 0.2353515625
0.052734375, -0.0595703125, 0.2392578125
0.0517578125, -0.06640625, 0.23046875
0.0546875, -0.0869140625, 0.228515625
0.0537109375, -0.068359375, 0.232421875
0.0546875, -0.044921875, 0.2294921875
0.05078125, -0.056640625, 0.2265625
0.052734375, -0.0693359375, 0.2216796875
0.048828125, -0.0546875, 0.21875
0.048828125, -0.0419921875, 0.216796875
0.046875, -0.0615234375, 0.228515625
0.0498046875, -0.0712890625, 0.23828125
0.048828125, -0.064453125, 0.23046875
0.048828125, -0.0634765625, 0.2236328125
0.052734375, -0.0732421875, 0.2216796875
0.0537109375, -0.0634765625, 0.228515625
0.052734375, -0.0732421875, 0.240234375
0.0517578125, -0.09375, 0.2451171875
0.05078125, -0.0859375, 0.2353515625
0.05078125, -0.0654296875, 0.228515625
0.046875, -0.0537109375, 0.2353515625
0.0458984375, -0.0419921875, 0.244140625
0.0478515625, -0.0419921875, 0.2451171875
0.0439453125, -0.060546875, 0.2490234375
0.0439453125, -0.0712890625, 0.2470703125
0.044921875, -0.0654296875, 0.248046875
0.0458984375, -0.0498046875, 0.2470703125
0.0478515625, -0.0390625, 0.2255859375
0.046875, -0.0615234375, 0.224609375
0.0478515625, -0.0849609375, 0.2314453125
0.05078125, -0.0751953125, 0.236328125
0.046875, -0.0654296875, 0.244140625
0.0458984375, -0.060546875, 0.2373046875
0.04296875, -0.0498046875, 0.2392578125
0.0400390625, -0.0537109375, 0.2333984375
0.0390625, -0.052734375, 0.2412109375
0.0419921875, -0.048828125, 0.2529296875
0.0380859375, -0.0576171875, 0.2587890625
0.037109375, -0.0595703125, 0.251953125
0.0400390625, -0.04296875, 0.23828125
0.04296875, -0.0478515625, 0.23828125
0.0478515625, -0.0712890625, 0.2412109375
0.052734375, -0.091796875, 0.240234375
0.052734375, -0.1044921875, 0.224609375
0.0556640625, -0.095703125, 0.2099609375
0.0546875, -0.0712890625, 0.205078125
0.05078125, -0.05078125, 0.2060546875
0.041015625, -0.046875, 0.2255859375
0.0361328125, -0.046875, 0.23046875
0.0341796875, -0.0380859375, 0.2490234375
0.0380859375, -0.033203125, 0.2705078125
0.041015625, -0.0400390625, 0.2646484375
0.0390625, -0.052734375, 0.2412109375
0.0478515625, -0.072265625, 0.228515625
0.048828125, -0.0859375, 0.224609375
0.0576171875, -0.087890625, 0.212890625
0.0546875, -0.07421875, 0.201171875
0.056640625, -0.060546875, 0.2060546875
0.048828125, -0.0693359375, 0.2197265625
0.0390625, -0.0751953125, 0.2294921875
0.0322265625, -0.04296875, 0.2568359375
0.033203125, -0.0341796875, 0.2841796875
0.0341796875, -0.041015625, 0.28125
0.041015625, -0.0556640625, 0.2529296875
0.046875, -0.0693359375, 0.2314453125
0.0498046875, -0.0732421875, 0.2197265625
0.0546875, -0.0693359375, 0.216796875
0.05078125, -0.060546875, 0.2138671875
0.0478515625, -0.0478515625, 0.2265625
0.0458984375, -0.056640625, 0.2451171875
0.046875, -0.080078125, 0.2529296875
0.05078125, -0.0673828125, 0.23828125
0.046875, -0.0546875, 0.22265625
0.0478515625, -0.05078125, 0.23046875
0.0478515625, -0.060546875, 0.23828125
0.046875, -0.0498046875, 0.23828125
0.048828125, -0.05078125, 0.22265625
0.0458984375, -0.0576171875, 0.232421875
0.0458984375, -0.0595703125, 0.240234375
0.0458984375, -0.0498046875, 0.248046875
0.0498046875, -0.0556640625, 0.2333984375
0.0537109375, -0.0751953125, 0.2255859375
0.0537109375, -0.0771484375, 0.2236328125
0.0517578125, -0.0732421875, 0.2353515625
0.046875, -0.0634765625, 0.2294921875
0.0498046875, -0.0537109375, 0.2236328125
0.0498046875, -0.046875, 0.220703125
0.0498046875, -0.0693359375, 0.232421875
0.0517578125, -0.078125, 0.2333984375
0.0546875, -0.0703125, 0.228515625
0.052734375, -0.0625, 0.201171875
0.04296875, -0.033203125, 0.17578125
0.03515625, -0.00390625, 0.2236328125
0.0322265625, -0.015625, 0.2646484375
0.037109375, -0.0380859375, 0.275390625
0.033203125, -0.0361328125, 0.2568359375
