0.052734375, -0.041015625, 0.236328125
0.052734375, -0.0498046875, 0.24609375
0.05078125, -0.0546875, 0.2509765625
0.052734375, -0.046875, 0.2373046875
0.0537109375, -0.04296875, 0.236328125
0.052734375, -0.02734375, 0.240234375
0.052734375, -0.03125, 0.23828125
0.0517578125, -0.0361328125, 0.2333984375
0.0546875, -0.0546875, 0.244140625
0.0546875, -0.048828125, 0.2373046875
0.0537109375, -0.05078125, 0.2412109375
0.052734375, -0.041015625, 0.2421875
0.05078125, -0.0341796875, 0.2353515625
0.05078125, -0.048828125, 0.228515625
0.0537109375, -0.05859375, 0.2421875
0.052734375, -0.052734375, 0.2421875
0.052734375, -0.0537109375, 0.2392578125
0.052734375, -0.0419921875, 0.228515625
0.0517578125, -0.0419921875, 0.232421875
0.0517578125, -0.0458984375, 0.234375
0.0498046875, -0.0576171875, 0.248046875
0.05078125, -0.048828125, 0.2392578125
0.0498046875, -0.0478515625, 0.2333984375
0.05078125, -0.0576171875, 0.2373046875
0.0517578125, -0.05859375, 0.240234375
0.052734375, -0.048828125, 0.2412109375
0.052734375, -0.0283203125, 0.2314453125
0.0537109375, -0.0224609375, 0.2197265625
0.05078125, -0.0419921875, 0.2294921875
0.0537109375, -0.0498046875, 0.2431640625
0.0517578125, -0.0419921875, 0.240234375
0.0537109375, -0.029296875, 0.2255859375
0.0546875, -0.0283203125, 0.2255859375
0.052734375, -0.0322265625, 0.232421875
0.0517578125, -0.0361328125, 0.234375
0.0556640625, -0.0380859375, 0.244140625
0.0556640625, -0.0400390625, 0.2353515625
0.0537109375, -0.0556640625, 0.2421875
0.0556640625, -0.0595703125, 0.2509765625
0.0546875, -0.0576171875, 0.255859375
0.0537109375, -0.0380859375, 0.24609375
0.052734375, -0.033203125, 0.2353515625
0.0546875, -0.04296875, 0.232421875
0.0517578125, -0.044921875, 0.2392578125
0.0517578125, -0.044921875, 0.2451171875
0.0517578125, -0.0478515625, 0.236328125
0.05078125, -0.0546875, 0.236328125
0.05078125, -0.052734375, 0.23828125
0.048828125, -0.0439453125, 0.236328125
0.0478515625, -0.0361328125, 0.234375
0.05078125, -0.0458984375, 0.2373046875
0.0517578125, -0.060546875, 0.2333984375
0.0498046875, -0.05078125, 0.234375
0.0498046875, -0.0361328125, 0.2314453125
0.0517578125, -0.04296875, 0.2255859375
0.052734375, -0.046875, 0.23046875
0.05078125, -0.046875, 0.236328125
0.0537109375, -0.048828125, 0.2392578125
0.0517578125, -0.048828125, 0.2412109375
0.052734375, -0.0556640625, 0.2373046875
0.0546875, -0.046875, 0.2373046875
0.052734375, -0.0478515625, 0.2392578125
0.0537109375, -0.0546875, 0.2470703125
0.0546875, -0.0517578125, 0.2392578125
0.0537109375, -0.048828125, 0.23046875
0.0556640625, -0.0390625, 0.2333984375
0.0546875, -0.0322265625, 0.232421875
0.0546875, -0.02734375, 0.2314453125
0.0537109375, -0.0498046875, 0.240234375
0.05078125, -0.0615234375, 0.24609375
0.0546875, -0.0498046875, 0.240234375
0.052734375, -0.04296875, 0.2451171875
0.0517578125, -0.0517578125, 0.2353515625
0.0537109375, -0.029296875, 0.2373046875
0.0517578125, -0.0400390625, 0.2373046875
0.05078125, -0.0546875, 0.2353515625
0.052734375, -0.064453125, 0.23828125
0.0517578125, -0.0439453125, 0.234375
0.05078125, -0.029296875, 0.2353515625
0.05078125, -0.0439453125, 0.240234375
0.0517578125, -0.0478515625, 0.2353515625
0.0546875, -0.0361328125, 0.2333984375
0.0556640625, -0.0537109375, 0.2392578125
0.052734375, -0.05859375, 0.228515625
0.052734375, -0.0498046875, 0.2431640625
0.0537109375, -0.037109375, 0.24609375
0.0517578125, -0.0439453125, 0.236328125
0.0537109375, -0.0498046875, 0.232421875
0.0537109375, -0.0419921875, 0.2421875
0.0537109375, -0.0419921875, 0.23828125
0.0537109375, -0.046875, 0.2275390625
0.0556640625, -0.0458984375, 0.228515625
0.0537109375, -0.037109375, 0.2392578125
0.052734375, -0.0498046875, 0.2431640625
0.0546875, -0.0615234375, 0.2353515625
0.052734375, -0.0498046875, 0.240234375
0.052734375, -0.041015625, 0.2373046875
0.05078125, -0.0419921875, 0.23046875
0.052734375, -0.0439453125, 0.2373046875
0.0546875, -0.0478515625, 0.2392578125
0.0517578125, -0.0517578125, 0.2275390625
0.052734375, -0.056640625, 0.23046875
0.0556640625, -0.05078125, 0.2412109375
0.0556640625, -0.0341796875, 0.2490234375
0.056640625, -0.0234375, 0.2568359375
0.0576171875, -0.0302734375, 0.2646484375
0.05859375, -0.033203125, 0.2587890625
0.0615234375, -0.0185546875, 0.275390625
0.068359375, -0.0185546875, 0.294921875
0.064453125, -0.00390625, 0.3095703125
0.0712890625, 0.0302734375, 0.3271484375
0.0712890625, 0.107421875, 0.3203125
0.0693359375, 0.14453125, 0.2666015625
0.0703125, 0.15234375, 0.2373046875
0.07421875, 0.1279296875, 0.2275390625
0.0732421875, 0.1044921875, 0.23046875
0.0654296875, 0.0517578125, 0.189453125
0.072265625, 0.0361328125, 0.11328125
0.07421875, 0.0498046875, 0.072265625
0.0693359375, 0.076171875, 0.0419921875
0.0595703125, 0.09765625, 0.033203125
0.044921875, 0.0419921875, 0.083984375
0.01953125, -0.07421875, 0.1748046875
0.0224609375, -0.1708984375, 0.185546875
0.0185546875, -0.1240234375, 0.189453125
0.0087890625, -0.078125, 0.2109375
0.0009765625, -0.1025390625, 0.2001953125
-0.0078125, -0.130859375, 0.1962890625
-0.021484375, -0.162109375, 0.2138671875
-0.0302734375, -0.1552734375, 0.248046875
-0.0361328125, -0.125, 0.3134765625
-0.0380859375, -0.111328125, 0.310546875
-0.03515625, -0.0830078125, 0.2861328125
-0.0341796875, -0.0439453125, 0.3115234375
-0.0322265625, -0.0712890625, 0.3291015625
-0.0341796875, -0.1044921875, 0.3173828125
-0.0400390625, -0.0693359375, 0.302734375
-0.0478515625, -0.0380859375, 0.40625
-0.060546875, -0.1220703125, 0.5234375
-0.0771484375, -0.279296875, 0.59765625
-0.087890625, -0.416015625, 0.65625
-0.1142578125, -0.400390625, 0.7138671875
-0.1513671875, -0.28515625, 0.6875
-0.1943359375, -0.2705078125, 0.6123046875
-0.2373046875, -0.3056640625, 0.5185546875
-0.2587890625, -0.2734375, 0.3857421875
-0.267578125, -0.205078125, 0.25390625
-0.2734375, -0.0947265625, 0.21484375
-0.2666015625, -0.083984375, 0.1865234375
-0.2509765625, -0.095703125, 0.0947265625
-0.2392578125, -0.021484375, -0.0478515625
-0.1865234375, 0.1005859375, -0.1650390625
-0.125, 0.2138671875, -0.208984375
-0.0693359375, 0.2958984375, -0.25390625
-0.0224609375, 0.32421875, -0.29296875
0.0087890625, 0.310546875, -0.31640625
0.041015625, 0.3212890625, -0.396484375
0.0556640625, 0.3212890625, -0.498046875
0.0625, 0.3330078125, -0.556640625
0.0615234375, 0.330078125, -0.6103515625
0.0234375, 0.2763671875, -0.5966796875
-0.052734375, 0.158203125, -0.482421875
-0.123046875, 0.0625, -0.3720703125
-0.1728515625, 0.052734375, -0.34375
-0.2509765625, 0.0732421875, -0.34375
-0.3505859375, 0.0234375, -0.2529296875
-0.435546875, -0.1044921875, -0.1201171875
-0.4853515625, -0.30078125, 0.109375
-0.4921875, -0.3330078125, 0.3857421875
-0.419921875, -0.451171875, 0.6533203125
-0.3251953125, -0.728515625, 0.654296875
-0.26953125, -0.6240234375, 0.4814453125
-0.314453125, -0.3671875, 0.3447265625
-0.3115234375, -0.4169921875, 0.748046875
-0.26171875, -0.619140625, 0.9990234375
-0.2236328125, -0.66015625, 0.9609375
-0.24609375, -0.40234375, 0.6435546875
-0.2392578125, -0.1357421875, 0.5556640625
-0.216796875, 0.0283203125, 0.6064453125
-0.1904296875, 0.0615234375, 0.626953125
-0.18359375, 0.0185546875, 0.544921875
-0.171875, 0.02734375, 0.451171875
-0.1494140625, 0.09765625, 0.3525390625
-0.1162109375, 0.15234375, 0.251953125
-0.0791015625, 0.185546875, 0.1484375
-0.0458984375, 0.1962890625, 0.0615234375
-0.0087890625, 0.1669921875, 0.0166015625
0.0068359375, 0.154296875, 0.0341796875
0.0283203125, 0.1123046875, 0.041015625
0.041015625, 0.076171875, 0.0615234375
0.052734375, 0.06640625, 0.0830078125
0.060546875, 0.044921875, 0.0771484375
0.06640625, 0.01953125, 0.0947265625
0.0751953125, 0.001953125, 0.115234375
0.0791015625, -0.01171875, 0.134765625
0.0810546875, -0.037109375, 0.1357421875
0.083984375, -0.05078125, 0.1865234375
0.076171875, -0.0595703125, 0.220703125
0.0751953125, -0.099609375, 0.1904296875
0.0703125, -0.0732421875, 0.197265625
0.068359375, -0.0625, 0.2578125
0.064453125, -0.046875, 0.287109375
0.0625, -0.0166015625, 0.2822265625
0.0615234375, -0.021484375, 0.248046875
0.05859375, -0.0341796875, 0.228515625
0.0615234375, -0.0224609375, 0.220703125
0.0625, -0.0107421875, 0.23828125
0.0634765625, -0.0283203125, 0.259765625
0.060546875, -0.0205078125, 0.255859375
0.0615234375, -0.0126953125, 0.244140625
0.056640625, -0.02734375, 0.2333984375
0.056640625, -0.021484375, 0.23046875
0.0576171875, -0.001953125, 0.26171875
0.056640625, -0.015625, 0.263671875
0.0537109375, -0.0400390625, 0.2509765625
0.0546875, -0.0263671875, 0.2490234375
0.0546875, -0.0302734375, 0.2470703125
0.0546875, -0.0341796875, 0.251953125
0.052734375, -0.0341796875, 0.255859375
0.0537109375, -0.017578125, 0.2490234375
0.0546875, -0.0234375, 0.240234375
0.0537109375, -0.0361328125, 0.2353515625
0.05859375, -0.0244140625, 0.2451171875
0.05859375, -0.013671875, 0.2431640625
0.056640625, -0.0029296875, 0.244140625
0.0556640625, -0.017578125, 0.2373046875
0.056640625, -0.04296875, 0.2421875
0.05859375, -0.0146484375, 0.232421875
0.0576171875, 0.00390625, 0.234375
0.0595703125, 0.00390625, 0.212890625
0.060546875, -0.01953125, 0.212890625
0.0595703125, -0.0390625, 0.212890625
0.0625, -0.0166015625, 0.232421875
0.060546875, -0.0107421875, 0.25
0.0595703125, -0.0009765625, 0.251953125
0.0556640625, 0.0224609375, 0.26171875
0.0556640625, -0.001953125, 0.25390625
0.052734375, -0.037109375, 0.2392578125
0.0556640625, -0.0322265625, 0.232421875
0.056640625, -0.0224609375, 0.216796875
0.0615234375, 0.001953125, 0.2236328125
0.0595703125, -0.0244140625, 0.2392578125
0.05859375, -0.0537109375, 0.25390625
0.0537109375, -0.03125, 0.2509765625
0.052734375, -0.0029296875, 0.25
0.052734375, -0.0126953125, 0.2548828125
0.0498046875, -0.029296875, 0.2568359375
0.0498046875, -0.0234375, 0.2412109375
0.05078125, -0.021484375, 0.2294921875
0.052734375, -0.029296875, 0.2392578125
0.0537109375, -0.0322265625, 0.2529296875
0.0556640625, -0.025390625, 0.23828125
0.0576171875, -0.0205078125, 0.2236328125
0.0576171875, -0.0205078125, 0.228515625
0.060546875, -0.0234375, 0.2431640625
0.060546875, -0.021484375, 0.240234375
0.0615234375, -0.00390625, 0.2392578125
0.0615234375, 0.0048828125, 0.2431640625
0.060546875, -0.0078125, 0.2470703125
0.0615234375, -0.01171875, 0.2421875
0.0615234375, -0.001953125, 0.2373046875
0.05859375, -0.0048828125, 0.25390625
0.0595703125, -0.0244140625, 0.25390625
0.056640625, -0.0224609375, 0.2373046875
0.0556640625, -0.0029296875, 0.23046875
0.052734375, -0.009765625, 0.2353515625
0.05078125, -0.03125, 0.236328125
0.0498046875, -0.0439453125, 0.2373046875
0.05078125, -0.03515625, 0.236328125
0.0517578125, -0.03515625, 0.234375
0.0498046875, -0.0322265625, 0.236328125
0.048828125, -0.029296875, 0.240234375
0.0517578125, -0.021484375, 0.2314453125
0.0517578125, -0.0302734375, 0.23828125
0.0546875, -0.03515625, 0.2314453125
0.052734375, -0.02734375, 0.228515625
0.0576171875, -0.017578125, 0.23046875
0.0576171875, -0.03515625, 0.2353515625
0.0576171875, -0.0390625, 0.25
0.0595703125, -0.0322265625, 0.25
0.0615234375, -0.0341796875, 0.234375
0.0595703125, -0.03125, 0.2333984375
0.0625, -0.0302734375, 0.24609375
0.05859375, -0.025390625, 0.25
0.0595703125, -0.021484375, 0.2392578125
0.0595703125, -0.0166015625, 0.228515625
0.056640625, -0.013671875, 0.2392578125
0.05859375, -0.013671875, 0.2490234375
0.05859375, -0.0185546875, 0.25
0.05859375, -0.015625, 0.23046875
0.0595703125, -0.009765625, 0.2197265625
0.0595703125, -0.0166015625, 0.234375
0.0576171875, -0.015625, 0.2490234375
0.0595703125, -0.0078125, 0.2333984375
0.060546875, -0.0166015625, 0.234375
0.0556640625, -0.021484375, 0.23828125
0.05859375, -0.0224609375, 0.2392578125
0.05859375, -0.025390625, 0.2431640625
0.0595703125, -0.017578125, 0.2470703125
0.0556640625, -0.01953125, 0.2578125
0.0576171875, -0.0205078125, 0.236328125
0.05859375, -0.021484375, 0.2255859375
0.0595703125, -0.0185546875, 0.23046875
0.0556640625, -0.029296875, 0.244140625
0.0546875, -0.033203125, 0.248046875
0.0576171875, -0.0341796875, 0.24609375
0.0576171875, -0.029296875, 0.2333984375
0.05859375, -0.013671875, 0.232421875
0.0546875, -0.0087890625, 0.2412109375
0.056640625, -0.0107421875, 0.2470703125
0.056640625, -0.0283203125, 0.2421875
0.056640625, -0.03125, 0.234375
0.05859375, -0.0205078125, 0.2333984375
0.056640625, -0.0126953125, 0.2412109375
0.05859375, -0.01171875, 0.23828125
0.056640625, -0.017578125, 0.2333984375
0.05859375, -0.013671875, 0.236328125
0.05859375, -0.015625, 0.2294921875
0.05859375, -0.0244140625, 0.2421875
0.0595703125, -0.0244140625, 0.2392578125
0.060546875, -0.0224609375, 0.23828125
0.060546875, -0.0185546875, 0.236328125
0.05859375, -0.0166015625, 0.23828125
0.0576171875, -0.01953125, 0.232421875
0.0576171875, -0.0322265625, 0.2470703125
0.056640625, -0.029296875, 0.2421875
0.056640625, -0.0244140625, 0.244140625
0.0576171875, -0.0224609375, 0.2353515625
0.0576171875, -0.029296875, 0.2392578125
0.0595703125, -0.033203125, 0.23828125
0.0576171875, -0.03125, 0.248046875
0.0576171875, -0.0263671875, 0.2373046875
0.056640625, -0.0302734375, 0.2216796875
0.0576171875, -0.0146484375, 0.2392578125
0.0556640625, -0.0087890625, 0.2529296875
0.0556640625, -0.009765625, 0.2373046875
0.05859375, -0.021484375, 0.22265625
0.05859375, -0.01953125, 0.232421875
0.056640625, -0.021484375, 0.23828125
0.05859375, -0.0244140625, 0.2421875
0.05859375, -0.021484375, 0.2421875
0.0595703125, -0.021484375, 0.23828125
0.0546875, -0.017578125, 0.236328125
0.05859375, -0.017578125, 0.2353515625
0.0595703125, -0.0244140625, 0.2421875
0.0556640625, -0.0166015625, 0.2490234375
0.0556640625, -0.02734375, 0.244140625
0.0576171875, -0.0283203125, 0.240234375
0.056640625, -0.029296875, 0.244140625
0.0546875, -0.0244140625, 0.248046875
0.056640625, -0.02734375, 0.2509765625
0.056640625, -0.0390625, 0.234375
0.056640625, -0.01953125, 0.220703125
0.0556640625, -0.00390625, 0.232421875
0.056640625, -0.015625, 0.240234375
0.0537109375, -0.0390625, 0.240234375
0.0556640625, -0.0166015625, 0.23046875
0.0556640625, -0.0009765625, 0.228515625
0.0556640625, -0.017578125, 0.2412109375
0.0537109375, -0.0341796875, 0.2578125
0.0546875, -0.041015625, 0.2548828125
0.056640625, -0.0322265625, 0.2392578125
0.056640625, -0.0244140625, 0.240234375
0.0595703125, -0.017578125, 0.240234375
0.05859375, -0.0224609375, 0.2421875
0.0556640625, -0.0244140625, 0.2421875
0.0546875, -0.01953125, 0.2392578125
0.0576171875, -0.0244140625, 0.240234375
0.0576171875, -0.03125, 0.2392578125
0.0556640625, -0.02734375, 0.232421875
0.0537109375, -0.01953125, 0.240234375
0.0556640625, -0.0283203125, 0.2412109375
0.056640625, -0.0205078125, 0.2314453125
0.0556640625, -0.0185546875, 0.2333984375
0.0546875, -0.0283203125, 0.25390625
0.052734375, -0.037109375, 0.2578125
0.0537109375, -0.0224609375, 0.232421875
0.0537109375, -0.0263671875, 0.240234375
0.056640625, -0.0263671875, 0.234375
0.056640625, -0.0263671875, 0.23046875
0.0546875, -0.0263671875, 0.2333984375
0.056640625, -0.0107421875, 0.2294921875
0.056640625, -0.0185546875, 0.2568359375
0.0537109375, -0.03125, 0.2470703125
0.0556640625, -0.013671875, 0.2255859375
0.0595703125, -0.0166015625, 0.2333984375
0.0556640625, -0.0283203125, 0.2451171875
0.056640625, -0.0205078125, 0.240234375
0.0546875, -0.0234375, 0.23828125
0.0556640625, -0.0107421875, 0.2373046875
0.056640625, -0.017578125, 0.244140625
0.056640625, -0.0322265625, 0.2431640625
0.0556640625, -0.03515625, 0.2421875
0.0576171875, -0.0205078125, 0.232421875
0.0556640625, -0.0205078125, 0.2373046875
0.0546875, -0.03515625, 0.244140625
0.0546875, -0.0205078125, 0.2392578125
0.0576171875, -0.0126953125, 0.236328125
0.0556640625, -0.017578125, 0.2373046875
0.0556640625, -0.017578125, 0.2314453125
0.0556640625, -0.03515625, 0.2451171875
0.0537109375, -0.0322265625, 0.2646484375
0.0556640625, -0.0146484375, 0.2353515625
0.0556640625, -0.0166015625, 0.2236328125
0.0556640625, -0.0224609375, 0.2470703125
0.05859375, -0.021484375, 0.2373046875
0.0537109375, -0.0224609375, 0.23828125
0.0546875, -0.0322265625, 0.2451171875
0.0556640625, -0.0322265625, 0.2373046875
0.056640625, -0.01953125, 0.236328125
0.0595703125, -0.0166015625, 0.23046875
0.0556640625, -0.0205078125, 0.232421875
0.0546875, -0.0224609375, 0.2353515625
0.05859375, -0.0263671875, 0.2392578125
0.0556640625, -0.0302734375, 0.244140625
0.056640625, -0.0244140625, 0.23828125
0.052734375, -0.0224609375, 0.234375
0.056640625, -0.0205078125, 0.2294921875
0.0546875, -0.021484375, 0.2353515625
0.0576171875, -0.0283203125, 0.2333984375
0.056640625, -0.0263671875, 0.240234375
0.0576171875, -0.0234375, 0.2373046875
0.0576171875, -0.025390625, 0.2412109375
0.060546875, -0.0302734375, 0.2431640625
0.05859375, -0.02734375, 0.2451171875
0.0556640625, -0.0166015625, 0.2373046875
0.0576171875, -0.0126953125, 0.2294921875
0.0546875, -0.029296875, 0.25
0.0546875, -0.0185546875, 0.240234375
0.0537109375, -0.017578125, 0.244140625
0.0576171875, -0.029296875, 0.2470703125
0.056640625, -0.03515625, 0.240234375
0.0576171875, -0.03515625, 0.236328125
0.0546875, -0.0146484375, 0.232421875
0.056640625, -0.0126953125, 0.2333984375
0.0576171875, -0.0322265625, 0.2412109375
0.0556640625, -0.0341796875, 0.2490234375
0.0517578125, -0.0244140625, 0.23828125
0.056640625, -0.0263671875, 0.2373046875
0.0546875, -0.0341796875, 0.2412109375
0.0576171875, -0.0185546875, 0.2392578125
0.05859375, -0.0068359375, 0.23828125
0.056640625, -0.021484375, 0.234375
0.0556640625, -0.03515625, 0.2451171875
0.0576171875, -0.0283203125, 0.2392578125
0.05859375, -0.0146484375, 0.2373046875
0.0595703125, -0.013671875, 0.2412109375
0.0615234375, -0.0224609375, 0.248046875
0.0625, -0.0234375, 0.2451171875
0.0625, -0.017578125, 0.251953125
