0.0634765625, -0.01953125, 0.234375
0.0634765625, -0.025390625, 0.2333984375
0.0654296875, -0.025390625, 0.236328125
0.0634765625, -0.0234375, 0.2412109375
0.0654296875, -0.0302734375, 0.2470703125
0.0634765625, -0.0205078125, 0.2470703125
0.064453125, -0.009765625, 0.240234375
0.064453125, -0.0263671875, 0.232421875
0.0654296875, -0.0341796875, 0.2314453125
0.0654296875, -0.0322265625, 0.2470703125
0.064453125, -0.0224609375, 0.2451171875
0.0634765625, -0.0126953125, 0.2333984375
0.0654296875, -0.005859375, 0.2197265625
0.064453125, -0.009765625, 0.2275390625
0.0654296875, -0.02734375, 0.234375
0.0634765625, -0.0205078125, 0.2431640625
0.0654296875, -0.0224609375, 0.2548828125
0.0625, -0.025390625, 0.24609375
0.064453125, -0.0263671875, 0.2431640625
0.0634765625, -0.0146484375, 0.2314453125
0.06640625, -0.0146484375, 0.2216796875
0.064453125, -0.013671875, 0.2314453125
0.064453125, -0.0205078125, 0.23828125
0.0625, -0.0224609375, 0.240234375
0.0654296875, -0.0185546875, 0.2333984375
0.0634765625, -0.0185546875, 0.232421875
0.06640625, -0.02734375, 0.2373046875
0.0634765625, -0.0263671875, 0.240234375
0.0654296875, -0.01953125, 0.2353515625
0.0625, -0.021484375, 0.232421875
0.0615234375, -0.0322265625, 0.2412109375
0.0625, -0.029296875, 0.234375
0.064453125, -0.0166015625, 0.23828125
0.06640625, -0.0087890625, 0.234375
0.0634765625, -0.015625, 0.2353515625
0.0634765625, -0.0244140625, 0.2431640625
0.0625, -0.0263671875, 0.24609375
0.0625, -0.0224609375, 0.2412109375
0.0634765625, -0.0234375, 0.244140625
0.0625, -0.0224609375, 0.2392578125
0.064453125, -0.01953125, 0.2265625
0.0634765625, -0.0185546875, 0.224609375
0.0634765625, -0.017578125, 0.2412109375
0.0634765625, -0.0302734375, 0.248046875
0.0634765625, -0.02734375, 0.236328125
0.064453125, -0.0146484375, 0.2265625
0.0625, -0.0126953125, 0.2333984375
0.0625, -0.0205078125, 0.2373046875
0.064453125, -0.0166015625, 0.240234375
0.0625, -0.02734375, 0.25390625
0.0634765625, -0.0224609375, 0.236328125
0.0634765625, -0.015625, 0.2314453125
0.0634765625, -0.0185546875, 0.2353515625
0.064453125, -0.017578125, 0.236328125
0.0634765625, -0.0234375, 0.23046875
0.0625, -0.021484375, 0.2412109375
0.0634765625, -0.029296875, 0.2470703125
0.0625, -0.02734375, 0.2412109375
0.0625, -0.01953125, 0.23046875
0.064453125, -0.021484375, 0.22265625
0.0634765625, -0.0166015625, 0.232421875
0.0625, -0.0126953125, 0.2470703125
0.0634765625, -0.01953125, 0.244140625
0.0625, -0.025390625, 0.2333984375
0.0654296875, -0.0234375, 0.2275390625
0.0634765625, -0.0234375, 0.23828125
0.0615234375, -0.0224609375, 0.24609375
0.064453125, -0.0205078125, 0.23828125
0.0625, -0.0087890625, 0.2294921875
0.064453125, -0.01953125, 0.236328125
0.064453125, -0.0361328125, 0.248046875
0.0654296875, -0.029296875, 0.2451171875
0.064453125, -0.0166015625, 0.232421875
0.064453125, -0.015625, 0.234375
0.0625, -0.015625, 0.2392578125
0.0654296875, -0.00390625, 0.2353515625
0.0634765625, -0.013671875, 0.2314453125
0.064453125, -0.0283203125, 0.240234375
0.0625, -0.03515625, 0.25
0.0625, -0.0185546875, 0.2412109375
0.0634765625, -0.01171875, 0.2275390625
0.0615234375, -0.01953125, 0.2275390625
0.0625, -0.029296875, 0.2451171875
0.0625, -0.0244140625, 0.2392578125
0.0615234375, -0.015625, 0.2431640625
0.0625, -0.021484375, 0.234375
0.064453125, -0.0263671875, 0.23046875
0.064453125, -0.01953125, 0.232421875
0.064453125, -0.0166015625, 0.234375
0.0625, -0.01953125, 0.2421875
0.0634765625, -0.0244140625, 0.2421875
0.064453125, -0.021484375, 0.2373046875
0.064453125, -0.013671875, 0.2392578125
0.064453125, -0.0126953125, 0.2373046875
0.0625, -0.021484375, 0.23828125
0.0634765625, -0.0185546875, 0.244140625
0.0625, -0.0224609375, 0.240234375
0.064453125, -0.0166015625, 0.2353515625
0.0634765625, -0.0078125, 0.25390625
0.0654296875, -0.0146484375, 0.2705078125
0.0673828125, -0.013671875, 0.2607421875
0.0673828125, -0.0107421875, 0.25390625
0.07421875, -0.0087890625, 0.2431640625
0.0830078125, 0.0380859375, 0.279296875
0.0888671875, 0.0888671875, 0.2822265625
0.0908203125, 0.1162109375, 0.25390625
0.0908203125, 0.1357421875, 0.232421875
0.08984375, 0.1337890625, 0.2099609375
0.0849609375, 0.130859375, 0.21484375
0.0791015625, 0.1455078125, 0.20703125
0.0693359375, 0.1357421875, 0.2021484375
0.064453125, 0.0927734375, 0.205078125
0.0615234375, 0.0654296875, 0.1982421875
0.0517578125, 0.0498046875, 0.17578125
0.04296875, 0.0654296875, 0.158203125
0.03515625, 0.03125, 0.1513671875
0.0224609375, -0.029296875, 0.1650390625
0.0166015625, -0.044921875, 0.1650390625
0.0068359375, -0.0361328125, 0.1513671875
-0.005859375, -0.0380859375, 0.138671875
-0.017578125, -0.0771484375, 0.138671875
-0.0322265625, -0.109375, 0.1796875
-0.0380859375, -0.126953125, 0.193359375
-0.044921875, -0.1005859375, 0.234375
-0.0458984375, -0.1357421875, 0.2138671875
-0.0537109375, -0.1650390625, 0.185546875
-0.060546875, -0.15234375, 0.1943359375
-0.0654296875, -0.1708984375, 0.2216796875
-0.0625, -0.2001953125, 0.2841796875
-0.0615234375, -0.2001953125, 0.310546875
-0.056640625, -0.1513671875, 0.2919921875
-0.056640625, -0.1474609375, 0.265625
-0.0546875, -0.150390625, 0.2705078125
-0.0576171875, -0.1376953125, 0.2841796875
-0.056640625, -0.1611328125, 0.333984375
-0.0615234375, -0.1796875, 0.37890625
-0.068359375, -0.2197265625, 0.3896484375
-0.0771484375, -0.251953125, 0.4013671875
-0.0849609375, -0.33203125, 0.5146484375
-0.1083984375, -0.4814453125, 0.6484375
-0.14453125, -0.5556640625, 0.66796875
-0.1875, -0.4970703125, 0.6240234375
-0.23828125, -0.4072265625, 0.49609375
-0.2666015625, -0.328125, 0.35546875
-0.27734375, -0.25, 0.23828125
-0.2646484375, -0.173828125, 0.158203125
-0.2421875, -0.1669921875, 0.12109375
-0.22265625, -0.1875, 0.1171875
-0.2197265625, -0.1337890625, 0.0712890625
-0.2265625, -0.12890625, -0.0263671875
-0.19921875, -0.048828125, -0.0810546875
-0.1689453125, 0.091796875, -0.130859375
-0.1328125, 0.24609375, -0.173828125
-0.0830078125, 0.3857421875, -0.2548828125
-0.015625, 0.494140625, -0.310546875
0.03515625, 0.541015625, -0.3291015625
0.0654296875, 0.5458984375, -0.3203125
0.076171875, 0.482421875, -0.3525390625
0.0810546875, 0.4150390625, -0.3955078125
0.0693359375, 0.34765625, -0.380859375
0.033203125, 0.287109375, -0.30859375
-0.00390625, 0.2421875, -0.27734375
-0.0576171875, 0.2529296875, -0.2275390625
-0.115234375, 0.20703125, -0.197265625
-0.1767578125, 0.1484375, -0.236328125
-0.2626953125, 0.12890625, -0.3017578125
-0.388671875, -0.0478515625, -0.1650390625
-0.4326171875, -0.3115234375, 0.1171875
-0.3935546875, -0.3876953125, 0.380859375
-0.345703125, -0.4013671875, 0.408203125
-0.3388671875, -0.416015625, 0.298828125
-0.3642578125, -0.32421875, 0.2978515625
-0.369140625, -0.41015625, 0.6630859375
-0.3125, -0.603515625, 0.904296875
-0.25, -0.6240234375, 0.9072265625
-0.2392578125, -0.4599609375, 0.6962890625
-0.2353515625, -0.26953125, 0.546875
-0.2138671875, -0.134765625, 0.6181640625
-0.1943359375, -0.1357421875, 0.7265625
-0.1943359375, -0.1240234375, 0.669921875
-0.22265625, -0.0986328125, 0.5478515625
-0.2333984375, -0.0810546875, 0.48828125
-0.228515625, -0.0244140625, 0.517578125
-0.2109375, 0.033203125, 0.50390625
-0.1875, 0.0576171875, 0.4033203125
-0.162109375, 0.0703125, 0.2451171875
-0.1279296875, 0.1240234375, 0.0869140625
-0.0849609375, 0.1220703125, 0.01953125
-0.052734375, 0.1357421875, 0.001953125
-0.01953125, 0.1982421875, -0.0068359375
0.0087890625, 0.2216796875, -0.0029296875
0.0361328125, 0.2060546875, 0.0087890625
0.052734375, 0.1630859375, 0.0546875
0.0625, 0.083984375, 0.03515625
0.0703125, 0.044921875, 0.0439453125
0.076171875, 0.0107421875, 0.1162109375
0.0859375, -0.0185546875, 0.17578125
0.09375, -0.048828125, 0.181640625
0.0947265625, -0.0576171875, 0.17578125
0.0927734375, -0.0712890625, 0.1728515625
0.0908203125, -0.0673828125, 0.2001953125
0.0859375, -0.041015625, 0.2666015625
0.0732421875, -0.0302734375, 0.265625
0.0634765625, -0.015625, 0.251953125
0.0615234375, -0.0224609375, 0.23828125
0.0625, -0.0390625, 0.23828125
0.0625, -0.0634765625, 0.2490234375
0.0625, -0.08203125, 0.2822265625
0.064453125, -0.0791015625, 0.2802734375
0.0634765625, -0.0732421875, 0.2626953125
0.064453125, -0.0556640625, 0.265625
0.064453125, -0.0322265625, 0.23046875
0.0654296875, -0.0263671875, 0.21484375
0.06640625, -0.044921875, 0.2041015625
0.06640625, -0.06640625, 0.2158203125
0.06640625, -0.044921875, 0.2412109375
0.06640625, -0.0302734375, 0.2373046875
0.06640625, -0.0224609375, 0.2275390625
0.0634765625, -0.025390625, 0.232421875
0.06640625, -0.0595703125, 0.232421875
0.0654296875, -0.0693359375, 0.2626953125
0.0634765625, -0.0400390625, 0.2529296875
0.0625, -0.0322265625, 0.2587890625
0.06640625, -0.03125, 0.2412109375
0.064453125, -0.0224609375, 0.2197265625
0.064453125, -0.029296875, 0.23046875
0.0634765625, -0.0380859375, 0.240234375
0.0625, -0.0302734375, 0.2412109375
0.0654296875, -0.029296875, 0.236328125
0.06640625, -0.0419921875, 0.2412109375
0.064453125, -0.041015625, 0.232421875
0.0625, -0.037109375, 0.2353515625
0.0654296875, -0.0341796875, 0.2158203125
0.06640625, -0.02734375, 0.224609375
0.064453125, -0.0224609375, 0.2373046875
0.0654296875, -0.0302734375, 0.2177734375
0.0625, -0.05078125, 0.2431640625
0.0654296875, -0.0224609375, 0.2333984375
0.064453125, -0.0263671875, 0.2470703125
0.0625, -0.0390625, 0.2470703125
0.0654296875, -0.0400390625, 0.2373046875
0.0654296875, -0.0263671875, 0.234375
0.0654296875, -0.0302734375, 0.2353515625
0.06640625, -0.0341796875, 0.23828125
0.0615234375, -0.0322265625, 0.23828125
0.0634765625, -0.048828125, 0.2490234375
0.0625, -0.0478515625, 0.248046875
0.0625, -0.037109375, 0.2373046875
0.064453125, -0.0185546875, 0.2255859375
0.0625, -0.013671875, 0.2255859375
0.0634765625, -0.04296875, 0.2265625
0.0634765625, -0.037109375, 0.2275390625
0.0634765625, -0.0400390625, 0.2470703125
0.064453125, -0.0537109375, 0.236328125
0.06640625, -0.029296875, 0.2265625
0.064453125, -0.029296875, 0.23828125
0.06640625, -0.037109375, 0.2373046875
0.064453125, -0.0517578125, 0.2529296875
0.0654296875, -0.0380859375, 0.232421875
0.0654296875, -0.0126953125, 0.240234375
0.064453125, -0.029296875, 0.2392578125
0.06640625, -0.0263671875, 0.2275390625
0.0634765625, -0.0361328125, 0.2275390625
0.0673828125, -0.0322265625, 0.2275390625
0.0673828125, -0.017578125, 0.224609375
0.06640625, -0.03515625, 0.2333984375
0.0634765625, -0.033203125, 0.2314453125
0.06640625, -0.0224609375, 0.2373046875
0.0654296875, -0.0400390625, 0.2421875
0.0654296875, -0.0390625, 0.232421875
0.0673828125, -0.0390625, 0.24609375
0.06640625, -0.0390625, 0.2373046875
0.0654296875, -0.02734375, 0.2294921875
0.0634765625, -0.0244140625, 0.2275390625
0.064453125, -0.025390625, 0.2412109375
0.064453125, -0.0439453125, 0.24609375
0.06640625, -0.0400390625, 0.2373046875
0.0625, -0.0419921875, 0.2509765625
0.0634765625, -0.033203125, 0.2353515625
0.0654296875, -0.04296875, 0.240234375
0.064453125, -0.046875, 0.251953125
0.06640625, -0.0185546875, 0.2265625
0.064453125, -0.013671875, 0.2158203125
0.0634765625, -0.0361328125, 0.2373046875
0.0654296875, -0.0390625, 0.2353515625
0.06640625, -0.044921875, 0.240234375
0.0654296875, -0.0390625, 0.2333984375
0.064453125, -0.0302734375, 0.2255859375
0.0693359375, -0.0439453125, 0.2373046875
0.068359375, -0.041015625, 0.2373046875
0.0673828125, -0.0205078125, 0.240234375
0.0673828125, -0.0244140625, 0.2373046875
0.0654296875, -0.0390625, 0.2294921875
0.0654296875, -0.0361328125, 0.234375
0.064453125, -0.0390625, 0.244140625
0.0654296875, -0.0390625, 0.2333984375
0.0673828125, -0.0234375, 0.2197265625
0.0654296875, -0.0263671875, 0.228515625
0.068359375, -0.0390625, 0.236328125
0.06640625, -0.0419921875, 0.2412109375
0.06640625, -0.0302734375, 0.2236328125
0.06640625, -0.0283203125, 0.2294921875
0.06640625, -0.0341796875, 0.2353515625
0.06640625, -0.0458984375, 0.2421875
0.0654296875, -0.02734375, 0.2255859375
0.0654296875, -0.0234375, 0.232421875
0.068359375, -0.0439453125, 0.24609375
0.06640625, -0.0390625, 0.2509765625
0.06640625, -0.033203125, 0.2412109375
0.064453125, -0.0419921875, 0.244140625
0.068359375, -0.041015625, 0.23828125
0.0673828125, -0.015625, 0.2177734375
0.068359375, -0.0029296875, 0.2216796875
0.0703125, -0.0126953125, 0.2333984375
0.0673828125, -0.041015625, 0.23828125
0.06640625, -0.0498046875, 0.23828125
0.068359375, -0.0419921875, 0.2412109375
0.06640625, -0.03125, 0.2431640625
0.0673828125, -0.0322265625, 0.240234375
0.0693359375, -0.0263671875, 0.228515625
0.0693359375, -0.0283203125, 0.232421875
0.0703125, -0.041015625, 0.2294921875
0.0703125, -0.046875, 0.2294921875
0.0693359375, -0.0283203125, 0.2314453125
0.06640625, -0.0244140625, 0.236328125
0.06640625, -0.0341796875, 0.232421875
0.0693359375, -0.03515625, 0.2373046875
0.0693359375, -0.0361328125, 0.2421875
0.0673828125, -0.033203125, 0.2265625
0.0654296875, -0.041015625, 0.2392578125
0.0654296875, -0.044921875, 0.228515625
0.0703125, -0.02734375, 0.2275390625
0.06640625, -0.0263671875, 0.23046875
0.0654296875, -0.033203125, 0.2421875
0.06640625, -0.0390625, 0.240234375
0.0673828125, -0.037109375, 0.2431640625
0.0673828125, -0.03515625, 0.2392578125
0.0673828125, -0.0302734375, 0.2392578125
0.06640625, -0.0283203125, 0.2353515625
0.0693359375, -0.0205078125, 0.2294921875
0.068359375, -0.0234375, 0.228515625
0.0712890625, -0.029296875, 0.232421875
0.068359375, -0.03125, 0.2333984375
0.068359375, -0.01953125, 0.2333984375
0.0673828125, -0.0224609375, 0.2333984375
0.06640625, -0.044921875, 0.2353515625
0.068359375, -0.048828125, 0.23828125
0.0673828125, -0.0341796875, 0.236328125
0.0654296875, -0.021484375, 0.232421875
0.0654296875, -0.025390625, 0.232421875
0.06640625, -0.0322265625, 0.2373046875
0.0673828125, -0.0341796875, 0.2373046875
0.068359375, -0.03515625, 0.23046875
0.06640625, -0.0361328125, 0.228515625
0.06640625, -0.029296875, 0.2412109375
0.0625, -0.0205078125, 0.23828125
0.06640625, -0.03125, 0.23828125
0.0673828125, -0.041015625, 0.23046875
0.0673828125, -0.041015625, 0.224609375
0.0673828125, -0.0341796875, 0.232421875
0.06640625, -0.03515625, 0.2490234375
0.06640625, -0.037109375, 0.248046875
0.0654296875, -0.03515625, 0.236328125
0.06640625, -0.0302734375, 0.2353515625
0.0673828125, -0.0419921875, 0.23828125
0.06640625, -0.0380859375, 0.234375
0.0673828125, -0.0185546875, 0.228515625
0.0673828125, -0.021484375, 0.224609375
0.0654296875, -0.0400390625, 0.2333984375
0.0693359375, -0.0458984375, 0.236328125
0.0673828125, -0.033203125, 0.2353515625
0.0673828125, -0.0263671875, 0.2333984375
0.068359375, -0.03515625, 0.2421875
0.068359375, -0.0263671875, 0.2373046875
0.06640625, -0.0185546875, 0.2333984375
0.068359375, -0.025390625, 0.2255859375
0.0654296875, -0.046875, 0.2412109375
0.06640625, -0.041015625, 0.2373046875
0.064453125, -0.017578125, 0.23828125
0.064453125, -0.017578125, 0.2265625
0.068359375, -0.0419921875, 0.236328125
0.0673828125, -0.046875, 0.2431640625
0.0654296875, -0.02734375, 0.234375
0.0634765625, -0.029296875, 0.23828125
0.064453125, -0.0400390625, 0.240234375
0.06640625, -0.046875, 0.2431640625
0.0673828125, -0.0400390625, 0.23828125
0.0693359375, -0.037109375, 0.236328125
0.068359375, -0.0390625, 0.23046875
0.06640625, -0.033203125, 0.2255859375
0.0654296875, -0.029296875, 0.232421875
0.068359375, -0.0322265625, 0.240234375
0.0703125, -0.033203125, 0.2353515625
0.0693359375, -0.033203125, 0.2236328125
0.068359375, -0.041015625, 0.232421875
0.0673828125, -0.0361328125, 0.234375
0.0673828125, -0.0263671875, 0.2353515625
0.068359375, -0.0302734375, 0.2412109375
0.06640625, -0.0380859375, 0.248046875
0.0673828125, -0.02734375, 0.236328125
0.0693359375, -0.01953125, 0.2197265625
0.06640625, -0.0283203125, 0.21875
0.0673828125, -0.046875, 0.2509765625
0.0673828125, -0.03125, 0.232421875
0.0703125, -0.0185546875, 0.2333984375
0.068359375, -0.0380859375, 0.2294921875
0.0693359375, -0.0322265625, 0.2294921875
0.0693359375, -0.0205078125, 0.228515625
0.0693359375, -0.0341796875, 0.240234375
0.068359375, -0.04296875, 0.2412109375
0.068359375, -0.029296875, 0.234375
0.068359375, -0.0263671875, 0.2255859375
0.068359375, -0.0390625, 0.236328125
0.0654296875, -0.044921875, 0.2412109375
0.0673828125, -0.021484375, 0.2392578125
0.0693359375, -0.0205078125, 0.2255859375
0.06640625, -0.0400390625, 0.23828125
0.072265625, -0.0556640625, 0.244140625
0.0673828125, -0.0380859375, 0.2275390625
0.06640625, -0.037109375, 0.2451171875
0.0673828125, -0.0390625, 0.23828125
0.0673828125, -0.0283203125, 0.232421875
0.0693359375, -0.0283203125, 0.2265625
0.068359375, -0.037109375, 0.240234375
0.0673828125, -0.044921875, 0.244140625
0.068359375, -0.0361328125, 0.2412109375
0.0703125, -0.033203125, 0.228515625
0.0703125, -0.029296875, 0.2314453125
0.06640625, -0.01953125, 0.2265625
0.068359375, -0.0185546875, 0.22265625
0.0712890625, -0.03515625, 0.2353515625
0.0693359375, -0.044921875, 0.2470703125
0.0693359375, -0.037109375, 0.2373046875
0.0673828125, -0.0341796875, 0.2333984375
0.0693359375, -0.029296875, 0.23828125
0.0693359375, -0.0224609375, 0.2353515625
0.0703125, -0.03125, 0.23046875
0.0693359375, -0.0458984375, 0.244140625
0.0703125, -0.0439453125, 0.2470703125
0.06640625, -0.03125, 0.23828125
0.068359375, -0.03125, 0.232421875
0.06640625, -0.037109375, 0.232421875
0.0703125, -0.0283203125, 0.234375
0.068359375, -0.0234375, 0.2255859375
0.072265625, -0.0458984375, 0.236328125
0.068359375, -0.046875, 0.2353515625
0.0732421875, -0.02734375, 0.234375
0.072265625, -0.009765625, 0.2275390625
0.0732421875, -0.017578125, 0.2265625
0.0732421875, -0.0166015625, 0.2353515625
