0.0390625, -0.0361328125, 0.25
0.0361328125, -0.0341796875, 0.244140625
0.0380859375, -0.013671875, 0.228515625
0.041015625, 0.013671875, 0.212890625
0.0390625, 0.0, 0.234375
0.0390625, -0.037109375, 0.2548828125
0.0361328125, -0.0478515625, 0.26171875
0.0361328125, -0.02734375, 0.259765625
0.0341796875, -0.0224609375, 0.2421875
0.037109375, -0.0263671875, 0.2294921875
0.0400390625, -0.0146484375, 0.2314453125
0.037109375, -0.01953125, 0.23828125
0.0390625, -0.025390625, 0.2490234375
0.0341796875, -0.0400390625, 0.2568359375
0.0380859375, -0.0322265625, 0.2470703125
0.037109375, -0.0283203125, 0.248046875
0.037109375, -0.0166015625, 0.2421875
0.037109375, -0.0166015625, 0.2421875
0.0380859375, -0.033203125, 0.2490234375
0.0341796875, -0.0263671875, 0.2412109375
0.0380859375, -0.0263671875, 0.2421875
0.03515625, -0.0283203125, 0.2451171875
0.0380859375, -0.015625, 0.2431640625
0.0380859375, -0.0224609375, 0.23828125
0.0390625, -0.037109375, 0.24609375
0.037109375, -0.029296875, 0.2490234375
0.03515625, -0.0107421875, 0.23046875
0.0390625, -0.017578125, 0.2333984375
0.0390625, -0.029296875, 0.244140625
0.03515625, -0.0283203125, 0.2431640625
0.037109375, -0.0205078125, 0.2353515625
0.0380859375, -0.0166015625, 0.2431640625
0.037109375, -0.02734375, 0.248046875
0.037109375, -0.0146484375, 0.2333984375
0.0361328125, 0.009765625, 0.220703125
0.0361328125, -0.013671875, 0.2373046875
0.0380859375, -0.056640625, 0.265625
0.037109375, -0.0537109375, 0.2568359375
0.0390625, -0.033203125, 0.2451171875
0.037109375, -0.017578125, 0.2412109375
0.037109375, -0.0166015625, 0.2294921875
0.0361328125, -0.025390625, 0.232421875
0.0361328125, -0.0205078125, 0.2353515625
0.037109375, -0.02734375, 0.24609375
0.0361328125, -0.0380859375, 0.25390625
0.037109375, -0.0341796875, 0.2451171875
0.0400390625, -0.0283203125, 0.25
0.0380859375, -0.02734375, 0.2509765625
0.0341796875, -0.0224609375, 0.248046875
0.0361328125, -0.0302734375, 0.2470703125
0.03515625, -0.0302734375, 0.2412109375
0.0390625, -0.021484375, 0.2373046875
0.0390625, -0.01171875, 0.2421875
0.03515625, -0.0146484375, 0.2314453125
0.037109375, -0.0146484375, 0.23828125
0.0390625, -0.01953125, 0.2353515625
0.037109375, -0.01953125, 0.23828125
0.0400390625, -0.0166015625, 0.2421875
0.037109375, -0.0224609375, 0.24609375
0.0361328125, -0.0322265625, 0.25
0.0380859375, -0.0283203125, 0.25
0.037109375, -0.0263671875, 0.2431640625
0.0390625, -0.029296875, 0.2529296875
0.037109375, -0.0234375, 0.251953125
0.037109375, -0.017578125, 0.236328125
0.037109375, -0.021484375, 0.23828125
0.03515625, -0.041015625, 0.2509765625
0.0380859375, -0.0244140625, 0.2470703125
0.03515625, -0.0146484375, 0.2392578125
0.03515625, -0.0302734375, 0.23828125
0.0341796875, -0.052734375, 0.251953125
0.0400390625, -0.0390625, 0.2529296875
0.0341796875, -0.009765625, 0.236328125
0.0380859375, -0.0078125, 0.232421875
0.0380859375, -0.02734375, 0.2333984375
0.041015625, -0.0146484375, 0.228515625
0.037109375, -0.0009765625, 0.2314453125
0.0361328125, -0.02734375, 0.25
0.0361328125, -0.0458984375, 0.2578125
0.0341796875, -0.0244140625, 0.244140625
0.0380859375, -0.01171875, 0.2353515625
0.03515625, -0.0322265625, 0.244140625
0.037109375, -0.041015625, 0.2490234375
0.0361328125, -0.0263671875, 0.2421875
0.03515625, -0.013671875, 0.2412109375
0.0380859375, -0.025390625, 0.23828125
0.0361328125, -0.0263671875, 0.236328125
0.0341796875, -0.0224609375, 0.234375
0.0361328125, -0.0283203125, 0.2392578125
0.0361328125, -0.033203125, 0.2490234375
0.03515625, -0.0361328125, 0.2451171875
0.0361328125, -0.021484375, 0.236328125
0.03515625, -0.0224609375, 0.248046875
0.0341796875, -0.03515625, 0.2529296875
0.0341796875, -0.02734375, 0.25
0.03515625, -0.0224609375, 0.2431640625
0.03515625, -0.0263671875, 0.2451171875
0.03515625, -0.0263671875, 0.23828125
0.0361328125, -0.0283203125, 0.23828125
0.037109375, -0.0283203125, 0.244140625
0.0390625, -0.0341796875, 0.2451171875
0.0390625, -0.02734375, 0.2373046875
0.04296875, -0.013671875, 0.234375
0.0390625, -0.001953125, 0.234375
0.0400390625, 0.0048828125, 0.248046875
0.041015625, 0.0009765625, 0.2548828125
0.0400390625, 0.015625, 0.2763671875
0.0400390625, 0.029296875, 0.28515625
0.04296875, 0.046875, 0.2685546875
0.041015625, 0.06640625, 0.248046875
0.044921875, 0.0791015625, 0.236328125
0.0439453125, 0.08984375, 0.2578125
0.041015625, 0.076171875, 0.2666015625
0.0390625, 0.0517578125, 0.236328125
0.0390625, 0.05859375, 0.21484375
0.0400390625, 0.0830078125, 0.2001953125
0.0341796875, 0.080078125, 0.2001953125
0.025390625, 0.083984375, 0.189453125
0.0205078125, 0.1123046875, 0.185546875
0.0078125, 0.1005859375, 0.1748046875
-0.01171875, 0.0537109375, 0.1748046875
-0.0234375, 0.013671875, 0.169921875
-0.0322265625, -0.0283203125, 0.1611328125
-0.0302734375, -0.05859375, 0.177734375
-0.041015625, -0.0625, 0.1650390625
-0.064453125, -0.083984375, 0.1923828125
-0.0625, -0.1220703125, 0.17578125
-0.06640625, -0.1787109375, 0.17578125
-0.072265625, -0.189453125, 0.1884765625
-0.078125, -0.134765625, 0.2177734375
-0.0830078125, -0.140625, 0.248046875
-0.087890625, -0.18359375, 0.2431640625
-0.0888671875, -0.1875, 0.244140625
-0.091796875, -0.1787109375, 0.263671875
-0.09765625, -0.1875, 0.2880859375
-0.1025390625, -0.22265625, 0.3115234375
-0.115234375, -0.2607421875, 0.361328125
-0.1298828125, -0.2880859375, 0.41796875
-0.1455078125, -0.3759765625, 0.4951171875
-0.1708984375, -0.513671875, 0.5693359375
-0.1962890625, -0.6044921875, 0.6298828125
-0.228515625, -0.5205078125, 0.5791015625
-0.2646484375, -0.4306640625, 0.498046875
-0.2900390625, -0.357421875, 0.3916015625
-0.298828125, -0.287109375, 0.330078125
-0.302734375, -0.255859375, 0.30078125
-0.31640625, -0.30859375, 0.2666015625
-0.3359375, -0.3349609375, 0.203125
-0.3642578125, -0.275390625, 0.185546875
-0.388671875, -0.173828125, 0.1005859375
-0.3828125, -0.0009765625, -0.0224609375
-0.3251953125, 0.1201171875, -0.1259765625
-0.2421875, 0.25, -0.2021484375
-0.1591796875, 0.3603515625, -0.1904296875
-0.0869140625, 0.4013671875, -0.2197265625
-0.0322265625, 0.4013671875, -0.26953125
0.009765625, 0.421875, -0.326171875
0.04296875, 0.4482421875, -0.3935546875
0.06640625, 0.4765625, -0.44140625
0.07421875, 0.4833984375, -0.4658203125
0.0576171875, 0.4404296875, -0.4580078125
0.0224609375, 0.341796875, -0.3916015625
-0.0185546875, 0.271484375, -0.3232421875
-0.0673828125, 0.208984375, -0.267578125
-0.1279296875, 0.18359375, -0.234375
-0.1904296875, 0.19921875, -0.2138671875
-0.2802734375, 0.2265625, -0.1826171875
-0.3828125, 0.197265625, -0.126953125
-0.4931640625, 0.064453125, -0.033203125
-0.55859375, -0.236328125, 0.1123046875
-0.525390625, -0.447265625, 0.2998046875
-0.4619140625, -0.4599609375, 0.431640625
-0.4296875, -0.4521484375, 0.4140625
-0.40234375, -0.5546875, 0.361328125
-0.392578125, -0.4833984375, 0.4296875
-0.373046875, -0.4736328125, 0.56640625
-0.341796875, -0.6396484375, 0.705078125
-0.3115234375, -0.642578125, 0.697265625
-0.2958984375, -0.498046875, 0.6591796875
-0.283203125, -0.3564453125, 0.64453125
-0.2958984375, -0.275390625, 0.5546875
-0.3115234375, -0.2314453125, 0.455078125
-0.306640625, -0.1376953125, 0.4931640625
-0.2998046875, -0.07421875, 0.5859375
-0.3076171875, -0.0390625, 0.5107421875
-0.3115234375, 0.0341796875, 0.412109375
-0.279296875, 0.083984375, 0.2900390625
-0.2294921875, 0.1396484375, 0.279296875
-0.1962890625, 0.1982421875, 0.2548828125
-0.1640625, 0.2587890625, 0.154296875
-0.1015625, 0.2529296875, 0.0322265625
-0.0458984375, 0.2109375, -0.0400390625
0.0009765625, 0.234375, -0.0830078125
0.029296875, 0.2880859375, -0.046875
0.04296875, 0.1953125, 0.0068359375
0.0595703125, 0.1201171875, 0.0234375
0.0615234375, 0.0908203125, 0.0771484375
0.0634765625, 0.056640625, 0.1337890625
0.06640625, 0.00390625, 0.1630859375
0.0703125, -0.0322265625, 0.1953125
0.0693359375, -0.0595703125, 0.201171875
0.0732421875, -0.041015625, 0.197265625
0.07421875, -0.0419921875, 0.22265625
0.0712890625, -0.0595703125, 0.248046875
0.0673828125, -0.0517578125, 0.25
0.064453125, -0.03515625, 0.24609375
0.0615234375, -0.03125, 0.2529296875
0.0556640625, -0.037109375, 0.2421875
0.0546875, -0.0458984375, 0.240234375
0.05078125, -0.033203125, 0.2548828125
0.0537109375, -0.0478515625, 0.2890625
0.048828125, -0.05078125, 0.267578125
0.0556640625, -0.048828125, 0.23828125
0.0498046875, -0.0322265625, 0.234375
0.052734375, -0.02734375, 0.2587890625
0.0498046875, -0.046875, 0.267578125
0.046875, -0.046875, 0.27734375
0.0439453125, -0.02734375, 0.2568359375
0.044921875, -0.029296875, 0.255859375
0.04296875, -0.0498046875, 0.259765625
0.0458984375, -0.048828125, 0.2529296875
0.0458984375, -0.03515625, 0.2568359375
0.05078125, -0.009765625, 0.248046875
0.052734375, -0.009765625, 0.2275390625
0.0517578125, -0.037109375, 0.22265625
0.0546875, -0.0498046875, 0.2333984375
0.052734375, -0.0244140625, 0.23046875
0.0517578125, -0.0146484375, 0.2255859375
0.052734375, -0.0361328125, 0.2392578125
0.0537109375, -0.0390625, 0.2470703125
0.0537109375, -0.0205078125, 0.2314453125
0.056640625, -0.0146484375, 0.2314453125
0.0546875, -0.0263671875, 0.255859375
0.0537109375, -0.01171875, 0.25390625
0.0546875, -0.021484375, 0.2421875
0.0537109375, -0.0205078125, 0.236328125
0.0576171875, -0.0185546875, 0.236328125
0.0576171875, -0.0126953125, 0.2158203125
0.0556640625, 0.001953125, 0.2236328125
0.0556640625, -0.0244140625, 0.2392578125
0.052734375, -0.0400390625, 0.240234375
0.0576171875, -0.0439453125, 0.23046875
0.05859375, -0.0185546875, 0.2392578125
0.0576171875, -0.017578125, 0.240234375
0.0595703125, -0.01953125, 0.2392578125
0.0546875, -0.0283203125, 0.248046875
0.052734375, -0.0302734375, 0.2529296875
0.0517578125, -0.0224609375, 0.2451171875
0.05078125, -0.025390625, 0.236328125
0.0546875, -0.015625, 0.2294921875
0.0556640625, -0.021484375, 0.244140625
0.0556640625, -0.025390625, 0.2431640625
0.0537109375, -0.025390625, 0.2392578125
0.0537109375, -0.0283203125, 0.236328125
0.0546875, -0.0390625, 0.2490234375
0.056640625, -0.013671875, 0.2490234375
0.0546875, -0.0166015625, 0.244140625
0.0546875, -0.0166015625, 0.224609375
0.0556640625, -0.0244140625, 0.2353515625
0.0498046875, -0.0302734375, 0.2490234375
0.0517578125, -0.0224609375, 0.2294921875
0.0556640625, -0.0107421875, 0.2158203125
0.0576171875, -0.01171875, 0.2236328125
0.0537109375, -0.0205078125, 0.234375
0.0537109375, -0.0390625, 0.2470703125
0.0537109375, -0.0263671875, 0.251953125
0.052734375, -0.00390625, 0.2421875
0.052734375, -0.0205078125, 0.2275390625
0.0537109375, -0.03125, 0.232421875
0.0556640625, -0.0244140625, 0.2421875
0.0537109375, -0.0185546875, 0.248046875
0.052734375, -0.029296875, 0.25
0.05078125, -0.0244140625, 0.248046875
0.052734375, -0.0263671875, 0.2490234375
0.0546875, -0.029296875, 0.2431640625
0.0546875, -0.01171875, 0.2236328125
0.0537109375, -0.0205078125, 0.240234375
0.052734375, -0.0244140625, 0.248046875
0.0546875, -0.0234375, 0.2373046875
0.056640625, -0.025390625, 0.2373046875
0.0546875, -0.01953125, 0.2431640625
0.052734375, -0.02734375, 0.2392578125
0.0546875, -0.021484375, 0.2412109375
0.0546875, -0.021484375, 0.24609375
0.0537109375, -0.0263671875, 0.23828125
0.0556640625, -0.0283203125, 0.2470703125
0.052734375, -0.0146484375, 0.2421875
0.0537109375, -0.0185546875, 0.2353515625
0.0546875, -0.025390625, 0.248046875
0.0517578125, -0.0234375, 0.23828125
0.0537109375, -0.00390625, 0.2294921875
0.0546875, -0.0283203125, 0.2451171875
0.0537109375, -0.0380859375, 0.2470703125
0.05078125, -0.0263671875, 0.2421875
0.0556640625, -0.0234375, 0.234375
0.0546875, -0.01171875, 0.2373046875
0.0537109375, -0.0205078125, 0.2392578125
0.0546875, -0.02734375, 0.236328125
0.052734375, -0.0244140625, 0.2373046875
0.0537109375, -0.033203125, 0.2490234375
0.0546875, -0.0244140625, 0.25
0.0546875, -0.017578125, 0.2333984375
0.0517578125, -0.0263671875, 0.2333984375
0.0546875, -0.041015625, 0.2470703125
0.052734375, -0.0341796875, 0.2470703125
0.052734375, -0.0146484375, 0.232421875
0.0556640625, 0.001953125, 0.2216796875
0.0537109375, 0.001953125, 0.234375
0.056640625, -0.0205078125, 0.2451171875
0.0576171875, -0.033203125, 0.2470703125
0.0556640625, -0.0263671875, 0.2421875
0.0546875, -0.017578125, 0.2353515625
0.052734375, -0.017578125, 0.2421875
0.0556640625, -0.0146484375, 0.2353515625
0.0537109375, -0.025390625, 0.2373046875
0.0556640625, -0.0087890625, 0.228515625
0.052734375, -0.0087890625, 0.23046875
0.0537109375, -0.0224609375, 0.2353515625
0.05078125, -0.013671875, 0.2314453125
0.056640625, -0.029296875, 0.2421875
0.056640625, -0.02734375, 0.2431640625
0.052734375, -0.0029296875, 0.24609375
0.0537109375, -0.02734375, 0.24609375
0.0537109375, -0.0244140625, 0.2431640625
0.0537109375, -0.0234375, 0.2470703125
0.0537109375, -0.033203125, 0.2490234375
0.052734375, -0.029296875, 0.2470703125
0.0537109375, -0.0224609375, 0.2451171875
0.0537109375, -0.0087890625, 0.2431640625
0.052734375, -0.02734375, 0.2412109375
0.0556640625, -0.0322265625, 0.2373046875
0.0546875, -0.025390625, 0.23046875
0.052734375, -0.0166015625, 0.2294921875
0.05078125, -0.0205078125, 0.2373046875
0.0517578125, -0.0205078125, 0.2431640625
0.0498046875, -0.0263671875, 0.2392578125
0.0517578125, -0.0234375, 0.23828125
0.052734375, -0.0068359375, 0.232421875
0.052734375, -0.01171875, 0.2353515625
0.05078125, -0.029296875, 0.251953125
0.052734375, -0.0400390625, 0.2568359375
0.0556640625, -0.0322265625, 0.2451171875
0.0546875, -0.021484375, 0.2353515625
0.0546875, -0.0205078125, 0.2392578125
0.0546875, -0.021484375, 0.2353515625
0.0517578125, -0.0205078125, 0.236328125
0.05078125, -0.0283203125, 0.244140625
0.052734375, -0.0185546875, 0.2470703125
0.052734375, -0.0341796875, 0.2509765625
0.0517578125, -0.0224609375, 0.2314453125
0.0556640625, -0.01953125, 0.236328125
0.052734375, -0.0185546875, 0.2353515625
0.0546875, -0.0341796875, 0.236328125
0.0546875, -0.0283203125, 0.24609375
0.0546875, -0.0029296875, 0.2353515625
0.052734375, -0.0224609375, 0.2412109375
0.0537109375, -0.0322265625, 0.2353515625
0.0517578125, -0.0107421875, 0.23828125
0.0517578125, -0.017578125, 0.240234375
0.0546875, -0.0234375, 0.2421875
0.0556640625, -0.0283203125, 0.236328125
0.05859375, -0.0185546875, 0.2373046875
0.0556640625, -0.015625, 0.244140625
0.0546875, -0.0244140625, 0.240234375
0.0546875, -0.0322265625, 0.2412109375
0.052734375, -0.025390625, 0.2373046875
0.0537109375, -0.013671875, 0.2392578125
0.0537109375, -0.0107421875, 0.2294921875
0.0537109375, -0.009765625, 0.2275390625
0.0517578125, -0.0234375, 0.236328125
0.0517578125, -0.0380859375, 0.24609375
0.0537109375, -0.0419921875, 0.244140625
0.0537109375, -0.017578125, 0.234375
0.0537109375, 0.0009765625, 0.24609375
0.056640625, -0.0029296875, 0.24609375
0.0537109375, -0.0185546875, 0.2412109375
0.0556640625, -0.0322265625, 0.2431640625
0.0576171875, -0.0390625, 0.25
0.056640625, -0.033203125, 0.2412109375
0.0556640625, -0.0341796875, 0.228515625
0.0537109375, -0.0244140625, 0.2412109375
0.052734375, -0.013671875, 0.24609375
0.052734375, -0.0263671875, 0.2392578125
0.0498046875, -0.0234375, 0.2451171875
0.0537109375, -0.0263671875, 0.2509765625
0.0537109375, -0.0244140625, 0.2392578125
0.0556640625, -0.017578125, 0.23046875
0.056640625, -0.0224609375, 0.2333984375
0.0537109375, -0.033203125, 0.240234375
0.0546875, -0.0234375, 0.2373046875
0.0537109375, -0.005859375, 0.2373046875
0.0546875, -0.0166015625, 0.2421875
0.0498046875, -0.0283203125, 0.2490234375
0.052734375, -0.0224609375, 0.240234375
0.056640625, -0.0146484375, 0.2373046875
0.0537109375, -0.0126953125, 0.23828125
0.052734375, -0.0244140625, 0.244140625
0.052734375, -0.0263671875, 0.2412109375
0.0546875, -0.029296875, 0.244140625
0.0556640625, -0.0185546875, 0.2470703125
0.05078125, -0.0283203125, 0.25
0.05078125, -0.021484375, 0.244140625
0.0517578125, -0.01953125, 0.2412109375
0.0517578125, -0.01171875, 0.234375
0.052734375, -0.0146484375, 0.2412109375
0.0498046875, -0.04296875, 0.25390625
0.0498046875, -0.0322265625, 0.25
0.052734375, -0.015625, 0.236328125
0.05078125, -0.015625, 0.2265625
0.048828125, -0.017578125, 0.2373046875
0.0537109375, -0.0322265625, 0.2490234375
0.0498046875, -0.0234375, 0.2373046875
0.0556640625, -0.03125, 0.2373046875
0.05078125, -0.029296875, 0.2431640625
0.0517578125, -0.0283203125, 0.2421875
0.0517578125, -0.0224609375, 0.234375
0.0537109375, -0.0224609375, 0.2421875
0.0517578125, -0.0283203125, 0.2392578125
0.05078125, -0.0166015625, 0.2353515625
0.0537109375, -0.0126953125, 0.2314453125
0.052734375, -0.0302734375, 0.240234375
0.052734375, -0.0458984375, 0.232421875
0.05859375, -0.015625, 0.23828125
0.0537109375, -0.001953125, 0.2373046875
0.0546875, -0.0166015625, 0.232421875
0.0546875, -0.0205078125, 0.23046875
0.0537109375, -0.0126953125, 0.240234375
0.052734375, -0.0283203125, 0.2470703125
0.0517578125, -0.0400390625, 0.2490234375
0.0537109375, -0.0166015625, 0.2373046875
0.0546875, -0.00390625, 0.23828125
0.05078125, -0.0224609375, 0.2412109375
0.05078125, -0.033203125, 0.25
0.052734375, -0.01953125, 0.2451171875
0.0517578125, -0.0263671875, 0.2412109375
0.0537109375, -0.02734375, 0.2373046875
0.0517578125, -0.013671875, 0.2431640625
0.052734375, -0.01953125, 0.2373046875
0.052734375, -0.0390625, 0.2412109375
0.0546875, -0.021484375, 0.2373046875
0.0546875, -0.0224609375, 0.2490234375
0.0498046875, -0.0322265625, 0.23828125
0.0517578125, -0.0302734375, 0.2451171875
0.05078125, -0.017578125, 0.2412109375
0.0546875, -0.0166015625, 0.24609375
0.0556640625, -0.0205078125, 0.2314453125
0.0537109375, -0.0029296875, 0.240234375
0.05859375, 0.00390625, 0.2392578125
0.056640625, 0.0029296875, 0.234375
0.0576171875, 0.01171875, 0.2666015625
