0.0361328125, -0.0234375, 0.2412109375
0.0400390625, -0.0419921875, 0.248046875
0.0361328125, -0.0673828125, 0.25
0.0361328125, -0.056640625, 0.24609375
0.0380859375, -0.0361328125, 0.2431640625
0.0390625, -0.0302734375, 0.236328125
0.0341796875, -0.02734375, 0.232421875
0.037109375, -0.0234375, 0.232421875
0.03515625, -0.0283203125, 0.236328125
0.0361328125, -0.025390625, 0.2412109375
0.03515625, -0.0322265625, 0.23828125
0.037109375, -0.0390625, 0.240234375
0.0390625, -0.033203125, 0.2373046875
0.0361328125, -0.0380859375, 0.240234375
0.0400390625, -0.0400390625, 0.2421875
0.0400390625, -0.0263671875, 0.2314453125
0.0400390625, -0.0283203125, 0.234375
0.037109375, -0.0361328125, 0.2421875
0.0400390625, -0.0361328125, 0.24609375
0.0419921875, -0.025390625, 0.2431640625
0.0380859375, -0.029296875, 0.244140625
0.03515625, -0.0380859375, 0.2490234375
0.0390625, -0.04296875, 0.2490234375
0.0419921875, -0.0322265625, 0.2412109375
0.0400390625, -0.0302734375, 0.236328125
0.037109375, -0.03125, 0.2490234375
0.0400390625, -0.0400390625, 0.2451171875
0.0390625, -0.0478515625, 0.2431640625
0.037109375, -0.03515625, 0.244140625
0.0380859375, -0.0263671875, 0.2421875
0.037109375, -0.03515625, 0.23828125
0.037109375, -0.0390625, 0.2353515625
0.0390625, -0.0361328125, 0.23828125
0.0380859375, -0.033203125, 0.236328125
0.037109375, -0.041015625, 0.2431640625
0.0361328125, -0.0341796875, 0.2412109375
0.0380859375, -0.0341796875, 0.236328125
0.0380859375, -0.048828125, 0.248046875
0.0380859375, -0.041015625, 0.2470703125
0.037109375, -0.0302734375, 0.24609375
0.0419921875, -0.0302734375, 0.2294921875
0.0380859375, -0.0302734375, 0.2353515625
0.03515625, -0.0400390625, 0.248046875
0.0400390625, -0.0390625, 0.2470703125
0.0390625, -0.03125, 0.240234375
0.037109375, -0.02734375, 0.24609375
0.037109375, -0.044921875, 0.2509765625
0.0390625, -0.048828125, 0.2490234375
0.037109375, -0.0380859375, 0.2509765625
0.037109375, -0.0283203125, 0.2314453125
0.037109375, -0.0322265625, 0.2294921875
0.0390625, -0.029296875, 0.2412109375
0.0400390625, -0.0322265625, 0.2412109375
0.0361328125, -0.0419921875, 0.2353515625
0.037109375, -0.0419921875, 0.2490234375
0.037109375, -0.0283203125, 0.2451171875
0.037109375, -0.0224609375, 0.23046875
0.0361328125, -0.0380859375, 0.2314453125
0.0390625, -0.0390625, 0.248046875
0.0361328125, -0.037109375, 0.2431640625
0.0341796875, -0.037109375, 0.24609375
0.037109375, -0.0224609375, 0.2333984375
0.037109375, -0.0283203125, 0.2412109375
0.0390625, -0.0361328125, 0.248046875
0.037109375, -0.0341796875, 0.240234375
0.03515625, -0.0283203125, 0.2333984375
0.0400390625, -0.0283203125, 0.2421875
0.0380859375, -0.046875, 0.2587890625
0.037109375, -0.0576171875, 0.2607421875
0.03515625, -0.037109375, 0.2431640625
0.0390625, -0.021484375, 0.2275390625
0.0390625, -0.0244140625, 0.228515625
0.037109375, -0.0390625, 0.240234375
0.037109375, -0.041015625, 0.2431640625
0.037109375, -0.037109375, 0.2470703125
0.0361328125, -0.0224609375, 0.2431640625
0.037109375, -0.025390625, 0.2333984375
0.037109375, -0.0361328125, 0.2353515625
0.0390625, -0.046875, 0.2470703125
0.0390625, -0.037109375, 0.240234375
0.0361328125, -0.0302734375, 0.248046875
0.0361328125, -0.0390625, 0.2392578125
0.0390625, -0.0380859375, 0.232421875
0.0400390625, -0.0263671875, 0.228515625
0.0390625, -0.0234375, 0.2412109375
0.037109375, -0.0419921875, 0.2578125
0.0341796875, -0.048828125, 0.2529296875
0.037109375, -0.044921875, 0.23828125
0.0380859375, -0.0390625, 0.2373046875
0.03515625, -0.044921875, 0.248046875
0.037109375, -0.04296875, 0.2470703125
0.0380859375, -0.0361328125, 0.2451171875
0.0341796875, -0.0361328125, 0.2421875
0.0361328125, -0.0322265625, 0.2421875
0.0380859375, -0.0302734375, 0.240234375
0.037109375, -0.0322265625, 0.240234375
0.0390625, -0.03515625, 0.240234375
0.0361328125, -0.041015625, 0.2451171875
0.0400390625, -0.0361328125, 0.2373046875
0.0341796875, -0.03515625, 0.2421875
0.037109375, -0.02734375, 0.244140625
0.037109375, -0.0224609375, 0.2431640625
0.0380859375, -0.02734375, 0.2373046875
0.0380859375, -0.02734375, 0.2470703125
0.0390625, -0.03125, 0.2490234375
0.037109375, -0.0224609375, 0.23828125
0.041015625, -0.025390625, 0.2529296875
0.041015625, -0.0126953125, 0.2734375
0.04296875, -0.0009765625, 0.2490234375
0.0458984375, 0.0126953125, 0.2412109375
0.048828125, 0.0322265625, 0.2890625
0.0478515625, 0.0732421875, 0.337890625
0.0458984375, 0.1064453125, 0.3125
0.0478515625, 0.1162109375, 0.248046875
0.05078125, 0.125, 0.1923828125
0.0546875, 0.140625, 0.189453125
0.05078125, 0.1435546875, 0.1962890625
0.0439453125, 0.119140625, 0.173828125
0.0341796875, 0.0830078125, 0.12890625
0.02734375, 0.0859375, 0.109375
0.017578125, 0.0908203125, 0.1318359375
0.0029296875, 0.0419921875, 0.150390625
-0.005859375, 0.03515625, 0.177734375
-0.0283203125, 0.013671875, 0.1865234375
-0.037109375, 0.001953125, 0.1708984375
-0.0498046875, -0.0146484375, 0.1826171875
-0.0634765625, -0.03125, 0.1982421875
-0.07421875, -0.078125, 0.154296875
-0.08984375, -0.111328125, 0.1025390625
-0.1123046875, -0.1513671875, 0.07421875
-0.130859375, -0.150390625, 0.0693359375
-0.140625, -0.1064453125, 0.2373046875
-0.140625, -0.1279296875, 0.294921875
-0.150390625, -0.173828125, 0.236328125
-0.158203125, -0.232421875, 0.2060546875
-0.166015625, -0.2333984375, 0.251953125
-0.1787109375, -0.2294921875, 0.3916015625
-0.18359375, -0.2890625, 0.5341796875
-0.208984375, -0.4287109375, 0.58984375
-0.224609375, -0.5234375, 0.5751953125
-0.244140625, -0.55859375, 0.580078125
-0.2734375, -0.583984375, 0.638671875
-0.3232421875, -0.5859375, 0.650390625
-0.388671875, -0.548828125, 0.60546875
-0.462890625, -0.4765625, 0.4912109375
-0.51171875, -0.3740234375, 0.361328125
-0.5380859375, -0.2763671875, 0.2763671875
-0.5419921875, -0.197265625, 0.248046875
-0.5478515625, -0.1259765625, 0.2119140625
-0.52734375, -0.046875, 0.0830078125
-0.4541015625, 0.0771484375, -0.091796875
-0.345703125, 0.185546875, -0.2158203125
-0.228515625, 0.2822265625, -0.255859375
-0.134765625, 0.306640625, -0.259765625
-0.0595703125, 0.3232421875, -0.30078125
0.0068359375, 0.3359375, -0.3671875
0.0595703125, 0.3388671875, -0.4072265625
0.0859375, 0.361328125, -0.4189453125
0.0908203125, 0.3837890625, -0.435546875
0.0859375, 0.3984375, -0.458984375
0.0595703125, 0.3681640625, -0.416015625
0.013671875, 0.294921875, -0.3369140625
-0.03125, 0.21875, -0.3056640625
-0.0908203125, 0.1787109375, -0.328125
-0.1640625, 0.13671875, -0.3330078125
-0.2666015625, 0.0927734375, -0.2685546875
-0.34765625, 0.078125, -0.1806640625
-0.453125, 0.052734375, -0.052734375
-0.53125, -0.1220703125, 0.1728515625
-0.50390625, -0.435546875, 0.357421875
-0.423828125, -0.521484375, 0.3564453125
-0.396484375, -0.5009765625, 0.3779296875
-0.380859375, -0.4072265625, 0.4052734375
-0.3759765625, -0.3740234375, 0.4306640625
-0.3857421875, -0.5634765625, 0.484375
-0.3701171875, -0.771484375, 0.73046875
-0.306640625, -0.7978515625, 0.9990234375
-0.2734375, -0.6064453125, 0.9990234375
-0.2724609375, -0.4306640625, 0.779296875
-0.3046875, -0.2890625, 0.494140625
-0.314453125, -0.1884765625, 0.396484375
-0.3076171875, -0.0771484375, 0.4091796875
-0.2822265625, 0.0126953125, 0.404296875
-0.25390625, 0.1572265625, 0.337890625
-0.2021484375, 0.322265625, 0.228515625
-0.1318359375, 0.306640625, 0.1513671875
-0.068359375, 0.1767578125, 0.1220703125
-0.0234375, 0.181640625, 0.06640625
0.001953125, 0.22265625, 0.0166015625
0.0263671875, 0.24609375, 0.001953125
0.0400390625, 0.189453125, 0.03125
0.044921875, 0.083984375, 0.111328125
0.0439453125, 0.0224609375, 0.126953125
0.0498046875, 0.0029296875, 0.123046875
0.052734375, 0.0029296875, 0.1376953125
0.05859375, 0.00390625, 0.1689453125
0.0625, -0.0126953125, 0.1904296875
0.05859375, -0.0458984375, 0.23046875
0.052734375, -0.0546875, 0.2294921875
0.052734375, -0.1083984375, 0.2470703125
0.0576171875, -0.111328125, 0.2490234375
0.0517578125, -0.0546875, 0.2509765625
0.048828125, -0.0361328125, 0.255859375
0.04296875, -0.0537109375, 0.2509765625
0.0390625, -0.056640625, 0.2646484375
0.0361328125, -0.0595703125, 0.2861328125
0.0341796875, -0.04296875, 0.2666015625
0.033203125, -0.01953125, 0.2392578125
0.0341796875, -0.0517578125, 0.23046875
0.037109375, -0.087890625, 0.2314453125
0.037109375, -0.0595703125, 0.25390625
0.0341796875, -0.0361328125, 0.2568359375
0.0322265625, -0.04296875, 0.2529296875
0.0322265625, -0.0517578125, 0.232421875
0.0341796875, -0.0673828125, 0.2333984375
0.03515625, -0.0537109375, 0.228515625
0.0361328125, -0.04296875, 0.236328125
0.033203125, -0.0654296875, 0.2529296875
0.0361328125, -0.0791015625, 0.25
0.0341796875, -0.0625, 0.2421875
0.0341796875, -0.0361328125, 0.2421875
0.0361328125, -0.033203125, 0.232421875
0.0380859375, -0.0615234375, 0.244140625
0.033203125, -0.0654296875, 0.248046875
0.0361328125, -0.0439453125, 0.2470703125
0.037109375, -0.0361328125, 0.24609375
0.03515625, -0.0439453125, 0.2255859375
0.0380859375, -0.0546875, 0.22265625
0.0390625, -0.046875, 0.232421875
0.0361328125, -0.0458984375, 0.248046875
0.037109375, -0.0537109375, 0.2236328125
0.037109375, -0.05078125, 0.2236328125
0.037109375, -0.03125, 0.220703125
0.041015625, -0.044921875, 0.2529296875
0.041015625, -0.056640625, 0.248046875
0.0380859375, -0.046875, 0.2265625
0.0400390625, -0.0439453125, 0.2314453125
0.037109375, -0.0498046875, 0.2392578125
0.03515625, -0.0615234375, 0.25390625
0.0361328125, -0.0576171875, 0.2587890625
0.0380859375, -0.044921875, 0.2509765625
0.03515625, -0.0302734375, 0.232421875
0.0341796875, -0.044921875, 0.228515625
0.037109375, -0.046875, 0.23046875
0.0390625, -0.0380859375, 0.2470703125
0.037109375, -0.0458984375, 0.2490234375
0.037109375, -0.05078125, 0.236328125
0.0390625, -0.0390625, 0.2236328125
0.0390625, -0.0283203125, 0.22265625
0.0390625, -0.048828125, 0.24609375
0.0390625, -0.056640625, 0.24609375
0.037109375, -0.0458984375, 0.2373046875
0.0341796875, -0.05078125, 0.2412109375
0.0390625, -0.0478515625, 0.24609375
0.03515625, -0.0341796875, 0.24609375
0.0341796875, -0.041015625, 0.232421875
0.0380859375, -0.0498046875, 0.2412109375
0.0390625, -0.05078125, 0.23828125
0.03515625, -0.0390625, 0.2451171875
0.0390625, -0.0400390625, 0.248046875
0.037109375, -0.0576171875, 0.2490234375
0.0390625, -0.0595703125, 0.244140625
0.0390625, -0.0302734375, 0.2353515625
0.0419921875, -0.0380859375, 0.23046875
0.0380859375, -0.048828125, 0.2333984375
0.0390625, -0.0517578125, 0.236328125
0.0380859375, -0.0380859375, 0.232421875
0.041015625, -0.0380859375, 0.2265625
0.041015625, -0.041015625, 0.244140625
0.0400390625, -0.0478515625, 0.244140625
0.037109375, -0.0673828125, 0.2470703125
0.0380859375, -0.05078125, 0.2353515625
0.03515625, -0.052734375, 0.2421875
0.037109375, -0.04296875, 0.240234375
0.0380859375, -0.0302734375, 0.2314453125
0.0390625, -0.048828125, 0.2353515625
0.037109375, -0.056640625, 0.2431640625
0.037109375, -0.0478515625, 0.2431640625
0.041015625, -0.03515625, 0.2353515625
0.041015625, -0.03515625, 0.2294921875
0.0390625, -0.0380859375, 0.2421875
0.0390625, -0.0517578125, 0.25
0.0400390625, -0.033203125, 0.24609375
0.0390625, -0.0263671875, 0.2421875
0.037109375, -0.03515625, 0.2333984375
0.0400390625, -0.044921875, 0.2373046875
0.0400390625, -0.033203125, 0.2451171875
0.0400390625, -0.03515625, 0.248046875
0.0361328125, -0.0439453125, 0.2373046875
0.0380859375, -0.048828125, 0.2373046875
0.0380859375, -0.0302734375, 0.236328125
0.0380859375, -0.0517578125, 0.2529296875
0.0380859375, -0.04296875, 0.2353515625
0.0400390625, -0.0419921875, 0.23828125
0.0400390625, -0.052734375, 0.2607421875
0.0380859375, -0.0302734375, 0.2421875
0.0390625, -0.041015625, 0.2294921875
0.0380859375, -0.0419921875, 0.236328125
0.041015625, -0.05078125, 0.2470703125
0.041015625, -0.0595703125, 0.2529296875
0.04296875, -0.0439453125, 0.2509765625
0.0400390625, -0.037109375, 0.244140625
0.03515625, -0.0166015625, 0.2373046875
0.0380859375, -0.021484375, 0.2412109375
0.037109375, -0.04296875, 0.2451171875
0.037109375, -0.05859375, 0.24609375
0.0380859375, -0.0380859375, 0.2353515625
0.037109375, -0.041015625, 0.2333984375
0.0380859375, -0.05078125, 0.2294921875
0.0380859375, -0.044921875, 0.2314453125
0.0400390625, -0.041015625, 0.2373046875
0.0400390625, -0.048828125, 0.236328125
0.041015625, -0.044921875, 0.236328125
0.0400390625, -0.0322265625, 0.2275390625
0.0400390625, -0.0361328125, 0.23046875
0.0380859375, -0.05859375, 0.24609375
0.0400390625, -0.056640625, 0.24609375
0.041015625, -0.0341796875, 0.2353515625
0.0419921875, -0.0322265625, 0.2333984375
0.0390625, -0.03515625, 0.2373046875
0.0390625, -0.0458984375, 0.24609375
0.0419921875, -0.0400390625, 0.244140625
0.0390625, -0.037109375, 0.236328125
0.041015625, -0.0341796875, 0.232421875
0.041015625, -0.0400390625, 0.2421875
0.0400390625, -0.046875, 0.244140625
0.0400390625, -0.0458984375, 0.2470703125
0.0400390625, -0.0380859375, 0.2431640625
0.0380859375, -0.0341796875, 0.2412109375
0.0380859375, -0.0380859375, 0.240234375
0.0400390625, -0.046875, 0.23828125
0.0390625, -0.0361328125, 0.234375
0.0361328125, -0.033203125, 0.2353515625
0.0390625, -0.0498046875, 0.244140625
0.0390625, -0.0478515625, 0.2451171875
0.0390625, -0.0341796875, 0.2373046875
0.037109375, -0.0341796875, 0.240234375
0.0400390625, -0.0537109375, 0.2431640625
0.0390625, -0.048828125, 0.236328125
0.041015625, -0.046875, 0.234375
0.0400390625, -0.046875, 0.248046875
0.041015625, -0.0439453125, 0.23828125
0.0419921875, -0.0361328125, 0.2353515625
0.04296875, -0.033203125, 0.2421875
0.0400390625, -0.033203125, 0.244140625
0.0380859375, -0.04296875, 0.2431640625
0.0390625, -0.041015625, 0.25
0.0400390625, -0.0361328125, 0.25
0.0400390625, -0.046875, 0.2421875
0.041015625, -0.0478515625, 0.2421875
0.0400390625, -0.0322265625, 0.2412109375
0.0380859375, -0.0263671875, 0.23046875
0.0400390625, -0.0400390625, 0.2333984375
0.0390625, -0.04296875, 0.2470703125
0.0419921875, -0.037109375, 0.240234375
0.041015625, -0.025390625, 0.2255859375
0.0419921875, -0.033203125, 0.236328125
0.0419921875, -0.0615234375, 0.2421875
0.0390625, -0.0634765625, 0.23828125
0.04296875, -0.03125, 0.2373046875
0.0419921875, -0.0341796875, 0.232421875
0.0380859375, -0.0517578125, 0.234375
0.0400390625, -0.0478515625, 0.236328125
0.041015625, -0.03515625, 0.2431640625
0.041015625, -0.037109375, 0.2431640625
0.0380859375, -0.044921875, 0.2412109375
0.041015625, -0.037109375, 0.2412109375
0.0400390625, -0.044921875, 0.23828125
0.0400390625, -0.0498046875, 0.2431640625
0.04296875, -0.048828125, 0.244140625
0.0380859375, -0.0458984375, 0.2392578125
0.03515625, -0.0400390625, 0.2451171875
0.0390625, -0.0380859375, 0.25390625
0.0361328125, -0.04296875, 0.23828125
0.041015625, -0.0439453125, 0.2373046875
0.0390625, -0.0439453125, 0.2333984375
0.0400390625, -0.0419921875, 0.234375
0.0390625, -0.037109375, 0.2412109375
0.0380859375, -0.0458984375, 0.24609375
0.0361328125, -0.048828125, 0.2431640625
0.041015625, -0.0498046875, 0.240234375
0.04296875, -0.0341796875, 0.232421875
0.0400390625, -0.03515625, 0.2294921875
0.0380859375, -0.056640625, 0.2490234375
0.0390625, -0.0390625, 0.244140625
0.0400390625, -0.037109375, 0.234375
0.0390625, -0.0361328125, 0.236328125
0.0419921875, -0.037109375, 0.2412109375
0.0380859375, -0.0458984375, 0.2421875
0.0390625, -0.04296875, 0.2333984375
0.0390625, -0.0400390625, 0.244140625
0.0390625, -0.037109375, 0.24609375
0.0400390625, -0.0390625, 0.2421875
0.0419921875, -0.0400390625, 0.2333984375
0.0400390625, -0.04296875, 0.240234375
0.0390625, -0.041015625, 0.240234375
0.0390625, -0.056640625, 0.25390625
0.041015625, -0.0380859375, 0.2451171875
0.041015625, -0.025390625, 0.236328125
0.0400390625, -0.0458984375, 0.228515625
0.041015625, -0.0439453125, 0.232421875
0.037109375, -0.0458984375, 0.244140625
0.037109375, -0.0419921875, 0.2470703125
0.0341796875, -0.0458984375, 0.25390625
0.0390625, -0.0419921875, 0.2392578125
0.0390625, -0.0302734375, 0.2314453125
0.0361328125, -0.0380859375, 0.234375
0.0380859375, -0.052734375, 0.2509765625
0.0380859375, -0.0458984375, 0.2431640625
0.0380859375, -0.025390625, 0.2265625
0.04296875, -0.0400390625, 0.2265625
0.0419921875, -0.0498046875, 0.2421875
0.0380859375, -0.0439453125, 0.248046875
0.041015625, -0.0458984375, 0.244140625
0.037109375, -0.041015625, 0.234375
0.0390625, -0.041015625, 0.2421875
0.04296875, -0.0390625, 0.2373046875
0.0390625, -0.0419921875, 0.240234375
0.0380859375, -0.044921875, 0.2451171875
0.037109375, -0.0478515625, 0.2470703125
0.0380859375, -0.056640625, 0.23828125
0.0400390625, -0.0400390625, 0.236328125
0.0390625, -0.025390625, 0.234375
0.0361328125, -0.029296875, 0.2431640625
0.037109375, -0.0458984375, 0.24609375
0.037109375, -0.0595703125, 0.24609375
0.0380859375, -0.0478515625, 0.2421875
0.0380859375, -0.0400390625, 0.244140625
0.0400390625, -0.0380859375, 0.2373046875
0.0380859375, -0.0361328125, 0.2265625
0.0380859375, -0.037109375, 0.2275390625
0.041015625, -0.05078125, 0.244140625
0.037109375, -0.0419921875, 0.2548828125
0.041015625, -0.033203125, 0.2373046875
0.0361328125, -0.03125, 0.2333984375
0.037109375, -0.041015625, 0.2451171875
0.041015625, -0.0546875, 0.240234375
0.0390625, -0.04296875, 0.23828125
0.041015625, -0.029296875, 0.23828125
0.0390625, -0.02734375, 0.2431640625
0.0380859375, -0.037109375, 0.232421875
0.04296875, -0.041015625, 0.2255859375
0.044921875, -0.0302734375, 0.2333984375
0.0439453125, -0.0205078125, 0.2353515625
0.037109375, -0.03515625, 0.2353515625
0.0390625, -0.033203125, 0.240234375
0.041015625, -0.021484375, 0.2451171875
0.0439453125, -0.01171875, 0.240234375
0.037109375, -0.01953125, 0.26171875
0.0390625, -0.0224609375, 0.2880859375
