0.0419921875, -0.0087890625, 0.24609375
0.0439453125, -0.001953125, 0.248046875
0.044921875, -0.0078125, 0.234375
0.04296875, -0.03125, 0.2333984375
0.0439453125, -0.07421875, 0.23828125
0.044921875, -0.0458984375, 0.2490234375
0.046875, -0.0185546875, 0.25
0.044921875, -0.015625, 0.23828125
0.0439453125, -0.021484375, 0.2275390625
0.04296875, -0.03125, 0.2392578125
0.0419921875, -0.04296875, 0.2529296875
0.04296875, -0.0283203125, 0.2470703125
0.0458984375, -0.0244140625, 0.2373046875
0.0439453125, -0.0361328125, 0.248046875
0.0439453125, -0.03515625, 0.25
0.0439453125, -0.03515625, 0.23828125
0.046875, -0.029296875, 0.2333984375
0.0478515625, -0.037109375, 0.2353515625
0.0439453125, -0.0390625, 0.2353515625
0.044921875, -0.03515625, 0.236328125
0.0458984375, -0.015625, 0.234375
0.0458984375, -0.0068359375, 0.240234375
0.0458984375, -0.0224609375, 0.2421875
0.0458984375, -0.033203125, 0.2353515625
0.0458984375, -0.0263671875, 0.2392578125
0.044921875, -0.025390625, 0.25
0.0458984375, -0.029296875, 0.2470703125
0.0458984375, -0.029296875, 0.2392578125
0.0458984375, -0.015625, 0.23828125
0.046875, -0.0126953125, 0.248046875
0.04296875, -0.033203125, 0.2490234375
0.0498046875, -0.0478515625, 0.25
0.046875, -0.0439453125, 0.251953125
0.04296875, -0.0341796875, 0.255859375
0.0400390625, -0.0166015625, 0.251953125
0.04296875, -0.0107421875, 0.2216796875
0.046875, -0.0185546875, 0.21484375
0.0478515625, -0.0283203125, 0.2373046875
0.0478515625, -0.0380859375, 0.248046875
0.048828125, -0.029296875, 0.248046875
0.0458984375, -0.0244140625, 0.2431640625
0.0439453125, -0.0234375, 0.23828125
0.046875, -0.017578125, 0.2333984375
0.0478515625, -0.0146484375, 0.2431640625
0.048828125, -0.029296875, 0.2509765625
0.048828125, -0.0302734375, 0.244140625
0.048828125, -0.01953125, 0.2265625
0.0478515625, -0.0244140625, 0.23046875
0.0458984375, -0.0205078125, 0.2421875
0.044921875, -0.0302734375, 0.2548828125
0.04296875, -0.0244140625, 0.2353515625
0.046875, -0.033203125, 0.244140625
0.048828125, -0.0390625, 0.244140625
0.0458984375, -0.01953125, 0.240234375
0.0458984375, -0.013671875, 0.2333984375
0.0498046875, -0.0185546875, 0.2412109375
0.0478515625, -0.0263671875, 0.2490234375
0.0478515625, -0.0302734375, 0.234375
0.048828125, -0.033203125, 0.2255859375
0.0498046875, -0.021484375, 0.232421875
0.0498046875, -0.01171875, 0.2431640625
0.0478515625, -0.013671875, 0.2412109375
0.0478515625, -0.0185546875, 0.2392578125
0.044921875, -0.0263671875, 0.2353515625
0.0478515625, -0.04296875, 0.2470703125
0.048828125, -0.0302734375, 0.2490234375
0.0517578125, -0.013671875, 0.2470703125
0.046875, -0.017578125, 0.2421875
0.046875, -0.0244140625, 0.240234375
0.048828125, -0.0244140625, 0.228515625
0.048828125, -0.02734375, 0.2392578125
0.0478515625, -0.0302734375, 0.248046875
0.048828125, -0.041015625, 0.25
0.046875, -0.0322265625, 0.23828125
0.0478515625, -0.017578125, 0.2314453125
0.046875, -0.021484375, 0.240234375
0.048828125, -0.044921875, 0.248046875
0.046875, -0.0419921875, 0.25
0.048828125, -0.0234375, 0.2431640625
0.048828125, -0.013671875, 0.234375
0.0498046875, -0.029296875, 0.2353515625
0.0498046875, -0.02734375, 0.2451171875
0.046875, -0.01953125, 0.23828125
0.046875, -0.025390625, 0.2421875
0.0458984375, -0.037109375, 0.2421875
0.0458984375, -0.0244140625, 0.2373046875
0.046875, -0.017578125, 0.2412109375
0.05078125, -0.0244140625, 0.2431640625
0.0439453125, -0.025390625, 0.2353515625
0.046875, -0.0283203125, 0.259765625
0.0478515625, -0.0126953125, 0.2412109375
0.0478515625, -0.02734375, 0.2314453125
0.046875, -0.0322265625, 0.23828125
0.0517578125, -0.0224609375, 0.2421875
0.0458984375, -0.0302734375, 0.2373046875
0.0478515625, -0.0263671875, 0.2333984375
0.0498046875, -0.03125, 0.240234375
0.048828125, -0.03125, 0.2431640625
0.0478515625, -0.02734375, 0.2421875
0.05078125, -0.0146484375, 0.2294921875
0.048828125, -0.0185546875, 0.23828125
0.0478515625, -0.03125, 0.2490234375
0.0498046875, -0.0390625, 0.244140625
0.05078125, -0.0283203125, 0.2431640625
0.05078125, -0.013671875, 0.240234375
0.048828125, -0.029296875, 0.244140625
0.0478515625, -0.03125, 0.2470703125
0.0478515625, -0.0205078125, 0.2353515625
0.0517578125, -0.021484375, 0.2333984375
0.0498046875, -0.0341796875, 0.25
0.052734375, -0.037109375, 0.25
0.0546875, -0.0205078125, 0.25
0.052734375, 0.0, 0.2490234375
0.0556640625, 0.0166015625, 0.287109375
0.0634765625, 0.037109375, 0.310546875
0.064453125, 0.05859375, 0.3359375
0.0712890625, 0.1064453125, 0.3662109375
0.0673828125, 0.146484375, 0.3671875
0.0654296875, 0.150390625, 0.3173828125
0.060546875, 0.1318359375, 0.2216796875
0.0712890625, 0.126953125, 0.1123046875
0.080078125, 0.1435546875, 0.046875
0.076171875, 0.162109375, 0.0224609375
0.0673828125, 0.14453125, 0.068359375
0.0595703125, 0.1015625, 0.1259765625
0.0390625, 0.052734375, 0.16015625
0.0283203125, 0.0458984375, 0.1337890625
0.0107421875, 0.041015625, 0.072265625
-0.0107421875, -0.009765625, 0.076171875
-0.0263671875, -0.05859375, 0.208984375
-0.0341796875, -0.08203125, 0.2919921875
-0.03515625, -0.109375, 0.24609375
-0.04296875, -0.1357421875, 0.1962890625
-0.0478515625, -0.1474609375, 0.189453125
-0.056640625, -0.12890625, 0.2119140625
-0.0556640625, -0.12890625, 0.2958984375
-0.060546875, -0.1611328125, 0.33984375
-0.0625, -0.166015625, 0.3076171875
-0.0615234375, -0.1142578125, 0.236328125
-0.0634765625, -0.078125, 0.2216796875
-0.0673828125, -0.05859375, 0.2783203125
-0.06640625, -0.0556640625, 0.30859375
-0.0712890625, -0.037109375, 0.392578125
-0.0751953125, -0.052734375, 0.4267578125
-0.0908203125, -0.0810546875, 0.4306640625
-0.10546875, -0.1552734375, 0.46875
-0.1201171875, -0.23046875, 0.654296875
-0.1474609375, -0.318359375, 0.775390625
-0.1923828125, -0.4033203125, 0.8056640625
-0.236328125, -0.380859375, 0.744140625
-0.2919921875, -0.2939453125, 0.6240234375
-0.3212890625, -0.2197265625, 0.5
-0.345703125, -0.21875, 0.3701171875
-0.3505859375, -0.1484375, 0.2802734375
-0.341796875, -0.0986328125, 0.2470703125
-0.341796875, -0.1083984375, 0.1494140625
-0.3115234375, -0.0859375, -0.0595703125
-0.2294921875, -0.0048828125, -0.2216796875
-0.1552734375, 0.095703125, -0.26953125
-0.095703125, 0.140625, -0.2734375
-0.0478515625, 0.15234375, -0.3271484375
-0.0009765625, 0.18359375, -0.392578125
0.0380859375, 0.181640625, -0.44921875
0.060546875, 0.2109375, -0.4892578125
0.0732421875, 0.25390625, -0.548828125
0.078125, 0.2978515625, -0.5986328125
0.0537109375, 0.306640625, -0.5673828125
0.0009765625, 0.2158203125, -0.4716796875
-0.0625, 0.15625, -0.390625
-0.125, 0.115234375, -0.34765625
-0.2001953125, 0.048828125, -0.337890625
-0.2958984375, -0.0576171875, -0.2958984375
-0.40625, -0.1650390625, -0.1787109375
-0.466796875, -0.283203125, 0.1044921875
-0.447265625, -0.4521484375, 0.4599609375
-0.3271484375, -0.44140625, 0.7724609375
-0.2763671875, -0.318359375, 0.5126953125
-0.2998046875, -0.3505859375, 0.5439453125
-0.2578125, -0.400390625, 0.755859375
-0.2236328125, -0.3876953125, 0.912109375
-0.2041015625, -0.4150390625, 0.8173828125
-0.2080078125, -0.3203125, 0.837890625
-0.2001953125, -0.15234375, 0.8173828125
-0.197265625, -0.0234375, 0.6650390625
-0.18359375, 0.0771484375, 0.533203125
-0.158203125, 0.1259765625, 0.4560546875
-0.1220703125, 0.1650390625, 0.4228515625
-0.0888671875, 0.1728515625, 0.359375
-0.064453125, 0.16796875, 0.2783203125
-0.0419921875, 0.1640625, 0.2138671875
-0.021484375, 0.1923828125, 0.1708984375
-0.0087890625, 0.19921875, 0.1708984375
0.0, 0.185546875, 0.1357421875
0.01171875, 0.1552734375, 0.0810546875
0.0302734375, 0.1044921875, 0.0654296875
0.0439453125, 0.083984375, 0.0830078125
0.0546875, 0.0595703125, 0.083984375
0.064453125, 0.0419921875, 0.1005859375
0.068359375, 0.017578125, 0.15234375
0.0693359375, -0.015625, 0.169921875
0.0673828125, -0.0078125, 0.177734375
0.0654296875, -0.0078125, 0.2060546875
0.0615234375, -0.0166015625, 0.212890625
0.056640625, -0.0283203125, 0.2412109375
0.052734375, -0.041015625, 0.248046875
0.05078125, -0.0322265625, 0.2529296875
0.05078125, 0.0, 0.2451171875
0.048828125, 0.0048828125, 0.25390625
0.048828125, -0.0029296875, 0.2490234375
0.048828125, -0.03515625, 0.2529296875
0.0498046875, -0.0361328125, 0.2529296875
0.0517578125, -0.02734375, 0.2666015625
0.0478515625, -0.0302734375, 0.2548828125
0.0478515625, -0.0126953125, 0.2255859375
0.0498046875, -0.0263671875, 0.2216796875
0.048828125, -0.0048828125, 0.24609375
0.05078125, -0.013671875, 0.2578125
0.046875, -0.02734375, 0.2578125
0.0478515625, -0.0146484375, 0.2490234375
0.048828125, -0.0009765625, 0.2294921875
0.05078125, -0.009765625, 0.2275390625
0.0517578125, -0.01953125, 0.2314453125
0.0498046875, -0.015625, 0.2490234375
0.0537109375, -0.0029296875, 0.25390625
0.05078125, 0.0, 0.2451171875
0.0458984375, -0.0048828125, 0.2412109375
0.044921875, -0.0185546875, 0.24609375
0.046875, -0.01171875, 0.248046875
0.05078125, -0.0068359375, 0.2373046875
0.0517578125, -0.0146484375, 0.23828125
0.0498046875, -0.0224609375, 0.2236328125
0.0478515625, -0.0283203125, 0.234375
0.0498046875, -0.017578125, 0.2265625
0.048828125, -0.0166015625, 0.2490234375
0.046875, -0.0107421875, 0.2509765625
0.0458984375, -0.00390625, 0.2353515625
0.048828125, -0.0087890625, 0.220703125
0.046875, -0.01171875, 0.2275390625
0.0478515625, -0.03125, 0.25
0.0478515625, -0.0234375, 0.251953125
0.046875, -0.01171875, 0.255859375
0.0478515625, -0.0068359375, 0.2421875
0.048828125, -0.015625, 0.2392578125
0.0458984375, -0.0166015625, 0.248046875
0.0458984375, -0.0087890625, 0.25390625
0.0419921875, -0.0029296875, 0.248046875
0.0419921875, -0.0029296875, 0.2421875
0.044921875, -0.01953125, 0.234375
0.04296875, -0.0205078125, 0.2236328125
0.0478515625, -0.0380859375, 0.2431640625
0.048828125, -0.0400390625, 0.2529296875
0.046875, -0.0146484375, 0.2451171875
0.0439453125, 0.013671875, 0.2333984375
0.046875, 0.0107421875, 0.2353515625
0.048828125, -0.025390625, 0.228515625
0.046875, -0.0341796875, 0.2421875
0.0458984375, -0.013671875, 0.2626953125
0.0458984375, -0.0068359375, 0.2509765625
0.0419921875, 0.0, 0.23046875
0.0458984375, -0.0107421875, 0.2294921875
0.044921875, -0.015625, 0.234375
0.048828125, -0.015625, 0.232421875
0.046875, -0.005859375, 0.2294921875
0.046875, 0.0009765625, 0.23046875
0.0458984375, 0.0068359375, 0.2490234375
0.04296875, -0.0068359375, 0.2490234375
0.044921875, -0.0361328125, 0.2421875
0.044921875, -0.04296875, 0.25390625
0.044921875, -0.0224609375, 0.267578125
0.041015625, -0.0107421875, 0.2392578125
0.04296875, -0.015625, 0.2373046875
0.0439453125, -0.01953125, 0.244140625
0.0439453125, -0.03125, 0.2451171875
0.046875, -0.0185546875, 0.2490234375
0.0439453125, -0.0166015625, 0.2294921875
0.0439453125, -0.0166015625, 0.2373046875
0.04296875, -0.01171875, 0.2646484375
0.044921875, -0.0263671875, 0.251953125
0.0458984375, -0.029296875, 0.2431640625
0.046875, -0.00390625, 0.240234375
0.0458984375, 0.0, 0.244140625
0.046875, -0.0146484375, 0.2314453125
0.0458984375, -0.0048828125, 0.234375
0.0458984375, -0.01171875, 0.2353515625
0.0439453125, -0.009765625, 0.2470703125
0.046875, -0.0263671875, 0.236328125
0.0458984375, -0.0087890625, 0.234375
0.0498046875, -0.009765625, 0.2421875
0.0478515625, -0.0205078125, 0.2333984375
0.044921875, -0.017578125, 0.2421875
0.0478515625, -0.013671875, 0.248046875
0.0458984375, -0.0087890625, 0.2451171875
0.0478515625, -0.005859375, 0.240234375
0.048828125, -0.0068359375, 0.2392578125
0.0478515625, -0.0078125, 0.23828125
0.0498046875, -0.0244140625, 0.25390625
0.0478515625, -0.03125, 0.251953125
0.0478515625, -0.009765625, 0.236328125
0.0478515625, -0.0078125, 0.236328125
0.046875, -0.0166015625, 0.2421875
0.046875, -0.0166015625, 0.24609375
0.0478515625, -0.0068359375, 0.2392578125
0.0478515625, -0.021484375, 0.2412109375
0.0478515625, -0.025390625, 0.2421875
0.0498046875, -0.009765625, 0.2314453125
0.05078125, 0.0029296875, 0.2265625
0.048828125, -0.0068359375, 0.232421875
0.05078125, -0.0244140625, 0.2626953125
0.0458984375, -0.033203125, 0.2490234375
0.0478515625, -0.01953125, 0.244140625
0.0478515625, -0.013671875, 0.2470703125
0.0458984375, -0.01953125, 0.2431640625
0.046875, -0.015625, 0.2412109375
0.044921875, -0.0126953125, 0.248046875
0.046875, -0.009765625, 0.2392578125
0.048828125, -0.01171875, 0.232421875
0.048828125, -0.0166015625, 0.23046875
0.048828125, -0.0234375, 0.2578125
0.046875, -0.0205078125, 0.244140625
0.0498046875, -0.0185546875, 0.2275390625
0.048828125, -0.009765625, 0.2314453125
0.05078125, -0.00390625, 0.232421875
0.0537109375, -0.015625, 0.23828125
0.048828125, -0.013671875, 0.2373046875
0.052734375, -0.005859375, 0.2470703125
0.05078125, -0.01171875, 0.24609375
0.0498046875, -0.0224609375, 0.2431640625
0.048828125, -0.015625, 0.23828125
0.048828125, -0.0078125, 0.2490234375
0.05078125, -0.0087890625, 0.234375
0.0478515625, -0.013671875, 0.2392578125
0.046875, -0.017578125, 0.2421875
0.0498046875, -0.02734375, 0.2431640625
0.05078125, -0.0205078125, 0.2392578125
0.0498046875, -0.01171875, 0.2373046875
0.0498046875, -0.01171875, 0.23828125
0.046875, -0.0224609375, 0.24609375
0.0498046875, -0.0263671875, 0.240234375
0.0498046875, -0.01171875, 0.2373046875
0.0498046875, -0.0107421875, 0.2353515625
0.048828125, -0.0107421875, 0.2431640625
0.048828125, -0.017578125, 0.24609375
0.0498046875, -0.013671875, 0.2353515625
0.0478515625, -0.0068359375, 0.2392578125
0.05078125, -0.009765625, 0.2451171875
0.0478515625, -0.017578125, 0.2431640625
0.048828125, -0.0234375, 0.24609375
0.0498046875, -0.0224609375, 0.248046875
0.048828125, -0.0185546875, 0.248046875
0.048828125, -0.0126953125, 0.2314453125
0.0498046875, -0.0146484375, 0.2333984375
0.046875, -0.0146484375, 0.244140625
0.048828125, -0.01171875, 0.2490234375
0.046875, -0.015625, 0.23046875
0.0478515625, -0.01953125, 0.23046875
0.0478515625, -0.021484375, 0.2421875
0.0478515625, -0.0166015625, 0.2421875
0.0517578125, -0.017578125, 0.2421875
0.048828125, -0.015625, 0.2392578125
0.0537109375, -0.009765625, 0.236328125
0.0478515625, -0.0068359375, 0.23828125
0.048828125, -0.0205078125, 0.25390625
0.048828125, -0.025390625, 0.23828125
0.05078125, -0.0146484375, 0.2451171875
0.0517578125, -0.0126953125, 0.2392578125
0.05078125, -0.01953125, 0.25390625
0.0478515625, -0.01171875, 0.236328125
0.0498046875, -0.0126953125, 0.234375
0.0478515625, -0.0068359375, 0.234375
0.048828125, -0.0126953125, 0.2431640625
0.048828125, -0.0185546875, 0.251953125
0.05078125, -0.015625, 0.2294921875
0.048828125, -0.0146484375, 0.23046875
0.048828125, -0.017578125, 0.23828125
0.048828125, -0.0146484375, 0.2490234375
0.0478515625, -0.01953125, 0.2421875
0.0478515625, -0.0234375, 0.2470703125
0.0498046875, -0.0078125, 0.234375
0.05078125, -0.0078125, 0.2333984375
0.0478515625, -0.0185546875, 0.2392578125
0.0498046875, -0.01953125, 0.251953125
0.048828125, -0.025390625, 0.25
0.0498046875, -0.01953125, 0.24609375
0.048828125, -0.01953125, 0.240234375
0.046875, -0.0107421875, 0.2392578125
0.0478515625, -0.0048828125, 0.234375
0.0478515625, -0.0068359375, 0.23828125
0.048828125, -0.01953125, 0.2431640625
0.05078125, -0.0283203125, 0.248046875
0.0498046875, -0.0224609375, 0.2451171875
0.05078125, -0.00390625, 0.2333984375
0.0498046875, -0.0078125, 0.2392578125
0.05078125, -0.021484375, 0.2490234375
0.046875, -0.021484375, 0.2490234375
0.048828125, -0.0126953125, 0.2412109375
0.048828125, -0.01953125, 0.2392578125
0.0498046875, -0.0126953125, 0.2314453125
0.048828125, -0.015625, 0.232421875
0.05078125, -0.0107421875, 0.2353515625
0.048828125, -0.015625, 0.2431640625
0.0498046875, -0.025390625, 0.2412109375
0.048828125, -0.0185546875, 0.2421875
0.05078125, -0.017578125, 0.2421875
0.0478515625, -0.0087890625, 0.2421875
0.0498046875, -0.0029296875, 0.2529296875
0.05078125, -0.0029296875, 0.2548828125
0.048828125, -0.0126953125, 0.2412109375
0.0537109375, -0.009765625, 0.234375
0.0478515625, -0.0126953125, 0.240234375
0.048828125, -0.01953125, 0.236328125
0.05078125, -0.01953125, 0.236328125
0.046875, -0.005859375, 0.2392578125
0.05078125, -0.015625, 0.2421875
0.048828125, -0.0419921875, 0.248046875
0.048828125, -0.0234375, 0.2373046875
0.0478515625, 0.0009765625, 0.234375
0.048828125, -0.0009765625, 0.2333984375
0.05078125, -0.017578125, 0.234375
0.0498046875, -0.0205078125, 0.25
0.0517578125, -0.025390625, 0.251953125
0.05078125, -0.03125, 0.244140625
0.05078125, -0.0078125, 0.236328125
0.0498046875, 0.001953125, 0.23828125
0.0498046875, -0.01171875, 0.24609375
0.05078125, -0.033203125, 0.248046875
0.05078125, -0.021484375, 0.2392578125
0.046875, -0.005859375, 0.2353515625
0.05078125, -0.0087890625, 0.2353515625
0.0498046875, -0.0126953125, 0.244140625
0.0498046875, -0.0166015625, 0.2568359375
0.0478515625, -0.0185546875, 0.2412109375
0.0478515625, -0.0068359375, 0.2275390625
0.05078125, -0.0126953125, 0.236328125
0.0498046875, -0.025390625, 0.2431640625
0.0498046875, -0.0166015625, 0.2373046875
0.0478515625, -0.0087890625, 0.2333984375
0.0498046875, -0.0185546875, 0.2451171875
0.05078125, -0.021484375, 0.2431640625
0.0517578125, -0.001953125, 0.2294921875
0.0498046875, -0.001953125, 0.236328125
0.048828125, -0.021484375, 0.2470703125
0.0517578125, -0.02734375, 0.2509765625
0.0478515625, -0.0126953125, 0.2373046875
0.0478515625, -0.0107421875, 0.2421875
0.0498046875, -0.015625, 0.2490234375
0.0517578125, -0.01953125, 0.2451171875
0.0498046875, -0.005859375, 0.2431640625
0.05078125, -0.0029296875, 0.248046875
0.052734375, -0.013671875, 0.2529296875
0.0517578125, 0.0029296875, 0.2451171875
