0.0390625, 0.0087890625, 0.240234375
0.0361328125, 0.0087890625, 0.251953125
0.0322265625, 0.001953125, 0.255859375
0.037109375, 0.013671875, 0.2451171875
0.037109375, 0.001953125, 0.24609375
0.041015625, 0.0009765625, 0.2509765625
0.0400390625, 0.00390625, 0.2509765625
0.0361328125, -0.0009765625, 0.248046875
0.0390625, 0.0078125, 0.2353515625
0.0380859375, 0.0107421875, 0.2548828125
0.037109375, 0.001953125, 0.25
0.0419921875, 0.005859375, 0.234375
0.0400390625, 0.005859375, 0.228515625
0.041015625, 0.0087890625, 0.2412109375
0.0380859375, 0.0107421875, 0.24609375
0.0361328125, 0.005859375, 0.2373046875
0.0390625, 0.00390625, 0.2265625
0.037109375, 0.001953125, 0.2431640625
0.0400390625, 0.0, 0.248046875
0.0400390625, -0.0009765625, 0.234375
0.0390625, 0.009765625, 0.24609375
0.0380859375, 0.01953125, 0.24609375
0.037109375, 0.0087890625, 0.23828125
0.041015625, -0.00390625, 0.2490234375
0.037109375, 0.0048828125, 0.240234375
0.0380859375, 0.00390625, 0.2392578125
0.0390625, 0.0087890625, 0.244140625
0.0400390625, 0.0087890625, 0.2451171875
0.037109375, 0.0087890625, 0.244140625
0.0400390625, 0.0048828125, 0.244140625
0.0390625, -0.0107421875, 0.2490234375
0.0390625, 0.0068359375, 0.2470703125
0.0390625, 0.01171875, 0.236328125
0.0361328125, 0.0146484375, 0.2373046875
0.0390625, 0.0087890625, 0.2451171875
0.0380859375, 0.001953125, 0.2490234375
0.0380859375, 0.0087890625, 0.25
0.0380859375, 0.001953125, 0.2412109375
0.0390625, 0.0166015625, 0.236328125
0.0390625, 0.0126953125, 0.236328125
0.0361328125, 0.0107421875, 0.2421875
0.0400390625, 0.005859375, 0.2509765625
0.0390625, 0.0009765625, 0.2490234375
0.0419921875, 0.009765625, 0.2412109375
0.0400390625, 0.0048828125, 0.2421875
0.0400390625, 0.015625, 0.2392578125
0.0400390625, 0.0244140625, 0.232421875
0.0400390625, 0.017578125, 0.23046875
0.0390625, 0.0068359375, 0.2470703125
0.041015625, -0.015625, 0.2568359375
0.0400390625, -0.0009765625, 0.240234375
0.0390625, 0.01171875, 0.236328125
0.0390625, 0.009765625, 0.2431640625
0.0380859375, 0.01171875, 0.25
0.033203125, 0.005859375, 0.25
0.0361328125, 0.0087890625, 0.2431640625
0.037109375, 0.001953125, 0.2509765625
0.0390625, -0.001953125, 0.2470703125
0.03515625, 0.009765625, 0.248046875
0.0419921875, 0.009765625, 0.251953125
0.037109375, 0.0068359375, 0.248046875
0.03515625, -0.00390625, 0.2451171875
0.037109375, 0.0107421875, 0.244140625
0.0380859375, 0.0126953125, 0.240234375
0.037109375, 0.01171875, 0.23046875
0.0419921875, 0.001953125, 0.2412109375
0.0419921875, 0.0048828125, 0.24609375
0.041015625, 0.0078125, 0.23828125
0.0390625, -0.001953125, 0.232421875
0.0400390625, 0.00390625, 0.2412109375
0.0390625, 0.013671875, 0.23828125
0.041015625, 0.0224609375, 0.234375
0.041015625, 0.0009765625, 0.244140625
0.0380859375, -0.005859375, 0.248046875
0.0400390625, 0.005859375, 0.25
0.0390625, 0.01953125, 0.23828125
0.0380859375, 0.0146484375, 0.2392578125
0.041015625, 0.0009765625, 0.2451171875
0.0390625, 0.00390625, 0.2421875
0.0390625, 0.0, 0.240234375
0.041015625, 0.009765625, 0.25
0.0390625, 0.0048828125, 0.25
0.0390625, 0.0087890625, 0.2392578125
0.0400390625, 0.0166015625, 0.2392578125
0.0380859375, -0.0009765625, 0.244140625
0.0400390625, 0.00390625, 0.240234375
0.0390625, 0.0009765625, 0.248046875
0.0400390625, 0.0068359375, 0.2470703125
0.041015625, 0.0048828125, 0.2373046875
0.0419921875, 0.0029296875, 0.2275390625
0.0390625, 0.0078125, 0.2421875
0.0390625, 0.0009765625, 0.2490234375
0.0380859375, 0.0048828125, 0.24609375
0.0390625, 0.0009765625, 0.248046875
0.0390625, 0.0126953125, 0.23828125
0.041015625, 0.0048828125, 0.23828125
0.0400390625, 0.0029296875, 0.24609375
0.0439453125, 0.0009765625, 0.25
0.0380859375, 0.001953125, 0.2470703125
0.0419921875, 0.009765625, 0.240234375
0.0400390625, 0.0078125, 0.248046875
0.0400390625, 0.001953125, 0.2392578125
0.0400390625, 0.0078125, 0.240234375
0.041015625, 0.0087890625, 0.251953125
0.0390625, -0.0009765625, 0.255859375
0.0390625, 0.0009765625, 0.24609375
0.0419921875, 0.01171875, 0.244140625
0.04296875, 0.0068359375, 0.24609375
0.0439453125, 0.0185546875, 0.2529296875
0.044921875, 0.0341796875, 0.2734375
0.0458984375, 0.0517578125, 0.2734375
0.041015625, 0.0634765625, 0.275390625
0.0478515625, 0.0810546875, 0.2587890625
0.0556640625, 0.1142578125, 0.2607421875
0.0537109375, 0.111328125, 0.2685546875
0.0546875, 0.099609375, 0.263671875
0.052734375, 0.0869140625, 0.23828125
0.0546875, 0.0810546875, 0.212890625
0.052734375, 0.0859375, 0.1787109375
0.056640625, 0.08984375, 0.140625
0.0546875, 0.103515625, 0.1240234375
0.048828125, 0.10546875, 0.123046875
0.041015625, 0.1025390625, 0.1240234375
0.029296875, 0.0751953125, 0.1455078125
0.021484375, 0.033203125, 0.181640625
0.01171875, 0.0068359375, 0.1904296875
0.0068359375, -0.0029296875, 0.173828125
0.0, -0.021484375, 0.17578125
-0.0029296875, -0.03125, 0.193359375
-0.0107421875, -0.044921875, 0.2060546875
-0.0185546875, -0.0458984375, 0.20703125
-0.0283203125, -0.0341796875, 0.177734375
-0.0419921875, -0.0537109375, 0.1875
-0.052734375, -0.0615234375, 0.1982421875
-0.0625, -0.0751953125, 0.2177734375
-0.072265625, -0.107421875, 0.25
-0.076171875, -0.1259765625, 0.2744140625
-0.07421875, -0.1025390625, 0.2783203125
-0.0830078125, -0.076171875, 0.3037109375
-0.1015625, -0.09375, 0.3447265625
-0.1220703125, -0.1337890625, 0.4521484375
-0.134765625, -0.193359375, 0.59375
-0.158203125, -0.287109375, 0.853515625
-0.1748046875, -0.400390625, 0.8544921875
-0.212890625, -0.365234375, 0.708984375
-0.248046875, -0.341796875, 0.7275390625
-0.30859375, -0.33203125, 0.7626953125
-0.380859375, -0.3291015625, 0.658203125
-0.470703125, -0.345703125, 0.509765625
-0.490234375, -0.3232421875, 0.2509765625
-0.4814453125, -0.2626953125, 0.11328125
-0.4443359375, -0.1611328125, 0.03125
-0.404296875, -0.044921875, 0.0224609375
-0.3642578125, 0.068359375, -0.03515625
-0.294921875, 0.119140625, -0.1591796875
-0.2255859375, 0.1494140625, -0.25
-0.134765625, 0.234375, -0.3271484375
-0.0693359375, 0.326171875, -0.35546875
-0.0078125, 0.388671875, -0.3935546875
0.03125, 0.4248046875, -0.4716796875
0.060546875, 0.4287109375, -0.5400390625
0.064453125, 0.40234375, -0.5478515625
0.0546875, 0.359375, -0.509765625
0.02734375, 0.2978515625, -0.4345703125
-0.009765625, 0.2314453125, -0.375
-0.0576171875, 0.1708984375, -0.3544921875
-0.1064453125, 0.1201171875, -0.3369140625
-0.181640625, 0.078125, -0.3173828125
-0.263671875, 0.0517578125, -0.283203125
-0.359375, 0.015625, -0.181640625
-0.447265625, -0.1220703125, -0.015625
-0.4853515625, -0.119140625, 0.1083984375
-0.52734375, -0.064453125, 0.234375
-0.5390625, -0.4501953125, 0.5166015625
-0.4189453125, -0.7001953125, 0.6455078125
-0.3642578125, -0.4658203125, 0.48828125
-0.375, -0.35546875, 0.4716796875
-0.3623046875, -0.5498046875, 0.75390625
-0.3056640625, -0.634765625, 0.91015625
-0.2802734375, -0.455078125, 0.939453125
-0.25, -0.263671875, 0.82421875
-0.2509765625, -0.1708984375, 0.662109375
-0.2470703125, -0.0576171875, 0.517578125
-0.23828125, 0.0224609375, 0.482421875
-0.216796875, 0.0556640625, 0.4482421875
-0.203125, 0.068359375, 0.3798828125
-0.1865234375, 0.076171875, 0.310546875
-0.15234375, 0.130859375, 0.2197265625
-0.0986328125, 0.2158203125, 0.166015625
-0.05859375, 0.21875, 0.162109375
-0.03125, 0.1953125, 0.154296875
-0.01171875, 0.1884765625, 0.1005859375
0.0078125, 0.1494140625, 0.04296875
0.0224609375, 0.1611328125, 0.0458984375
0.029296875, 0.1806640625, 0.0859375
0.037109375, 0.14453125, 0.1162109375
0.0390625, 0.0869140625, 0.146484375
0.0390625, 0.0302734375, 0.18359375
0.0400390625, 0.0283203125, 0.2080078125
0.0380859375, 0.017578125, 0.2177734375
0.0390625, -0.0498046875, 0.224609375
0.0439453125, -0.044921875, 0.234375
0.0458984375, -0.0146484375, 0.244140625
0.0458984375, -0.0263671875, 0.2880859375
0.044921875, 0.0029296875, 0.240234375
0.0380859375, -0.017578125, 0.224609375
0.041015625, -0.0126953125, 0.2255859375
0.0380859375, -0.0283203125, 0.2548828125
0.0419921875, -0.015625, 0.25390625
0.0390625, -0.015625, 0.259765625
0.0380859375, -0.0048828125, 0.240234375
0.0341796875, -0.005859375, 0.2373046875
0.0322265625, -0.0078125, 0.23046875
0.037109375, -0.02734375, 0.23828125
0.037109375, -0.009765625, 0.23828125
0.0361328125, -0.0087890625, 0.248046875
0.0341796875, -0.01171875, 0.2392578125
0.0361328125, -0.013671875, 0.26171875
0.0361328125, -0.0107421875, 0.2529296875
0.037109375, 0.0009765625, 0.23828125
0.03515625, -0.0126953125, 0.2197265625
0.03515625, -0.0146484375, 0.2294921875
0.0390625, -0.01953125, 0.2333984375
0.03125, -0.0087890625, 0.2529296875
0.0341796875, -0.013671875, 0.2705078125
0.0341796875, -0.0283203125, 0.2607421875
0.0380859375, -0.0244140625, 0.2470703125
0.037109375, -0.0009765625, 0.2314453125
0.033203125, -0.005859375, 0.232421875
0.03515625, -0.021484375, 0.248046875
0.037109375, -0.025390625, 0.248046875
0.037109375, -0.00390625, 0.2451171875
0.0361328125, 0.0126953125, 0.2353515625
0.03515625, -0.0029296875, 0.236328125
0.03515625, -0.02734375, 0.2431640625
0.0322265625, -0.0107421875, 0.2509765625
0.03515625, -0.0166015625, 0.2392578125
0.0361328125, -0.0166015625, 0.2548828125
0.0390625, -0.0009765625, 0.23828125
0.0390625, 0.0, 0.2314453125
0.0361328125, -0.0009765625, 0.236328125
0.0361328125, -0.0107421875, 0.248046875
0.033203125, -0.001953125, 0.248046875
0.0380859375, -0.0126953125, 0.2548828125
0.0400390625, -0.00390625, 0.2421875
0.0400390625, 0.0, 0.234375
0.03515625, -0.0029296875, 0.244140625
0.041015625, -0.0068359375, 0.2470703125
0.0390625, -0.0087890625, 0.236328125
0.0400390625, -0.0009765625, 0.2373046875
0.037109375, 0.0048828125, 0.2373046875
0.0341796875, -0.0029296875, 0.2412109375
0.037109375, -0.0126953125, 0.24609375
0.037109375, -0.0146484375, 0.2568359375
0.0361328125, 0.0009765625, 0.2509765625
0.03515625, -0.00390625, 0.2490234375
0.03515625, -0.01171875, 0.2548828125
0.0419921875, -0.013671875, 0.255859375
0.044921875, -0.0166015625, 0.248046875
0.044921875, -0.0146484375, 0.232421875
0.0419921875, 0.009765625, 0.236328125
0.0419921875, 0.0205078125, 0.2431640625
0.0400390625, 0.009765625, 0.2431640625
0.0361328125, -0.001953125, 0.23828125
0.0380859375, 0.0, 0.23828125
0.03515625, 0.005859375, 0.23828125
0.0361328125, 0.0068359375, 0.24609375
0.0380859375, 0.0029296875, 0.2451171875
0.0322265625, 0.0068359375, 0.236328125
0.033203125, 0.0107421875, 0.236328125
0.0361328125, 0.00390625, 0.2333984375
0.0390625, -0.00390625, 0.23828125
0.037109375, -0.0107421875, 0.24609375
0.037109375, -0.0107421875, 0.2412109375
0.041015625, -0.00390625, 0.23828125
0.0419921875, 0.0048828125, 0.2353515625
0.04296875, -0.001953125, 0.2392578125
0.0419921875, 0.0, 0.236328125
0.0380859375, -0.0205078125, 0.25
0.03515625, -0.0009765625, 0.251953125
0.0390625, 0.009765625, 0.2587890625
0.0390625, 0.0, 0.2578125
0.0390625, 0.0078125, 0.2431640625
0.037109375, 0.001953125, 0.2373046875
0.0419921875, 0.013671875, 0.2421875
0.0390625, -0.00390625, 0.2412109375
0.0380859375, -0.001953125, 0.2412109375
0.0390625, -0.001953125, 0.2412109375
0.0390625, -0.001953125, 0.244140625
0.0390625, -0.0068359375, 0.244140625
0.0380859375, -0.0087890625, 0.2314453125
0.0419921875, 0.0, 0.23046875
0.0380859375, 0.0009765625, 0.2431640625
0.041015625, -0.0078125, 0.25
0.037109375, -0.017578125, 0.2470703125
0.0380859375, 0.0009765625, 0.2421875
0.0390625, 0.0068359375, 0.240234375
0.0380859375, -0.0009765625, 0.248046875
0.0419921875, -0.017578125, 0.244140625
0.0380859375, -0.01953125, 0.25
0.0361328125, -0.029296875, 0.265625
0.037109375, -0.0126953125, 0.259765625
0.0361328125, 0.0107421875, 0.2431640625
0.0390625, 0.00390625, 0.2236328125
0.0390625, -0.0068359375, 0.236328125
0.0390625, -0.001953125, 0.2412109375
0.037109375, 0.00390625, 0.2412109375
0.0400390625, 0.0009765625, 0.23046875
0.0400390625, 0.001953125, 0.2255859375
0.041015625, 0.0029296875, 0.2294921875
0.0390625, 0.0029296875, 0.244140625
0.0390625, -0.0048828125, 0.244140625
0.0419921875, -0.0068359375, 0.2451171875
0.0419921875, -0.013671875, 0.2490234375
0.041015625, -0.005859375, 0.2412109375
0.0419921875, 0.0, 0.234375
0.0458984375, 0.0009765625, 0.2412109375
0.041015625, -0.0068359375, 0.2470703125
0.0400390625, 0.0009765625, 0.2392578125
0.0390625, -0.0078125, 0.2333984375
0.0390625, -0.0166015625, 0.251953125
0.0400390625, -0.017578125, 0.26171875
0.0380859375, -0.0126953125, 0.25
0.0380859375, 0.0078125, 0.2294921875
0.0380859375, -0.0029296875, 0.2392578125
0.041015625, -0.0107421875, 0.248046875
0.0419921875, -0.0029296875, 0.2392578125
0.041015625, -0.0009765625, 0.22265625
0.0400390625, 0.0, 0.236328125
0.041015625, -0.0205078125, 0.251953125
0.041015625, -0.0029296875, 0.244140625
0.0400390625, 0.0, 0.23828125
0.04296875, -0.01171875, 0.2431640625
0.0419921875, -0.0087890625, 0.2529296875
0.037109375, -0.0009765625, 0.248046875
0.0400390625, 0.0048828125, 0.2451171875
0.037109375, -0.00390625, 0.2509765625
0.0400390625, -0.009765625, 0.2548828125
0.0390625, -0.009765625, 0.25
0.0400390625, 0.00390625, 0.240234375
0.0439453125, 0.00390625, 0.2412109375
0.041015625, -0.0166015625, 0.2490234375
0.0390625, -0.0078125, 0.2353515625
0.0400390625, 0.0009765625, 0.2353515625
0.0390625, -0.0009765625, 0.236328125
0.0400390625, 0.001953125, 0.2470703125
0.0419921875, -0.0078125, 0.248046875
0.0419921875, 0.0009765625, 0.2392578125
0.0380859375, -0.001953125, 0.23828125
0.0400390625, -0.0126953125, 0.2431640625
0.0419921875, 0.001953125, 0.2392578125
0.0400390625, 0.0009765625, 0.2421875
0.041015625, -0.0068359375, 0.2509765625
0.0380859375, -0.0068359375, 0.2470703125
0.0439453125, 0.00390625, 0.234375
0.0390625, -0.0009765625, 0.2412109375
0.0390625, -0.0029296875, 0.2568359375
0.0380859375, -0.0029296875, 0.2470703125
0.0419921875, 0.0, 0.240234375
0.0390625, -0.005859375, 0.24609375
0.04296875, -0.0087890625, 0.2509765625
0.0419921875, 0.0029296875, 0.2451171875
0.041015625, 0.0029296875, 0.2353515625
0.0400390625, 0.0, 0.2412109375
0.0390625, 0.001953125, 0.2431640625
0.04296875, -0.00390625, 0.2373046875
0.0380859375, 0.0029296875, 0.236328125
0.0380859375, -0.0009765625, 0.240234375
0.0400390625, -0.009765625, 0.2412109375
0.0400390625, -0.00390625, 0.2421875
0.04296875, 0.0009765625, 0.2353515625
0.0458984375, -0.009765625, 0.236328125
0.0419921875, -0.0078125, 0.2373046875
0.04296875, 0.0048828125, 0.234375
0.0400390625, 0.0234375, 0.2470703125
0.0419921875, 0.0166015625, 0.2451171875
0.0419921875, 0.0068359375, 0.2314453125
0.0419921875, 0.0009765625, 0.2392578125
0.0419921875, -0.0078125, 0.2490234375
0.0400390625, -0.001953125, 0.2568359375
0.037109375, -0.0087890625, 0.2529296875
0.0390625, -0.0068359375, 0.2568359375
0.041015625, 0.0, 0.25390625
0.0400390625, -0.0107421875, 0.2587890625
0.0380859375, -0.0146484375, 0.2568359375
0.0380859375, -0.001953125, 0.2490234375
0.0400390625, 0.0, 0.2451171875
0.041015625, -0.001953125, 0.248046875
0.0380859375, -0.017578125, 0.2529296875
0.041015625, -0.0185546875, 0.25
0.0390625, -0.015625, 0.2509765625
0.041015625, 0.001953125, 0.2392578125
0.0419921875, 0.0166015625, 0.2275390625
0.0419921875, 0.0107421875, 0.2158203125
0.04296875, 0.0, 0.2236328125
0.04296875, 0.0, 0.244140625
0.041015625, 0.0, 0.244140625
0.041015625, 0.0009765625, 0.236328125
0.041015625, 0.0009765625, 0.2392578125
0.0419921875, -0.009765625, 0.2490234375
0.0419921875, -0.005859375, 0.248046875
0.0419921875, -0.0126953125, 0.244140625
0.041015625, -0.0146484375, 0.251953125
0.041015625, -0.0009765625, 0.2529296875
0.0400390625, -0.0029296875, 0.248046875
0.0439453125, -0.009765625, 0.2392578125
0.0439453125, 0.005859375, 0.234375
0.0458984375, 0.0126953125, 0.234375
0.04296875, -0.0009765625, 0.2294921875
0.04296875, 0.0, 0.224609375
0.046875, 0.0244140625, 0.2255859375
0.0439453125, 0.0224609375, 0.2353515625
0.04296875, -0.001953125, 0.24609375
0.0458984375, -0.0078125, 0.2490234375
0.0439453125, 0.001953125, 0.25
0.0419921875, 0.0, 0.2451171875
0.04296875, -0.0166015625, 0.25
0.041015625, -0.00390625, 0.2490234375
0.0419921875, 0.005859375, 0.2392578125
0.04296875, 0.0048828125, 0.2431640625
0.0390625, 0.001953125, 0.25
0.0419921875, 0.0, 0.2412109375
0.041015625, 0.0, 0.2373046875
0.0419921875, 0.0009765625, 0.2412109375
0.041015625, 0.00390625, 0.2490234375
0.0400390625, 0.0078125, 0.240234375
0.0400390625, -0.00390625, 0.2412109375
0.0400390625, -0.001953125, 0.25
0.0380859375, 0.0, 0.251953125
0.04296875, -0.005859375, 0.24609375
0.04296875, 0.0, 0.2490234375
0.0419921875, 0.0029296875, 0.2392578125
0.04296875, 0.0009765625, 0.2373046875
0.041015625, -0.001953125, 0.24609375
0.0400390625, -0.005859375, 0.25
0.0390625, 0.0, 0.244140625
0.04296875, 0.001953125, 0.2373046875
0.041015625, -0.001953125, 0.24609375
0.0400390625, -0.0029296875, 0.2421875
0.0419921875, -0.0009765625, 0.24609375
0.041015625, 0.001953125, 0.248046875
0.0419921875, 0.0009765625, 0.23828125
0.044921875, 0.0009765625, 0.240234375
0.0419921875, 0.001953125, 0.232421875
0.041015625, 0.0009765625, 0.232421875
0.041015625, 0.0009765625, 0.2470703125
0.044921875, 0.0029296875, 0.25
0.044921875, 0.0029296875, 0.2529296875
0.04296875, 0.017578125, 0.2392578125
0.044921875, 0.025390625, 0.232421875
