0.0078125, 0.0126953125, 0.2451171875
0.0048828125, 0.0224609375, 0.244140625
0.0068359375, 0.0302734375, 0.2333984375
0.0087890625, 0.02734375, 0.248046875
0.0048828125, 0.0107421875, 0.25
0.0029296875, 0.017578125, 0.2412109375
0.001953125, 0.02734375, 0.2490234375
0.0029296875, 0.0029296875, 0.2431640625
0.0029296875, -0.0009765625, 0.240234375
0.00390625, 0.01171875, 0.2509765625
0.0048828125, 0.0087890625, 0.2509765625
0.0009765625, 0.001953125, 0.248046875
0.001953125, 0.009765625, 0.251953125
0.0, 0.0166015625, 0.2578125
0.0078125, 0.0126953125, 0.2548828125
0.0048828125, 0.029296875, 0.25
0.005859375, 0.025390625, 0.248046875
0.0009765625, 0.0263671875, 0.2431640625
0.00390625, 0.017578125, 0.2373046875
0.005859375, 0.0166015625, 0.240234375
0.0029296875, 0.037109375, 0.2412109375
0.0029296875, 0.0458984375, 0.2392578125
0.001953125, 0.0224609375, 0.2421875
0.0048828125, 0.0068359375, 0.2451171875
0.005859375, 0.0078125, 0.2490234375
0.00390625, 0.0126953125, 0.251953125
0.0048828125, 0.0224609375, 0.2490234375
0.0009765625, 0.0263671875, 0.23828125
0.0029296875, 0.0166015625, 0.251953125
0.0078125, 0.009765625, 0.2548828125
0.0029296875, 0.0205078125, 0.2421875
0.0078125, 0.013671875, 0.236328125
0.00390625, 0.0205078125, 0.2431640625
0.0009765625, 0.033203125, 0.244140625
0.00390625, 0.0205078125, 0.2568359375
0.005859375, 0.005859375, 0.2578125
0.0048828125, 0.0234375, 0.2470703125
0.0029296875, 0.02734375, 0.2392578125
0.005859375, 0.0205078125, 0.244140625
0.0048828125, 0.0234375, 0.2392578125
0.00390625, 0.0224609375, 0.240234375
0.0048828125, 0.015625, 0.244140625
0.0068359375, 0.015625, 0.2451171875
0.0029296875, 0.0185546875, 0.2470703125
0.0048828125, 0.0224609375, 0.2490234375
0.0068359375, 0.025390625, 0.25
0.0048828125, 0.015625, 0.2451171875
0.0048828125, 0.01171875, 0.2392578125
0.001953125, 0.017578125, 0.240234375
0.00390625, 0.021484375, 0.2490234375
0.0009765625, 0.021484375, 0.25390625
0.00390625, 0.013671875, 0.2490234375
0.005859375, 0.0029296875, 0.248046875
0.005859375, 0.0205078125, 0.248046875
0.005859375, 0.0185546875, 0.244140625
0.001953125, 0.009765625, 0.2421875
0.001953125, 0.013671875, 0.2412109375
0.005859375, 0.0234375, 0.248046875
0.0029296875, 0.025390625, 0.24609375
0.005859375, 0.017578125, 0.244140625
0.005859375, 0.0166015625, 0.2412109375
0.00390625, 0.01953125, 0.25
0.001953125, 0.0234375, 0.2470703125
0.0048828125, 0.015625, 0.2431640625
0.0068359375, 0.0146484375, 0.2421875
0.001953125, 0.0166015625, 0.23828125
0.00390625, 0.0166015625, 0.2470703125
0.001953125, 0.0205078125, 0.2529296875
0.0048828125, 0.021484375, 0.251953125
0.001953125, 0.01953125, 0.24609375
0.0068359375, 0.015625, 0.244140625
0.001953125, 0.013671875, 0.2451171875
0.005859375, 0.009765625, 0.2412109375
0.00390625, 0.01953125, 0.25
0.00390625, 0.021484375, 0.2490234375
0.0048828125, 0.0166015625, 0.25
0.0029296875, 0.0166015625, 0.2431640625
0.00390625, 0.0185546875, 0.240234375
0.005859375, 0.021484375, 0.2451171875
0.0068359375, 0.0244140625, 0.2470703125
0.0048828125, 0.0283203125, 0.2421875
0.00390625, 0.0166015625, 0.234375
0.0087890625, 0.0068359375, 0.2451171875
0.0068359375, 0.017578125, 0.2568359375
-0.0029296875, 0.044921875, 0.2568359375
-0.0009765625, 0.0625, 0.251953125
0.001953125, 0.0625, 0.265625
0.005859375, 0.072265625, 0.2763671875
0.0166015625, 0.083984375, 0.3115234375
0.0107421875, 0.0927734375, 0.3486328125
0.0126953125, 0.10546875, 0.3408203125
0.009765625, 0.1181640625, 0.3203125
0.0146484375, 0.0947265625, 0.2822265625
0.0166015625, 0.06640625, 0.251953125
0.0068359375, 0.07421875, 0.2041015625
-0.0009765625, 0.078125, 0.16796875
0.0126953125, 0.01171875, 0.169921875
0.0263671875, -0.0458984375, 0.2294921875
0.0322265625, -0.044921875, 0.265625
0.0390625, -0.0087890625, 0.275390625
0.0361328125, 0.0068359375, 0.2451171875
0.0244140625, 0.0185546875, 0.208984375
0.0185546875, -0.0009765625, 0.17578125
0.0205078125, -0.05859375, 0.1533203125
0.01171875, -0.046875, 0.158203125
0.0126953125, -0.021484375, 0.1865234375
0.0107421875, -0.001953125, 0.1982421875
0.0048828125, -0.021484375, 0.185546875
0.0048828125, -0.0556640625, 0.1806640625
0.0, -0.0791015625, 0.1708984375
-0.00390625, -0.0556640625, 0.173828125
-0.0146484375, -0.0029296875, 0.173828125
-0.01953125, 0.025390625, 0.1787109375
-0.0302734375, 0.015625, 0.2119140625
-0.0341796875, 0.0068359375, 0.2607421875
-0.0390625, -0.01953125, 0.3046875
-0.05859375, -0.0341796875, 0.3251953125
-0.0732421875, -0.048828125, 0.287109375
-0.109375, -0.009765625, 0.2998046875
-0.1005859375, -0.0751953125, 0.4560546875
-0.107421875, -0.130859375, 0.591796875
-0.11328125, -0.08984375, 0.6025390625
-0.107421875, -0.0263671875, 0.609375
-0.109375, -0.0234375, 0.60546875
-0.1123046875, -0.0634765625, 0.5380859375
-0.1142578125, -0.1025390625, 0.5009765625
-0.1259765625, -0.162109375, 0.4482421875
-0.1376953125, -0.2197265625, 0.3984375
-0.1708984375, -0.201171875, 0.361328125
-0.1884765625, -0.1484375, 0.283203125
-0.22265625, -0.060546875, 0.208984375
-0.2587890625, -0.0556640625, 0.10546875
-0.224609375, -0.05078125, 0.0244140625
-0.1904296875, -0.0654296875, -0.0556640625
-0.1435546875, -0.08203125, -0.138671875
-0.083984375, -0.1044921875, -0.240234375
-0.029296875, -0.0810546875, -0.2705078125
-0.0029296875, -0.037109375, -0.271484375
0.00390625, 0.029296875, -0.2734375
0.0205078125, 0.091796875, -0.275390625
0.017578125, 0.1025390625, -0.2705078125
-0.0107421875, 0.083984375, -0.2578125
-0.0546875, 0.115234375, -0.189453125
-0.13671875, 0.103515625, -0.1572265625
-0.208984375, 0.107421875, -0.130859375
-0.21484375, 0.1376953125, 0.1259765625
-0.263671875, 0.111328125, 0.396484375
-0.3115234375, 0.017578125, 0.3916015625
-0.3359375, 0.08203125, 0.3359375
-0.28515625, 0.24609375, 0.666015625
-0.267578125, 0.224609375, 0.9990234375
-0.2216796875, 0.1005859375, 0.9990234375
-0.1611328125, -0.1103515625, 0.8740234375
-0.14453125, -0.1533203125, 0.7421875
-0.19140625, 0.00390625, 0.6279296875
-0.2041015625, 0.1806640625, 0.5556640625
-0.1904296875, 0.27734375, 0.5986328125
-0.1953125, 0.2138671875, 0.6044921875
-0.2275390625, 0.142578125, 0.5556640625
-0.236328125, 0.048828125, 0.44140625
-0.205078125, -0.0166015625, 0.4208984375
-0.2490234375, 0.029296875, 0.4560546875
-0.310546875, 0.14453125, 0.3623046875
-0.328125, 0.181640625, 0.2001953125
-0.2626953125, 0.099609375, 0.1220703125
-0.2236328125, 0.0224609375, 0.1015625
-0.220703125, 0.037109375, 0.0634765625
-0.1953125, 0.0234375, -0.1376953125
-0.068359375, -0.025390625, -0.265625
0.005859375, -0.0341796875, -0.2861328125
0.0361328125, -0.0478515625, -0.2509765625
0.064453125, -0.076171875, -0.33203125
0.0986328125, -0.0771484375, -0.42578125
0.087890625, -0.01953125, -0.4189453125
0.0634765625, 0.041015625, -0.3798828125
0.0185546875, 0.05078125, -0.3681640625
-0.0380859375, 0.0556640625, -0.3408203125
-0.107421875, 0.0478515625, -0.26171875
-0.1953125, -0.0087890625, -0.1435546875
-0.2421875, -0.0634765625, 0.0908203125
-0.28125, -0.099609375, 0.345703125
-0.267578125, -0.109375, 0.451171875
-0.2392578125, -0.0302734375, 0.2958984375
-0.26953125, 0.0625, 0.322265625
-0.2783203125, 0.16015625, 0.7109375
-0.2236328125, 0.0341796875, 0.921875
-0.1357421875, -0.150390625, 0.90234375
-0.0986328125, -0.052734375, 0.6943359375
-0.0810546875, 0.142578125, 0.5595703125
-0.0634765625, 0.1806640625, 0.583984375
-0.0732421875, -0.0087890625, 0.5673828125
-0.091796875, -0.10546875, 0.3818359375
-0.0751953125, -0.0205078125, 0.2587890625
-0.0634765625, 0.078125, 0.2294921875
-0.0654296875, 0.142578125, 0.255859375
-0.0625, 0.1181640625, 0.30078125
-0.0615234375, 0.0419921875, 0.3046875
-0.0625, -0.0205078125, 0.2548828125
-0.0625, 0.01171875, 0.20703125
-0.0615234375, 0.0791015625, 0.1904296875
-0.0537109375, 0.08203125, 0.1953125
-0.044921875, 0.0244140625, 0.21875
-0.0361328125, -0.005859375, 0.236328125
-0.0380859375, 0.0078125, 0.232421875
-0.041015625, 0.0302734375, 0.1962890625
-0.0322265625, 0.0146484375, 0.1748046875
-0.029296875, 0.0048828125, 0.212890625
-0.03125, 0.0224609375, 0.2578125
-0.03515625, 0.041015625, 0.2744140625
-0.033203125, 0.03515625, 0.240234375
-0.03515625, 0.0234375, 0.21484375
-0.0283203125, 0.0390625, 0.21484375
-0.025390625, 0.0361328125, 0.2353515625
-0.0244140625, 0.0029296875, 0.2646484375
-0.0263671875, 0.013671875, 0.259765625
-0.029296875, 0.0537109375, 0.2431640625
-0.0283203125, 0.041015625, 0.2353515625
-0.021484375, 0.0068359375, 0.2431640625
-0.0234375, -0.0029296875, 0.2490234375
-0.0234375, 0.033203125, 0.2373046875
-0.025390625, 0.0576171875, 0.220703125
-0.0263671875, 0.0654296875, 0.208984375
-0.0087890625, 0.0517578125, 0.2021484375
0.0029296875, 0.009765625, 0.2421875
0.0, 0.0029296875, 0.302734375
-0.01171875, 0.0380859375, 0.33203125
-0.01953125, 0.060546875, 0.2802734375
-0.0185546875, 0.04296875, 0.236328125
-0.0166015625, 0.0087890625, 0.234375
-0.021484375, 0.009765625, 0.2392578125
-0.0283203125, 0.0341796875, 0.2421875
-0.0244140625, 0.048828125, 0.2314453125
-0.0244140625, 0.04296875, 0.220703125
-0.0224609375, 0.033203125, 0.2119140625
-0.0205078125, 0.041015625, 0.2275390625
-0.015625, 0.0263671875, 0.2314453125
-0.0126953125, 0.013671875, 0.228515625
-0.01171875, 0.0322265625, 0.2265625
-0.0048828125, 0.0283203125, 0.228515625
-0.001953125, 0.00390625, 0.2333984375
0.0, 0.001953125, 0.2529296875
0.0, 0.0224609375, 0.2587890625
-0.0068359375, 0.0390625, 0.2578125
-0.0068359375, 0.046875, 0.244140625
-0.005859375, 0.033203125, 0.2265625
-0.005859375, 0.0224609375, 0.21875
-0.013671875, 0.033203125, 0.2353515625
-0.015625, 0.044921875, 0.2509765625
-0.0087890625, 0.029296875, 0.2626953125
-0.009765625, 0.0205078125, 0.26171875
-0.00390625, 0.01953125, 0.2548828125
0.0, 0.015625, 0.255859375
0.0, 0.033203125, 0.25
-0.0009765625, 0.0634765625, 0.2548828125
-0.005859375, 0.0625, 0.25390625
-0.0087890625, 0.0205078125, 0.2568359375
-0.013671875, -0.0087890625, 0.26171875
-0.0087890625, 0.0205078125, 0.251953125
-0.0087890625, 0.056640625, 0.236328125
-0.0029296875, 0.0576171875, 0.21484375
-0.001953125, 0.0283203125, 0.2158203125
-0.0048828125, 0.0009765625, 0.2333984375
-0.001953125, 0.0048828125, 0.24609375
-0.0048828125, 0.0263671875, 0.24609375
-0.0048828125, 0.041015625, 0.2353515625
-0.005859375, 0.0478515625, 0.2314453125
-0.005859375, 0.02734375, 0.2412109375
-0.0029296875, 0.021484375, 0.2626953125
-0.0078125, 0.0419921875, 0.26953125
-0.0107421875, 0.0498046875, 0.2578125
-0.0048828125, 0.0302734375, 0.240234375
-0.00390625, 0.03125, 0.2373046875
-0.0068359375, 0.0537109375, 0.2392578125
-0.0048828125, 0.056640625, 0.2421875
-0.009765625, 0.0478515625, 0.23046875
-0.0087890625, 0.041015625, 0.2275390625
-0.009765625, 0.0361328125, 0.248046875
-0.0078125, 0.0322265625, 0.2578125
-0.009765625, 0.02734375, 0.259765625
-0.0078125, 0.0244140625, 0.25390625
-0.00390625, 0.0361328125, 0.2470703125
-0.0068359375, 0.0390625, 0.2470703125
-0.00390625, 0.0361328125, 0.2431640625
-0.00390625, 0.0244140625, 0.23828125
-0.0009765625, 0.025390625, 0.2373046875
-0.0048828125, 0.0400390625, 0.248046875
-0.0078125, 0.021484375, 0.2578125
-0.0048828125, 0.0244140625, 0.2509765625
-0.0068359375, 0.0458984375, 0.240234375
-0.0048828125, 0.0400390625, 0.232421875
-0.0087890625, 0.0498046875, 0.234375
-0.0078125, 0.0517578125, 0.2412109375
-0.0078125, 0.017578125, 0.2451171875
-0.0078125, 0.015625, 0.2470703125
-0.01171875, 0.0537109375, 0.2529296875
-0.00390625, 0.044921875, 0.2578125
-0.0068359375, 0.015625, 0.2490234375
-0.0029296875, 0.0302734375, 0.2490234375
-0.001953125, 0.0361328125, 0.248046875
-0.0078125, 0.02734375, 0.251953125
-0.0087890625, 0.0361328125, 0.2509765625
-0.009765625, 0.0302734375, 0.24609375
-0.0087890625, 0.0205078125, 0.23828125
-0.0068359375, 0.0302734375, 0.2392578125
-0.0068359375, 0.0390625, 0.2431640625
-0.001953125, 0.0263671875, 0.248046875
-0.0078125, 0.0322265625, 0.2421875
-0.0087890625, 0.0380859375, 0.2451171875
-0.0048828125, 0.0283203125, 0.2431640625
-0.005859375, 0.0263671875, 0.251953125
-0.005859375, 0.041015625, 0.2451171875
-0.0048828125, 0.044921875, 0.2431640625
-0.0029296875, 0.0361328125, 0.2451171875
-0.005859375, 0.0205078125, 0.2421875
-0.00390625, 0.02734375, 0.248046875
-0.009765625, 0.0419921875, 0.25
-0.0068359375, 0.05078125, 0.2470703125
-0.005859375, 0.0517578125, 0.2421875
-0.0009765625, 0.0361328125, 0.240234375
-0.0029296875, 0.021484375, 0.2412109375
-0.005859375, 0.021484375, 0.2431640625
-0.00390625, 0.03515625, 0.2451171875
-0.00390625, 0.044921875, 0.2470703125
-0.001953125, 0.0283203125, 0.234375
-0.0068359375, 0.0244140625, 0.232421875
-0.005859375, 0.017578125, 0.2490234375
-0.0068359375, 0.025390625, 0.25390625
-0.005859375, 0.0478515625, 0.25
-0.0068359375, 0.0615234375, 0.248046875
-0.0087890625, 0.0458984375, 0.2490234375
-0.0078125, 0.013671875, 0.2470703125
-0.009765625, 0.0185546875, 0.2490234375
-0.0048828125, 0.03515625, 0.2451171875
-0.0048828125, 0.0458984375, 0.23828125
-0.0048828125, 0.03515625, 0.2373046875
-0.0009765625, 0.017578125, 0.2412109375
-0.00390625, 0.0283203125, 0.251953125
-0.001953125, 0.0361328125, 0.24609375
-0.0107421875, 0.0419921875, 0.23828125
-0.0048828125, 0.0341796875, 0.2470703125
-0.0068359375, 0.041015625, 0.2509765625
-0.0048828125, 0.025390625, 0.24609375
-0.005859375, 0.0126953125, 0.2451171875
-0.0048828125, 0.0419921875, 0.2412109375
-0.0048828125, 0.0478515625, 0.2451171875
-0.0029296875, 0.01953125, 0.2548828125
-0.0048828125, 0.021484375, 0.2509765625
-0.001953125, 0.033203125, 0.2451171875
-0.0087890625, 0.033203125, 0.240234375
-0.005859375, 0.033203125, 0.2333984375
-0.0068359375, 0.0302734375, 0.2353515625
-0.0029296875, 0.0390625, 0.2509765625
-0.0029296875, 0.033203125, 0.25390625
-0.0009765625, 0.021484375, 0.2421875
-0.001953125, 0.0341796875, 0.2431640625
-0.00390625, 0.041015625, 0.248046875
-0.0029296875, 0.03515625, 0.2490234375
-0.00390625, 0.0302734375, 0.2392578125
-0.001953125, 0.0390625, 0.2373046875
-0.0048828125, 0.0380859375, 0.2431640625
-0.0048828125, 0.01953125, 0.2470703125
-0.0009765625, 0.029296875, 0.248046875
0.0, 0.046875, 0.240234375
-0.0048828125, 0.048828125, 0.2333984375
-0.00390625, 0.0263671875, 0.2412109375
-0.0068359375, 0.0029296875, 0.248046875
-0.00390625, 0.0263671875, 0.2529296875
-0.005859375, 0.05078125, 0.2529296875
-0.001953125, 0.037109375, 0.24609375
-0.001953125, 0.0263671875, 0.2421875
-0.00390625, 0.0341796875, 0.24609375
-0.005859375, 0.0361328125, 0.24609375
-0.005859375, 0.0263671875, 0.2470703125
-0.0048828125, 0.02734375, 0.2421875
-0.0029296875, 0.0458984375, 0.2412109375
-0.005859375, 0.0419921875, 0.2421875
-0.0078125, 0.0322265625, 0.2421875
-0.0048828125, 0.033203125, 0.2431640625
-0.0048828125, 0.0234375, 0.2490234375
-0.0029296875, 0.0283203125, 0.24609375
-0.00390625, 0.041015625, 0.2451171875
-0.005859375, 0.0400390625, 0.240234375
-0.0029296875, 0.0283203125, 0.2421875
-0.0029296875, 0.0244140625, 0.2509765625
-0.00390625, 0.041015625, 0.2451171875
-0.0048828125, 0.037109375, 0.244140625
-0.0078125, 0.0361328125, 0.2421875
-0.0068359375, 0.02734375, 0.255859375
-0.0068359375, 0.0380859375, 0.25390625
-0.0087890625, 0.0380859375, 0.23828125
-0.001953125, 0.0166015625, 0.2392578125
-0.0029296875, 0.025390625, 0.2470703125
-0.005859375, 0.0439453125, 0.2529296875
-0.0048828125, 0.0478515625, 0.2412109375
-0.0029296875, 0.021484375, 0.2431640625
-0.0029296875, 0.017578125, 0.2470703125
-0.0029296875, 0.0341796875, 0.2509765625
-0.0048828125, 0.0400390625, 0.2431640625
0.0, 0.0302734375, 0.2451171875
-0.0009765625, 0.0234375, 0.25
-0.001953125, 0.0380859375, 0.2509765625
-0.005859375, 0.046875, 0.25
-0.00390625, 0.02734375, 0.2412109375
-0.001953125, 0.0185546875, 0.240234375
-0.0009765625, 0.029296875, 0.2353515625
-0.0029296875, 0.041015625, 0.232421875
-0.0048828125, 0.037109375, 0.240234375
-0.0048828125, 0.021484375, 0.248046875
-0.00390625, 0.0166015625, 0.25
-0.0048828125, 0.03125, 0.2490234375
-0.00390625, 0.046875, 0.2509765625
-0.005859375, 0.0361328125, 0.2529296875
-0.00390625, 0.0205078125, 0.2490234375
-0.00390625, 0.02734375, 0.2451171875
-0.001953125, 0.037109375, 0.240234375
-0.0029296875, 0.037109375, 0.2392578125
-0.0009765625, 0.0205078125, 0.2392578125
-0.0029296875, 0.015625, 0.2431640625
-0.001953125, 0.0283203125, 0.2451171875
-0.001953125, 0.0263671875, 0.2490234375
-0.005859375, 0.0380859375, 0.248046875
-0.0009765625, 0.0400390625, 0.2470703125
-0.005859375, 0.0263671875, 0.2490234375
-0.00390625, 0.0234375, 0.2490234375
-0.001953125, 0.0302734375, 0.25
-0.0029296875, 0.03515625, 0.24609375
-0.0048828125, 0.029296875, 0.2421875
-0.00390625, 0.0322265625, 0.2431640625
-0.0009765625, 0.0322265625, 0.2451171875
-0.005859375, 0.02734375, 0.244140625
-0.005859375, 0.021484375, 0.2509765625
-0.0078125, 0.0244140625, 0.2490234375
-0.0068359375, 0.03125, 0.251953125
-0.00390625, 0.0380859375, 0.25
-0.005859375, 0.0322265625, 0.2451171875
-0.0078125, 0.025390625, 0.2392578125
-0.0048828125, 0.0224609375, 0.248046875
-0.00390625, 0.0302734375, 0.251953125
-0.001953125, 0.037109375, 0.2470703125
-0.0048828125, 0.0400390625, 0.2392578125
0.0, 0.0322265625, 0.23828125
0.0, 0.0185546875, 0.2421875
0.0, 0.0244140625, 0.2421875
-0.00390625, 0.03515625, 0.2470703125
-0.005859375, 0.048828125, 0.2431640625
-0.0029296875, 0.03515625, 0.23828125
-0.0009765625, 0.0224609375, 0.2412109375
-0.0009765625, 0.01953125, 0.240234375
-0.0009765625, 0.02734375, 0.244140625
-0.00390625, 0.0322265625, 0.2548828125
