0.017578125, 0.0009765625, 0.244140625
0.013671875, 0.0146484375, 0.2451171875
0.021484375, 0.0146484375, 0.2431640625
0.021484375, 0.001953125, 0.2412109375
0.021484375, -0.005859375, 0.2392578125
0.021484375, 0.009765625, 0.2421875
0.0224609375, 0.0224609375, 0.24609375
0.017578125, 0.025390625, 0.2421875
0.0205078125, 0.01171875, 0.25390625
0.0234375, 0.0146484375, 0.2490234375
0.021484375, 0.015625, 0.228515625
0.025390625, 0.0205078125, 0.2197265625
0.0244140625, 0.0107421875, 0.2431640625
0.021484375, -0.0048828125, 0.25390625
0.0205078125, 0.0185546875, 0.26171875
0.017578125, 0.046875, 0.2509765625
0.0205078125, 0.0341796875, 0.24609375
0.0205078125, 0.0107421875, 0.23828125
0.0185546875, 0.00390625, 0.240234375
0.0224609375, 0.00390625, 0.2509765625
0.0224609375, 0.033203125, 0.2451171875
0.015625, 0.064453125, 0.2197265625
0.0166015625, 0.0458984375, 0.2099609375
0.0166015625, 0.0029296875, 0.2421875
0.017578125, -0.0224609375, 0.2861328125
0.017578125, -0.0185546875, 0.2861328125
0.0205078125, 0.0068359375, 0.2470703125
0.01953125, 0.021484375, 0.224609375
0.017578125, 0.0205078125, 0.2265625
0.0205078125, 0.0048828125, 0.2451171875
0.017578125, -0.0009765625, 0.2568359375
0.015625, 0.0, 0.263671875
0.0166015625, 0.01171875, 0.2548828125
0.017578125, 0.01171875, 0.24609375
0.0185546875, 0.001953125, 0.2412109375
0.01953125, -0.0068359375, 0.248046875
0.01953125, -0.0009765625, 0.2509765625
0.01953125, 0.0244140625, 0.2421875
0.0205078125, 0.0283203125, 0.24609375
0.0166015625, 0.0185546875, 0.236328125
0.015625, 0.0234375, 0.23046875
0.017578125, 0.0166015625, 0.2470703125
0.01953125, 0.009765625, 0.251953125
0.017578125, 0.0107421875, 0.24609375
0.0185546875, 0.0009765625, 0.2529296875
0.0244140625, -0.0048828125, 0.2548828125
0.021484375, 0.017578125, 0.2421875
0.0205078125, 0.0078125, 0.2373046875
0.0185546875, 0.01171875, 0.2431640625
0.0166015625, 0.013671875, 0.2587890625
0.01953125, 0.0107421875, 0.2509765625
0.0185546875, 0.0078125, 0.2431640625
0.0166015625, 0.005859375, 0.244140625
0.01953125, 0.0107421875, 0.2490234375
0.0185546875, 0.001953125, 0.2568359375
0.0224609375, 0.0185546875, 0.2431640625
0.0224609375, 0.0166015625, 0.236328125
0.0224609375, 0.015625, 0.2265625
0.017578125, 0.01953125, 0.2333984375
0.0205078125, 0.0146484375, 0.2509765625
0.017578125, 0.00390625, 0.2509765625
0.0185546875, 0.00390625, 0.2568359375
0.0205078125, 0.0205078125, 0.2412109375
0.0224609375, 0.017578125, 0.23828125
0.01953125, 0.025390625, 0.23828125
0.0205078125, 0.0283203125, 0.25
0.0205078125, 0.0361328125, 0.271484375
0.0205078125, 0.041015625, 0.2685546875
0.0244140625, 0.0546875, 0.2783203125
0.025390625, 0.04296875, 0.26953125
0.0302734375, 0.0634765625, 0.2470703125
0.0263671875, 0.0673828125, 0.21484375
0.0283203125, 0.0546875, 0.2060546875
0.037109375, 0.0634765625, 0.21484375
0.0341796875, 0.10546875, 0.181640625
0.021484375, 0.0791015625, 0.130859375
0.0087890625, -0.0419921875, 0.111328125
0.0205078125, -0.05859375, 0.1396484375
0.0263671875, 0.0224609375, 0.154296875
0.029296875, 0.0908203125, 0.1005859375
0.017578125, 0.0810546875, 0.046875
0.0009765625, -0.0283203125, 0.046875
-0.005859375, -0.0712890625, 0.1298828125
-0.01953125, 0.0029296875, 0.16015625
-0.0322265625, 0.1123046875, 0.1083984375
-0.0654296875, 0.11328125, 0.072265625
-0.087890625, 0.0224609375, 0.0888671875
-0.1083984375, -0.0283203125, 0.140625
-0.1240234375, 0.01953125, 0.19921875
-0.1396484375, 0.052734375, 0.205078125
-0.158203125, -0.001953125, 0.212890625
-0.17578125, 0.005859375, 0.259765625
-0.1748046875, 0.0869140625, 0.3505859375
-0.1689453125, 0.0947265625, 0.35546875
-0.177734375, 0.044921875, 0.220703125
-0.193359375, -0.017578125, 0.1767578125
-0.1943359375, -0.0693359375, 0.240234375
-0.189453125, -0.046875, 0.2666015625
-0.193359375, 0.04296875, 0.2177734375
-0.2158203125, 0.0625, 0.185546875
-0.2412109375, 0.0625, 0.162109375
-0.25, 0.0556640625, 0.1689453125
-0.2509765625, 0.00390625, 0.208984375
-0.2607421875, -0.0029296875, 0.208984375
-0.2666015625, 0.029296875, 0.203125
-0.2802734375, 0.1259765625, 0.1865234375
-0.2998046875, 0.154296875, 0.2021484375
-0.30859375, 0.0341796875, 0.294921875
-0.337890625, -0.064453125, 0.3671875
-0.3662109375, -0.0126953125, 0.380859375
-0.3681640625, 0.0390625, 0.4296875
-0.359375, 0.0537109375, 0.54296875
-0.369140625, 0.00390625, 0.6611328125
-0.412109375, 0.001953125, 0.583984375
-0.435546875, 0.1142578125, 0.4990234375
-0.4501953125, 0.220703125, 0.4609375
-0.478515625, 0.2001953125, 0.4619140625
-0.501953125, 0.1142578125, 0.4189453125
-0.5263671875, 0.025390625, 0.376953125
-0.529296875, 0.0390625, 0.38671875
-0.5556640625, 0.078125, 0.3681640625
-0.578125, 0.044921875, 0.267578125
-0.5732421875, 0.03515625, 0.19140625
-0.5283203125, 0.029296875, 0.19140625
-0.4921875, 0.0244140625, 0.2333984375
-0.47265625, -0.0166015625, 0.201171875
-0.4853515625, -0.07421875, 0.1044921875
-0.40234375, -0.029296875, -0.0791015625
-0.2958984375, -0.044921875, -0.173828125
-0.2099609375, -0.001953125, -0.12109375
-0.1396484375, 0.068359375, -0.12890625
-0.07421875, 0.025390625, -0.2587890625
-0.0107421875, -0.0400390625, -0.3173828125
0.041015625, -0.0048828125, -0.298828125
0.0751953125, 0.037109375, -0.2958984375
0.1015625, 0.052734375, -0.3486328125
0.107421875, 0.064453125, -0.40234375
0.103515625, 0.1298828125, -0.3818359375
0.08984375, 0.23828125, -0.34765625
0.064453125, 0.2392578125, -0.2666015625
0.0380859375, 0.2041015625, -0.201171875
0.0, 0.15234375, -0.16796875
-0.0576171875, 0.12890625, -0.099609375
-0.1259765625, 0.12890625, -0.0048828125
-0.1962890625, 0.1201171875, 0.1142578125
-0.2412109375, 0.12890625, 0.2958984375
-0.2314453125, 0.2158203125, 0.4658203125
-0.21875, 0.326171875, 0.5234375
-0.21484375, 0.453125, 0.4521484375
-0.2236328125, 0.515625, 0.5654296875
-0.25, 0.318359375, 0.7119140625
-0.240234375, 0.1123046875, 0.615234375
-0.2158203125, 0.0615234375, 0.541015625
-0.2060546875, 0.0107421875, 0.548828125
-0.1962890625, -0.017578125, 0.48046875
-0.185546875, 0.03515625, 0.4326171875
-0.177734375, 0.08203125, 0.416015625
-0.173828125, 0.0107421875, 0.408203125
-0.15625, -0.1142578125, 0.326171875
-0.1337890625, -0.166015625, 0.259765625
-0.1025390625, -0.2236328125, 0.234375
-0.078125, -0.2587890625, 0.25390625
-0.0595703125, -0.2802734375, 0.21875
-0.0458984375, -0.279296875, 0.189453125
-0.0380859375, -0.26171875, 0.2373046875
-0.0341796875, -0.34375, 0.2216796875
-0.033203125, -0.55859375, 0.1552734375
-0.048828125, -0.662109375, 0.216796875
-0.1015625, -0.4873046875, 0.2685546875
-0.1474609375, -0.2705078125, 0.26171875
-0.1884765625, -0.2109375, 0.2529296875
-0.232421875, -0.208984375, 0.2744140625
-0.2509765625, -0.0966796875, 0.337890625
-0.2412109375, 0.0322265625, 0.3505859375
-0.2314453125, -0.013671875, 0.2861328125
-0.2197265625, -0.013671875, 0.232421875
-0.2041015625, 0.08984375, 0.1650390625
-0.189453125, 0.1640625, 0.1298828125
-0.1640625, 0.25, 0.1796875
-0.12109375, 0.1953125, 0.2255859375
-0.078125, 0.3271484375, 0.2900390625
-0.056640625, 0.3408203125, 0.1796875
-0.0341796875, 0.234375, 0.16015625
-0.02734375, 0.208984375, 0.2373046875
-0.01171875, 0.2041015625, 0.287109375
-0.01171875, 0.2158203125, 0.251953125
-0.005859375, 0.228515625, 0.1923828125
0.001953125, 0.197265625, 0.205078125
0.0087890625, 0.189453125, 0.2265625
0.0126953125, 0.2021484375, 0.1982421875
0.0048828125, 0.1552734375, 0.17578125
0.0087890625, 0.11328125, 0.212890625
0.01171875, 0.0771484375, 0.2509765625
0.0166015625, 0.041015625, 0.28515625
0.0205078125, 0.041015625, 0.3017578125
0.0146484375, 0.068359375, 0.2880859375
0.013671875, 0.009765625, 0.2021484375
0.0185546875, 0.0302734375, 0.205078125
0.013671875, 0.0380859375, 0.23046875
0.0185546875, 0.046875, 0.2529296875
0.017578125, 0.0810546875, 0.2802734375
0.009765625, 0.0263671875, 0.2548828125
0.0087890625, -0.015625, 0.21875
0.0126953125, -0.041015625, 0.2451171875
0.0205078125, -0.0224609375, 0.2890625
0.021484375, 0.0205078125, 0.271484375
0.017578125, 0.021484375, 0.240234375
0.017578125, 0.0, 0.2109375
0.01953125, 0.01171875, 0.1904296875
0.021484375, 0.0234375, 0.2158203125
0.0166015625, 0.0283203125, 0.2392578125
0.01171875, 0.009765625, 0.2626953125
0.0107421875, 0.015625, 0.2685546875
0.0166015625, 0.0029296875, 0.2685546875
0.0166015625, 0.037109375, 0.2568359375
0.013671875, 0.0224609375, 0.25390625
0.015625, -0.0029296875, 0.2431640625
0.0224609375, 0.025390625, 0.25
0.021484375, 0.033203125, 0.2255859375
0.0185546875, 0.0234375, 0.2197265625
0.01953125, 0.015625, 0.2353515625
0.017578125, 0.0009765625, 0.263671875
0.0185546875, -0.0126953125, 0.251953125
0.0185546875, 0.0126953125, 0.2568359375
0.0205078125, 0.0283203125, 0.2421875
0.0185546875, 0.029296875, 0.2392578125
0.0185546875, 0.009765625, 0.24609375
0.01953125, 0.0048828125, 0.2578125
0.0205078125, 0.0, 0.2509765625
0.017578125, 0.0224609375, 0.23828125
0.01953125, 0.0263671875, 0.2421875
0.0205078125, 0.00390625, 0.2373046875
0.0224609375, 0.0009765625, 0.22265625
0.0234375, -0.0009765625, 0.2529296875
0.021484375, 0.01953125, 0.2607421875
0.0205078125, 0.0341796875, 0.2373046875
0.017578125, 0.044921875, 0.234375
0.017578125, 0.0234375, 0.234375
0.0185546875, 0.0087890625, 0.2421875
0.01953125, -0.0078125, 0.2568359375
0.021484375, 0.009765625, 0.2529296875
0.0224609375, 0.03515625, 0.251953125
0.01953125, 0.037109375, 0.2294921875
0.0205078125, 0.0302734375, 0.2236328125
0.0205078125, 0.0, 0.2216796875
0.0185546875, -0.001953125, 0.2421875
0.021484375, 0.0234375, 0.2607421875
0.0166015625, 0.0283203125, 0.25390625
0.017578125, 0.02734375, 0.232421875
0.017578125, 0.03125, 0.2421875
0.017578125, 0.005859375, 0.25390625
0.0146484375, -0.0009765625, 0.26171875
0.0185546875, 0.0146484375, 0.2568359375
0.0166015625, 0.005859375, 0.26953125
0.015625, 0.005859375, 0.25390625
0.0205078125, 0.0263671875, 0.220703125
0.017578125, 0.01953125, 0.23046875
0.0146484375, -0.0068359375, 0.2509765625
0.015625, 0.0068359375, 0.2529296875
0.017578125, 0.0234375, 0.2421875
0.015625, 0.015625, 0.2412109375
0.0185546875, 0.0166015625, 0.2392578125
0.0205078125, -0.0048828125, 0.22265625
0.0205078125, -0.00390625, 0.23828125
0.021484375, 0.0205078125, 0.2412109375
0.0205078125, 0.0302734375, 0.2431640625
0.01953125, 0.0126953125, 0.2421875
0.017578125, 0.0068359375, 0.244140625
0.0205078125, 0.0107421875, 0.24609375
0.01953125, 0.0087890625, 0.2587890625
0.0234375, 0.0107421875, 0.2578125
0.01953125, 0.01953125, 0.2412109375
0.0166015625, 0.037109375, 0.24609375
0.0166015625, 0.0576171875, 0.25390625
0.005859375, 0.013671875, 0.2509765625
0.0146484375, -0.0419921875, 0.2421875
0.01953125, -0.0078125, 0.279296875
0.0244140625, 0.029296875, 0.2666015625
0.0244140625, 0.0224609375, 0.2373046875
0.0263671875, 0.005859375, 0.21875
0.02734375, -0.0068359375, 0.224609375
0.029296875, -0.0087890625, 0.251953125
0.0263671875, -0.005859375, 0.2568359375
0.0283203125, -0.01171875, 0.240234375
0.02734375, -0.0029296875, 0.232421875
0.0263671875, 0.021484375, 0.2314453125
0.021484375, 0.025390625, 0.2255859375
0.0244140625, -0.005859375, 0.2373046875
0.0244140625, 0.009765625, 0.2490234375
0.0244140625, 0.0126953125, 0.2568359375
0.0205078125, 0.0107421875, 0.2490234375
0.0205078125, 0.0185546875, 0.2431640625
0.0205078125, 0.0048828125, 0.2509765625
0.01953125, 0.0087890625, 0.2470703125
0.021484375, 0.0078125, 0.240234375
0.0234375, 0.02734375, 0.240234375
0.0234375, 0.0048828125, 0.2578125
0.0224609375, -0.001953125, 0.240234375
0.0234375, 0.0185546875, 0.224609375
0.0234375, 0.005859375, 0.2529296875
0.0234375, 0.015625, 0.2509765625
0.0224609375, 0.0009765625, 0.2373046875
0.0224609375, -0.017578125, 0.2548828125
0.0224609375, 0.0244140625, 0.2392578125
0.0205078125, 0.009765625, 0.2353515625
0.0244140625, 0.0009765625, 0.2568359375
0.0224609375, 0.02734375, 0.2587890625
0.021484375, 0.01953125, 0.2470703125
0.0224609375, 0.0126953125, 0.2314453125
0.0234375, 0.001953125, 0.234375
0.025390625, -0.0048828125, 0.2548828125
0.0244140625, 0.0087890625, 0.248046875
0.021484375, 0.0224609375, 0.2470703125
0.0263671875, 0.0048828125, 0.23828125
0.02734375, 0.0029296875, 0.2333984375
0.02734375, 0.0185546875, 0.2255859375
0.025390625, -0.0048828125, 0.2412109375
0.0263671875, 0.01171875, 0.25
0.0244140625, 0.0234375, 0.2490234375
0.02734375, 0.0068359375, 0.23828125
0.0283203125, 0.001953125, 0.2373046875
0.033203125, 0.0185546875, 0.2470703125
0.0283203125, 0.0302734375, 0.2412109375
0.0185546875, 0.009765625, 0.2314453125
0.0244140625, 0.0166015625, 0.2509765625
0.0263671875, 0.02734375, 0.2607421875
0.029296875, 0.015625, 0.24609375
0.0263671875, -0.0107421875, 0.248046875
0.025390625, -0.005859375, 0.248046875
0.0283203125, 0.0166015625, 0.2412109375
0.025390625, 0.0078125, 0.25
0.025390625, 0.00390625, 0.2509765625
0.0244140625, 0.013671875, 0.244140625
0.021484375, 0.0146484375, 0.240234375
0.021484375, 0.0087890625, 0.2373046875
0.0244140625, -0.009765625, 0.2509765625
0.0224609375, 0.0283203125, 0.2373046875
0.021484375, 0.0126953125, 0.2275390625
0.0234375, -0.009765625, 0.248046875
0.025390625, 0.005859375, 0.2431640625
0.025390625, 0.0205078125, 0.236328125
0.0283203125, 0.015625, 0.2373046875
0.0244140625, 0.02734375, 0.2333984375
0.0224609375, 0.001953125, 0.2431640625
0.0263671875, -0.0087890625, 0.255859375
0.0234375, 0.0, 0.2587890625
0.0234375, 0.017578125, 0.2392578125
0.0244140625, 0.01171875, 0.2333984375
0.0234375, 0.0048828125, 0.2353515625
0.0205078125, 0.0107421875, 0.2509765625
0.0224609375, 0.00390625, 0.2529296875
0.0224609375, -0.0048828125, 0.26171875
0.0244140625, 0.0087890625, 0.2509765625
0.0224609375, 0.0244140625, 0.236328125
0.0244140625, 0.021484375, 0.2275390625
0.021484375, -0.017578125, 0.2451171875
0.0263671875, -0.0078125, 0.2705078125
0.025390625, 0.021484375, 0.2568359375
0.0283203125, 0.01171875, 0.2353515625
0.025390625, 0.0078125, 0.23046875
0.0205078125, 0.005859375, 0.2392578125
0.0244140625, 0.017578125, 0.248046875
0.021484375, 0.0107421875, 0.26171875
0.0244140625, 0.001953125, 0.255859375
0.025390625, 0.0029296875, 0.23828125
0.025390625, 0.0078125, 0.224609375
0.0244140625, 0.01171875, 0.2421875
0.025390625, 0.0078125, 0.2509765625
0.0283203125, -0.009765625, 0.251953125
0.0244140625, 0.0, 0.2451171875
0.0234375, 0.01171875, 0.2451171875
0.0224609375, 0.0009765625, 0.24609375
0.025390625, 0.0126953125, 0.2373046875
0.025390625, 0.03125, 0.2265625
0.0234375, 0.0087890625, 0.2451171875
0.0185546875, 0.0029296875, 0.2578125
0.0234375, 0.0087890625, 0.2548828125
0.0234375, 0.013671875, 0.244140625
0.0244140625, 0.0078125, 0.2392578125
0.0234375, 0.017578125, 0.236328125
0.0234375, 0.01171875, 0.2373046875
0.025390625, 0.001953125, 0.2490234375
0.025390625, 0.00390625, 0.2529296875
0.0224609375, 0.025390625, 0.2392578125
0.021484375, 0.0380859375, 0.23046875
0.0224609375, 0.01171875, 0.236328125
0.01953125, -0.0146484375, 0.2529296875
0.0234375, 0.0, 0.2587890625
0.0234375, 0.0078125, 0.2626953125
0.0234375, 0.00390625, 0.2451171875
0.0234375, 0.0146484375, 0.2177734375
0.0224609375, 0.0048828125, 0.2333984375
0.021484375, 0.00390625, 0.23828125
0.0234375, 0.01171875, 0.2490234375
0.0205078125, 0.015625, 0.2587890625
0.017578125, 0.0, 0.255859375
0.017578125, -0.0146484375, 0.236328125
0.017578125, 0.0146484375, 0.224609375
0.0244140625, 0.03125, 0.2314453125
0.0224609375, 0.03515625, 0.240234375
0.0244140625, 0.015625, 0.240234375
0.0205078125, 0.0078125, 0.2421875
0.021484375, -0.0048828125, 0.2578125
0.0205078125, -0.0009765625, 0.2666015625
0.021484375, 0.013671875, 0.2548828125
0.0166015625, 0.0185546875, 0.23828125
0.0224609375, 0.001953125, 0.2490234375
0.021484375, 0.0, 0.2529296875
0.0205078125, 0.0087890625, 0.2529296875
0.0205078125, 0.0107421875, 0.2529296875
0.0185546875, 0.0078125, 0.2578125
0.0205078125, -0.0009765625, 0.2490234375
0.01953125, 0.0048828125, 0.2509765625
0.021484375, 0.0205078125, 0.2509765625
0.017578125, 0.0048828125, 0.2490234375
0.0244140625, 0.0068359375, 0.2353515625
0.0185546875, 0.017578125, 0.2392578125
0.0185546875, 0.017578125, 0.236328125
0.017578125, 0.013671875, 0.248046875
0.017578125, 0.0087890625, 0.24609375
0.0185546875, 0.00390625, 0.24609375
0.021484375, 0.013671875, 0.2373046875
0.0234375, 0.0146484375, 0.23046875
0.021484375, 0.0029296875, 0.2333984375
0.0205078125, 0.0048828125, 0.2509765625
0.0224609375, 0.0146484375, 0.2421875
0.0185546875, 0.001953125, 0.244140625
0.0205078125, 0.013671875, 0.251953125
0.0205078125, 0.0068359375, 0.2529296875
0.0166015625, 0.0078125, 0.2412109375
0.0205078125, 0.0234375, 0.2333984375
0.01953125, 0.0009765625, 0.2490234375
0.0185546875, 0.0126953125, 0.2529296875
0.0166015625, 0.009765625, 0.2548828125
0.017578125, 0.005859375, 0.2509765625
0.0205078125, 0.0029296875, 0.2470703125
0.01953125, 0.0009765625, 0.2392578125
0.01953125, 0.005859375, 0.24609375
0.01953125, 0.005859375, 0.251953125
0.021484375, 0.005859375, 0.2490234375
0.0185546875, 0.0107421875, 0.2392578125
0.0185546875, 0.0078125, 0.232421875
0.0185546875, -0.0009765625, 0.2529296875
0.021484375, 0.001953125, 0.255859375
0.0185546875, 0.017578125, 0.23828125
0.0224609375, 0.00390625, 0.244140625
0.0185546875, 0.0009765625, 0.255859375
0.0205078125, 0.005859375, 0.2490234375
0.021484375, 0.01953125, 0.2451171875
0.021484375, 0.0224609375, 0.25390625
