-0.001953125, 0.005859375, 0.263671875
0.0, 0.017578125, 0.2578125
0.0009765625, 0.03515625, 0.2275390625
0.0, 0.0302734375, 0.2236328125
0.0, 0.0185546875, 0.248046875
0.0009765625, -0.0078125, 0.2666015625
0.001953125, 0.001953125, 0.2587890625
0.0, 0.013671875, 0.24609375
0.0, -0.0048828125, 0.2607421875
0.0009765625, 0.0048828125, 0.2578125
0.0, 0.0322265625, 0.2431640625
0.0009765625, 0.0244140625, 0.23828125
0.0, -0.0107421875, 0.255859375
0.0, -0.0078125, 0.2470703125
0.001953125, 0.02734375, 0.228515625
0.0009765625, 0.0302734375, 0.234375
0.0009765625, -0.0029296875, 0.2548828125
0.0, -0.0107421875, 0.251953125
0.0009765625, 0.0009765625, 0.248046875
0.0, 0.017578125, 0.2373046875
0.0, 0.01171875, 0.234375
0.001953125, 0.0068359375, 0.23046875
0.001953125, 0.0107421875, 0.244140625
-0.0009765625, 0.0234375, 0.251953125
0.0, 0.021484375, 0.2529296875
0.001953125, 0.0029296875, 0.244140625
0.0009765625, 0.0224609375, 0.236328125
0.0009765625, 0.0302734375, 0.22265625
0.0, 0.009765625, 0.236328125
0.0, 0.0029296875, 0.25
0.0, 0.0185546875, 0.2578125
0.0, 0.037109375, 0.2470703125
0.0009765625, 0.0380859375, 0.2451171875
0.0029296875, 0.013671875, 0.2578125
0.0, 0.0009765625, 0.255859375
0.0, -0.0068359375, 0.25390625
0.0, 0.0185546875, 0.255859375
0.0, 0.0244140625, 0.2431640625
0.0, 0.0244140625, 0.2294921875
-0.0009765625, 0.013671875, 0.251953125
0.0, -0.0048828125, 0.2666015625
0.0009765625, 0.0009765625, 0.25390625
0.0, 0.0166015625, 0.228515625
0.0, 0.017578125, 0.2470703125
0.0, -0.0068359375, 0.26171875
0.0, 0.0126953125, 0.248046875
0.001953125, 0.015625, 0.228515625
0.0029296875, 0.001953125, 0.23828125
0.001953125, 0.00390625, 0.25
-0.0009765625, 0.0205078125, 0.234375
0.0, 0.0234375, 0.244140625
0.0, 0.0009765625, 0.2626953125
0.0, 0.001953125, 0.2587890625
0.0009765625, 0.0009765625, 0.2451171875
0.001953125, 0.03515625, 0.22265625
0.0, 0.0390625, 0.216796875
0.0, -0.005859375, 0.2431640625
0.0, -0.017578125, 0.2724609375
0.0, 0.0078125, 0.259765625
0.0, 0.029296875, 0.23046875
0.0009765625, 0.0166015625, 0.23828125
0.0, -0.0009765625, 0.25
0.001953125, 0.0009765625, 0.248046875
-0.001953125, 0.029296875, 0.2470703125
-0.0009765625, 0.0341796875, 0.2392578125
-0.0009765625, 0.0078125, 0.2451171875
0.001953125, -0.00390625, 0.2587890625
0.0, 0.0234375, 0.244140625
0.001953125, 0.03515625, 0.228515625
0.0009765625, 0.0048828125, 0.2509765625
0.0009765625, -0.0068359375, 0.2666015625
-0.0009765625, 0.0224609375, 0.255859375
0.0, 0.037109375, 0.2451171875
0.0, 0.015625, 0.2431640625
0.0, -0.0126953125, 0.2587890625
0.0, 0.01171875, 0.2685546875
-0.0029296875, 0.0556640625, 0.2470703125
0.0009765625, 0.072265625, 0.2578125
0.0, 0.0625, 0.2578125
0.0, 0.0556640625, 0.2861328125
0.0009765625, 0.05859375, 0.2900390625
0.0048828125, 0.0859375, 0.2861328125
0.0107421875, 0.119140625, 0.2568359375
0.0107421875, 0.14453125, 0.23046875
0.001953125, 0.0419921875, 0.19140625
0.0107421875, -0.0244140625, 0.16015625
0.01953125, 0.04296875, 0.1396484375
0.0244140625, 0.0849609375, 0.1162109375
-0.0009765625, 0.0498046875, 0.0947265625
0.0107421875, -0.0234375, 0.123046875
0.0009765625, -0.021484375, 0.15234375
-0.0009765625, -0.001953125, 0.115234375
0.0, 0.0458984375, 0.087890625
-0.0048828125, 0.09375, 0.0517578125
-0.021484375, 0.0087890625, 0.01953125
-0.0380859375, -0.0634765625, 0.115234375
-0.0439453125, -0.0615234375, 0.20703125
-0.0546875, 0.044921875, 0.16796875
-0.0771484375, 0.126953125, 0.0234375
-0.125, 0.09375, -0.0595703125
-0.18359375, 0.0078125, 0.033203125
-0.2041015625, -0.0126953125, 0.32421875
-0.1875, 0.0107421875, 0.423828125
-0.18359375, 0.0625, 0.244140625
-0.20703125, 0.0029296875, 0.1552734375
-0.22265625, -0.060546875, 0.1875
-0.2275390625, -0.0009765625, 0.2744140625
-0.2255859375, 0.11328125, 0.3212890625
-0.2353515625, 0.1796875, 0.2578125
-0.259765625, 0.142578125, 0.1298828125
-0.3125, 0.060546875, 0.0517578125
-0.3544921875, -0.013671875, 0.12109375
-0.36328125, 0.0126953125, 0.197265625
-0.373046875, 0.052734375, 0.271484375
-0.373046875, 0.0751953125, 0.265625
-0.3896484375, 0.083984375, 0.3017578125
-0.376953125, 0.064453125, 0.37890625
-0.361328125, 0.0380859375, 0.4990234375
-0.3564453125, 0.08984375, 0.5712890625
-0.365234375, 0.0849609375, 0.5888671875
-0.37890625, 0.0859375, 0.6142578125
-0.404296875, 0.1064453125, 0.537109375
-0.447265625, 0.1103515625, 0.486328125
-0.4931640625, 0.05859375, 0.4765625
-0.51953125, 0.048828125, 0.4736328125
-0.552734375, 0.1015625, 0.4658203125
-0.603515625, 0.1572265625, 0.408203125
-0.6416015625, 0.126953125, 0.30078125
-0.62109375, -0.005859375, 0.208984375
-0.587890625, -0.0849609375, 0.23046875
-0.5703125, 0.001953125, 0.2041015625
-0.5400390625, 0.087890625, 0.0888671875
-0.45703125, 0.0498046875, -0.033203125
-0.36328125, 0.029296875, -0.08203125
-0.2734375, 0.005859375, -0.1015625
-0.1875, 0.0, -0.0791015625
-0.12109375, -0.0166015625, -0.0673828125
-0.072265625, -0.013671875, -0.1201171875
-0.03125, 0.021484375, -0.1748046875
0.0078125, 0.05859375, -0.2080078125
0.033203125, 0.0810546875, -0.263671875
0.048828125, 0.078125, -0.3369140625
0.0654296875, 0.10546875, -0.326171875
0.0654296875, 0.2158203125, -0.2958984375
0.0595703125, 0.29296875, -0.20703125
0.041015625, 0.2587890625, -0.1416015625
0.009765625, 0.201171875, -0.0947265625
-0.0146484375, 0.2294921875, -0.0849609375
-0.0615234375, 0.2822265625, -0.0546875
-0.1171875, 0.30859375, 0.052734375
-0.1708984375, 0.298828125, 0.2041015625
-0.220703125, 0.2646484375, 0.3037109375
-0.2548828125, 0.2783203125, 0.2783203125
-0.2880859375, 0.384765625, 0.4296875
-0.3046875, 0.4052734375, 0.6552734375
-0.2822265625, 0.2998046875, 0.6943359375
-0.2568359375, 0.173828125, 0.53515625
-0.2431640625, 0.1376953125, 0.37109375
-0.2412109375, 0.1259765625, 0.3251953125
-0.2490234375, 0.064453125, 0.4130859375
-0.236328125, -0.048828125, 0.44921875
-0.2021484375, -0.09765625, 0.4267578125
-0.1787109375, -0.1298828125, 0.330078125
-0.1552734375, -0.15625, 0.23046875
-0.1494140625, -0.1572265625, 0.2275390625
-0.1416015625, -0.177734375, 0.337890625
-0.123046875, -0.322265625, 0.4453125
-0.11328125, -0.4033203125, 0.439453125
-0.111328125, -0.3759765625, 0.3623046875
-0.1220703125, -0.318359375, 0.328125
-0.123046875, -0.2724609375, 0.2705078125
-0.126953125, -0.2861328125, 0.25390625
-0.146484375, -0.375, 0.27734375
-0.1787109375, -0.4072265625, 0.33984375
-0.21875, -0.357421875, 0.3291015625
-0.2587890625, -0.271484375, 0.291015625
-0.2880859375, -0.18359375, 0.2421875
-0.318359375, -0.166015625, 0.2412109375
-0.349609375, -0.0966796875, 0.240234375
-0.3720703125, -0.0078125, 0.2080078125
-0.375, 0.033203125, 0.2177734375
-0.375, 0.09375, 0.27734375
-0.3466796875, 0.2392578125, 0.2548828125
-0.2626953125, 0.4755859375, 0.2099609375
-0.1982421875, 0.5185546875, 0.103515625
-0.1455078125, 0.43359375, 0.0380859375
-0.09765625, 0.3818359375, 0.10546875
-0.0712890625, 0.3974609375, 0.212890625
-0.0478515625, 0.3798828125, 0.248046875
-0.0361328125, 0.3271484375, 0.19140625
-0.0185546875, 0.232421875, 0.193359375
-0.013671875, 0.212890625, 0.2421875
-0.0068359375, 0.1953125, 0.203125
-0.00390625, 0.140625, 0.19140625
0.0, 0.0849609375, 0.22265625
0.0078125, 0.0302734375, 0.248046875
0.0146484375, -0.01171875, 0.28125
0.01171875, -0.0087890625, 0.3115234375
0.0078125, 0.0234375, 0.2978515625
0.0107421875, 0.0400390625, 0.236328125
0.00390625, 0.033203125, 0.2392578125
0.0029296875, 0.01171875, 0.2646484375
0.0029296875, 0.0146484375, 0.24609375
0.0068359375, 0.0048828125, 0.236328125
0.0078125, 0.0068359375, 0.255859375
0.009765625, 0.029296875, 0.232421875
0.01171875, -0.041015625, 0.2392578125
0.009765625, -0.0537109375, 0.2841796875
0.0087890625, 0.0126953125, 0.265625
0.0078125, 0.041015625, 0.2197265625
0.0068359375, 0.01171875, 0.2109375
0.0048828125, -0.0224609375, 0.2421875
0.0048828125, 0.0146484375, 0.2412109375
0.0048828125, 0.0185546875, 0.26171875
0.0068359375, -0.0068359375, 0.2587890625
0.0068359375, 0.029296875, 0.2255859375
0.0078125, 0.0458984375, 0.208984375
0.005859375, 0.0244140625, 0.2333984375
0.0048828125, -0.0048828125, 0.2734375
0.0078125, -0.0009765625, 0.2734375
0.0078125, 0.0224609375, 0.2509765625
0.0009765625, 0.013671875, 0.251953125
0.0078125, 0.009765625, 0.23046875
0.01171875, 0.021484375, 0.2509765625
0.01171875, 0.0380859375, 0.2421875
0.0078125, 0.0, 0.248046875
0.005859375, 0.0146484375, 0.2509765625
0.0048828125, 0.0390625, 0.2431640625
0.005859375, 0.0166015625, 0.2431640625
0.00390625, 0.025390625, 0.25
0.005859375, 0.052734375, 0.25
0.0048828125, 0.029296875, 0.2216796875
0.0048828125, 0.0205078125, 0.2294921875
0.005859375, 0.0126953125, 0.25390625
0.0048828125, 0.01953125, 0.2470703125
0.00390625, 0.0419921875, 0.251953125
0.0078125, 0.03515625, 0.2529296875
0.005859375, 0.0263671875, 0.2470703125
0.005859375, 0.01171875, 0.2314453125
0.009765625, 0.02734375, 0.2177734375
0.009765625, 0.0078125, 0.24609375
0.0048828125, 0.0, 0.2783203125
0.0029296875, 0.0224609375, 0.255859375
0.0048828125, 0.041015625, 0.2275390625
0.009765625, 0.05078125, 0.2197265625
0.0068359375, 0.0126953125, 0.240234375
0.0029296875, 0.0068359375, 0.244140625
0.0068359375, 0.017578125, 0.26171875
0.0087890625, 0.0, 0.2734375
0.0068359375, 0.0244140625, 0.2607421875
0.0068359375, 0.029296875, 0.2412109375
0.0087890625, 0.0087890625, 0.22265625
0.0087890625, 0.0, 0.244140625
0.0068359375, 0.0087890625, 0.2626953125
0.005859375, 0.01953125, 0.2548828125
0.0029296875, 0.017578125, 0.2412109375
0.0078125, 0.021484375, 0.2373046875
0.0107421875, 0.0185546875, 0.22265625
0.0087890625, 0.0146484375, 0.216796875
0.0087890625, 0.0048828125, 0.236328125
0.0087890625, 0.0185546875, 0.2490234375
0.00390625, 0.025390625, 0.2568359375
0.001953125, 0.01171875, 0.2470703125
0.0029296875, 0.013671875, 0.2783203125
0.005859375, 0.02734375, 0.267578125
0.00390625, 0.02734375, 0.23828125
0.00390625, 0.0029296875, 0.2353515625
0.0068359375, 0.00390625, 0.240234375
0.0068359375, 0.0302734375, 0.2607421875
0.0078125, 0.02734375, 0.2412109375
0.00390625, 0.00390625, 0.2451171875
0.0078125, -0.0048828125, 0.2626953125
0.0078125, 0.0087890625, 0.2548828125
0.0087890625, 0.0302734375, 0.2421875
0.0087890625, 0.025390625, 0.2392578125
0.0087890625, 0.0126953125, 0.23828125
0.0078125, 0.015625, 0.2392578125
0.0078125, 0.0244140625, 0.23828125
0.009765625, 0.01171875, 0.2392578125
0.009765625, 0.0107421875, 0.2548828125
0.0078125, 0.015625, 0.2587890625
0.0078125, 0.041015625, 0.2333984375
0.0078125, 0.0185546875, 0.232421875
0.0078125, 0.01171875, 0.25
0.0078125, 0.037109375, 0.2431640625
0.0078125, 0.021484375, 0.2431640625
0.01171875, 0.0146484375, 0.2431640625
0.0087890625, 0.0146484375, 0.25
0.0078125, 0.01953125, 0.2421875
0.0068359375, 0.021484375, 0.2470703125
0.009765625, 0.015625, 0.244140625
0.01171875, 0.0390625, 0.236328125
0.0087890625, 0.0302734375, 0.2275390625
0.009765625, -0.0048828125, 0.234375
0.00390625, -0.0078125, 0.2587890625
0.0048828125, 0.025390625, 0.2646484375
0.0068359375, 0.0361328125, 0.2451171875
0.0078125, 0.0078125, 0.2275390625
0.005859375, 0.00390625, 0.2314453125
0.0107421875, 0.0185546875, 0.2421875
0.0078125, 0.025390625, 0.255859375
0.0048828125, 0.0244140625, 0.2587890625
0.00390625, 0.0146484375, 0.25
0.00390625, 0.013671875, 0.236328125
0.0068359375, 0.009765625, 0.2490234375
0.0068359375, 0.0087890625, 0.2412109375
0.0087890625, 0.01171875, 0.2470703125
0.0048828125, 0.017578125, 0.2470703125
0.00390625, 0.0185546875, 0.2392578125
0.0048828125, 0.0126953125, 0.25
0.00390625, 0.0078125, 0.2548828125
0.00390625, 0.0146484375, 0.2509765625
0.005859375, 0.01953125, 0.2412109375
0.0048828125, 0.0341796875, 0.2373046875
0.001953125, 0.0126953125, 0.2578125
0.005859375, 0.001953125, 0.2509765625
0.00390625, 0.02734375, 0.24609375
0.005859375, 0.0380859375, 0.236328125
0.0009765625, 0.0126953125, 0.2421875
0.00390625, -0.00390625, 0.2626953125
0.0068359375, 0.0205078125, 0.25390625
0.0029296875, 0.033203125, 0.240234375
0.0009765625, 0.0087890625, 0.2353515625
0.00390625, 0.0107421875, 0.2490234375
0.005859375, 0.025390625, 0.251953125
0.00390625, 0.01953125, 0.25
0.0, 0.017578125, 0.2392578125
0.001953125, 0.021484375, 0.212890625
0.009765625, 0.017578125, 0.234375
0.0107421875, 0.0009765625, 0.2685546875
0.00390625, 0.0048828125, 0.2587890625
0.00390625, 0.0244140625, 0.2294921875
0.0078125, 0.0166015625, 0.2421875
0.005859375, 0.0009765625, 0.2607421875
0.0009765625, 0.017578125, 0.2548828125
0.0009765625, 0.0244140625, 0.240234375
0.0029296875, 0.013671875, 0.2587890625
0.0029296875, 0.0078125, 0.2666015625
0.0029296875, 0.015625, 0.2412109375
0.0048828125, 0.013671875, 0.2265625
0.0078125, 0.0205078125, 0.2333984375
0.005859375, 0.0166015625, 0.251953125
0.00390625, 0.015625, 0.2607421875
0.00390625, 0.0107421875, 0.2548828125
0.00390625, 0.025390625, 0.2353515625
0.00390625, 0.0244140625, 0.22265625
0.00390625, 0.017578125, 0.2451171875
0.0048828125, 0.015625, 0.2490234375
0.0029296875, 0.0166015625, 0.2470703125
0.001953125, 0.021484375, 0.244140625
0.001953125, 0.03125, 0.244140625
0.00390625, 0.0166015625, 0.2509765625
0.005859375, 0.0087890625, 0.25390625
0.00390625, 0.0107421875, 0.2451171875
0.0029296875, 0.0146484375, 0.2353515625
0.0048828125, 0.00390625, 0.2431640625
0.0048828125, 0.0166015625, 0.2529296875
0.00390625, 0.02734375, 0.24609375
0.0029296875, 0.005859375, 0.2451171875
0.0009765625, -0.0009765625, 0.26171875
0.005859375, 0.015625, 0.25390625
0.0048828125, 0.029296875, 0.224609375
0.00390625, 0.013671875, 0.2255859375
0.0048828125, 0.0009765625, 0.244140625
0.005859375, 0.0107421875, 0.2578125
0.005859375, 0.0205078125, 0.2412109375
0.0029296875, 0.0263671875, 0.234375
0.00390625, 0.013671875, 0.2470703125
0.0068359375, 0.0029296875, 0.2529296875
0.005859375, 0.013671875, 0.251953125
0.0048828125, 0.0234375, 0.244140625
0.001953125, 0.021484375, 0.2412109375
0.001953125, 0.013671875, 0.2451171875
0.0009765625, 0.0185546875, 0.2470703125
0.001953125, 0.0234375, 0.240234375
0.00390625, 0.01953125, 0.2431640625
0.00390625, 0.0205078125, 0.2392578125
0.001953125, 0.01171875, 0.2314453125
0.005859375, 0.015625, 0.2451171875
0.00390625, 0.0146484375, 0.2587890625
0.001953125, 0.009765625, 0.2392578125
0.005859375, 0.01171875, 0.232421875
0.0029296875, 0.0205078125, 0.2431640625
0.001953125, 0.01953125, 0.2421875
0.0009765625, 0.0087890625, 0.2431640625
0.001953125, 0.017578125, 0.259765625
0.0048828125, 0.0302734375, 0.2548828125
0.0048828125, 0.0224609375, 0.2373046875
0.0048828125, 0.005859375, 0.25
0.0029296875, 0.009765625, 0.2578125
0.0029296875, 0.0166015625, 0.2587890625
0.0, 0.01953125, 0.25
0.0029296875, 0.015625, 0.24609375
0.001953125, 0.0146484375, 0.2431640625
0.0048828125, 0.0078125, 0.2490234375
0.0048828125, 0.0048828125, 0.2451171875
0.0048828125, 0.0263671875, 0.240234375
0.0009765625, 0.017578125, 0.2373046875
0.00390625, 0.00390625, 0.2412109375
0.0048828125, 0.0029296875, 0.2431640625
0.001953125, 0.0087890625, 0.248046875
0.0009765625, 0.013671875, 0.2509765625
0.0029296875, 0.0185546875, 0.2412109375
0.001953125, 0.02734375, 0.2333984375
0.0, 0.0087890625, 0.2431640625
0.0009765625, 0.0009765625, 0.255859375
0.00390625, 0.017578125, 0.2421875
0.0029296875, 0.029296875, 0.236328125
0.0029296875, 0.0146484375, 0.2373046875
0.0048828125, 0.0009765625, 0.244140625
0.00390625, 0.0107421875, 0.244140625
0.001953125, 0.021484375, 0.2490234375
0.0029296875, 0.0185546875, 0.251953125
0.0009765625, 0.015625, 0.2548828125
0.001953125, 0.015625, 0.2421875
0.0009765625, 0.03125, 0.2373046875
0.0029296875, 0.0205078125, 0.2548828125
0.00390625, 0.0029296875, 0.26171875
0.0009765625, 0.0, 0.248046875
0.0009765625, 0.0185546875, 0.2421875
0.0029296875, 0.033203125, 0.2353515625
0.0048828125, 0.0224609375, 0.2392578125
0.0029296875, 0.00390625, 0.2421875
0.0029296875, 0.0146484375, 0.2529296875
0.001953125, 0.0234375, 0.248046875
0.001953125, 0.0107421875, 0.2470703125
0.0029296875, 0.025390625, 0.2421875
0.001953125, 0.025390625, 0.244140625
0.001953125, 0.01171875, 0.25390625
0.001953125, 0.0107421875, 0.263671875
0.0029296875, 0.01171875, 0.2451171875
0.001953125, 0.01171875, 0.2353515625
0.0029296875, 0.0048828125, 0.2412109375
0.0029296875, 0.0146484375, 0.255859375
0.005859375, 0.009765625, 0.2529296875
0.0048828125, 0.0107421875, 0.2431640625
0.00390625, 0.02734375, 0.240234375
0.001953125, 0.02734375, 0.2431640625
0.0, 0.0009765625, 0.24609375
0.0009765625, 0.001953125, 0.25
0.0048828125, 0.0224609375, 0.2490234375
0.005859375, 0.0234375, 0.240234375
0.001953125, 0.0146484375, 0.2353515625
0.001953125, 0.015625, 0.2392578125
0.00390625, 0.025390625, 0.2421875
0.0048828125, 0.025390625, 0.244140625
0.0009765625, 0.0126953125, 0.2626953125
0.00390625, 0.01171875, 0.2509765625
0.001953125, 0.0205078125, 0.2275390625
0.0048828125, 0.02734375, 0.2255859375
