0.029296875, 0.017578125, 0.2353515625
0.0283203125, 0.0234375, 0.2333984375
0.0283203125, 0.0185546875, 0.2421875
0.029296875, 0.005859375, 0.2509765625
0.0283203125, 0.0068359375, 0.2529296875
0.03125, 0.0107421875, 0.2431640625
0.029296875, 0.005859375, 0.24609375
0.033203125, -0.0009765625, 0.2509765625
0.029296875, 0.001953125, 0.248046875
0.0302734375, 0.0029296875, 0.2412109375
0.03125, -0.0029296875, 0.25
0.0283203125, -0.0009765625, 0.2529296875
0.029296875, 0.0146484375, 0.25
0.0234375, 0.0087890625, 0.2431640625
0.0244140625, 0.0009765625, 0.240234375
0.025390625, 0.0068359375, 0.2353515625
0.02734375, 0.01953125, 0.2353515625
0.0244140625, 0.0126953125, 0.2470703125
0.0244140625, -0.001953125, 0.2509765625
0.03125, -0.0078125, 0.2470703125
0.029296875, 0.005859375, 0.2431640625
0.0341796875, 0.0009765625, 0.25
0.037109375, -0.0009765625, 0.2529296875
0.0380859375, -0.001953125, 0.25
0.0341796875, -0.0078125, 0.2314453125
0.0361328125, -0.0263671875, 0.2431640625
0.03125, -0.021484375, 0.2578125
0.0302734375, -0.0009765625, 0.2548828125
0.029296875, 0.005859375, 0.2421875
0.0302734375, 0.0009765625, 0.236328125
0.0302734375, -0.0029296875, 0.240234375
0.029296875, -0.0166015625, 0.2392578125
0.029296875, -0.025390625, 0.2392578125
0.0283203125, -0.0126953125, 0.251953125
0.029296875, -0.0029296875, 0.2490234375
0.029296875, 0.0009765625, 0.2314453125
0.033203125, 0.0009765625, 0.2265625
0.0341796875, 0.001953125, 0.2373046875
0.033203125, -0.0068359375, 0.2529296875
0.03125, -0.0107421875, 0.248046875
0.03125, 0.0087890625, 0.2373046875
0.0322265625, 0.0185546875, 0.2353515625
0.03125, 0.0078125, 0.248046875
0.0302734375, -0.01171875, 0.2509765625
0.02734375, -0.0009765625, 0.255859375
0.0302734375, 0.0146484375, 0.23828125
0.029296875, 0.01171875, 0.2509765625
0.029296875, 0.0029296875, 0.2568359375
0.0302734375, 0.0146484375, 0.240234375
0.033203125, 0.0107421875, 0.232421875
0.033203125, -0.0107421875, 0.2490234375
0.029296875, -0.0185546875, 0.2578125
0.0302734375, 0.001953125, 0.2490234375
0.033203125, 0.017578125, 0.23828125
0.0322265625, 0.00390625, 0.2412109375
0.033203125, -0.0087890625, 0.2353515625
0.03515625, -0.001953125, 0.2255859375
0.0361328125, 0.0166015625, 0.22265625
0.0341796875, 0.0107421875, 0.22265625
0.0361328125, -0.0087890625, 0.2373046875
0.033203125, -0.0126953125, 0.2431640625
0.03125, 0.0107421875, 0.2646484375
0.02734375, 0.037109375, 0.2666015625
0.021484375, 0.0068359375, 0.2431640625
0.029296875, -0.0224609375, 0.2470703125
0.03125, -0.029296875, 0.2392578125
0.029296875, -0.0048828125, 0.2421875
0.0322265625, 0.0185546875, 0.244140625
0.03125, 0.0087890625, 0.25390625
0.033203125, -0.0283203125, 0.2646484375
0.029296875, -0.02734375, 0.263671875
0.029296875, -0.0068359375, 0.2587890625
0.029296875, 0.001953125, 0.271484375
0.029296875, 0.0224609375, 0.2705078125
0.0322265625, 0.0302734375, 0.2607421875
0.0322265625, 0.0126953125, 0.251953125
0.0361328125, 0.037109375, 0.259765625
0.0390625, 0.0888671875, 0.25
0.04296875, 0.1064453125, 0.2294921875
0.0458984375, 0.068359375, 0.22265625
0.044921875, 0.0322265625, 0.251953125
0.0517578125, 0.04296875, 0.2509765625
0.0576171875, 0.06640625, 0.2021484375
0.0595703125, 0.0537109375, 0.140625
0.05078125, -0.0185546875, 0.068359375
0.0390625, -0.0302734375, 0.0390625
0.0302734375, 0.0615234375, 0.0224609375
0.03125, 0.1435546875, -0.0078125
0.0146484375, 0.0322265625, 0.013671875
-0.0048828125, -0.1044921875, 0.0205078125
-0.0576171875, -0.1044921875, -0.0556640625
-0.1103515625, 0.03515625, -0.123046875
-0.173828125, 0.1279296875, -0.0751953125
-0.232421875, 0.0986328125, 0.171875
-0.23046875, -0.0361328125, 0.361328125
-0.21484375, -0.0634765625, 0.453125
-0.1884765625, -0.0205078125, 0.255859375
-0.2197265625, -0.0166015625, 0.072265625
-0.2705078125, -0.0615234375, 0.087890625
-0.30078125, -0.044921875, 0.1943359375
-0.291015625, 0.095703125, 0.3486328125
-0.2861328125, 0.1826171875, 0.3349609375
-0.3134765625, 0.0810546875, 0.228515625
-0.3203125, -0.0546875, 0.2705078125
-0.283203125, 0.01171875, 0.375
-0.248046875, 0.09375, 0.357421875
-0.275390625, 0.0576171875, 0.22265625
-0.2978515625, -0.0068359375, 0.1689453125
-0.3115234375, 0.00390625, 0.2158203125
-0.2978515625, 0.0712890625, 0.3837890625
-0.3076171875, 0.0986328125, 0.482421875
-0.32421875, 0.033203125, 0.423828125
-0.341796875, 0.05078125, 0.4140625
-0.3466796875, 0.0498046875, 0.4189453125
-0.3583984375, 0.0869140625, 0.4853515625
-0.3759765625, 0.107421875, 0.4833984375
-0.3916015625, 0.103515625, 0.431640625
-0.4013671875, 0.1201171875, 0.3525390625
-0.400390625, 0.1181640625, 0.2978515625
-0.396484375, 0.103515625, 0.3271484375
-0.3896484375, 0.0869140625, 0.408203125
-0.4091796875, 0.078125, 0.4814453125
-0.451171875, 0.068359375, 0.3916015625
-0.455078125, 0.0107421875, 0.263671875
-0.4375, -0.005859375, 0.2021484375
-0.4130859375, 0.0185546875, 0.20703125
-0.390625, 0.009765625, 0.1962890625
-0.3671875, -0.0048828125, 0.1416015625
-0.3125, 0.03515625, 0.009765625
-0.2314453125, 0.0625, -0.0244140625
-0.1689453125, 0.04296875, 0.005859375
-0.12109375, 0.017578125, 0.005859375
-0.076171875, -0.0009765625, -0.0341796875
-0.03125, -0.0341796875, -0.087890625
0.009765625, -0.01953125, -0.12109375
0.0478515625, 0.046875, -0.15234375
0.0771484375, 0.0966796875, -0.2119140625
0.0947265625, -0.0029296875, -0.271484375
0.1123046875, -0.0576171875, -0.2734375
0.1015625, -0.0205078125, -0.263671875
0.09375, 0.0439453125, -0.2392578125
0.07421875, 0.107421875, -0.130859375
0.0615234375, 0.1240234375, -0.0244140625
0.0439453125, 0.099609375, -0.0009765625
0.0302734375, 0.109375, 0.017578125
0.0087890625, 0.150390625, 0.0966796875
-0.0146484375, 0.154296875, 0.1513671875
-0.0283203125, 0.13671875, 0.1982421875
-0.0224609375, 0.1572265625, 0.32421875
-0.0419921875, 0.1533203125, 0.412109375
-0.033203125, 0.095703125, 0.4169921875
-0.02734375, 0.08984375, 0.3671875
-0.0478515625, 0.1455078125, 0.3330078125
-0.072265625, 0.21875, 0.353515625
-0.0908203125, 0.21484375, 0.447265625
-0.1015625, 0.1708984375, 0.48046875
-0.103515625, 0.189453125, 0.4111328125
-0.126953125, 0.21484375, 0.3427734375
-0.169921875, 0.0146484375, 0.3271484375
-0.1708984375, -0.146484375, 0.4150390625
-0.1494140625, -0.1181640625, 0.5048828125
-0.14453125, -0.078125, 0.421875
-0.1494140625, -0.0087890625, 0.296875
-0.15625, -0.0048828125, 0.2568359375
-0.158203125, -0.1875, 0.26953125
-0.130859375, -0.33984375, 0.2939453125
-0.10546875, -0.3671875, 0.2666015625
-0.0888671875, -0.39453125, 0.1943359375
-0.076171875, -0.4619140625, 0.1650390625
-0.0498046875, -0.380859375, 0.22265625
-0.037109375, -0.3173828125, 0.251953125
-0.048828125, -0.466796875, 0.2021484375
-0.0771484375, -0.509765625, 0.15234375
-0.1025390625, -0.353515625, 0.1630859375
-0.1318359375, -0.2548828125, 0.16015625
-0.1630859375, -0.193359375, 0.16015625
-0.1787109375, -0.130859375, 0.2041015625
-0.1875, -0.0869140625, 0.2470703125
-0.1875, 0.0068359375, 0.32421875
-0.1767578125, 0.0419921875, 0.3662109375
-0.1630859375, 0.0244140625, 0.2861328125
-0.1591796875, 0.009765625, 0.189453125
-0.16015625, 0.1044921875, 0.212890625
-0.119140625, 0.169921875, 0.287109375
-0.1025390625, 0.130859375, 0.291015625
-0.0947265625, 0.1357421875, 0.2861328125
-0.0810546875, 0.2138671875, 0.279296875
-0.0576171875, 0.2333984375, 0.2529296875
-0.0400390625, 0.2685546875, 0.240234375
-0.029296875, 0.2724609375, 0.2080078125
-0.0126953125, 0.189453125, 0.19140625
-0.0009765625, 0.1318359375, 0.2138671875
0.001953125, 0.14453125, 0.2314453125
0.00390625, 0.185546875, 0.201171875
0.0087890625, 0.181640625, 0.1826171875
0.0068359375, 0.1025390625, 0.193359375
0.0087890625, 0.025390625, 0.2275390625
0.0107421875, 0.0009765625, 0.2744140625
0.015625, 0.01171875, 0.3115234375
0.01171875, 0.0283203125, 0.28515625
0.0107421875, 0.0361328125, 0.2451171875
0.0078125, 0.041015625, 0.2138671875
0.009765625, 0.0244140625, 0.2294921875
0.0068359375, 0.01171875, 0.2587890625
0.00390625, 0.0087890625, 0.2587890625
0.009765625, -0.0107421875, 0.26953125
0.009765625, -0.0341796875, 0.2744140625
0.0048828125, -0.0244140625, 0.2763671875
0.01171875, -0.0029296875, 0.2578125
0.01171875, 0.001953125, 0.2470703125
0.0126953125, 0.0068359375, 0.2265625
0.0126953125, -0.0107421875, 0.2216796875
0.0146484375, -0.009765625, 0.255859375
0.013671875, 0.0078125, 0.2578125
0.0126953125, 0.0390625, 0.2216796875
0.0126953125, 0.03515625, 0.2158203125
0.0126953125, 0.0048828125, 0.228515625
0.0166015625, -0.00390625, 0.25
0.0185546875, 0.0107421875, 0.2587890625
0.015625, -0.00390625, 0.2626953125
0.01171875, -0.0107421875, 0.255859375
0.0146484375, 0.0, 0.2421875
0.0146484375, 0.0205078125, 0.228515625
0.0185546875, 0.0302734375, 0.25
0.015625, 0.021484375, 0.2451171875
0.0166015625, 0.0, 0.2451171875
0.01953125, -0.009765625, 0.2392578125
0.0224609375, 0.0029296875, 0.2490234375
0.0205078125, 0.02734375, 0.2431640625
0.017578125, 0.0185546875, 0.2470703125
0.017578125, -0.0029296875, 0.2392578125
0.0224609375, 0.015625, 0.2412109375
0.0205078125, 0.029296875, 0.240234375
0.015625, 0.0068359375, 0.232421875
0.0185546875, 0.0, 0.2392578125
0.01953125, 0.0224609375, 0.244140625
0.017578125, 0.03515625, 0.24609375
0.017578125, 0.0185546875, 0.2490234375
0.0185546875, 0.001953125, 0.2470703125
0.0205078125, 0.001953125, 0.2490234375
0.0234375, 0.0009765625, 0.2587890625
0.0205078125, 0.0146484375, 0.2587890625
0.0234375, 0.03515625, 0.2421875
0.0224609375, 0.0234375, 0.24609375
0.0205078125, 0.013671875, 0.232421875
0.0234375, 0.0, 0.2421875
0.021484375, 0.009765625, 0.248046875
0.0244140625, 0.015625, 0.2607421875
0.025390625, 0.0185546875, 0.244140625
0.025390625, 0.0283203125, 0.23828125
0.029296875, 0.0146484375, 0.251953125
0.0322265625, 0.0234375, 0.25390625
0.037109375, 0.044921875, 0.2294921875
0.021484375, 0.05078125, 0.2109375
0.0185546875, 0.0107421875, 0.1943359375
0.017578125, 0.0, 0.2353515625
0.0166015625, 0.001953125, 0.267578125
0.005859375, 0.0146484375, 0.263671875
0.0009765625, 0.00390625, 0.298828125
0.001953125, -0.001953125, 0.3291015625
0.0009765625, 0.0107421875, 0.2998046875
0.0087890625, 0.0322265625, 0.2451171875
0.0078125, 0.0166015625, 0.2119140625
0.0087890625, 0.0009765625, 0.208984375
0.0126953125, 0.009765625, 0.2314453125
0.0166015625, -0.001953125, 0.2421875
0.0224609375, -0.01953125, 0.2353515625
0.029296875, -0.0087890625, 0.2333984375
0.033203125, 0.00390625, 0.232421875
0.0361328125, -0.0048828125, 0.2412109375
0.0380859375, -0.009765625, 0.251953125
0.037109375, 0.0126953125, 0.2685546875
0.033203125, 0.033203125, 0.2607421875
0.0283203125, 0.041015625, 0.2236328125
0.025390625, 0.0224609375, 0.2138671875
0.025390625, -0.01171875, 0.2431640625
0.02734375, -0.0078125, 0.26171875
0.02734375, 0.0166015625, 0.2294921875
0.029296875, 0.0458984375, 0.20703125
0.029296875, 0.021484375, 0.2001953125
0.029296875, -0.0126953125, 0.224609375
0.0322265625, -0.0166015625, 0.2490234375
0.0322265625, -0.0048828125, 0.25390625
0.037109375, -0.01171875, 0.2509765625
0.0380859375, -0.0126953125, 0.2353515625
0.033203125, -0.017578125, 0.2197265625
0.033203125, -0.0166015625, 0.2529296875
0.03125, -0.0302734375, 0.29296875
0.029296875, -0.0166015625, 0.28125
0.02734375, 0.021484375, 0.23828125
0.0283203125, 0.0068359375, 0.2001953125
0.0302734375, 0.005859375, 0.21484375
0.0302734375, 0.025390625, 0.24609375
0.02734375, 0.0185546875, 0.267578125
0.0341796875, 0.001953125, 0.265625
0.0400390625, 0.02734375, 0.2646484375
0.0419921875, 0.048828125, 0.2470703125
0.0458984375, 0.0244140625, 0.251953125
0.0439453125, 0.0068359375, 0.2626953125
0.0458984375, 0.0283203125, 0.2587890625
0.0498046875, 0.0576171875, 0.2734375
0.052734375, 0.041015625, 0.263671875
0.0498046875, -0.0009765625, 0.2412109375
0.0458984375, -0.0244140625, 0.240234375
0.0439453125, -0.0146484375, 0.2490234375
0.0439453125, 0.017578125, 0.2412109375
0.044921875, 0.01953125, 0.24609375
0.037109375, -0.0029296875, 0.2412109375
0.0390625, -0.02734375, 0.2373046875
0.0380859375, -0.0029296875, 0.216796875
0.0380859375, 0.029296875, 0.22265625
0.0380859375, 0.0263671875, 0.234375
0.0380859375, -0.0087890625, 0.2255859375
0.0341796875, -0.0439453125, 0.2080078125
0.037109375, -0.0185546875, 0.1923828125
0.0390625, 0.02734375, 0.2080078125
0.0341796875, 0.0390625, 0.228515625
0.0341796875, 0.0, 0.24609375
0.033203125, -0.0361328125, 0.2529296875
0.03515625, -0.0302734375, 0.2587890625
0.033203125, 0.0146484375, 0.2490234375
0.0322265625, 0.048828125, 0.2412109375
0.02734375, 0.0205078125, 0.240234375
0.02734375, -0.0048828125, 0.2529296875
0.0283203125, -0.0009765625, 0.2578125
0.01953125, -0.001953125, 0.2529296875
0.0224609375, 0.013671875, 0.267578125
0.0263671875, 0.0341796875, 0.275390625
0.03515625, 0.01171875, 0.2587890625
0.0419921875, -0.02734375, 0.23046875
0.0380859375, -0.02734375, 0.224609375
0.0419921875, -0.0087890625, 0.234375
0.0361328125, 0.0, 0.2373046875
0.0361328125, -0.0087890625, 0.2138671875
0.0341796875, -0.0224609375, 0.2216796875
0.041015625, -0.01953125, 0.2509765625
0.0390625, -0.0068359375, 0.2529296875
0.041015625, -0.0048828125, 0.2197265625
0.0380859375, -0.0205078125, 0.216796875
0.0400390625, -0.0185546875, 0.2275390625
0.0380859375, -0.0029296875, 0.2392578125
0.0341796875, 0.0009765625, 0.2490234375
0.0361328125, 0.0048828125, 0.244140625
0.03515625, -0.0078125, 0.2529296875
0.037109375, 0.0029296875, 0.244140625
0.033203125, 0.01171875, 0.2509765625
0.03125, 0.0068359375, 0.2548828125
0.033203125, -0.0078125, 0.2568359375
0.0283203125, -0.0205078125, 0.265625
0.0302734375, -0.013671875, 0.2744140625
0.0341796875, -0.005859375, 0.26953125
0.033203125, 0.0029296875, 0.25
0.0341796875, 0.001953125, 0.240234375
0.0283203125, -0.01171875, 0.2421875
0.025390625, -0.005859375, 0.2578125
0.03515625, 0.0068359375, 0.25
0.0302734375, 0.0244140625, 0.232421875
0.0263671875, 0.0078125, 0.228515625
0.0341796875, -0.0185546875, 0.25
0.0283203125, -0.025390625, 0.2470703125
0.029296875, -0.001953125, 0.2451171875
0.0322265625, 0.0126953125, 0.24609375
0.0341796875, 0.0166015625, 0.240234375
0.03125, 0.0126953125, 0.23046875
0.0302734375, -0.0009765625, 0.236328125
0.0322265625, 0.001953125, 0.25
0.03125, 0.0029296875, 0.2646484375
0.0341796875, -0.00390625, 0.236328125
0.0380859375, 0.0029296875, 0.2255859375
0.0400390625, 0.009765625, 0.2470703125
0.037109375, 0.0068359375, 0.259765625
0.0361328125, 0.0185546875, 0.2509765625
0.03515625, 0.0419921875, 0.2490234375
0.0341796875, 0.0439453125, 0.2373046875
0.0302734375, 0.0302734375, 0.2255859375
0.0322265625, 0.0078125, 0.224609375
0.029296875, 0.005859375, 0.244140625
0.03125, 0.0009765625, 0.255859375
0.02734375, 0.00390625, 0.248046875
0.02734375, 0.0048828125, 0.2431640625
0.029296875, 0.0009765625, 0.2421875
0.0322265625, 0.0029296875, 0.240234375
0.0341796875, 0.0107421875, 0.2412109375
0.033203125, 0.0283203125, 0.2265625
0.0302734375, 0.0224609375, 0.228515625
0.0263671875, 0.0029296875, 0.234375
0.0283203125, 0.0, 0.2587890625
0.0283203125, 0.0087890625, 0.2548828125
0.0263671875, 0.01171875, 0.244140625
0.0302734375, 0.0068359375, 0.2509765625
0.03125, -0.015625, 0.2626953125
0.0322265625, -0.0048828125, 0.2587890625
0.0302734375, 0.0224609375, 0.244140625
0.029296875, 0.0166015625, 0.248046875
0.0302734375, 0.0029296875, 0.26171875
0.033203125, 0.01171875, 0.2509765625
0.033203125, 0.0283203125, 0.23046875
0.0341796875, 0.01171875, 0.2294921875
0.03125, 0.015625, 0.2431640625
0.0341796875, 0.013671875, 0.244140625
0.0283203125, 0.0234375, 0.2431640625
0.03125, 0.037109375, 0.236328125
0.033203125, 0.0302734375, 0.234375
0.033203125, 0.0029296875, 0.24609375
0.029296875, -0.0087890625, 0.26953125
0.0302734375, 0.0185546875, 0.2587890625
0.0322265625, 0.041015625, 0.234375
0.029296875, 0.01953125, 0.22265625
0.0283203125, 0.0078125, 0.2265625
0.0341796875, -0.0029296875, 0.2490234375
0.0361328125, 0.0048828125, 0.2548828125
0.0322265625, 0.02734375, 0.2236328125
0.037109375, 0.03125, 0.208984375
0.0390625, 0.0166015625, 0.2255859375
0.033203125, 0.01953125, 0.2314453125
0.0322265625, 0.0126953125, 0.244140625
0.029296875, -0.0205078125, 0.255859375
0.0283203125, -0.0380859375, 0.265625
0.0322265625, -0.01953125, 0.259765625
0.0341796875, 0.0087890625, 0.2470703125
0.0341796875, 0.0185546875, 0.244140625
0.033203125, 0.0009765625, 0.240234375
0.0302734375, -0.0009765625, 0.248046875
0.02734375, 0.009765625, 0.2412109375
0.0263671875, 0.0244140625, 0.248046875
0.02734375, 0.0087890625, 0.2490234375
0.025390625, -0.0126953125, 0.2548828125
0.029296875, -0.0126953125, 0.2470703125
0.0322265625, 0.001953125, 0.2451171875
0.0302734375, 0.009765625, 0.2353515625
0.03125, 0.0009765625, 0.2333984375
0.0322265625, 0.01171875, 0.2392578125
0.029296875, 0.0244140625, 0.2392578125
0.03125, 0.0078125, 0.25
0.0283203125, 0.0, 0.25390625
0.029296875, 0.0087890625, 0.2666015625
0.0302734375, 0.025390625, 0.251953125
0.0302734375, 0.0029296875, 0.244140625
0.025390625, 0.0078125, 0.2373046875
0.03125, 0.0263671875, 0.24609375
0.033203125, 0.0126953125, 0.2421875
0.0283203125, 0.0, 0.248046875
0.0322265625, -0.005859375, 0.2470703125
0.033203125, 0.0224609375, 0.2421875
0.0341796875, 0.0224609375, 0.2392578125
0.0283203125, -0.0048828125, 0.2490234375
0.0322265625, -0.0244140625, 0.2744140625
0.0322265625, -0.0087890625, 0.2568359375
0.0322265625, 0.0224609375, 0.234375
0.03515625, 0.0205078125, 0.23828125
