0.021484375, 0.07421875, 0.2333984375
0.021484375, 0.0673828125, 0.2275390625
0.015625, 0.060546875, 0.2314453125
0.01953125, 0.0751953125, 0.240234375
0.0185546875, 0.0703125, 0.2392578125
0.021484375, 0.0546875, 0.24609375
0.0185546875, 0.07421875, 0.240234375
0.017578125, 0.080078125, 0.234375
0.021484375, 0.0703125, 0.2197265625
0.0224609375, 0.0654296875, 0.2236328125
0.01953125, 0.07421875, 0.234375
0.0205078125, 0.060546875, 0.240234375
0.01953125, 0.0615234375, 0.236328125
0.01953125, 0.0634765625, 0.248046875
0.0185546875, 0.06640625, 0.2412109375
0.0205078125, 0.0673828125, 0.240234375
0.01953125, 0.0693359375, 0.2353515625
0.0205078125, 0.0625, 0.2294921875
0.0205078125, 0.0654296875, 0.2333984375
0.01953125, 0.06640625, 0.2373046875
0.01953125, 0.05859375, 0.236328125
0.0185546875, 0.072265625, 0.2373046875
0.0224609375, 0.0751953125, 0.236328125
0.0166015625, 0.0625, 0.2421875
0.0185546875, 0.07421875, 0.240234375
0.0185546875, 0.0751953125, 0.2392578125
0.0205078125, 0.056640625, 0.2294921875
0.01953125, 0.0673828125, 0.2275390625
0.0205078125, 0.0830078125, 0.2275390625
0.0185546875, 0.060546875, 0.2392578125
0.0205078125, 0.0498046875, 0.2412109375
0.01953125, 0.0751953125, 0.2353515625
0.0185546875, 0.072265625, 0.2392578125
0.01953125, 0.0537109375, 0.234375
0.01953125, 0.064453125, 0.232421875
0.0185546875, 0.0810546875, 0.2373046875
0.0185546875, 0.0693359375, 0.236328125
0.01953125, 0.0654296875, 0.2294921875
0.01953125, 0.0712890625, 0.236328125
0.021484375, 0.0771484375, 0.234375
0.0185546875, 0.0634765625, 0.2373046875
0.017578125, 0.0654296875, 0.23828125
0.01953125, 0.0712890625, 0.2373046875
0.0185546875, 0.0751953125, 0.2353515625
0.0166015625, 0.0634765625, 0.2333984375
0.01953125, 0.0634765625, 0.234375
0.0205078125, 0.076171875, 0.23046875
0.0205078125, 0.0673828125, 0.2392578125
0.021484375, 0.0556640625, 0.2451171875
0.0224609375, 0.0732421875, 0.236328125
0.0205078125, 0.0693359375, 0.2314453125
0.0205078125, 0.064453125, 0.2294921875
0.0185546875, 0.0703125, 0.2353515625
0.021484375, 0.072265625, 0.232421875
0.021484375, 0.0673828125, 0.2314453125
0.01953125, 0.0634765625, 0.23046875
0.01953125, 0.0712890625, 0.2314453125
0.017578125, 0.0712890625, 0.244140625
0.0185546875, 0.0673828125, 0.2431640625
0.017578125, 0.06640625, 0.2392578125
0.0205078125, 0.0654296875, 0.2373046875
0.0205078125, 0.068359375, 0.2275390625
0.021484375, 0.0673828125, 0.2265625
0.0205078125, 0.060546875, 0.2373046875
0.01953125, 0.06640625, 0.2470703125
0.017578125, 0.0771484375, 0.2333984375
0.0205078125, 0.068359375, 0.23828125
0.0224609375, 0.072265625, 0.2333984375
0.0205078125, 0.07421875, 0.23046875
0.01953125, 0.068359375, 0.232421875
0.0205078125, 0.0595703125, 0.2373046875
0.021484375, 0.0673828125, 0.236328125
0.01953125, 0.0791015625, 0.2265625
0.017578125, 0.06640625, 0.2294921875
0.0205078125, 0.0673828125, 0.2333984375
0.021484375, 0.0673828125, 0.234375
0.0205078125, 0.0634765625, 0.2431640625
0.0205078125, 0.0673828125, 0.2421875
0.0205078125, 0.0654296875, 0.2353515625
0.021484375, 0.06640625, 0.234375
0.0205078125, 0.06640625, 0.236328125
0.0185546875, 0.0712890625, 0.234375
0.0166015625, 0.0625, 0.240234375
0.0185546875, 0.0712890625, 0.2412109375
0.021484375, 0.0703125, 0.2333984375
0.0205078125, 0.064453125, 0.23046875
0.0205078125, 0.0703125, 0.2294921875
0.01953125, 0.0693359375, 0.2373046875
0.0185546875, 0.068359375, 0.23046875
0.021484375, 0.0634765625, 0.23046875
0.0205078125, 0.068359375, 0.2373046875
0.0185546875, 0.07421875, 0.2353515625
0.0185546875, 0.0712890625, 0.2333984375
0.0205078125, 0.064453125, 0.2353515625
0.0205078125, 0.0732421875, 0.2373046875
0.01953125, 0.06640625, 0.244140625
0.0185546875, 0.0693359375, 0.23828125
0.0185546875, 0.0634765625, 0.2236328125
0.0224609375, 0.0634765625, 0.2353515625
0.021484375, 0.0732421875, 0.2373046875
0.01953125, 0.0703125, 0.23828125
0.0166015625, 0.0712890625, 0.236328125
0.017578125, 0.0654296875, 0.240234375
0.01953125, 0.068359375, 0.236328125
0.01953125, 0.06640625, 0.234375
0.0244140625, 0.0703125, 0.228515625
0.0205078125, 0.068359375, 0.232421875
0.0205078125, 0.064453125, 0.2353515625
0.0205078125, 0.064453125, 0.236328125
0.01953125, 0.072265625, 0.232421875
0.021484375, 0.0712890625, 0.2353515625
0.0166015625, 0.068359375, 0.240234375
0.01953125, 0.0634765625, 0.2392578125
0.01953125, 0.0712890625, 0.2333984375
0.0185546875, 0.0673828125, 0.2314453125
0.017578125, 0.0693359375, 0.2314453125
0.017578125, 0.0703125, 0.232421875
0.0166015625, 0.07421875, 0.234375
0.01953125, 0.0673828125, 0.2412109375
0.0185546875, 0.0712890625, 0.2392578125
0.0185546875, 0.0732421875, 0.244140625
0.0205078125, 0.0810546875, 0.248046875
0.01953125, 0.0751953125, 0.228515625
0.0146484375, 0.07421875, 0.22265625
0.0126953125, 0.1015625, 0.2294921875
0.0205078125, 0.0908203125, 0.2412109375
0.0263671875, 0.0341796875, 0.26171875
0.0419921875, 0.0322265625, 0.2578125
0.052734375, 0.103515625, 0.2666015625
0.0517578125, 0.1484375, 0.291015625
0.0458984375, 0.1162109375, 0.3583984375
0.0498046875, 0.0576171875, 0.3994140625
0.0537109375, 0.0244140625, 0.4091796875
0.0556640625, 0.0654296875, 0.3828125
0.052734375, 0.083984375, 0.3505859375
0.0498046875, 0.076171875, 0.3388671875
0.046875, 0.068359375, 0.34375
0.0458984375, 0.0546875, 0.3544921875
0.0419921875, 0.0361328125, 0.4072265625
0.0322265625, 0.0263671875, 0.38671875
0.0283203125, 0.025390625, 0.333984375
0.03125, 0.03515625, 0.30078125
0.03125, 0.044921875, 0.2880859375
0.0302734375, 0.03515625, 0.27734375
0.0302734375, 0.0439453125, 0.259765625
0.025390625, 0.0595703125, 0.248046875
0.0263671875, 0.06640625, 0.25390625
0.03125, 0.07421875, 0.248046875
0.03515625, 0.076171875, 0.220703125
0.0361328125, 0.072265625, 0.22265625
0.046875, 0.0419921875, 0.189453125
0.0546875, 0.0009765625, 0.146484375
0.0732421875, -0.0654296875, 0.130859375
0.0791015625, -0.0634765625, 0.1484375
0.0810546875, -0.0400390625, 0.0849609375
0.0869140625, -0.0126953125, 0.013671875
0.091796875, 0.01171875, -0.0146484375
0.0908203125, 0.0009765625, -0.033203125
0.0908203125, 0.033203125, -0.044921875
0.0751953125, 0.0693359375, -0.1005859375
0.0654296875, 0.0546875, -0.220703125
0.0498046875, 0.01171875, -0.3408203125
0.0244140625, 0.0712890625, -0.4140625
-0.001953125, 0.1962890625, -0.4951171875
-0.060546875, 0.279296875, -0.5458984375
-0.1474609375, 0.3994140625, -0.5732421875
-0.3369140625, 0.5048828125, -0.5126953125
-0.5810546875, 0.603515625, -0.365234375
-0.818359375, 0.486328125, 0.125
-0.830078125, 0.1796875, 0.6396484375
-0.654296875, -0.294921875, 0.927734375
-0.38671875, -0.6591796875, 0.9990234375
-0.1669921875, -0.5830078125, 0.8857421875
-0.09765625, -0.353515625, 0.5009765625
-0.1298828125, -0.2822265625, 0.345703125
-0.1123046875, -0.3974609375, 0.7021484375
-0.0771484375, -0.5322265625, 0.9990234375
-0.1171875, -0.6279296875, 0.8564453125
-0.171875, -0.595703125, 0.501953125
-0.2294921875, -0.4638671875, 0.34375
-0.27734375, -0.3349609375, 0.365234375
-0.3466796875, -0.19921875, 0.4658203125
-0.4267578125, 0.0791015625, 0.373046875
-0.3876953125, 0.392578125, 0.1240234375
-0.2705078125, 0.625, 0.0126953125
-0.146484375, 0.7373046875, 0.0087890625
-0.072265625, 0.6396484375, -0.015625
-0.025390625, 0.4208984375, 0.0166015625
-0.0068359375, 0.2822265625, 0.1455078125
0.0068359375, 0.17578125, 0.29296875
0.0146484375, 0.068359375, 0.341796875
0.021484375, 0.064453125, 0.267578125
0.017578125, 0.0517578125, 0.220703125
0.0244140625, 0.0400390625, 0.224609375
0.0166015625, 0.0439453125, 0.2451171875
0.017578125, 0.046875, 0.2529296875
0.0146484375, 0.033203125, 0.2509765625
0.009765625, 0.0380859375, 0.23828125
0.0068359375, 0.0068359375, 0.2666015625
0.0029296875, 0.013671875, 0.24609375
0.0068359375, 0.0478515625, 0.240234375
0.00390625, 0.0595703125, 0.236328125
0.0078125, 0.052734375, 0.26171875
0.0087890625, 0.078125, 0.3095703125
-0.0107421875, 0.12109375, 0.328125
-0.0068359375, 0.064453125, 0.228515625
0.0048828125, 0.0224609375, 0.2470703125
0.0166015625, 0.0458984375, 0.2666015625
0.021484375, 0.0888671875, 0.255859375
0.0302734375, 0.1015625, 0.20703125
0.0390625, 0.083984375, 0.1708984375
0.0439453125, 0.046875, 0.16796875
0.041015625, 0.029296875, 0.2177734375
0.037109375, 0.052734375, 0.23828125
0.041015625, 0.11328125, 0.2421875
0.03515625, 0.123046875, 0.228515625
0.029296875, 0.0673828125, 0.1669921875
0.03515625, 0.017578125, 0.1728515625
0.0390625, 0.0458984375, 0.1923828125
0.03515625, 0.1318359375, 0.1826171875
0.0283203125, 0.119140625, 0.169921875
0.03125, 0.0078125, 0.138671875
0.025390625, -0.0107421875, 0.1865234375
0.021484375, 0.060546875, 0.248046875
0.013671875, 0.0908203125, 0.2705078125
0.01171875, 0.091796875, 0.27734375
0.017578125, 0.0712890625, 0.2470703125
0.0224609375, 0.046875, 0.2021484375
0.029296875, 0.0166015625, 0.1982421875
0.0302734375, -0.0029296875, 0.212890625
0.0322265625, -0.0009765625, 0.2275390625
0.03125, 0.021484375, 0.251953125
0.033203125, 0.0244140625, 0.2744140625
0.02734375, 0.015625, 0.2890625
0.0234375, 0.01171875, 0.2646484375
0.025390625, 0.0234375, 0.24609375
0.0263671875, 0.0146484375, 0.25
0.0244140625, 0.03515625, 0.2939453125
0.029296875, 0.0810546875, 0.3359375
0.025390625, 0.0966796875, 0.330078125
0.0224609375, 0.0791015625, 0.2880859375
0.0224609375, 0.091796875, 0.2490234375
0.0224609375, 0.1015625, 0.2373046875
0.0166015625, 0.078125, 0.244140625
0.0146484375, 0.0703125, 0.2314453125
0.015625, 0.078125, 0.2275390625
0.0126953125, 0.0859375, 0.2109375
0.0146484375, 0.0791015625, 0.224609375
0.01171875, 0.056640625, 0.2412109375
0.01171875, 0.0556640625, 0.25
0.0146484375, 0.0810546875, 0.2666015625
0.015625, 0.08203125, 0.259765625
0.017578125, 0.041015625, 0.2216796875
0.0205078125, 0.01953125, 0.22265625
0.0244140625, 0.0361328125, 0.234375
0.025390625, 0.0712890625, 0.2373046875
0.0234375, 0.0830078125, 0.236328125
0.0244140625, 0.056640625, 0.244140625
0.0244140625, 0.041015625, 0.2470703125
0.0234375, 0.0517578125, 0.2490234375
0.025390625, 0.060546875, 0.248046875
0.021484375, 0.0693359375, 0.244140625
0.01953125, 0.0771484375, 0.2392578125
0.0166015625, 0.0693359375, 0.248046875
0.015625, 0.0625, 0.240234375
0.015625, 0.046875, 0.2333984375
0.0146484375, 0.087890625, 0.21875
0.0185546875, 0.0947265625, 0.228515625
0.017578125, 0.0751953125, 0.2333984375
0.0185546875, 0.052734375, 0.236328125
0.0166015625, 0.0205078125, 0.2470703125
0.0185546875, 0.0439453125, 0.24609375
0.01953125, 0.060546875, 0.24609375
0.0205078125, 0.0556640625, 0.244140625
0.0205078125, 0.0595703125, 0.248046875
0.021484375, 0.0556640625, 0.2412109375
0.0224609375, 0.0498046875, 0.234375
0.021484375, 0.04296875, 0.2353515625
0.01953125, 0.0546875, 0.2392578125
0.0185546875, 0.068359375, 0.2333984375
0.021484375, 0.0556640625, 0.248046875
0.01953125, 0.03515625, 0.2392578125
0.0224609375, 0.05078125, 0.2255859375
0.0244140625, 0.0576171875, 0.2177734375
0.021484375, 0.064453125, 0.21875
0.01953125, 0.068359375, 0.24609375
0.017578125, 0.0625, 0.2490234375
0.013671875, 0.0498046875, 0.2490234375
0.013671875, 0.0576171875, 0.234375
0.015625, 0.0634765625, 0.2353515625
0.01953125, 0.0634765625, 0.2490234375
0.0185546875, 0.052734375, 0.2431640625
0.0224609375, 0.044921875, 0.244140625
0.0244140625, 0.03125, 0.251953125
0.0185546875, 0.0341796875, 0.24609375
0.0224609375, 0.0419921875, 0.24609375
0.0205078125, 0.0439453125, 0.2392578125
0.0205078125, 0.0576171875, 0.2314453125
0.01953125, 0.0615234375, 0.236328125
0.0185546875, 0.056640625, 0.236328125
0.01953125, 0.048828125, 0.234375
0.021484375, 0.0380859375, 0.244140625
0.0244140625, 0.0341796875, 0.248046875
0.0234375, 0.0380859375, 0.244140625
0.025390625, 0.0419921875, 0.2392578125
0.021484375, 0.0517578125, 0.240234375
0.021484375, 0.0439453125, 0.2509765625
0.0234375, 0.0390625, 0.25
0.0205078125, 0.048828125, 0.2451171875
0.0224609375, 0.0556640625, 0.2353515625
0.01953125, 0.060546875, 0.22265625
0.021484375, 0.056640625, 0.232421875
0.01953125, 0.05078125, 0.244140625
0.01953125, 0.046875, 0.244140625
0.021484375, 0.0478515625, 0.2431640625
0.021484375, 0.0595703125, 0.2392578125
0.0224609375, 0.048828125, 0.2314453125
0.0244140625, 0.02734375, 0.2431640625
0.0244140625, 0.046875, 0.244140625
0.0234375, 0.05078125, 0.244140625
0.0224609375, 0.033203125, 0.2509765625
0.0205078125, 0.0517578125, 0.2451171875
0.0224609375, 0.060546875, 0.2353515625
0.0224609375, 0.0537109375, 0.2294921875
0.0205078125, 0.044921875, 0.2314453125
0.0224609375, 0.0498046875, 0.23828125
0.0205078125, 0.0634765625, 0.2421875
0.0205078125, 0.05859375, 0.236328125
0.0244140625, 0.0439453125, 0.2470703125
0.0234375, 0.0341796875, 0.25
0.0224609375, 0.0380859375, 0.2490234375
0.0234375, 0.0537109375, 0.2451171875
0.0244140625, 0.056640625, 0.236328125
0.0234375, 0.0380859375, 0.2451171875
0.0224609375, 0.0302734375, 0.2451171875
0.0244140625, 0.0458984375, 0.236328125
0.0234375, 0.052734375, 0.2333984375
0.0234375, 0.0498046875, 0.2275390625
0.021484375, 0.0498046875, 0.23046875
0.01953125, 0.05078125, 0.2470703125
0.01953125, 0.0595703125, 0.2529296875
0.0224609375, 0.04296875, 0.25390625
0.0224609375, 0.05078125, 0.240234375
0.0244140625, 0.0537109375, 0.232421875
0.025390625, 0.0419921875, 0.2314453125
0.0263671875, 0.05078125, 0.2353515625
0.0244140625, 0.044921875, 0.2431640625
0.0244140625, 0.052734375, 0.2353515625
0.0205078125, 0.060546875, 0.23046875
0.025390625, 0.0546875, 0.232421875
0.0234375, 0.05078125, 0.2373046875
0.0224609375, 0.0341796875, 0.2490234375
0.0224609375, 0.044921875, 0.25390625
0.0234375, 0.060546875, 0.2421875
0.0263671875, 0.0498046875, 0.2333984375
0.0234375, 0.044921875, 0.2333984375
0.0244140625, 0.0390625, 0.2333984375
0.0234375, 0.048828125, 0.248046875
0.0244140625, 0.0517578125, 0.24609375
0.0224609375, 0.05078125, 0.244140625
0.0244140625, 0.0517578125, 0.2392578125
0.0224609375, 0.0517578125, 0.236328125
0.021484375, 0.044921875, 0.234375
0.01953125, 0.048828125, 0.236328125
0.021484375, 0.064453125, 0.23828125
0.0224609375, 0.056640625, 0.236328125
0.021484375, 0.0390625, 0.23828125
0.0244140625, 0.037109375, 0.2431640625
0.0234375, 0.0478515625, 0.244140625
0.021484375, 0.0576171875, 0.244140625
0.0224609375, 0.048828125, 0.2451171875
0.0234375, 0.0458984375, 0.2412109375
0.01953125, 0.0458984375, 0.2392578125
0.0224609375, 0.052734375, 0.234375
0.0224609375, 0.044921875, 0.2470703125
0.0224609375, 0.0576171875, 0.240234375
0.021484375, 0.0546875, 0.23828125
0.0244140625, 0.0498046875, 0.2333984375
0.0224609375, 0.044921875, 0.2421875
0.0244140625, 0.0380859375, 0.2470703125
0.0244140625, 0.0615234375, 0.240234375
0.0234375, 0.0517578125, 0.244140625
0.0234375, 0.04296875, 0.240234375
0.0234375, 0.04296875, 0.236328125
0.0234375, 0.0576171875, 0.2373046875
0.0234375, 0.0537109375, 0.2451171875
0.0205078125, 0.052734375, 0.2392578125
0.0224609375, 0.048828125, 0.244140625
0.0224609375, 0.060546875, 0.2373046875
0.0263671875, 0.0576171875, 0.234375
0.0244140625, 0.0458984375, 0.234375
0.0244140625, 0.0537109375, 0.228515625
0.0244140625, 0.041015625, 0.2421875
0.0224609375, 0.048828125, 0.2412109375
0.0205078125, 0.0595703125, 0.244140625
0.0244140625, 0.052734375, 0.2431640625
0.0244140625, 0.0419921875, 0.2392578125
0.025390625, 0.0390625, 0.23046875
0.0224609375, 0.0615234375, 0.2353515625
0.0205078125, 0.060546875, 0.2529296875
0.0224609375, 0.052734375, 0.2509765625
0.0205078125, 0.0458984375, 0.2431640625
0.0234375, 0.0498046875, 0.2353515625
0.021484375, 0.04296875, 0.23046875
0.0234375, 0.04296875, 0.232421875
0.0234375, 0.0439453125, 0.2392578125
0.021484375, 0.048828125, 0.2470703125
0.0234375, 0.056640625, 0.2421875
0.0205078125, 0.0458984375, 0.2412109375
0.0234375, 0.052734375, 0.2373046875
0.0234375, 0.041015625, 0.2421875
0.0234375, 0.0478515625, 0.2451171875
0.0234375, 0.0673828125, 0.2431640625
0.0205078125, 0.05859375, 0.2373046875
0.0234375, 0.048828125, 0.23046875
0.0244140625, 0.0556640625, 0.2373046875
0.021484375, 0.0595703125, 0.2431640625
0.0205078125, 0.0517578125, 0.240234375
0.021484375, 0.0400390625, 0.2431640625
0.0224609375, 0.0576171875, 0.2392578125
0.0234375, 0.048828125, 0.2451171875
0.025390625, 0.0478515625, 0.234375
0.0224609375, 0.056640625, 0.228515625
0.0244140625, 0.041015625, 0.2392578125
0.017578125, 0.0537109375, 0.24609375
0.021484375, 0.0615234375, 0.2412109375
0.021484375, 0.0478515625, 0.2431640625
0.0244140625, 0.0498046875, 0.23828125
0.0224609375, 0.0478515625, 0.240234375
0.0224609375, 0.05859375, 0.2333984375
0.0234375, 0.0478515625, 0.240234375
0.0224609375, 0.05078125, 0.23828125
0.025390625, 0.0595703125, 0.2451171875
0.0234375, 0.048828125, 0.2431640625
0.021484375, 0.0439453125, 0.2490234375
0.0205078125, 0.0537109375, 0.2470703125
0.0205078125, 0.052734375, 0.23828125
0.0205078125, 0.044921875, 0.2314453125
0.0224609375, 0.048828125, 0.232421875
0.0244140625, 0.0595703125, 0.236328125
0.0224609375, 0.044921875, 0.24609375
0.0224609375, 0.0498046875, 0.2421875
0.0244140625, 0.052734375, 0.2412109375
0.0205078125, 0.05859375, 0.2392578125
0.0224609375, 0.05078125, 0.2470703125
0.0234375, 0.0537109375, 0.232421875
0.0234375, 0.0556640625, 0.2333984375
0.021484375, 0.0517578125, 0.2373046875
0.0224609375, 0.05078125, 0.240234375
0.0205078125, 0.0556640625, 0.240234375
