0.0, 0.2158203125, 0.1171875
0.0009765625, 0.2265625, 0.11328125
0.0009765625, 0.2216796875, 0.1181640625
0.0, 0.2099609375, 0.1171875
0.001953125, 0.220703125, 0.1142578125
-0.001953125, 0.220703125, 0.1181640625
0.0, 0.2080078125, 0.125
0.0, 0.216796875, 0.1123046875
0.001953125, 0.2158203125, 0.109375
0.0, 0.2109375, 0.1240234375
0.0, 0.2236328125, 0.1220703125
0.0, 0.2197265625, 0.1103515625
0.0, 0.21484375, 0.115234375
0.0, 0.2158203125, 0.1201171875
0.0, 0.220703125, 0.1171875
0.0, 0.212890625, 0.1171875
0.0, 0.2177734375, 0.11328125
0.0, 0.2158203125, 0.115234375
-0.0009765625, 0.21875, 0.119140625
0.0, 0.21484375, 0.12109375
0.0, 0.2138671875, 0.1162109375
0.0, 0.2119140625, 0.123046875
0.0009765625, 0.2294921875, 0.111328125
0.0009765625, 0.212890625, 0.1181640625
-0.001953125, 0.2109375, 0.125
0.0, 0.2333984375, 0.1181640625
0.0009765625, 0.220703125, 0.11328125
0.0009765625, 0.201171875, 0.1240234375
0.0, 0.2255859375, 0.115234375
0.0, 0.2314453125, 0.109375
0.0, 0.2060546875, 0.1201171875
0.0, 0.21484375, 0.1201171875
0.0, 0.2294921875, 0.1123046875
0.0, 0.2138671875, 0.1181640625
0.0009765625, 0.21484375, 0.12109375
-0.0009765625, 0.22265625, 0.119140625
0.0, 0.220703125, 0.1103515625
0.0, 0.212890625, 0.1220703125
0.0009765625, 0.21875, 0.1201171875
0.0009765625, 0.2138671875, 0.12109375
0.0, 0.2099609375, 0.12109375
0.0, 0.2236328125, 0.1103515625
0.0, 0.21875, 0.11328125
0.0009765625, 0.2138671875, 0.1220703125
-0.0009765625, 0.2197265625, 0.1181640625
-0.0009765625, 0.21875, 0.1123046875
0.0, 0.21484375, 0.1142578125
0.0, 0.216796875, 0.119140625
-0.0009765625, 0.2138671875, 0.1162109375
0.0, 0.216796875, 0.11328125
0.0, 0.216796875, 0.123046875
0.0, 0.21875, 0.123046875
0.0, 0.21875, 0.1123046875
0.0009765625, 0.212890625, 0.109375
0.0, 0.21484375, 0.1171875
0.0009765625, 0.212890625, 0.1298828125
0.0, 0.22265625, 0.1220703125
0.0, 0.2099609375, 0.1162109375
0.0, 0.2099609375, 0.1142578125
0.0, 0.2294921875, 0.11328125
-0.001953125, 0.2177734375, 0.1181640625
0.0, 0.2158203125, 0.119140625
-0.001953125, 0.2216796875, 0.1171875
-0.0009765625, 0.2177734375, 0.1171875
0.0, 0.216796875, 0.1171875
-0.0009765625, 0.208984375, 0.1220703125
0.0, 0.216796875, 0.11328125
0.0, 0.216796875, 0.1171875
0.0, 0.2197265625, 0.12109375
-0.0009765625, 0.2236328125, 0.111328125
-0.001953125, 0.2138671875, 0.111328125
0.0, 0.216796875, 0.1162109375
0.0, 0.220703125, 0.1181640625
0.0009765625, 0.21484375, 0.12890625
0.0, 0.212890625, 0.1181640625
0.0, 0.216796875, 0.1064453125
0.0, 0.2216796875, 0.111328125
0.0, 0.21875, 0.1181640625
0.0, 0.21875, 0.123046875
-0.0009765625, 0.2197265625, 0.1181640625
0.0, 0.20703125, 0.123046875
0.0, 0.2119140625, 0.1171875
-0.0009765625, 0.21484375, 0.12109375
0.0, 0.220703125, 0.1181640625
0.0, 0.21875, 0.1201171875
0.0, 0.2216796875, 0.1162109375
0.0, 0.2138671875, 0.1123046875
0.0009765625, 0.2099609375, 0.1171875
0.0, 0.220703125, 0.119140625
0.0, 0.21484375, 0.123046875
-0.0009765625, 0.21875, 0.1220703125
0.0, 0.2158203125, 0.1162109375
0.0, 0.2197265625, 0.12109375
0.0, 0.216796875, 0.1162109375
0.0, 0.2177734375, 0.1171875
-0.001953125, 0.2177734375, 0.1220703125
-0.001953125, 0.2216796875, 0.1201171875
0.0009765625, 0.21484375, 0.1181640625
0.0009765625, 0.212890625, 0.1181640625
0.0, 0.21484375, 0.1103515625
0.0, 0.2177734375, 0.1181640625
0.0009765625, 0.21484375, 0.12109375
0.0, 0.2138671875, 0.115234375
0.0, 0.216796875, 0.1171875
0.0, 0.2216796875, 0.1171875
0.0, 0.21875, 0.1181640625
-0.001953125, 0.2158203125, 0.123046875
0.0, 0.2119140625, 0.119140625
-0.001953125, 0.21875, 0.1171875
0.0, 0.22265625, 0.11328125
0.0, 0.212890625, 0.1220703125
0.0, 0.220703125, 0.1162109375
-0.0009765625, 0.212890625, 0.1162109375
0.0, 0.212890625, 0.119140625
0.0, 0.2216796875, 0.119140625
0.0, 0.216796875, 0.1142578125
0.0, 0.216796875, 0.12109375
-0.001953125, 0.2197265625, 0.119140625
-0.001953125, 0.2177734375, 0.1181640625
0.0, 0.2158203125, 0.1162109375
0.0, 0.212890625, 0.1240234375
0.0, 0.2197265625, 0.1220703125
0.0009765625, 0.2158203125, 0.1171875
0.0, 0.2158203125, 0.115234375
0.0009765625, 0.216796875, 0.119140625
0.0, 0.22265625, 0.1240234375
-0.0009765625, 0.21484375, 0.1220703125
-0.001953125, 0.21484375, 0.11328125
0.0, 0.2177734375, 0.107421875
0.0, 0.216796875, 0.1201171875
0.0009765625, 0.216796875, 0.1240234375
0.0, 0.2177734375, 0.1201171875
-0.0009765625, 0.224609375, 0.1201171875
0.0, 0.2294921875, 0.1142578125
0.0, 0.236328125, 0.1044921875
0.0078125, 0.2216796875, 0.1025390625
0.009765625, 0.2255859375, 0.1201171875
0.001953125, 0.2021484375, 0.14453125
0.01171875, 0.2490234375, 0.099609375
0.0263671875, 0.3173828125, 0.1123046875
0.0419921875, 0.3603515625, 0.107421875
0.0478515625, 0.400390625, 0.1669921875
0.041015625, 0.412109375, 0.2314453125
0.03125, 0.34765625, 0.33984375
0.02734375, 0.330078125, 0.4111328125
0.0166015625, 0.3505859375, 0.392578125
0.009765625, 0.3447265625, 0.373046875
0.0, 0.3154296875, 0.35546875
0.0, 0.2353515625, 0.3095703125
-0.001953125, 0.1494140625, 0.2685546875
0.0, 0.068359375, 0.2822265625
0.0029296875, 0.04296875, 0.3193359375
0.0068359375, 0.0634765625, 0.2939453125
0.0068359375, 0.09375, 0.244140625
0.013671875, 0.0498046875, 0.2109375
0.0234375, 0.0146484375, 0.2373046875
0.015625, 0.009765625, 0.259765625
0.0078125, -0.00390625, 0.275390625
-0.005859375, -0.0419921875, 0.2529296875
-0.029296875, -0.0283203125, 0.2607421875
-0.06640625, 0.009765625, 0.369140625
-0.1279296875, -0.080078125, 0.3583984375
-0.1875, -0.2099609375, 0.212890625
-0.2333984375, -0.0166015625, 0.166015625
-0.26171875, 0.126953125, -0.0048828125
-0.2080078125, 0.03125, -0.419921875
-0.1220703125, 0.0537109375, -0.66796875
-0.0263671875, 0.1484375, -0.880859375
-0.0087890625, 0.087890625, -0.876953125
-0.033203125, 0.16796875, -0.8125
-0.1318359375, 0.2783203125, -0.7060546875
-0.267578125, 0.275390625, -0.63671875
-0.4248046875, 0.3408203125, -0.619140625
-0.6904296875, 0.373046875, -0.591796875
-1.0, 0.35546875, -0.2646484375
-1.0, 0.3427734375, 0.4912109375
-1.0, 0.2724609375, 0.9111328125
-0.7939453125, 0.298828125, 0.9150390625
-0.6162109375, -0.064453125, 0.9326171875
-0.4404296875, -0.5185546875, 0.9990234375
-0.28515625, -0.4619140625, 0.9990234375
-0.2109375, -0.4912109375, 0.9990234375
-0.19140625, -0.5859375, 0.9990234375
-0.23046875, -0.5546875, 0.990234375
-0.3193359375, -0.4638671875, 0.791015625
-0.4111328125, -0.400390625, 0.5654296875
-0.48828125, -0.2119140625, 0.3935546875
-0.51953125, 0.0634765625, 0.2392578125
-0.4677734375, 0.353515625, 0.1240234375
-0.3525390625, 0.5908203125, 0.0595703125
-0.220703125, 0.693359375, 0.01171875
-0.1298828125, 0.650390625, -0.0419921875
-0.0556640625, 0.5361328125, -0.03125
-0.0146484375, 0.369140625, 0.0478515625
0.013671875, 0.3046875, 0.107421875
0.0234375, 0.2373046875, 0.1533203125
0.0146484375, 0.142578125, 0.1953125
0.0126953125, 0.0537109375, 0.2275390625
0.013671875, 0.0234375, 0.2421875
0.0146484375, 0.0341796875, 0.2783203125
0.01171875, 0.0361328125, 0.2705078125
0.0087890625, 0.0185546875, 0.2626953125
0.009765625, 0.0283203125, 0.2568359375
0.0087890625, 0.02734375, 0.2470703125
0.01171875, 0.0126953125, 0.259765625
0.0107421875, 0.0087890625, 0.2900390625
0.005859375, 0.046875, 0.2919921875
0.0078125, 0.083984375, 0.2373046875
0.0078125, 0.0703125, 0.19921875
0.009765625, 0.056640625, 0.2177734375
0.015625, 0.0712890625, 0.265625
0.017578125, 0.10546875, 0.2958984375
0.0146484375, 0.1259765625, 0.27734375
0.0078125, 0.1533203125, 0.251953125
0.0068359375, 0.146484375, 0.1787109375
0.013671875, 0.1416015625, 0.115234375
0.0107421875, 0.1572265625, 0.095703125
0.013671875, 0.1474609375, 0.0771484375
0.0126953125, 0.095703125, 0.0390625
0.0126953125, 0.0966796875, 0.005859375
0.0185546875, 0.1337890625, -0.0205078125
0.0146484375, 0.1904296875, -0.0126953125
0.0107421875, 0.21875, -0.0068359375
0.0078125, 0.197265625, 0.029296875
0.0009765625, 0.1572265625, 0.0703125
0.0, 0.1708984375, 0.0869140625
-0.001953125, 0.228515625, 0.083984375
-0.0078125, 0.263671875, 0.0966796875
-0.015625, 0.265625, 0.1611328125
-0.0166015625, 0.2646484375, 0.212890625
-0.0185546875, 0.2412109375, 0.2197265625
-0.01953125, 0.23046875, 0.208984375
-0.0234375, 0.251953125, 0.21875
-0.0224609375, 0.2529296875, 0.2001953125
-0.013671875, 0.255859375, 0.1708984375
-0.013671875, 0.22265625, 0.1806640625
-0.0126953125, 0.17578125, 0.2119140625
-0.009765625, 0.1455078125, 0.18359375
-0.0078125, 0.1611328125, 0.1328125
-0.0009765625, 0.18359375, 0.125
0.001953125, -0.0107421875, 0.0390625
-0.03515625, 0.3740234375, 0.5029296875
-0.029296875, 0.8349609375, 0.9169921875
-0.0400390625, 0.330078125, 0.2021484375
-0.0478515625, 0.0078125, -0.1787109375
-0.0263671875, -0.0400390625, -0.189453125
-0.03125, 0.1298828125, -0.06640625
-0.017578125, 0.2841796875, -0.0458984375
-0.0087890625, 0.3564453125, 0.1201171875
-0.009765625, 0.396484375, 0.2841796875
-0.0087890625, 0.255859375, 0.2373046875
-0.0107421875, 0.1552734375, 0.1318359375
-0.0087890625, 0.142578125, 0.0625
-0.0087890625, 0.2041015625, 0.056640625
-0.0068359375, 0.2353515625, 0.10546875
-0.0068359375, 0.2470703125, 0.1484375
-0.009765625, 0.23828125, 0.1455078125
-0.0068359375, 0.2353515625, 0.1240234375
-0.001953125, 0.236328125, 0.103515625
0.0009765625, 0.22265625, 0.0927734375
0.0009765625, 0.2001953125, 0.1103515625
0.005859375, 0.17578125, 0.134765625
0.0078125, 0.1611328125, 0.1640625
0.005859375, 0.1689453125, 0.146484375
0.0078125, 0.1767578125, 0.126953125
0.0087890625, 0.1845703125, 0.12109375
0.0087890625, 0.193359375, 0.130859375
0.005859375, 0.2099609375, 0.1416015625
0.009765625, 0.22265625, 0.12890625
0.0087890625, 0.2138671875, 0.126953125
0.005859375, 0.1533203125, 0.1337890625
0.0029296875, 0.134765625, 0.1533203125
0.0048828125, 0.1845703125, 0.16015625
0.001953125, 0.255859375, 0.1298828125
0.0029296875, 0.279296875, 0.103515625
0.001953125, 0.2607421875, 0.091796875
0.0, 0.2255859375, 0.11328125
0.0029296875, 0.201171875, 0.1337890625
0.0029296875, 0.1953125, 0.15234375
0.0068359375, 0.19921875, 0.1455078125
0.0048828125, 0.201171875, 0.1298828125
0.0068359375, 0.1962890625, 0.12890625
0.00390625, 0.1982421875, 0.1357421875
0.0107421875, 0.19921875, 0.119140625
0.0068359375, 0.201171875, 0.1337890625
0.0048828125, 0.2041015625, 0.138671875
0.005859375, 0.2197265625, 0.1201171875
0.0048828125, 0.2021484375, 0.1318359375
0.0029296875, 0.2109375, 0.140625
0.0048828125, 0.205078125, 0.140625
0.005859375, 0.2109375, 0.1337890625
0.0048828125, 0.21484375, 0.1279296875
0.0048828125, 0.2119140625, 0.125
0.0068359375, 0.2109375, 0.12890625
0.005859375, 0.2080078125, 0.13671875
0.0068359375, 0.20703125, 0.130859375
0.0048828125, 0.2060546875, 0.1201171875
0.005859375, 0.201171875, 0.134765625
0.0068359375, 0.201171875, 0.1416015625
0.0078125, 0.2080078125, 0.1337890625
0.005859375, 0.2060546875, 0.1279296875
0.00390625, 0.208984375, 0.1298828125
0.005859375, 0.2099609375, 0.12890625
0.005859375, 0.20703125, 0.138671875
0.0029296875, 0.208984375, 0.1396484375
0.005859375, 0.2060546875, 0.1318359375
0.0087890625, 0.2021484375, 0.1298828125
0.005859375, 0.20703125, 0.1318359375
0.0087890625, 0.2119140625, 0.1279296875
0.0078125, 0.2021484375, 0.1259765625
0.0078125, 0.205078125, 0.130859375
0.0068359375, 0.2119140625, 0.140625
0.0068359375, 0.205078125, 0.1357421875
0.0078125, 0.205078125, 0.1357421875
0.0068359375, 0.208984375, 0.1298828125
0.005859375, 0.20703125, 0.1376953125
0.0068359375, 0.2080078125, 0.12890625
0.0048828125, 0.208984375, 0.125
0.0078125, 0.2109375, 0.1279296875
0.005859375, 0.2080078125, 0.1396484375
0.0078125, 0.205078125, 0.1376953125
0.0068359375, 0.2001953125, 0.1357421875
0.005859375, 0.2060546875, 0.1240234375
0.0078125, 0.2080078125, 0.12890625
0.0048828125, 0.2158203125, 0.142578125
0.0068359375, 0.208984375, 0.1328125
0.0087890625, 0.1962890625, 0.12890625
0.005859375, 0.2041015625, 0.1357421875
0.005859375, 0.2099609375, 0.1396484375
0.0068359375, 0.20703125, 0.1318359375
0.0087890625, 0.2080078125, 0.130859375
0.0068359375, 0.2060546875, 0.1240234375
0.0068359375, 0.2080078125, 0.1318359375
0.0078125, 0.1982421875, 0.1396484375
0.0068359375, 0.2001953125, 0.138671875
0.005859375, 0.20703125, 0.1357421875
0.005859375, 0.208984375, 0.1318359375
0.005859375, 0.2099609375, 0.1279296875
0.0068359375, 0.2060546875, 0.130859375
0.005859375, 0.208984375, 0.138671875
0.00390625, 0.2099609375, 0.134765625
0.005859375, 0.2060546875, 0.130859375
0.0087890625, 0.2021484375, 0.134765625
0.0068359375, 0.203125, 0.130859375
0.005859375, 0.208984375, 0.126953125
0.0087890625, 0.20703125, 0.1396484375
0.0087890625, 0.212890625, 0.1376953125
0.0087890625, 0.2080078125, 0.126953125
0.0068359375, 0.2041015625, 0.1298828125
0.005859375, 0.205078125, 0.1337890625
0.0078125, 0.203125, 0.1328125
0.0068359375, 0.2021484375, 0.1416015625
0.005859375, 0.212890625, 0.13671875
0.0068359375, 0.2109375, 0.123046875
0.0068359375, 0.205078125, 0.1298828125
0.0078125, 0.20703125, 0.13671875
0.005859375, 0.2099609375, 0.138671875
0.005859375, 0.2099609375, 0.138671875
0.0078125, 0.2001953125, 0.12890625
0.005859375, 0.203125, 0.12890625
0.0068359375, 0.19921875, 0.140625
0.005859375, 0.2099609375, 0.14453125
0.0068359375, 0.2177734375, 0.125
0.0048828125, 0.2021484375, 0.1240234375
0.0068359375, 0.20703125, 0.1279296875
0.0068359375, 0.2080078125, 0.13671875
0.005859375, 0.2041015625, 0.1416015625
0.0068359375, 0.203125, 0.1318359375
0.005859375, 0.20703125, 0.1328125
0.0068359375, 0.2080078125, 0.1357421875
0.009765625, 0.2021484375, 0.130859375
0.0087890625, 0.203125, 0.1396484375
0.0068359375, 0.20703125, 0.134765625
0.0078125, 0.2080078125, 0.1279296875
0.0078125, 0.2041015625, 0.1279296875
0.0087890625, 0.2138671875, 0.13671875
0.0068359375, 0.2080078125, 0.1328125
0.005859375, 0.2041015625, 0.1328125
0.0068359375, 0.2001953125, 0.1337890625
0.005859375, 0.201171875, 0.1337890625
0.0048828125, 0.212890625, 0.1396484375
0.0087890625, 0.205078125, 0.1376953125
0.0078125, 0.20703125, 0.125
0.0087890625, 0.2119140625, 0.1259765625
0.0068359375, 0.203125, 0.138671875
0.0068359375, 0.205078125, 0.138671875
0.0078125, 0.2099609375, 0.130859375
0.009765625, 0.197265625, 0.134765625
0.005859375, 0.205078125, 0.14453125
0.0068359375, 0.21484375, 0.12890625
0.0068359375, 0.2099609375, 0.1220703125
0.0078125, 0.2080078125, 0.1328125
0.0107421875, 0.205078125, 0.138671875
0.0078125, 0.2060546875, 0.130859375
0.0087890625, 0.1982421875, 0.1298828125
0.0087890625, 0.201171875, 0.134765625
0.0068359375, 0.21484375, 0.1337890625
0.0107421875, 0.2060546875, 0.138671875
0.0078125, 0.203125, 0.1376953125
0.0078125, 0.2099609375, 0.1318359375
0.005859375, 0.2080078125, 0.130859375
0.0068359375, 0.1943359375, 0.1396484375
0.0048828125, 0.2060546875, 0.13671875
0.0068359375, 0.208984375, 0.1279296875
0.0078125, 0.2080078125, 0.1318359375
0.0068359375, 0.2080078125, 0.1328125
0.0087890625, 0.208984375, 0.1337890625
0.005859375, 0.20703125, 0.130859375
0.005859375, 0.203125, 0.1376953125
0.009765625, 0.201171875, 0.1357421875
0.0078125, 0.2080078125, 0.1298828125
0.0087890625, 0.2021484375, 0.1357421875
0.0068359375, 0.203125, 0.1298828125
0.0078125, 0.212890625, 0.1259765625
0.0078125, 0.203125, 0.134765625
0.0087890625, 0.203125, 0.134765625
0.0068359375, 0.212890625, 0.1357421875
0.005859375, 0.2021484375, 0.1298828125
0.009765625, 0.203125, 0.1318359375
0.01171875, 0.2080078125, 0.13671875
0.0068359375, 0.208984375, 0.134765625
0.0078125, 0.203125, 0.1337890625
0.0087890625, 0.2080078125, 0.130859375
0.009765625, 0.2041015625, 0.130859375
0.0068359375, 0.201171875, 0.1376953125
0.0068359375, 0.2080078125, 0.1357421875
0.0087890625, 0.2099609375, 0.1279296875
0.0087890625, 0.20703125, 0.1328125
0.0078125, 0.203125, 0.130859375
0.0087890625, 0.20703125, 0.1328125
0.0078125, 0.205078125, 0.138671875
0.0068359375, 0.2060546875, 0.134765625
0.0068359375, 0.20703125, 0.12890625
0.0068359375, 0.20703125, 0.1357421875
0.0087890625, 0.208984375, 0.13671875
0.0068359375, 0.2060546875, 0.1396484375
0.0068359375, 0.201171875, 0.1328125
0.0068359375, 0.20703125, 0.1318359375
0.0078125, 0.208984375, 0.138671875
0.0107421875, 0.203125, 0.1318359375
0.0087890625, 0.203125, 0.1279296875
0.0068359375, 0.20703125, 0.1376953125
0.0078125, 0.208984375, 0.1357421875
0.0078125, 0.203125, 0.134765625
0.0087890625, 0.19921875, 0.1337890625
0.009765625, 0.205078125, 0.12890625
0.0068359375, 0.2109375, 0.13671875
0.009765625, 0.2041015625, 0.1376953125
0.009765625, 0.2001953125, 0.1328125
0.0087890625, 0.2021484375, 0.1279296875
