-0.0078125, 0.0302734375, 0.2421875
-0.0078125, 0.0322265625, 0.2470703125
-0.0068359375, 0.0322265625, 0.2451171875
-0.00390625, 0.037109375, 0.2451171875
-0.005859375, 0.0224609375, 0.2490234375
-0.0078125, 0.0302734375, 0.2412109375
-0.0048828125, 0.041015625, 0.240234375
-0.00390625, 0.0283203125, 0.2451171875
-0.0068359375, 0.0380859375, 0.2421875
-0.0087890625, 0.0263671875, 0.248046875
-0.0078125, 0.025390625, 0.244140625
-0.00390625, 0.044921875, 0.2421875
-0.00390625, 0.0419921875, 0.2421875
-0.001953125, 0.0341796875, 0.236328125
-0.0048828125, 0.0224609375, 0.24609375
-0.0068359375, 0.03125, 0.2490234375
-0.0078125, 0.0400390625, 0.25
-0.009765625, 0.037109375, 0.2421875
-0.0048828125, 0.0322265625, 0.2353515625
-0.00390625, 0.021484375, 0.244140625
-0.0048828125, 0.037109375, 0.2431640625
-0.0048828125, 0.0361328125, 0.2451171875
-0.00390625, 0.0185546875, 0.248046875
-0.0078125, 0.0322265625, 0.2529296875
-0.0087890625, 0.0419921875, 0.251953125
-0.0029296875, 0.037109375, 0.240234375
-0.005859375, 0.0263671875, 0.240234375
-0.005859375, 0.037109375, 0.24609375
-0.0087890625, 0.0341796875, 0.24609375
-0.005859375, 0.0341796875, 0.2421875
-0.005859375, 0.037109375, 0.2470703125
-0.005859375, 0.0263671875, 0.2451171875
-0.005859375, 0.0419921875, 0.2392578125
-0.00390625, 0.037109375, 0.2392578125
-0.0048828125, 0.0205078125, 0.248046875
-0.00390625, 0.0361328125, 0.2490234375
-0.0087890625, 0.037109375, 0.244140625
-0.001953125, 0.0380859375, 0.23828125
-0.00390625, 0.029296875, 0.2421875
-0.0048828125, 0.037109375, 0.2431640625
-0.0078125, 0.0419921875, 0.2451171875
-0.0068359375, 0.03515625, 0.24609375
-0.0048828125, 0.0185546875, 0.25
-0.0068359375, 0.02734375, 0.2421875
-0.0048828125, 0.041015625, 0.2421875
-0.005859375, 0.029296875, 0.2421875
-0.005859375, 0.0341796875, 0.2431640625
-0.0029296875, 0.041015625, 0.2470703125
-0.0048828125, 0.0263671875, 0.2421875
-0.0009765625, 0.037109375, 0.2412109375
-0.0048828125, 0.0439453125, 0.248046875
-0.00390625, 0.04296875, 0.24609375
-0.005859375, 0.021484375, 0.244140625
-0.0048828125, 0.0283203125, 0.2451171875
-0.0048828125, 0.044921875, 0.2451171875
-0.0009765625, 0.0361328125, 0.248046875
-0.0068359375, 0.0390625, 0.2431640625
-0.005859375, 0.029296875, 0.2431640625
-0.0068359375, 0.03125, 0.244140625
-0.001953125, 0.029296875, 0.24609375
-0.00390625, 0.0361328125, 0.244140625
-0.00390625, 0.03125, 0.2431640625
-0.0029296875, 0.029296875, 0.2421875
-0.005859375, 0.0361328125, 0.244140625
-0.0029296875, 0.037109375, 0.25
-0.0048828125, 0.0322265625, 0.2421875
-0.0029296875, 0.0361328125, 0.2392578125
-0.0029296875, 0.04296875, 0.24609375
-0.005859375, 0.0322265625, 0.248046875
-0.005859375, 0.025390625, 0.248046875
-0.0068359375, 0.0341796875, 0.2470703125
-0.0048828125, 0.0361328125, 0.2451171875
-0.0087890625, 0.03515625, 0.2421875
-0.0048828125, 0.03125, 0.2421875
0.0, 0.0283203125, 0.2431640625
-0.0029296875, 0.0361328125, 0.244140625
-0.00390625, 0.041015625, 0.2470703125
-0.0029296875, 0.0380859375, 0.24609375
-0.005859375, 0.02734375, 0.2431640625
-0.005859375, 0.0322265625, 0.2421875
-0.0068359375, 0.0390625, 0.2451171875
-0.005859375, 0.0322265625, 0.2470703125
-0.0048828125, 0.037109375, 0.244140625
-0.013671875, 0.04296875, 0.25
-0.01171875, 0.044921875, 0.259765625
-0.0068359375, 0.0380859375, 0.2705078125
-0.0009765625, 0.0341796875, 0.2646484375
0.0, -0.021484375, 0.2431640625
0.00390625, -0.0478515625, 0.28125
0.005859375, -0.005859375, 0.361328125
0.0009765625, 0.0, 0.3955078125
0.0, -0.0400390625, 0.3818359375
0.0048828125, -0.041015625, 0.3720703125
0.0087890625, -0.009765625, 0.3125
0.0068359375, 0.0234375, 0.251953125
0.005859375, 0.0458984375, 0.2353515625
0.0126953125, 0.0380859375, 0.251953125
0.0205078125, 0.0185546875, 0.2763671875
0.029296875, -0.00390625, 0.2939453125
0.0322265625, 0.0, 0.294921875
0.033203125, 0.0234375, 0.2763671875
0.0380859375, 0.03515625, 0.265625
0.0400390625, 0.029296875, 0.259765625
0.0380859375, 0.0380859375, 0.2509765625
0.0439453125, 0.0361328125, 0.23046875
0.0458984375, 0.021484375, 0.21484375
0.056640625, 0.001953125, 0.2099609375
0.056640625, 0.0048828125, 0.2119140625
0.0537109375, 0.0302734375, 0.197265625
0.0498046875, 0.0419921875, 0.177734375
0.046875, 0.03515625, 0.2080078125
0.064453125, 0.02734375, 0.2080078125
0.0556640625, 0.0205078125, 0.2216796875
0.056640625, 0.015625, 0.2109375
0.0517578125, 0.037109375, 0.2041015625
0.048828125, 0.0625, 0.2060546875
0.0546875, 0.0625, 0.2265625
0.0517578125, 0.0654296875, 0.2236328125
0.0556640625, 0.0732421875, 0.1962890625
0.0595703125, 0.09375, 0.189453125
0.0615234375, 0.09765625, 0.1875
0.06640625, 0.0869140625, 0.2099609375
0.0673828125, 0.072265625, 0.19921875
0.072265625, 0.0634765625, 0.18359375
0.0830078125, 0.0654296875, 0.1943359375
0.0849609375, 0.0751953125, 0.189453125
0.0859375, 0.064453125, 0.18359375
0.087890625, 0.068359375, 0.1826171875
0.0908203125, 0.072265625, 0.1826171875
0.0947265625, 0.0712890625, 0.1796875
0.09375, 0.064453125, 0.1923828125
0.099609375, 0.056640625, 0.1943359375
0.1064453125, 0.03125, 0.1982421875
0.111328125, 0.0126953125, 0.2119140625
0.11328125, 0.01171875, 0.2197265625
0.115234375, -0.0087890625, 0.220703125
0.115234375, -0.005859375, 0.2255859375
0.1171875, 0.00390625, 0.2109375
0.1171875, 0.0205078125, 0.20703125
0.11328125, 0.0263671875, 0.2080078125
0.1103515625, 0.033203125, 0.2099609375
0.1083984375, 0.0234375, 0.22265625
0.10546875, 0.0478515625, 0.23828125
0.107421875, 0.0654296875, 0.22265625
0.103515625, 0.0751953125, 0.2138671875
0.103515625, 0.0732421875, 0.216796875
0.1025390625, 0.0576171875, 0.201171875
0.107421875, 0.0576171875, 0.216796875
0.1083984375, 0.0771484375, 0.2138671875
0.107421875, 0.0693359375, 0.220703125
0.111328125, 0.04296875, 0.2333984375
0.1103515625, 0.0234375, 0.22265625
0.115234375, 0.01171875, 0.2255859375
0.115234375, 0.0126953125, 0.2275390625
0.1162109375, 0.0068359375, 0.21875
0.11328125, -0.0048828125, 0.21484375
0.1162109375, -0.017578125, 0.21875
0.1103515625, -0.0302734375, 0.2353515625
0.10546875, -0.0302734375, 0.2197265625
0.1015625, -0.017578125, 0.1953125
0.087890625, -0.0087890625, 0.1669921875
0.0595703125, 0.005859375, 0.138671875
0.017578125, 0.11328125, 0.134765625
-0.033203125, 0.37109375, 0.0537109375
-0.072265625, 0.5595703125, -0.1044921875
-0.1015625, 0.6328125, -0.306640625
-0.1376953125, 0.7314453125, -0.4580078125
-0.232421875, 0.80078125, -0.416015625
-0.4267578125, 0.6298828125, -0.28515625
-0.63671875, 0.3203125, 0.0
-0.734375, -0.1181640625, 0.494140625
-0.58984375, -0.4931640625, 0.7978515625
-0.388671875, -0.599609375, 0.7734375
-0.2744140625, -0.4326171875, 0.5234375
-0.251953125, -0.2587890625, 0.5849609375
-0.2138671875, -0.3427734375, 0.6298828125
-0.18359375, -0.5830078125, 0.5869140625
-0.142578125, -0.701171875, 0.6240234375
-0.1455078125, -0.740234375, 0.705078125
-0.1689453125, -0.6376953125, 0.5712890625
-0.240234375, -0.486328125, 0.4228515625
-0.310546875, -0.4208984375, 0.3193359375
-0.376953125, -0.4267578125, 0.328125
-0.4921875, -0.2470703125, 0.3427734375
-0.5771484375, 0.013671875, 0.314453125
-0.56640625, 0.404296875, 0.2802734375
-0.4541015625, 0.65234375, 0.1953125
-0.3212890625, 0.798828125, 0.1142578125
-0.1943359375, 0.7900390625, 0.0048828125
-0.1064453125, 0.6181640625, -0.0146484375
-0.0615234375, 0.423828125, 0.091796875
-0.03515625, 0.2587890625, 0.1630859375
-0.0185546875, 0.1279296875, 0.2373046875
-0.01171875, 0.056640625, 0.26171875
-0.0107421875, 0.0263671875, 0.240234375
-0.0009765625, -0.0107421875, 0.2470703125
-0.00390625, -0.0009765625, 0.2685546875
0.0, 0.052734375, 0.2373046875
-0.0078125, 0.064453125, 0.2333984375
-0.005859375, 0.0625, 0.2216796875
-0.0068359375, 0.03515625, 0.216796875
-0.0087890625, 0.013671875, 0.23046875
-0.0087890625, 0.0302734375, 0.255859375
-0.009765625, 0.048828125, 0.2490234375
-0.005859375, 0.0234375, 0.2353515625
-0.001953125, -0.0029296875, 0.244140625
-0.0068359375, 0.0517578125, 0.259765625
-0.0087890625, 0.1298828125, 0.2431640625
-0.0078125, 0.1259765625, 0.2041015625
-0.0078125, 0.0703125, 0.2216796875
-0.0087890625, 0.0478515625, 0.255859375
-0.015625, 0.07421875, 0.267578125
-0.0166015625, 0.087890625, 0.2646484375
-0.0224609375, 0.08203125, 0.2607421875
-0.0224609375, 0.0556640625, 0.2197265625
-0.0234375, 0.025390625, 0.203125
-0.017578125, 0.015625, 0.267578125
-0.01953125, 0.041015625, 0.3037109375
-0.0166015625, 0.064453125, 0.2509765625
-0.0166015625, 0.0498046875, 0.2177734375
-0.015625, 0.0205078125, 0.23828125
-0.015625, 0.0029296875, 0.2255859375
-0.015625, -0.001953125, 0.2421875
-0.0166015625, 0.0009765625, 0.2587890625
-0.021484375, -0.029296875, 0.2236328125
-0.0166015625, -0.0380859375, 0.216796875
-0.0166015625, -0.001953125, 0.2275390625
-0.01953125, 0.0185546875, 0.2353515625
-0.01953125, 0.02734375, 0.251953125
-0.0185546875, -0.00390625, 0.1865234375
-0.0078125, -0.07421875, 0.142578125
-0.00390625, -0.0751953125, 0.1875
-0.0048828125, -0.0419921875, 0.244140625
-0.001953125, -0.0029296875, 0.2724609375
-0.0029296875, 0.013671875, 0.2568359375
0.0, -0.01171875, 0.2373046875
0.0, -0.044921875, 0.24609375
-0.001953125, -0.044921875, 0.2509765625
-0.0068359375, -0.0126953125, 0.275390625
-0.0146484375, 0.01171875, 0.310546875
-0.0185546875, 0.0439453125, 0.302734375
-0.0205078125, 0.07421875, 0.2783203125
-0.013671875, 0.0771484375, 0.2705078125
-0.0087890625, 0.01171875, 0.2734375
-0.001953125, -0.0205078125, 0.2333984375
0.0, 0.013671875, 0.224609375
0.0029296875, 0.0673828125, 0.236328125
0.00390625, 0.091796875, 0.2646484375
0.0009765625, 0.076171875, 0.28515625
-0.001953125, 0.0166015625, 0.287109375
-0.009765625, -0.03515625, 0.271484375
-0.013671875, -0.0166015625, 0.2607421875
-0.0146484375, 0.0068359375, 0.24609375
-0.0166015625, 0.02734375, 0.22265625
-0.0205078125, 0.0283203125, 0.224609375
-0.015625, 0.0302734375, 0.2314453125
-0.013671875, 0.0361328125, 0.2373046875
-0.0087890625, 0.033203125, 0.2509765625
-0.0078125, 0.015625, 0.2578125
-0.0087890625, 0.013671875, 0.2548828125
-0.0087890625, 0.005859375, 0.2646484375
-0.009765625, 0.01953125, 0.263671875
-0.0107421875, 0.0361328125, 0.2509765625
-0.01171875, 0.0478515625, 0.25
-0.017578125, 0.0498046875, 0.2568359375
-0.015625, 0.0400390625, 0.26171875
-0.0166015625, 0.0361328125, 0.2578125
-0.013671875, 0.033203125, 0.2451171875
-0.013671875, 0.0341796875, 0.2236328125
-0.005859375, 0.0302734375, 0.220703125
-0.0068359375, 0.0244140625, 0.224609375
-0.00390625, 0.02734375, 0.2373046875
-0.0078125, 0.0380859375, 0.2529296875
-0.00390625, 0.0302734375, 0.2509765625
-0.0078125, 0.029296875, 0.23828125
-0.0068359375, 0.033203125, 0.23828125
-0.0048828125, 0.033203125, 0.2509765625
-0.0068359375, 0.03515625, 0.263671875
-0.00390625, 0.041015625, 0.263671875
-0.00390625, 0.037109375, 0.2490234375
-0.001953125, 0.029296875, 0.232421875
-0.005859375, 0.025390625, 0.2255859375
-0.0009765625, 0.037109375, 0.2216796875
0.0, 0.0458984375, 0.2314453125
-0.00390625, 0.04296875, 0.2421875
-0.0009765625, 0.0390625, 0.2412109375
-0.0009765625, 0.0341796875, 0.2421875
0.0, 0.0263671875, 0.240234375
0.0, 0.021484375, 0.2451171875
0.0, 0.03125, 0.251953125
-0.0009765625, 0.037109375, 0.2529296875
0.0, 0.0322265625, 0.2490234375
0.0, 0.0361328125, 0.236328125
0.0, 0.0400390625, 0.2294921875
0.0, 0.0322265625, 0.2470703125
-0.0009765625, 0.0400390625, 0.2431640625
-0.0009765625, 0.052734375, 0.2353515625
-0.0029296875, 0.044921875, 0.2412109375
-0.0029296875, 0.0341796875, 0.24609375
-0.001953125, 0.03125, 0.2470703125
-0.001953125, 0.0302734375, 0.24609375
-0.001953125, 0.0400390625, 0.244140625
-0.0029296875, 0.05078125, 0.2451171875
-0.0048828125, 0.0380859375, 0.2470703125
0.0, 0.0283203125, 0.2490234375
-0.0009765625, 0.03515625, 0.2412109375
-0.001953125, 0.033203125, 0.244140625
-0.001953125, 0.03125, 0.2451171875
-0.0029296875, 0.037109375, 0.23828125
-0.00390625, 0.037109375, 0.240234375
-0.0029296875, 0.0478515625, 0.2490234375
0.0, 0.025390625, 0.251953125
-0.0009765625, 0.0283203125, 0.23828125
0.0, 0.029296875, 0.2421875
-0.001953125, 0.0390625, 0.23828125
-0.0009765625, 0.0458984375, 0.2392578125
0.0, 0.046875, 0.2421875
0.0, 0.0517578125, 0.2451171875
-0.0029296875, 0.037109375, 0.25390625
0.0, 0.0361328125, 0.251953125
-0.0009765625, 0.0341796875, 0.2431640625
0.0009765625, 0.0341796875, 0.2314453125
0.0009765625, 0.0341796875, 0.234375
0.0, 0.0439453125, 0.2431640625
-0.001953125, 0.0400390625, 0.248046875
0.0, 0.03515625, 0.240234375
0.0, 0.03515625, 0.2373046875
0.0, 0.0263671875, 0.24609375
0.0, 0.046875, 0.251953125
0.0009765625, 0.0537109375, 0.2421875
0.0, 0.0390625, 0.2392578125
-0.0029296875, 0.02734375, 0.248046875
-0.0009765625, 0.0546875, 0.2548828125
0.0, 0.0361328125, 0.2421875
0.0, 0.033203125, 0.23828125
0.001953125, 0.044921875, 0.234375
0.0009765625, 0.046875, 0.236328125
0.001953125, 0.0390625, 0.244140625
-0.001953125, 0.0341796875, 0.24609375
-0.001953125, 0.0380859375, 0.25
-0.0009765625, 0.0400390625, 0.2451171875
0.0009765625, 0.029296875, 0.244140625
0.0, 0.0419921875, 0.2412109375
0.0, 0.0439453125, 0.236328125
0.0009765625, 0.0302734375, 0.244140625
0.0, 0.0458984375, 0.248046875
0.0009765625, 0.0556640625, 0.2412109375
0.0, 0.03125, 0.244140625
0.0, 0.02734375, 0.2412109375
0.0, 0.0439453125, 0.2431640625
-0.0009765625, 0.0390625, 0.24609375
-0.0009765625, 0.04296875, 0.2412109375
0.0, 0.0361328125, 0.2421875
0.0009765625, 0.0361328125, 0.24609375
0.0, 0.05078125, 0.240234375
0.0, 0.0439453125, 0.2412109375
0.0, 0.0400390625, 0.2451171875
0.0, 0.0322265625, 0.25
0.0, 0.0478515625, 0.2421875
0.0, 0.03515625, 0.2421875
0.0009765625, 0.03515625, 0.2451171875
0.0009765625, 0.0390625, 0.2431640625
-0.001953125, 0.04296875, 0.2392578125
0.0, 0.0546875, 0.236328125
-0.00390625, 0.0361328125, 0.2509765625
0.0, 0.037109375, 0.24609375
-0.0009765625, 0.0537109375, 0.23828125
0.0, 0.0400390625, 0.2392578125
0.0, 0.03515625, 0.24609375
-0.0009765625, 0.0478515625, 0.248046875
0.0, 0.033203125, 0.2451171875
0.0, 0.0380859375, 0.2431640625
0.001953125, 0.0517578125, 0.236328125
0.0, 0.0419921875, 0.2392578125
0.001953125, 0.0390625, 0.240234375
0.0, 0.0419921875, 0.248046875
0.0, 0.0439453125, 0.2470703125
0.0, 0.041015625, 0.2470703125
0.0, 0.0380859375, 0.240234375
0.0, 0.037109375, 0.2373046875
0.0, 0.0439453125, 0.244140625
0.0, 0.044921875, 0.2490234375
-0.001953125, 0.037109375, 0.244140625
0.0, 0.0322265625, 0.240234375
0.0, 0.0498046875, 0.244140625
0.0, 0.04296875, 0.24609375
-0.0009765625, 0.041015625, 0.244140625
0.0009765625, 0.0419921875, 0.2470703125
0.0009765625, 0.0322265625, 0.251953125
0.0009765625, 0.048828125, 0.2421875
0.0, 0.0361328125, 0.236328125
0.0009765625, 0.033203125, 0.236328125
0.0, 0.0478515625, 0.23828125
0.0009765625, 0.044921875, 0.2470703125
0.001953125, 0.0390625, 0.25
0.0, 0.0380859375, 0.234375
0.0, 0.044921875, 0.240234375
0.0, 0.0380859375, 0.25390625
0.0, 0.0458984375, 0.25
0.0, 0.03515625, 0.2421875
0.0, 0.0283203125, 0.2314453125
0.0009765625, 0.0400390625, 0.2431640625
0.0, 0.0419921875, 0.251953125
0.0, 0.041015625, 0.2470703125
0.0, 0.03125, 0.23828125
0.0, 0.046875, 0.236328125
0.0, 0.0419921875, 0.24609375
0.0009765625, 0.0419921875, 0.2451171875
0.0, 0.0361328125, 0.2421875
0.0, 0.0380859375, 0.2353515625
0.0009765625, 0.044921875, 0.2470703125
0.0, 0.0390625, 0.2451171875
0.0, 0.0380859375, 0.23828125
0.0, 0.041015625, 0.236328125
0.0009765625, 0.0439453125, 0.2470703125
0.0, 0.037109375, 0.25390625
0.0, 0.03515625, 0.2470703125
0.0, 0.0390625, 0.236328125
0.0009765625, 0.0439453125, 0.2392578125
0.0009765625, 0.0400390625, 0.2470703125
0.0, 0.041015625, 0.244140625
0.0, 0.0400390625, 0.2373046875
0.0, 0.037109375, 0.244140625
0.0, 0.0390625, 0.2470703125
-0.0009765625, 0.044921875, 0.2470703125
0.0, 0.0439453125, 0.2412109375
-0.001953125, 0.033203125, 0.2431640625
0.0, 0.037109375, 0.2451171875
0.0, 0.0419921875, 0.2431640625
0.0, 0.04296875, 0.2392578125
0.0, 0.0439453125, 0.236328125
0.0, 0.0419921875, 0.2421875
0.0, 0.0390625, 0.2421875
0.0, 0.04296875, 0.2431640625
0.0, 0.0341796875, 0.24609375
0.0, 0.0380859375, 0.2470703125
0.0009765625, 0.0439453125, 0.240234375
0.0, 0.0341796875, 0.24609375
-0.001953125, 0.0380859375, 0.2490234375
0.0, 0.0380859375, 0.2421875
0.0, 0.041015625, 0.2353515625
-0.0009765625, 0.0390625, 0.23828125
0.0, 0.0419921875, 0.244140625
0.0009765625, 0.0478515625, 0.2470703125
0.0, 0.041015625, 0.2490234375
0.0, 0.0322265625, 0.248046875
0.0009765625, 0.0322265625, 0.2421875
0.0009765625, 0.041015625, 0.2431640625
0.0, 0.0478515625, 0.240234375
0.0, 0.044921875, 0.240234375
