0.01171875, 0.072265625, 0.23046875
0.0107421875, 0.060546875, 0.2412109375
0.0107421875, 0.06640625, 0.2412109375
0.013671875, 0.0654296875, 0.23828125
0.01171875, 0.0615234375, 0.2470703125
0.01171875, 0.0712890625, 0.240234375
0.01171875, 0.0703125, 0.232421875
0.0126953125, 0.0537109375, 0.236328125
0.0126953125, 0.06640625, 0.228515625
0.0126953125, 0.0791015625, 0.22265625
0.013671875, 0.07421875, 0.2275390625
0.0126953125, 0.072265625, 0.236328125
0.009765625, 0.08203125, 0.24609375
0.01171875, 0.080078125, 0.2392578125
0.01171875, 0.0625, 0.236328125
0.0107421875, 0.0625, 0.23046875
0.013671875, 0.0673828125, 0.2294921875
0.0126953125, 0.076171875, 0.232421875
0.013671875, 0.0615234375, 0.2412109375
0.0126953125, 0.0712890625, 0.2421875
0.01171875, 0.0751953125, 0.234375
0.0126953125, 0.0458984375, 0.2353515625
0.01171875, 0.0673828125, 0.23828125
0.0146484375, 0.087890625, 0.2412109375
0.01171875, 0.06640625, 0.2353515625
0.0126953125, 0.0634765625, 0.23046875
0.01171875, 0.0810546875, 0.2314453125
0.009765625, 0.0751953125, 0.232421875
0.01171875, 0.078125, 0.2294921875
0.0146484375, 0.0693359375, 0.232421875
0.0107421875, 0.0625, 0.240234375
0.0146484375, 0.0693359375, 0.2431640625
0.0146484375, 0.0703125, 0.240234375
0.0146484375, 0.0654296875, 0.2373046875
0.0126953125, 0.072265625, 0.2275390625
0.0107421875, 0.0615234375, 0.2353515625
0.01171875, 0.068359375, 0.2333984375
0.0126953125, 0.078125, 0.2353515625
0.0107421875, 0.064453125, 0.2373046875
0.0107421875, 0.072265625, 0.2294921875
0.0126953125, 0.068359375, 0.234375
0.009765625, 0.06640625, 0.236328125
0.0126953125, 0.0712890625, 0.232421875
0.01171875, 0.06640625, 0.2412109375
0.013671875, 0.0751953125, 0.232421875
0.01171875, 0.0654296875, 0.2373046875
0.01171875, 0.0703125, 0.234375
0.0126953125, 0.0771484375, 0.240234375
0.0146484375, 0.0615234375, 0.2431640625
0.01171875, 0.0654296875, 0.2314453125
0.009765625, 0.0732421875, 0.232421875
0.013671875, 0.0654296875, 0.234375
0.01171875, 0.080078125, 0.2333984375
0.0126953125, 0.0791015625, 0.23828125
0.0126953125, 0.064453125, 0.23828125
0.01171875, 0.0625, 0.2373046875
0.01171875, 0.0654296875, 0.2373046875
0.013671875, 0.072265625, 0.2314453125
0.0126953125, 0.0673828125, 0.2333984375
0.01171875, 0.0703125, 0.2373046875
0.0146484375, 0.0634765625, 0.244140625
0.0126953125, 0.0654296875, 0.2392578125
0.013671875, 0.0673828125, 0.23046875
0.01171875, 0.076171875, 0.2255859375
0.0126953125, 0.0751953125, 0.2353515625
0.0107421875, 0.072265625, 0.2421875
0.0126953125, 0.07421875, 0.234375
0.0146484375, 0.0634765625, 0.2353515625
0.0146484375, 0.0703125, 0.2353515625
0.013671875, 0.0654296875, 0.2353515625
0.013671875, 0.0693359375, 0.232421875
0.01171875, 0.0810546875, 0.236328125
0.013671875, 0.0654296875, 0.240234375
0.0146484375, 0.0673828125, 0.2353515625
0.01171875, 0.0673828125, 0.236328125
0.0126953125, 0.064453125, 0.236328125
0.0146484375, 0.07421875, 0.236328125
0.0107421875, 0.076171875, 0.2353515625
0.009765625, 0.0712890625, 0.2392578125
0.0126953125, 0.07421875, 0.2275390625
0.0126953125, 0.0634765625, 0.236328125
0.01171875, 0.0712890625, 0.240234375
0.013671875, 0.07421875, 0.23046875
0.01171875, 0.068359375, 0.2314453125
0.01171875, 0.0673828125, 0.2314453125
0.013671875, 0.0634765625, 0.2373046875
0.0126953125, 0.0712890625, 0.236328125
0.013671875, 0.0625, 0.2392578125
0.0146484375, 0.07421875, 0.232421875
0.013671875, 0.0703125, 0.2333984375
0.013671875, 0.068359375, 0.2333984375
0.0126953125, 0.07421875, 0.234375
0.0126953125, 0.07421875, 0.2392578125
0.0087890625, 0.0712890625, 0.2333984375
0.01171875, 0.0615234375, 0.236328125
0.0126953125, 0.0810546875, 0.2275390625
0.0146484375, 0.0751953125, 0.236328125
0.013671875, 0.0654296875, 0.23828125
0.0126953125, 0.07421875, 0.2333984375
0.0146484375, 0.0673828125, 0.2353515625
0.0107421875, 0.0732421875, 0.232421875
0.01171875, 0.068359375, 0.236328125
0.0126953125, 0.068359375, 0.2333984375
0.015625, 0.068359375, 0.2353515625
0.0166015625, 0.068359375, 0.23828125
0.0146484375, 0.0732421875, 0.2353515625
0.013671875, 0.0625, 0.232421875
0.013671875, 0.076171875, 0.232421875
0.013671875, 0.0751953125, 0.23828125
0.0126953125, 0.0693359375, 0.23828125
0.01171875, 0.07421875, 0.23046875
0.0126953125, 0.06640625, 0.2373046875
0.0126953125, 0.0673828125, 0.23828125
0.0126953125, 0.0712890625, 0.2333984375
0.0146484375, 0.0703125, 0.23828125
0.013671875, 0.0693359375, 0.234375
0.01171875, 0.07421875, 0.228515625
0.0126953125, 0.0712890625, 0.236328125
0.013671875, 0.0712890625, 0.2412109375
0.009765625, 0.07421875, 0.2373046875
0.0107421875, 0.0771484375, 0.240234375
0.0146484375, 0.07421875, 0.2412109375
0.0107421875, 0.083984375, 0.2373046875
0.013671875, 0.0966796875, 0.234375
0.0146484375, 0.0888671875, 0.24609375
0.01953125, 0.0341796875, 0.255859375
0.0224609375, 0.013671875, 0.3056640625
0.02734375, 0.00390625, 0.3251953125
0.0390625, 0.0419921875, 0.3154296875
0.0498046875, 0.091796875, 0.3076171875
0.0556640625, 0.0859375, 0.3369140625
0.0576171875, 0.0498046875, 0.3603515625
0.0439453125, 0.0166015625, 0.39453125
0.0419921875, 0.001953125, 0.3916015625
0.0498046875, 0.001953125, 0.38671875
0.0478515625, 0.0068359375, 0.3759765625
0.046875, 0.03125, 0.3173828125
0.0458984375, 0.0439453125, 0.294921875
0.04296875, 0.029296875, 0.2939453125
0.0390625, 0.0009765625, 0.2783203125
0.044921875, -0.046875, 0.2158203125
0.0419921875, -0.037109375, 0.2236328125
0.0380859375, -0.0029296875, 0.23046875
0.03515625, 0.0, 0.2041015625
0.0380859375, -0.044921875, 0.24609375
0.0361328125, -0.044921875, 0.294921875
0.02734375, -0.037109375, 0.2939453125
0.0263671875, -0.033203125, 0.255859375
0.0283203125, -0.048828125, 0.2119140625
0.0244140625, -0.046875, 0.1943359375
0.0224609375, -0.029296875, 0.2001953125
0.0166015625, -0.0009765625, 0.1953125
0.0244140625, 0.0, 0.1708984375
0.025390625, 0.025390625, 0.1669921875
0.029296875, 0.0615234375, 0.154296875
0.041015625, 0.080078125, 0.123046875
0.046875, 0.0654296875, 0.091796875
0.0439453125, 0.068359375, 0.09765625
0.037109375, 0.08203125, 0.029296875
0.0400390625, 0.0791015625, -0.0693359375
0.0244140625, 0.11328125, -0.056640625
0.009765625, 0.197265625, -0.0458984375
0.0078125, 0.3125, -0.1279296875
-0.0009765625, 0.4833984375, -0.1435546875
-0.0380859375, 0.646484375, -0.099609375
-0.0888671875, 0.716796875, -0.0322265625
-0.130859375, 0.65625, 0.0703125
-0.1982421875, 0.513671875, 0.138671875
-0.2509765625, 0.337890625, 0.275390625
-0.287109375, 0.23828125, 0.345703125
-0.3154296875, 0.1923828125, 0.3291015625
-0.3369140625, 0.3056640625, 0.25
-0.4140625, 0.4375, 0.173828125
-0.552734375, 0.2490234375, 0.166015625
-0.634765625, -0.2333984375, 0.185546875
-0.591796875, -0.6005859375, 0.3369140625
-0.4306640625, -1.0, 0.3251953125
-0.2431640625, -1.0, 0.3310546875
-0.197265625, -1.0, 0.5732421875
-0.1689453125, -0.93359375, 0.724609375
-0.1767578125, -1.0, 0.701171875
-0.265625, -1.0, 0.56640625
-0.451171875, -0.953125, 0.5166015625
-0.701171875, -0.6591796875, 0.4091796875
-0.8994140625, -0.2060546875, 0.3408203125
-0.939453125, 0.259765625, 0.31640625
-0.814453125, 0.7138671875, 0.2705078125
-0.517578125, 0.9990234375, 0.1796875
-0.2802734375, 0.9990234375, -0.109375
-0.125, 0.7373046875, -0.0634765625
-0.06640625, 0.4482421875, 0.08984375
-0.0205078125, 0.330078125, 0.11328125
-0.001953125, 0.27734375, 0.1015625
0.0009765625, 0.2333984375, 0.15625
-0.001953125, 0.1630859375, 0.2412109375
0.0, 0.0859375, 0.2919921875
0.0009765625, -0.009765625, 0.3046875
0.001953125, -0.0615234375, 0.3427734375
0.0078125, 0.015625, 0.2939453125
0.0146484375, 0.0693359375, 0.244140625
0.013671875, 0.0673828125, 0.2255859375
0.009765625, 0.0380859375, 0.2236328125
0.005859375, 0.0166015625, 0.259765625
0.005859375, 0.0458984375, 0.2646484375
0.0029296875, 0.0654296875, 0.2529296875
0.00390625, 0.06640625, 0.244140625
0.0068359375, 0.048828125, 0.234375
0.0029296875, 0.0439453125, 0.23046875
0.0009765625, 0.0166015625, 0.2431640625
0.0, 0.0361328125, 0.251953125
0.0009765625, 0.0751953125, 0.2392578125
0.0, 0.0791015625, 0.22265625
-0.0009765625, 0.0498046875, 0.2216796875
-0.0029296875, 0.029296875, 0.2333984375
0.0, 0.064453125, 0.248046875
-0.001953125, 0.0673828125, 0.232421875
-0.0087890625, 0.0458984375, 0.255859375
-0.01171875, 0.0439453125, 0.263671875
-0.013671875, 0.0712890625, 0.2509765625
-0.017578125, 0.0673828125, 0.23046875
-0.015625, 0.0380859375, 0.220703125
-0.009765625, 0.0263671875, 0.236328125
-0.005859375, 0.0283203125, 0.255859375
-0.009765625, 0.046875, 0.2607421875
-0.0146484375, 0.0517578125, 0.2392578125
-0.017578125, 0.03515625, 0.2060546875
-0.0078125, 0.0126953125, 0.19921875
-0.009765625, -0.005859375, 0.2236328125
-0.0107421875, -0.01171875, 0.2333984375
-0.0048828125, -0.015625, 0.21875
0.0009765625, 0.0087890625, 0.205078125
-0.001953125, -0.0205078125, 0.2197265625
-0.0048828125, -0.0615234375, 0.2392578125
0.0, -0.048828125, 0.2490234375
0.0, -0.0029296875, 0.251953125
0.001953125, 0.0068359375, 0.2412109375
0.001953125, -0.0595703125, 0.2275390625
0.0048828125, -0.08203125, 0.255859375
0.0068359375, -0.0107421875, 0.275390625
0.01171875, 0.0302734375, 0.267578125
0.0068359375, 0.0087890625, 0.267578125
0.0078125, -0.0146484375, 0.259765625
0.0078125, -0.005859375, 0.27734375
0.0087890625, -0.001953125, 0.2998046875
0.0087890625, 0.0205078125, 0.2880859375
0.0078125, 0.01953125, 0.271484375
0.0068359375, 0.0322265625, 0.267578125
0.005859375, 0.03515625, 0.318359375
0.0078125, 0.0087890625, 0.357421875
0.013671875, -0.0244140625, 0.2802734375
0.01171875, -0.0244140625, 0.20703125
0.009765625, -0.0087890625, 0.19140625
0.0126953125, 0.00390625, 0.1953125
0.013671875, 0.0126953125, 0.22265625
0.013671875, 0.033203125, 0.24609375
0.0166015625, 0.046875, 0.2587890625
0.0205078125, 0.0390625, 0.2568359375
0.01953125, 0.0146484375, 0.2470703125
0.01953125, 0.025390625, 0.2353515625
0.0146484375, 0.041015625, 0.2294921875
0.013671875, 0.04296875, 0.236328125
0.009765625, 0.0546875, 0.236328125
0.00390625, 0.0673828125, 0.244140625
0.0078125, 0.0654296875, 0.2490234375
0.00390625, 0.048828125, 0.2529296875
0.0048828125, 0.0576171875, 0.2490234375
0.005859375, 0.05859375, 0.2451171875
0.0087890625, 0.046875, 0.24609375
0.01171875, 0.0068359375, 0.248046875
0.0146484375, 0.0107421875, 0.259765625
0.0146484375, 0.017578125, 0.25
0.015625, 0.0341796875, 0.2353515625
0.015625, 0.0390625, 0.2314453125
0.0146484375, 0.0302734375, 0.2275390625
0.015625, 0.021484375, 0.2392578125
0.013671875, 0.01171875, 0.2470703125
0.0146484375, 0.03515625, 0.2421875
0.0126953125, 0.05078125, 0.2373046875
0.015625, 0.048828125, 0.232421875
0.01171875, 0.0380859375, 0.2431640625
0.0126953125, 0.02734375, 0.251953125
0.0126953125, 0.03515625, 0.251953125
0.01171875, 0.0439453125, 0.2431640625
0.0146484375, 0.04296875, 0.2412109375
0.0166015625, 0.0400390625, 0.234375
0.0126953125, 0.0390625, 0.236328125
0.0146484375, 0.0400390625, 0.244140625
0.015625, 0.0390625, 0.2421875
0.0146484375, 0.0361328125, 0.2373046875
0.0146484375, 0.037109375, 0.2451171875
0.0146484375, 0.03125, 0.24609375
0.0126953125, 0.037109375, 0.2412109375
0.013671875, 0.0517578125, 0.2470703125
0.0126953125, 0.0322265625, 0.251953125
0.013671875, 0.033203125, 0.2431640625
0.01171875, 0.04296875, 0.23828125
0.0146484375, 0.0419921875, 0.240234375
0.015625, 0.0302734375, 0.240234375
0.015625, 0.0244140625, 0.2431640625
0.013671875, 0.04296875, 0.2470703125
0.015625, 0.0498046875, 0.2451171875
0.01171875, 0.0390625, 0.2421875
0.013671875, 0.0439453125, 0.2353515625
0.0126953125, 0.03515625, 0.248046875
0.01171875, 0.03515625, 0.24609375
0.0166015625, 0.041015625, 0.2373046875
0.015625, 0.0263671875, 0.2421875
0.0166015625, 0.0380859375, 0.24609375
0.0126953125, 0.0546875, 0.2412109375
0.015625, 0.0498046875, 0.2373046875
0.0146484375, 0.0166015625, 0.2431640625
0.0126953125, 0.0302734375, 0.2587890625
0.013671875, 0.0556640625, 0.248046875
0.013671875, 0.03515625, 0.2431640625
0.0146484375, 0.02734375, 0.2412109375
0.0126953125, 0.04296875, 0.2373046875
0.0126953125, 0.0380859375, 0.244140625
0.013671875, 0.0498046875, 0.232421875
0.0166015625, 0.0439453125, 0.23828125
0.013671875, 0.04296875, 0.2373046875
0.0166015625, 0.048828125, 0.2412109375
0.013671875, 0.02734375, 0.2451171875
0.013671875, 0.0341796875, 0.24609375
0.013671875, 0.04296875, 0.251953125
0.0146484375, 0.048828125, 0.240234375
0.0166015625, 0.046875, 0.2333984375
0.013671875, 0.0322265625, 0.2392578125
0.01171875, 0.04296875, 0.240234375
0.0166015625, 0.033203125, 0.2451171875
0.0166015625, 0.04296875, 0.2431640625
0.015625, 0.0556640625, 0.2431640625
0.015625, 0.0234375, 0.2509765625
0.017578125, 0.029296875, 0.24609375
0.015625, 0.052734375, 0.23828125
0.015625, 0.025390625, 0.24609375
0.015625, 0.0380859375, 0.240234375
0.0146484375, 0.0673828125, 0.234375
0.0146484375, 0.05859375, 0.2373046875
0.0146484375, 0.04296875, 0.232421875
0.015625, 0.0419921875, 0.23828125
0.015625, 0.0390625, 0.2490234375
0.017578125, 0.03515625, 0.248046875
0.017578125, 0.037109375, 0.2373046875
0.0146484375, 0.0361328125, 0.240234375
0.015625, 0.0322265625, 0.2421875
0.015625, 0.044921875, 0.2470703125
0.0146484375, 0.0458984375, 0.2490234375
0.017578125, 0.0419921875, 0.2373046875
0.015625, 0.0458984375, 0.232421875
0.015625, 0.044921875, 0.2392578125
0.0166015625, 0.0439453125, 0.2451171875
0.0146484375, 0.044921875, 0.2490234375
0.0166015625, 0.04296875, 0.2490234375
0.015625, 0.0419921875, 0.2431640625
0.0146484375, 0.04296875, 0.234375
0.0146484375, 0.0380859375, 0.240234375
0.015625, 0.0439453125, 0.240234375
0.017578125, 0.041015625, 0.244140625
0.0185546875, 0.044921875, 0.248046875
0.013671875, 0.03515625, 0.244140625
0.015625, 0.0322265625, 0.2451171875
0.0146484375, 0.048828125, 0.244140625
0.015625, 0.037109375, 0.2412109375
0.015625, 0.04296875, 0.2421875
0.015625, 0.046875, 0.2392578125
0.017578125, 0.0380859375, 0.2451171875
0.0166015625, 0.04296875, 0.24609375
0.015625, 0.0400390625, 0.2421875
0.0146484375, 0.0400390625, 0.240234375
0.0166015625, 0.048828125, 0.2421875
0.0166015625, 0.0380859375, 0.2412109375
0.0185546875, 0.044921875, 0.2392578125
0.0166015625, 0.0419921875, 0.2451171875
0.0146484375, 0.0439453125, 0.2451171875
0.0166015625, 0.0419921875, 0.240234375
0.0146484375, 0.041015625, 0.2451171875
0.015625, 0.044921875, 0.2412109375
0.015625, 0.0390625, 0.23828125
0.015625, 0.041015625, 0.244140625
0.0185546875, 0.0498046875, 0.2451171875
0.0166015625, 0.046875, 0.23828125
0.017578125, 0.041015625, 0.2412109375
0.0166015625, 0.0478515625, 0.2412109375
0.0126953125, 0.0390625, 0.2412109375
0.0146484375, 0.048828125, 0.2373046875
0.0166015625, 0.0517578125, 0.2373046875
0.0166015625, 0.025390625, 0.2353515625
0.0166015625, 0.03125, 0.2421875
0.0185546875, 0.060546875, 0.2421875
0.0166015625, 0.0419921875, 0.24609375
0.015625, 0.03125, 0.2421875
0.0146484375, 0.0595703125, 0.236328125
0.017578125, 0.0537109375, 0.2353515625
0.01953125, 0.0224609375, 0.2421875
0.013671875, 0.0458984375, 0.2470703125
0.0166015625, 0.064453125, 0.248046875
0.015625, 0.0439453125, 0.244140625
0.015625, 0.0322265625, 0.2373046875
0.015625, 0.04296875, 0.2470703125
0.015625, 0.0498046875, 0.24609375
0.015625, 0.04296875, 0.23828125
0.017578125, 0.0419921875, 0.2412109375
0.01953125, 0.0390625, 0.244140625
0.0166015625, 0.0419921875, 0.23828125
0.0185546875, 0.0400390625, 0.240234375
0.0166015625, 0.04296875, 0.240234375
0.0185546875, 0.0361328125, 0.2470703125
0.01953125, 0.048828125, 0.24609375
0.0166015625, 0.0498046875, 0.244140625
0.0166015625, 0.0390625, 0.2373046875
0.0166015625, 0.046875, 0.2353515625
0.0146484375, 0.0380859375, 0.2470703125
0.015625, 0.0390625, 0.25
0.0166015625, 0.05078125, 0.2421875
0.01953125, 0.041015625, 0.240234375
0.0146484375, 0.044921875, 0.2373046875
0.0146484375, 0.046875, 0.240234375
0.0185546875, 0.0361328125, 0.24609375
0.015625, 0.041015625, 0.2431640625
0.0166015625, 0.0458984375, 0.240234375
0.017578125, 0.0458984375, 0.2373046875
0.017578125, 0.0390625, 0.240234375
0.017578125, 0.046875, 0.2421875
0.0146484375, 0.048828125, 0.240234375
0.017578125, 0.0478515625, 0.2470703125
0.0146484375, 0.04296875, 0.2451171875
0.015625, 0.0390625, 0.240234375
0.017578125, 0.0419921875, 0.240234375
0.015625, 0.0478515625, 0.244140625
0.015625, 0.0458984375, 0.2412109375
0.0185546875, 0.044921875, 0.2431640625
0.015625, 0.0498046875, 0.2353515625
0.013671875, 0.0478515625, 0.2470703125
0.017578125, 0.03515625, 0.2490234375
0.0166015625, 0.037109375, 0.23828125
0.0166015625, 0.044921875, 0.240234375
0.01953125, 0.0439453125, 0.2412109375
0.017578125, 0.037109375, 0.2412109375
0.0185546875, 0.0419921875, 0.2421875
0.0146484375, 0.046875, 0.2421875
0.017578125, 0.046875, 0.2451171875
0.0166015625, 0.0419921875, 0.2470703125
0.0166015625, 0.046875, 0.244140625
0.0166015625, 0.0458984375, 0.2431640625
0.0166015625, 0.0439453125, 0.2421875
0.017578125, 0.04296875, 0.2392578125
0.0166015625, 0.04296875, 0.2431640625
0.0166015625, 0.044921875, 0.2451171875
0.0146484375, 0.0498046875, 0.2373046875
0.0146484375, 0.0419921875, 0.2392578125
