0.0234375, 0.0341796875, 0.25
0.0224609375, 0.0380859375, 0.2490234375
0.0234375, 0.0537109375, 0.2451171875
0.0244140625, 0.056640625, 0.236328125
0.0234375, 0.0380859375, 0.2451171875
0.0224609375, 0.0302734375, 0.2451171875
0.0244140625, 0.0458984375, 0.236328125
0.0234375, 0.052734375, 0.2333984375
0.0234375, 0.0498046875, 0.2275390625
0.021484375, 0.0498046875, 0.23046875
0.01953125, 0.05078125, 0.2470703125
0.01953125, 0.0595703125, 0.2529296875
0.0224609375, 0.04296875, 0.25390625
0.0224609375, 0.05078125, 0.240234375
0.0244140625, 0.0537109375, 0.232421875
0.025390625, 0.0419921875, 0.2314453125
0.0263671875, 0.05078125, 0.2353515625
0.0244140625, 0.044921875, 0.2431640625
0.0244140625, 0.052734375, 0.2353515625
0.0205078125, 0.060546875, 0.23046875
0.025390625, 0.0546875, 0.232421875
0.0234375, 0.05078125, 0.2373046875
0.0224609375, 0.0341796875, 0.2490234375
0.0224609375, 0.044921875, 0.25390625
0.0234375, 0.060546875, 0.2421875
0.0263671875, 0.0498046875, 0.2333984375
0.0234375, 0.044921875, 0.2333984375
0.0244140625, 0.0390625, 0.2333984375
0.0234375, 0.048828125, 0.248046875
0.0244140625, 0.0517578125, 0.24609375
0.0224609375, 0.05078125, 0.244140625
0.0244140625, 0.0517578125, 0.2392578125
0.0224609375, 0.0517578125, 0.236328125
0.021484375, 0.044921875, 0.234375
0.01953125, 0.048828125, 0.236328125
0.021484375, 0.064453125, 0.23828125
0.0224609375, 0.056640625, 0.236328125
0.021484375, 0.0390625, 0.23828125
0.0244140625, 0.037109375, 0.2431640625
0.0234375, 0.0478515625, 0.244140625
0.021484375, 0.0576171875, 0.244140625
0.0224609375, 0.048828125, 0.2451171875
0.0234375, 0.0458984375, 0.2412109375
0.01953125, 0.0458984375, 0.2392578125
0.0224609375, 0.052734375, 0.234375
0.0224609375, 0.044921875, 0.2470703125
0.0224609375, 0.0576171875, 0.240234375
0.021484375, 0.0546875, 0.23828125
0.0244140625, 0.0498046875, 0.2333984375
0.0224609375, 0.044921875, 0.2421875
0.0244140625, 0.0380859375, 0.2470703125
0.0244140625, 0.0615234375, 0.240234375
0.0234375, 0.0517578125, 0.244140625
0.0234375, 0.04296875, 0.240234375
0.0234375, 0.04296875, 0.236328125
0.0234375, 0.0576171875, 0.2373046875
0.0234375, 0.0537109375, 0.2451171875
0.0205078125, 0.052734375, 0.2392578125
0.0224609375, 0.048828125, 0.244140625
0.0224609375, 0.060546875, 0.2373046875
0.0263671875, 0.0576171875, 0.234375
0.0244140625, 0.0458984375, 0.234375
0.0244140625, 0.0537109375, 0.228515625
0.0244140625, 0.041015625, 0.2421875
0.0224609375, 0.048828125, 0.2412109375
0.0205078125, 0.0595703125, 0.244140625
0.0244140625, 0.052734375, 0.2431640625
0.0244140625, 0.0419921875, 0.2392578125
0.025390625, 0.0390625, 0.23046875
0.0224609375, 0.0615234375, 0.2353515625
0.0205078125, 0.060546875, 0.2529296875
0.0224609375, 0.052734375, 0.2509765625
0.0205078125, 0.0458984375, 0.2431640625
0.0234375, 0.0498046875, 0.2353515625
0.021484375, 0.04296875, 0.23046875
0.0234375, 0.04296875, 0.232421875
0.0234375, 0.0439453125, 0.2392578125
0.021484375, 0.048828125, 0.2470703125
0.0234375, 0.056640625, 0.2421875
0.0205078125, 0.0458984375, 0.2412109375
0.0234375, 0.052734375, 0.2373046875
0.0234375, 0.041015625, 0.2421875
0.0234375, 0.0478515625, 0.2451171875
0.0234375, 0.0673828125, 0.2431640625
0.0205078125, 0.05859375, 0.2373046875
0.0234375, 0.048828125, 0.23046875
0.0244140625, 0.0556640625, 0.2373046875
0.021484375, 0.0595703125, 0.2431640625
0.0205078125, 0.0517578125, 0.240234375
0.021484375, 0.0400390625, 0.2431640625
0.0224609375, 0.0576171875, 0.2392578125
0.0234375, 0.048828125, 0.2451171875
0.025390625, 0.0478515625, 0.234375
0.0224609375, 0.056640625, 0.228515625
0.0244140625, 0.041015625, 0.2392578125
0.017578125, 0.0537109375, 0.24609375
0.021484375, 0.0615234375, 0.2412109375
0.021484375, 0.0478515625, 0.2431640625
0.0244140625, 0.0498046875, 0.23828125
0.0224609375, 0.0478515625, 0.240234375
0.0224609375, 0.05859375, 0.2333984375
0.0234375, 0.0478515625, 0.240234375
0.0224609375, 0.05078125, 0.23828125
0.025390625, 0.0595703125, 0.2451171875
0.0234375, 0.048828125, 0.2431640625
0.021484375, 0.0439453125, 0.2490234375
0.0205078125, 0.0537109375, 0.2470703125
0.0205078125, 0.052734375, 0.23828125
0.0205078125, 0.044921875, 0.2314453125
0.0224609375, 0.048828125, 0.232421875
0.0244140625, 0.0595703125, 0.236328125
0.0224609375, 0.044921875, 0.24609375
0.0224609375, 0.0498046875, 0.2421875
0.0244140625, 0.052734375, 0.2412109375
0.0205078125, 0.05859375, 0.2392578125
0.0224609375, 0.05078125, 0.2470703125
0.0234375, 0.0537109375, 0.232421875
0.0234375, 0.0556640625, 0.2333984375
0.021484375, 0.0517578125, 0.2373046875
0.0224609375, 0.05078125, 0.240234375
0.0205078125, 0.0556640625, 0.240234375
0.0205078125, 0.0537109375, 0.2412109375
0.0205078125, 0.046875, 0.2470703125
0.0234375, 0.0478515625, 0.25
0.02734375, 0.0625, 0.248046875
0.0263671875, 0.0556640625, 0.228515625
0.0234375, 0.0625, 0.21484375
0.0166015625, 0.0830078125, 0.23828125
0.0244140625, 0.064453125, 0.2509765625
0.033203125, 0.056640625, 0.240234375
0.048828125, 0.03515625, 0.23046875
0.0576171875, 0.0087890625, 0.271484375
0.0634765625, 0.0263671875, 0.3037109375
0.0693359375, 0.0458984375, 0.3603515625
0.0615234375, 0.111328125, 0.41015625
0.052734375, 0.1396484375, 0.4501953125
0.05078125, 0.123046875, 0.4287109375
0.05859375, 0.072265625, 0.3759765625
0.0634765625, 0.0224609375, 0.369140625
0.0595703125, 0.037109375, 0.404296875
0.052734375, 0.0615234375, 0.4228515625
0.04296875, 0.0712890625, 0.396484375
0.0400390625, 0.0556640625, 0.3466796875
0.0341796875, 0.021484375, 0.310546875
0.029296875, 0.0224609375, 0.314453125
0.0244140625, 0.0068359375, 0.3310546875
0.01953125, 0.0126953125, 0.279296875
0.0205078125, 0.0478515625, 0.25
0.015625, 0.0615234375, 0.197265625
0.01953125, 0.046875, 0.1845703125
0.025390625, 0.03125, 0.1767578125
0.0322265625, 0.046875, 0.171875
0.0380859375, 0.06640625, 0.2021484375
0.03515625, 0.06640625, 0.17578125
0.046875, 0.0556640625, 0.076171875
0.068359375, 0.0400390625, 0.0517578125
0.0869140625, 0.029296875, 0.0615234375
0.091796875, 0.033203125, 0.095703125
0.0966796875, 0.0166015625, 0.0654296875
0.0986328125, 0.0146484375, 0.0478515625
0.09765625, 0.0400390625, 0.03515625
0.0966796875, 0.07421875, 0.001953125
0.09375, 0.0576171875, -0.0654296875
0.09375, -0.0087890625, -0.1494140625
0.0751953125, -0.0283203125, -0.2294921875
0.0615234375, -0.0048828125, -0.3046875
0.0380859375, 0.0234375, -0.41015625
0.00390625, -0.03515625, -0.6025390625
-0.0849609375, 0.0556640625, -0.654296875
-0.2158203125, 0.2783203125, -0.63671875
-0.392578125, 0.482421875, -0.6044921875
-0.669921875, 0.4609375, -0.177734375
-0.7939453125, 0.228515625, 0.3681640625
-0.7177734375, 0.0810546875, 0.837890625
-0.5849609375, -0.015625, 0.884765625
-0.4541015625, -0.0869140625, 0.951171875
-0.3056640625, -0.2568359375, 0.9990234375
-0.2001953125, -0.3154296875, 0.8427734375
-0.1669921875, -0.2490234375, 0.640625
-0.1318359375, -0.4013671875, 0.6171875
-0.087890625, -0.6181640625, 0.7890625
-0.1171875, -0.828125, 0.7626953125
-0.2060546875, -0.779296875, 0.5732421875
-0.318359375, -0.3916015625, 0.3994140625
-0.3896484375, -0.171875, 0.259765625
-0.3974609375, 0.001953125, 0.259765625
-0.357421875, 0.2998046875, 0.2734375
-0.328125, 0.5791015625, 0.1279296875
-0.1943359375, 0.6875, -0.01171875
-0.0966796875, 0.6083984375, 0.00390625
-0.041015625, 0.3623046875, 0.1884765625
-0.025390625, 0.193359375, 0.2900390625
-0.015625, 0.103515625, 0.28125
-0.009765625, 0.0791015625, 0.3251953125
-0.0078125, 0.072265625, 0.28515625
-0.0068359375, 0.0732421875, 0.23046875
-0.0048828125, 0.10546875, 0.2314453125
-0.0087890625, 0.0625, 0.24609375
-0.0068359375, 0.052734375, 0.2509765625
-0.00390625, 0.015625, 0.255859375
-0.00390625, -0.0029296875, 0.275390625
-0.00390625, -0.001953125, 0.267578125
-0.001953125, 0.009765625, 0.2529296875
-0.0029296875, 0.0166015625, 0.2490234375
-0.005859375, 0.0068359375, 0.2255859375
0.0, 0.037109375, 0.25
0.0009765625, 0.0478515625, 0.2392578125
0.0009765625, 0.033203125, 0.251953125
0.0029296875, 0.0380859375, 0.2216796875
0.009765625, 0.0322265625, 0.205078125
0.0068359375, 0.0400390625, 0.2177734375
0.005859375, 0.0322265625, 0.2568359375
0.0009765625, 0.03515625, 0.291015625
-0.00390625, 0.0712890625, 0.3125
-0.0107421875, 0.0654296875, 0.2314453125
-0.0048828125, 0.0654296875, 0.2236328125
0.0009765625, 0.0947265625, 0.2431640625
0.0009765625, 0.107421875, 0.2578125
-0.005859375, 0.068359375, 0.1904296875
0.0009765625, 0.001953125, 0.13671875
0.0078125, 0.0458984375, 0.232421875
0.0107421875, 0.095703125, 0.2548828125
0.0048828125, 0.0654296875, 0.2158203125
-0.0029296875, 0.0185546875, 0.1376953125
0.0029296875, -0.0283203125, 0.212890625
0.009765625, 0.033203125, 0.2802734375
0.015625, 0.0068359375, 0.2451171875
0.0283203125, -0.068359375, 0.166015625
0.0234375, -0.0615234375, 0.181640625
0.017578125, 0.0, 0.2177734375
0.001953125, 0.04296875, 0.251953125
-0.0107421875, 0.060546875, 0.2939453125
0.0, 0.0126953125, 0.2333984375
0.005859375, -0.0009765625, 0.25
0.0048828125, 0.0341796875, 0.259765625
0.0009765625, 0.0595703125, 0.275390625
0.001953125, 0.0703125, 0.2607421875
0.005859375, 0.0400390625, 0.2333984375
0.0048828125, 0.0087890625, 0.265625
-0.00390625, 0.0068359375, 0.23046875
0.0, -0.0009765625, 0.2060546875
0.0, 0.013671875, 0.2734375
0.0, 0.0263671875, 0.2783203125
-0.0009765625, -0.013671875, 0.328125
-0.001953125, -0.0087890625, 0.2958984375
-0.0068359375, 0.0478515625, 0.275390625
-0.0048828125, 0.0888671875, 0.275390625
-0.0068359375, 0.05078125, 0.248046875
-0.0029296875, 0.005859375, 0.2509765625
0.0, 0.0078125, 0.2578125
0.0048828125, 0.04296875, 0.2685546875
0.009765625, 0.0654296875, 0.275390625
0.015625, 0.0595703125, 0.2685546875
0.0185546875, 0.0283203125, 0.2421875
0.01953125, -0.0029296875, 0.20703125
0.0185546875, -0.0009765625, 0.2236328125
0.017578125, 0.0166015625, 0.2099609375
0.013671875, 0.0087890625, 0.216796875
0.0078125, 0.0087890625, 0.234375
0.00390625, 0.0283203125, 0.23828125
0.0, 0.05078125, 0.232421875
0.0, 0.052734375, 0.2216796875
0.0009765625, 0.05078125, 0.2548828125
0.0, 0.015625, 0.27734375
0.0009765625, 0.0302734375, 0.2724609375
0.0, 0.0458984375, 0.26953125
0.001953125, 0.0419921875, 0.2470703125
0.00390625, 0.0439453125, 0.2236328125
0.0048828125, 0.0595703125, 0.240234375
0.00390625, 0.056640625, 0.244140625
0.001953125, 0.0390625, 0.255859375
0.0029296875, 0.03125, 0.232421875
0.0029296875, 0.041015625, 0.2431640625
0.00390625, 0.0478515625, 0.2412109375
0.0048828125, 0.0400390625, 0.2412109375
0.0029296875, 0.0361328125, 0.24609375
0.0009765625, 0.03125, 0.2412109375
0.00390625, 0.03125, 0.2509765625
0.001953125, 0.044921875, 0.251953125
0.0009765625, 0.056640625, 0.2392578125
0.001953125, 0.0458984375, 0.228515625
0.005859375, 0.0380859375, 0.2353515625
0.005859375, 0.046875, 0.240234375
0.0068359375, 0.0537109375, 0.2314453125
0.0048828125, 0.046875, 0.2333984375
0.0048828125, 0.029296875, 0.2451171875
0.005859375, 0.033203125, 0.2421875
0.005859375, 0.041015625, 0.2451171875
0.00390625, 0.05078125, 0.2431640625
0.0029296875, 0.0361328125, 0.24609375
0.00390625, 0.0361328125, 0.2548828125
0.00390625, 0.044921875, 0.24609375
0.00390625, 0.044921875, 0.232421875
0.005859375, 0.0390625, 0.2333984375
0.0048828125, 0.0302734375, 0.2392578125
0.005859375, 0.0322265625, 0.2490234375
0.0048828125, 0.0517578125, 0.25
0.0029296875, 0.0263671875, 0.2373046875
0.00390625, 0.02734375, 0.236328125
0.0029296875, 0.0458984375, 0.2421875
0.0048828125, 0.0546875, 0.248046875
0.00390625, 0.037109375, 0.2470703125
0.0029296875, 0.03515625, 0.24609375
0.00390625, 0.0341796875, 0.24609375
0.001953125, 0.0498046875, 0.2392578125
0.0048828125, 0.046875, 0.2373046875
0.0029296875, 0.0400390625, 0.2451171875
0.00390625, 0.0322265625, 0.244140625
0.0048828125, 0.03515625, 0.2421875
0.005859375, 0.03125, 0.2470703125
0.0048828125, 0.04296875, 0.248046875
0.00390625, 0.041015625, 0.2392578125
0.0029296875, 0.041015625, 0.2421875
0.00390625, 0.046875, 0.2392578125
0.00390625, 0.041015625, 0.244140625
0.00390625, 0.0439453125, 0.251953125
0.00390625, 0.03515625, 0.2470703125
0.005859375, 0.0390625, 0.2431640625
0.0048828125, 0.0419921875, 0.2392578125
0.0048828125, 0.0341796875, 0.2353515625
0.0048828125, 0.0380859375, 0.23828125
0.00390625, 0.041015625, 0.244140625
0.00390625, 0.0478515625, 0.24609375
0.0009765625, 0.0439453125, 0.2470703125
0.001953125, 0.04296875, 0.23828125
0.00390625, 0.04296875, 0.23828125
0.00390625, 0.029296875, 0.2421875
0.0029296875, 0.0380859375, 0.25
0.00390625, 0.033203125, 0.2509765625
0.00390625, 0.0380859375, 0.248046875
0.005859375, 0.0478515625, 0.234375
0.0029296875, 0.048828125, 0.2275390625
0.00390625, 0.0419921875, 0.2275390625
0.0029296875, 0.0400390625, 0.2421875
0.0048828125, 0.0419921875, 0.2509765625
0.0029296875, 0.0498046875, 0.2509765625
0.00390625, 0.033203125, 0.2412109375
0.00390625, 0.0283203125, 0.244140625
0.001953125, 0.04296875, 0.244140625
0.00390625, 0.0419921875, 0.2421875
0.00390625, 0.0419921875, 0.23828125
0.0029296875, 0.04296875, 0.2431640625
0.0048828125, 0.0458984375, 0.2412109375
0.0048828125, 0.0341796875, 0.23828125
0.00390625, 0.033203125, 0.248046875
0.005859375, 0.048828125, 0.2470703125
0.00390625, 0.0361328125, 0.248046875
0.005859375, 0.03515625, 0.244140625
0.005859375, 0.0380859375, 0.2392578125
0.0048828125, 0.041015625, 0.2421875
0.00390625, 0.046875, 0.2412109375
0.00390625, 0.0361328125, 0.248046875
0.0048828125, 0.046875, 0.244140625
0.00390625, 0.044921875, 0.240234375
0.00390625, 0.033203125, 0.2451171875
0.0029296875, 0.048828125, 0.24609375
0.00390625, 0.029296875, 0.2509765625
0.005859375, 0.03515625, 0.25
0.0048828125, 0.052734375, 0.2314453125
0.00390625, 0.0400390625, 0.228515625
0.00390625, 0.009765625, 0.2412109375
0.005859375, 0.0439453125, 0.248046875
0.0048828125, 0.044921875, 0.248046875
0.0068359375, 0.0419921875, 0.2412109375
0.005859375, 0.0439453125, 0.2421875
0.0068359375, 0.0419921875, 0.240234375
0.0029296875, 0.037109375, 0.240234375
0.001953125, 0.037109375, 0.2451171875
0.0029296875, 0.0478515625, 0.251953125
0.001953125, 0.048828125, 0.2490234375
0.0029296875, 0.037109375, 0.2392578125
0.0029296875, 0.0400390625, 0.234375
0.001953125, 0.041015625, 0.23828125
0.0029296875, 0.0322265625, 0.24609375
0.0029296875, 0.0400390625, 0.248046875
0.00390625, 0.0439453125, 0.244140625
0.0048828125, 0.041015625, 0.2431640625
0.0029296875, 0.0419921875, 0.2392578125
0.0048828125, 0.02734375, 0.2470703125
0.00390625, 0.0400390625, 0.24609375
0.0078125, 0.046875, 0.2421875
0.001953125, 0.0439453125, 0.244140625
0.001953125, 0.0380859375, 0.2421875
0.00390625, 0.0302734375, 0.244140625
0.0029296875, 0.0478515625, 0.2431640625
0.0048828125, 0.0322265625, 0.2412109375
0.005859375, 0.0361328125, 0.24609375
0.00390625, 0.044921875, 0.2490234375
0.001953125, 0.044921875, 0.2412109375
0.00390625, 0.0322265625, 0.2333984375
0.0048828125, 0.0390625, 0.2490234375
0.0029296875, 0.04296875, 0.248046875
0.0009765625, 0.03515625, 0.2421875
0.001953125, 0.041015625, 0.2353515625
0.0048828125, 0.04296875, 0.234375
0.0029296875, 0.037109375, 0.240234375
0.0029296875, 0.0400390625, 0.2451171875
0.0029296875, 0.0458984375, 0.2421875
0.0, 0.0439453125, 0.24609375
0.0029296875, 0.0380859375, 0.2490234375
0.001953125, 0.0419921875, 0.25
0.00390625, 0.044921875, 0.2451171875
0.00390625, 0.0419921875, 0.2294921875
0.0009765625, 0.0380859375, 0.2373046875
0.001953125, 0.0361328125, 0.244140625
0.0029296875, 0.0419921875, 0.2451171875
0.0029296875, 0.0439453125, 0.2373046875
0.00390625, 0.0400390625, 0.2529296875
0.0029296875, 0.0439453125, 0.2490234375
0.0048828125, 0.033203125, 0.240234375
0.0029296875, 0.037109375, 0.2451171875
0.0048828125, 0.0439453125, 0.2412109375
0.001953125, 0.0361328125, 0.240234375
0.001953125, 0.0419921875, 0.24609375
0.001953125, 0.0400390625, 0.2451171875
0.00390625, 0.046875, 0.2412109375
0.0009765625, 0.048828125, 0.240234375
0.0029296875, 0.041015625, 0.240234375
0.0048828125, 0.0341796875, 0.244140625
0.001953125, 0.041015625, 0.2470703125
0.0009765625, 0.046875, 0.244140625
0.0029296875, 0.033203125, 0.2412109375
0.0009765625, 0.037109375, 0.2421875
0.001953125, 0.037109375, 0.240234375
0.0029296875, 0.048828125, 0.2412109375
0.00390625, 0.0302734375, 0.2470703125
0.0029296875, 0.041015625, 0.24609375
0.0029296875, 0.041015625, 0.2412109375
0.001953125, 0.0322265625, 0.2392578125
0.001953125, 0.044921875, 0.2431640625
0.0009765625, 0.0400390625, 0.24609375
0.001953125, 0.0458984375, 0.2451171875
0.0009765625, 0.037109375, 0.2431640625
0.001953125, 0.0390625, 0.244140625
0.0029296875, 0.0439453125, 0.2470703125
0.0029296875, 0.0361328125, 0.2470703125
0.0029296875, 0.0341796875, 0.2392578125
0.001953125, 0.0458984375, 0.2421875
0.00390625, 0.0419921875, 0.2412109375
0.0048828125, 0.0390625, 0.2412109375
0.0029296875, 0.04296875, 0.244140625
0.001953125, 0.03515625, 0.2431640625
0.0009765625, 0.0458984375, 0.248046875
0.0009765625, 0.0439453125, 0.244140625
0.0029296875, 0.037109375, 0.2373046875
0.00390625, 0.0361328125, 0.236328125
0.00390625, 0.0458984375, 0.236328125
0.00390625, 0.044921875, 0.240234375
0.0009765625, 0.0400390625, 0.2431640625
0.001953125, 0.03515625, 0.25
