0.0341796875, 0.0361328125, 0.2333984375
0.033203125, 0.0078125, 0.2451171875
0.03125, -0.00390625, 0.2607421875
0.0341796875, 0.0, 0.2646484375
0.03125, 0.013671875, 0.2490234375
0.0361328125, 0.01171875, 0.23828125
0.0341796875, 0.00390625, 0.23046875
0.0361328125, 0.0087890625, 0.2314453125
0.0341796875, 0.0224609375, 0.2431640625
0.0322265625, 0.0302734375, 0.248046875
0.029296875, 0.0283203125, 0.2392578125
0.0283203125, 0.01171875, 0.244140625
0.033203125, 0.0009765625, 0.2548828125
0.033203125, 0.013671875, 0.2587890625
0.0302734375, 0.0283203125, 0.2470703125
0.0341796875, 0.0205078125, 0.23828125
0.037109375, 0.0166015625, 0.2412109375
0.03515625, 0.015625, 0.2509765625
0.033203125, 0.02734375, 0.2490234375
0.03125, 0.021484375, 0.2421875
0.0302734375, 0.02734375, 0.23828125
0.0361328125, 0.013671875, 0.2509765625
0.03515625, 0.01171875, 0.2470703125
0.0361328125, 0.02734375, 0.2265625
0.03515625, 0.02734375, 0.2275390625
0.0341796875, 0.021484375, 0.2412109375
0.0322265625, 0.0029296875, 0.25
0.033203125, 0.0166015625, 0.236328125
0.0322265625, 0.0224609375, 0.240234375
0.0322265625, 0.0166015625, 0.25
0.033203125, 0.0068359375, 0.2490234375
0.0341796875, 0.0224609375, 0.232421875
0.03515625, 0.033203125, 0.240234375
0.0341796875, 0.01953125, 0.244140625
0.03515625, 0.005859375, 0.248046875
0.0322265625, 0.0029296875, 0.2509765625
0.0322265625, 0.013671875, 0.2431640625
0.03515625, 0.0263671875, 0.240234375
0.033203125, 0.0224609375, 0.24609375
0.0322265625, 0.013671875, 0.248046875
0.03515625, 0.0234375, 0.251953125
0.03515625, 0.0234375, 0.251953125
0.03515625, 0.0126953125, 0.2451171875
0.0322265625, 0.009765625, 0.2431640625
0.0341796875, 0.01171875, 0.2451171875
0.03515625, 0.013671875, 0.2470703125
0.0341796875, 0.0166015625, 0.24609375
0.0341796875, 0.0205078125, 0.2392578125
0.0380859375, 0.0234375, 0.2333984375
0.03515625, 0.01953125, 0.2373046875
0.037109375, 0.0205078125, 0.2421875
0.0361328125, 0.0146484375, 0.2470703125
0.03515625, 0.0087890625, 0.2412109375
0.03515625, 0.0146484375, 0.2451171875
0.0341796875, 0.0244140625, 0.25
0.0341796875, 0.029296875, 0.24609375
0.033203125, 0.0224609375, 0.2333984375
0.037109375, 0.017578125, 0.2392578125
0.0361328125, 0.0185546875, 0.24609375
0.0400390625, 0.015625, 0.2431640625
0.037109375, 0.0263671875, 0.244140625
0.0361328125, 0.0224609375, 0.2529296875
0.037109375, 0.0087890625, 0.240234375
0.0380859375, 0.01953125, 0.2275390625
0.0380859375, 0.0283203125, 0.240234375
0.037109375, 0.0205078125, 0.240234375
0.0390625, 0.001953125, 0.2431640625
0.0361328125, 0.0146484375, 0.2548828125
0.0361328125, 0.0322265625, 0.2451171875
0.037109375, 0.017578125, 0.23046875
0.0390625, 0.001953125, 0.2373046875
0.0400390625, 0.0146484375, 0.2421875
0.041015625, 0.009765625, 0.2392578125
0.0361328125, 0.0, 0.25390625
0.0341796875, 0.00390625, 0.251953125
0.0341796875, 0.0380859375, 0.2451171875
0.037109375, 0.0576171875, 0.2314453125
0.0400390625, 0.029296875, 0.228515625
0.0380859375, 0.001953125, 0.232421875
0.0400390625, 0.0048828125, 0.240234375
0.037109375, 0.015625, 0.2431640625
0.03515625, 0.015625, 0.2568359375
0.037109375, 0.0302734375, 0.248046875
0.037109375, 0.0390625, 0.236328125
0.0390625, 0.01171875, 0.2451171875
0.0400390625, 0.0068359375, 0.244140625
0.0400390625, 0.029296875, 0.2412109375
0.037109375, 0.04296875, 0.2412109375
0.037109375, 0.02734375, 0.2490234375
0.0390625, 0.01171875, 0.2412109375
0.037109375, 0.0205078125, 0.2470703125
0.0380859375, 0.021484375, 0.2421875
0.0390625, 0.0185546875, 0.23828125
0.041015625, 0.0322265625, 0.2353515625
0.0380859375, 0.03125, 0.2353515625
0.0390625, 0.009765625, 0.24609375
0.037109375, 0.0068359375, 0.2509765625
0.0390625, 0.0244140625, 0.2373046875
0.037109375, 0.021484375, 0.2294921875
0.033203125, 0.0185546875, 0.2412109375
0.0380859375, 0.029296875, 0.2421875
0.0380859375, 0.017578125, 0.2412109375
0.0390625, 0.0029296875, 0.2490234375
0.0390625, 0.0146484375, 0.2421875
0.0390625, 0.0263671875, 0.2353515625
0.0390625, 0.0283203125, 0.2353515625
0.0400390625, 0.0126953125, 0.2470703125
0.0390625, 0.0048828125, 0.2548828125
0.03515625, 0.0166015625, 0.2490234375
0.0380859375, 0.0234375, 0.2470703125
0.0361328125, 0.025390625, 0.2412109375
0.0390625, 0.0205078125, 0.23828125
0.0390625, 0.01171875, 0.2392578125
0.0361328125, 0.005859375, 0.248046875
0.0380859375, 0.017578125, 0.251953125
0.0380859375, 0.025390625, 0.2412109375
0.037109375, 0.01953125, 0.2392578125
0.037109375, 0.0166015625, 0.2392578125
0.0400390625, 0.0205078125, 0.2431640625
0.041015625, 0.01171875, 0.2412109375
0.0390625, 0.013671875, 0.24609375
0.0361328125, 0.01953125, 0.248046875
0.037109375, 0.0263671875, 0.240234375
0.0390625, 0.029296875, 0.2421875
0.0390625, 0.02734375, 0.244140625
0.0400390625, 0.0166015625, 0.25
0.0400390625, 0.01953125, 0.2529296875
0.0380859375, 0.0439453125, 0.240234375
0.0380859375, 0.0419921875, 0.2451171875
0.0390625, 0.013671875, 0.2626953125
0.0390625, 0.01953125, 0.2666015625
0.0419921875, 0.04296875, 0.26171875
0.044921875, 0.0634765625, 0.2763671875
0.04296875, 0.041015625, 0.2744140625
0.048828125, 0.048828125, 0.291015625
0.060546875, 0.0634765625, 0.2998046875
0.0625, 0.08203125, 0.3212890625
0.0625, 0.0732421875, 0.35546875
0.060546875, 0.0126953125, 0.3525390625
0.060546875, 0.0048828125, 0.3818359375
0.0615234375, 0.0107421875, 0.4013671875
0.0546875, 0.013671875, 0.4384765625
0.048828125, 0.0322265625, 0.4267578125
0.056640625, 0.033203125, 0.3876953125
0.056640625, 0.0283203125, 0.3759765625
0.0498046875, 0.0126953125, 0.3466796875
0.0546875, -0.0146484375, 0.3125
0.0654296875, -0.033203125, 0.2841796875
0.064453125, -0.0419921875, 0.2587890625
0.068359375, -0.037109375, 0.2509765625
0.0751953125, -0.05078125, 0.228515625
0.0859375, -0.0595703125, 0.1943359375
0.0888671875, -0.0751953125, 0.228515625
0.0751953125, -0.1162109375, 0.240234375
0.0419921875, -0.0947265625, 0.2412109375
0.0263671875, -0.0771484375, 0.1875
0.005859375, -0.03125, 0.107421875
0.0009765625, 0.0302734375, 0.048828125
-0.001953125, 0.046875, -0.060546875
0.005859375, -0.0126953125, -0.2333984375
0.03125, 0.0166015625, -0.328125
0.0361328125, 0.1064453125, -0.4443359375
0.0517578125, 0.0693359375, -0.5146484375
0.033203125, 0.0439453125, -0.5712890625
-0.0146484375, 0.177734375, -0.642578125
-0.099609375, 0.2724609375, -0.6044921875
-0.220703125, 0.3056640625, -0.5654296875
-0.400390625, 0.279296875, -0.5166015625
-0.6484375, 0.30859375, -0.4248046875
-0.88671875, 0.423828125, -0.021484375
-0.8974609375, 0.3154296875, 0.615234375
-0.7607421875, 0.03515625, 0.9931640625
-0.552734375, -0.2685546875, 0.8896484375
-0.3857421875, -0.3681640625, 0.806640625
-0.2900390625, -0.1298828125, 0.82421875
-0.2587890625, -0.13671875, 0.8017578125
-0.2294921875, -0.4091796875, 0.7353515625
-0.1943359375, -0.4521484375, 0.7705078125
-0.17578125, -0.5107421875, 0.8173828125
-0.19921875, -0.533203125, 0.7822265625
-0.2607421875, -0.46484375, 0.7041015625
-0.341796875, -0.3681640625, 0.578125
-0.41796875, -0.2998046875, 0.4814453125
-0.4794921875, -0.0263671875, 0.3037109375
-0.4716796875, 0.294921875, 0.1142578125
-0.3212890625, 0.619140625, -0.0517578125
-0.150390625, 0.8837890625, -0.12890625
-0.0390625, 0.7724609375, -0.1943359375
0.0009765625, 0.4326171875, -0.0380859375
0.00390625, 0.1689453125, 0.140625
0.013671875, 0.0224609375, 0.2822265625
0.01953125, 0.02734375, 0.3505859375
0.025390625, 0.044921875, 0.3447265625
0.0205078125, 0.076171875, 0.2744140625
0.01953125, 0.0673828125, 0.21875
0.0224609375, 0.0986328125, 0.2109375
0.015625, 0.0849609375, 0.234375
0.015625, 0.0576171875, 0.26171875
0.0185546875, 0.0166015625, 0.2607421875
0.0146484375, 0.0205078125, 0.234375
0.0166015625, 0.0205078125, 0.2353515625
0.01171875, 0.0078125, 0.2412109375
0.0166015625, 0.005859375, 0.2587890625
0.0224609375, 0.0263671875, 0.2431640625
0.021484375, -0.0107421875, 0.2587890625
0.01953125, 0.0029296875, 0.25
0.0224609375, 0.005859375, 0.255859375
0.0224609375, 0.025390625, 0.2333984375
0.0185546875, 0.0029296875, 0.2314453125
0.015625, 0.0, 0.2490234375
0.01953125, 0.0244140625, 0.24609375
0.0224609375, 0.0244140625, 0.2314453125
0.0234375, 0.0126953125, 0.2353515625
0.01953125, -0.0087890625, 0.24609375
0.025390625, -0.001953125, 0.2392578125
0.02734375, 0.001953125, 0.2470703125
0.0263671875, 0.015625, 0.236328125
0.0302734375, -0.0048828125, 0.244140625
0.0322265625, -0.0009765625, 0.2314453125
0.0283203125, 0.00390625, 0.2197265625
0.0263671875, 0.0087890625, 0.228515625
0.025390625, 0.00390625, 0.2490234375
0.0263671875, 0.00390625, 0.2509765625
0.0234375, 0.017578125, 0.25
0.0234375, 0.02734375, 0.234375
0.0234375, 0.029296875, 0.2314453125
0.021484375, 0.037109375, 0.2294921875
0.0244140625, 0.0234375, 0.2529296875
0.0263671875, 0.0, 0.263671875
0.0263671875, -0.0048828125, 0.25
0.02734375, 0.0078125, 0.2421875
0.0263671875, 0.0302734375, 0.248046875
0.0205078125, 0.041015625, 0.255859375
0.0234375, 0.0439453125, 0.2548828125
0.0244140625, 0.033203125, 0.2470703125
0.0234375, 0.01171875, 0.2373046875
0.025390625, 0.005859375, 0.2373046875
0.029296875, 0.017578125, 0.22265625
0.0234375, 0.0439453125, 0.234375
0.0244140625, 0.029296875, 0.234375
0.0263671875, 0.0048828125, 0.2451171875
0.029296875, -0.009765625, 0.255859375
0.025390625, 0.015625, 0.25
0.02734375, 0.0283203125, 0.24609375
0.0283203125, 0.0185546875, 0.251953125
0.0283203125, 0.0244140625, 0.23828125
0.0283203125, 0.021484375, 0.240234375
0.0302734375, 0.0185546875, 0.2373046875
0.0302734375, -0.001953125, 0.2587890625
0.025390625, 0.0, 0.25390625
0.0263671875, 0.02734375, 0.244140625
0.0283203125, 0.0439453125, 0.23828125
0.02734375, 0.017578125, 0.2451171875
0.025390625, 0.00390625, 0.2509765625
0.025390625, 0.015625, 0.2490234375
0.0302734375, 0.02734375, 0.2412109375
0.0283203125, 0.015625, 0.2294921875
0.029296875, 0.0009765625, 0.2373046875
0.03125, 0.001953125, 0.248046875
0.0302734375, 0.0078125, 0.2529296875
0.02734375, 0.009765625, 0.2431640625
0.0283203125, 0.0234375, 0.248046875
0.02734375, 0.0341796875, 0.244140625
0.025390625, 0.025390625, 0.234375
0.029296875, 0.025390625, 0.2353515625
0.03125, 0.0166015625, 0.248046875
0.033203125, 0.0009765625, 0.2568359375
0.029296875, 0.0107421875, 0.2490234375
0.03125, 0.0146484375, 0.24609375
0.0302734375, 0.0185546875, 0.236328125
0.03125, 0.0234375, 0.2421875
0.0283203125, 0.021484375, 0.2529296875
0.0302734375, 0.0263671875, 0.24609375
0.0302734375, 0.0185546875, 0.248046875
0.03125, 0.0166015625, 0.23828125
0.029296875, 0.0224609375, 0.251953125
0.0322265625, 0.0234375, 0.251953125
0.03125, 0.0224609375, 0.236328125
0.0302734375, 0.0087890625, 0.2333984375
0.033203125, 0.009765625, 0.2431640625
0.0322265625, 0.02734375, 0.2451171875
0.033203125, 0.02734375, 0.248046875
0.0302734375, 0.017578125, 0.2412109375
0.0283203125, 0.0146484375, 0.24609375
0.03125, 0.0048828125, 0.244140625
0.029296875, 0.029296875, 0.240234375
0.0302734375, 0.0341796875, 0.2421875
0.0302734375, -0.0009765625, 0.2451171875
0.0322265625, 0.001953125, 0.2431640625
0.03125, 0.021484375, 0.244140625
0.03125, 0.013671875, 0.2451171875
0.0322265625, 0.0068359375, 0.251953125
0.03125, 0.0205078125, 0.2392578125
0.0322265625, 0.03125, 0.236328125
0.0322265625, 0.017578125, 0.24609375
0.0322265625, 0.0009765625, 0.251953125
0.03125, 0.0146484375, 0.2490234375
0.0341796875, 0.0234375, 0.2451171875
0.033203125, 0.0205078125, 0.24609375
0.03515625, 0.015625, 0.24609375
0.033203125, 0.0283203125, 0.2353515625
0.03515625, 0.0244140625, 0.244140625
0.03515625, 0.0185546875, 0.2392578125
0.03515625, 0.0205078125, 0.2412109375
0.0361328125, 0.017578125, 0.244140625
0.0361328125, 0.0244140625, 0.232421875
0.037109375, 0.0185546875, 0.2353515625
0.037109375, 0.009765625, 0.251953125
0.03515625, 0.0244140625, 0.2490234375
0.0322265625, 0.0341796875, 0.244140625
0.033203125, 0.0185546875, 0.23828125
0.03515625, 0.0087890625, 0.2412109375
0.033203125, 0.021484375, 0.2421875
0.0361328125, 0.021484375, 0.2392578125
0.0341796875, 0.015625, 0.2490234375
0.0361328125, 0.013671875, 0.2509765625
0.0380859375, 0.0283203125, 0.232421875
0.0390625, 0.0185546875, 0.232421875
0.037109375, 0.0009765625, 0.23828125
0.0361328125, 0.015625, 0.244140625
0.033203125, 0.0283203125, 0.2490234375
0.033203125, 0.0146484375, 0.24609375
0.0322265625, 0.009765625, 0.240234375
0.037109375, 0.0302734375, 0.2333984375
0.037109375, 0.0205078125, 0.2421875
0.0341796875, 0.0009765625, 0.251953125
0.033203125, 0.0087890625, 0.248046875
0.0341796875, 0.0263671875, 0.25
0.03515625, 0.0234375, 0.24609375
0.033203125, 0.0078125, 0.2431640625
0.03125, 0.0078125, 0.23828125
0.03515625, 0.0234375, 0.2392578125
0.0361328125, 0.0302734375, 0.244140625
0.03515625, 0.015625, 0.244140625
0.0361328125, 0.005859375, 0.244140625
0.037109375, 0.021484375, 0.2353515625
0.03515625, 0.0283203125, 0.228515625
0.033203125, 0.0166015625, 0.24609375
0.0361328125, 0.0048828125, 0.2626953125
0.033203125, 0.017578125, 0.2490234375
0.0341796875, 0.0322265625, 0.234375
0.03515625, 0.0283203125, 0.236328125
0.0361328125, 0.0068359375, 0.2509765625
0.0341796875, 0.013671875, 0.2490234375
0.03515625, 0.021484375, 0.2470703125
0.0341796875, 0.0166015625, 0.244140625
0.033203125, 0.017578125, 0.2451171875
0.037109375, 0.01953125, 0.2470703125
0.0322265625, 0.0146484375, 0.2451171875
0.033203125, 0.015625, 0.2470703125
0.0341796875, 0.017578125, 0.2412109375
0.0341796875, 0.01171875, 0.2470703125
0.033203125, 0.0146484375, 0.2451171875
0.037109375, 0.0302734375, 0.236328125
0.0380859375, 0.01953125, 0.2353515625
0.037109375, 0.0009765625, 0.2412109375
0.037109375, 0.0068359375, 0.232421875
0.037109375, 0.029296875, 0.2294921875
0.033203125, 0.0302734375, 0.23828125
0.037109375, 0.0107421875, 0.25390625
0.033203125, 0.0078125, 0.244140625
0.0361328125, 0.017578125, 0.2392578125
0.0361328125, 0.0302734375, 0.2451171875
0.0322265625, 0.025390625, 0.25
0.0361328125, 0.009765625, 0.2421875
0.037109375, 0.015625, 0.2412109375
0.033203125, 0.015625, 0.248046875
0.0341796875, 0.015625, 0.25
0.03515625, 0.0166015625, 0.2529296875
0.0341796875, 0.0205078125, 0.244140625
0.0361328125, 0.025390625, 0.2392578125
0.03515625, 0.0205078125, 0.23828125
0.0341796875, 0.005859375, 0.248046875
0.03515625, 0.005859375, 0.25
0.037109375, 0.01953125, 0.24609375
0.0341796875, 0.0205078125, 0.23828125
0.0341796875, 0.0205078125, 0.2431640625
0.0341796875, 0.0283203125, 0.244140625
0.037109375, 0.01953125, 0.234375
0.03515625, 0.0029296875, 0.2392578125
0.0361328125, 0.009765625, 0.2412109375
0.0322265625, 0.0244140625, 0.248046875
0.0341796875, 0.0205078125, 0.2470703125
0.03515625, 0.0068359375, 0.240234375
0.037109375, 0.0068359375, 0.2421875
0.0361328125, 0.0185546875, 0.2373046875
0.0341796875, 0.017578125, 0.24609375
0.0341796875, 0.0166015625, 0.2470703125
0.033203125, 0.0146484375, 0.2431640625
0.0341796875, 0.0244140625, 0.23828125
0.03515625, 0.0009765625, 0.2470703125
0.03515625, 0.0107421875, 0.25
0.0361328125, 0.0263671875, 0.244140625
0.03515625, 0.0322265625, 0.234375
0.037109375, 0.015625, 0.248046875
0.0341796875, 0.013671875, 0.2490234375
0.0341796875, 0.013671875, 0.2470703125
0.037109375, 0.015625, 0.2392578125
0.03515625, 0.0234375, 0.2421875
0.0361328125, 0.0283203125, 0.236328125
0.0341796875, 0.0234375, 0.2373046875
0.03515625, 0.0107421875, 0.25
0.0322265625, 0.0224609375, 0.2509765625
0.0322265625, 0.02734375, 0.2529296875
0.0322265625, 0.0263671875, 0.25390625
0.03515625, 0.015625, 0.2490234375
0.0380859375, 0.0126953125, 0.2353515625
0.0419921875, 0.015625, 0.232421875
0.0419921875, 0.015625, 0.2236328125
0.037109375, 0.0107421875, 0.234375
0.037109375, 0.0166015625, 0.248046875
0.0390625, 0.009765625, 0.24609375
0.0361328125, 0.0087890625, 0.23828125
0.037109375, 0.0166015625, 0.2392578125
0.037109375, 0.0224609375, 0.2470703125
0.0361328125, 0.0126953125, 0.248046875
0.03515625, 0.025390625, 0.25
0.03515625, 0.0205078125, 0.234375
0.0341796875, 0.0244140625, 0.240234375
0.0390625, 0.029296875, 0.234375
0.041015625, 0.0302734375, 0.2265625
0.0390625, 0.0224609375, 0.2333984375
0.037109375, 0.0107421875, 0.2509765625
0.0361328125, 0.0068359375, 0.2509765625
0.0400390625, 0.01171875, 0.25390625
0.037109375, 0.015625, 0.25
0.0400390625, 0.0205078125, 0.244140625
0.0390625, 0.0244140625, 0.234375
0.037109375, 0.015625, 0.248046875
0.037109375, 0.013671875, 0.25
0.037109375, 0.009765625, 0.25
0.037109375, 0.015625, 0.2353515625
0.0380859375, 0.0234375, 0.2373046875
0.0341796875, 0.0341796875, 0.2421875
0.0361328125, 0.01953125, 0.2412109375
0.037109375, 0.0029296875, 0.2470703125
0.03515625, 0.021484375, 0.2490234375
0.0400390625, 0.03125, 0.2392578125
0.0361328125, 0.0146484375, 0.2353515625
0.0361328125, 0.01171875, 0.24609375
0.0361328125, 0.0234375, 0.2392578125
0.0380859375, 0.0302734375, 0.236328125
0.0390625, 0.0234375, 0.2431640625
0.0361328125, 0.0166015625, 0.2490234375
0.03515625, 0.0185546875, 0.2490234375
0.03515625, 0.021484375, 0.25
0.03515625, 0.0185546875, 0.244140625
0.03515625, 0.0244140625, 0.23828125
0.0390625, 0.0390625, 0.2421875
0.037109375, 0.03125, 0.24609375
