0.0234375, 0.060546875, 0.2314453125
0.0234375, 0.0654296875, 0.232421875
0.0244140625, 0.0302734375, 0.24609375
0.025390625, 0.044921875, 0.2451171875
0.0244140625, 0.0595703125, 0.2421875
0.021484375, 0.05859375, 0.236328125
0.0224609375, 0.05078125, 0.234375
0.0234375, 0.048828125, 0.236328125
0.0234375, 0.0537109375, 0.2412109375
0.0263671875, 0.0537109375, 0.2421875
0.0224609375, 0.0546875, 0.240234375
0.025390625, 0.0576171875, 0.236328125
0.025390625, 0.0419921875, 0.2431640625
0.0224609375, 0.0478515625, 0.244140625
0.025390625, 0.0546875, 0.2412109375
0.0234375, 0.0546875, 0.2373046875
0.0234375, 0.0537109375, 0.2353515625
0.0224609375, 0.0546875, 0.2353515625
0.021484375, 0.0439453125, 0.2412109375
0.0244140625, 0.052734375, 0.2421875
0.0263671875, 0.0517578125, 0.2451171875
0.0244140625, 0.046875, 0.244140625
0.0234375, 0.0595703125, 0.234375
0.025390625, 0.052734375, 0.234375
0.025390625, 0.0390625, 0.2451171875
0.0244140625, 0.0576171875, 0.2421875
0.0244140625, 0.0595703125, 0.2421875
0.02734375, 0.046875, 0.240234375
0.02734375, 0.0478515625, 0.2333984375
0.0263671875, 0.0458984375, 0.240234375
0.0224609375, 0.060546875, 0.2421875
0.0244140625, 0.0537109375, 0.2451171875
0.0234375, 0.04296875, 0.240234375
0.0263671875, 0.0517578125, 0.23046875
0.0224609375, 0.04296875, 0.234375
0.0234375, 0.0537109375, 0.2431640625
0.0234375, 0.0625, 0.2373046875
0.0244140625, 0.056640625, 0.2392578125
0.021484375, 0.056640625, 0.2431640625
0.0224609375, 0.05078125, 0.23828125
0.0244140625, 0.0546875, 0.240234375
0.0244140625, 0.0478515625, 0.240234375
0.0234375, 0.0439453125, 0.23828125
0.0244140625, 0.0517578125, 0.2353515625
0.0263671875, 0.0498046875, 0.2392578125
0.025390625, 0.056640625, 0.23828125
0.0263671875, 0.0517578125, 0.2392578125
0.025390625, 0.033203125, 0.2490234375
0.0244140625, 0.0576171875, 0.244140625
0.0263671875, 0.06640625, 0.232421875
0.0244140625, 0.0517578125, 0.2333984375
0.0205078125, 0.0458984375, 0.23828125
0.021484375, 0.0576171875, 0.23828125
0.0234375, 0.0556640625, 0.248046875
0.0263671875, 0.048828125, 0.2421875
0.0234375, 0.04296875, 0.234375
0.025390625, 0.0498046875, 0.23046875
0.025390625, 0.0556640625, 0.2392578125
0.0234375, 0.0517578125, 0.2490234375
0.0234375, 0.0546875, 0.24609375
0.021484375, 0.048828125, 0.2412109375
0.025390625, 0.0576171875, 0.2373046875
0.0234375, 0.0576171875, 0.2294921875
0.0224609375, 0.044921875, 0.240234375
0.0244140625, 0.0478515625, 0.2421875
0.0224609375, 0.0478515625, 0.24609375
0.021484375, 0.060546875, 0.2421875
0.025390625, 0.0517578125, 0.2353515625
0.025390625, 0.046875, 0.240234375
0.0234375, 0.0439453125, 0.2431640625
0.0244140625, 0.0556640625, 0.2431640625
0.0234375, 0.056640625, 0.23828125
0.0234375, 0.048828125, 0.23828125
0.0244140625, 0.0537109375, 0.2373046875
0.0234375, 0.0556640625, 0.240234375
0.0244140625, 0.048828125, 0.2392578125
0.0234375, 0.046875, 0.244140625
0.0244140625, 0.0537109375, 0.24609375
0.0234375, 0.046875, 0.2451171875
0.0224609375, 0.0498046875, 0.23828125
0.0224609375, 0.052734375, 0.232421875
0.025390625, 0.05859375, 0.234375
0.0263671875, 0.056640625, 0.244140625
0.02734375, 0.0517578125, 0.2451171875
0.021484375, 0.052734375, 0.23828125
0.0234375, 0.048828125, 0.240234375
0.0224609375, 0.0517578125, 0.2451171875
0.0244140625, 0.0458984375, 0.240234375
0.0263671875, 0.048828125, 0.2333984375
0.0244140625, 0.044921875, 0.234375
0.025390625, 0.0517578125, 0.2421875
0.0234375, 0.0517578125, 0.2373046875
0.0234375, 0.0576171875, 0.240234375
0.0263671875, 0.0439453125, 0.2470703125
0.0224609375, 0.0517578125, 0.2451171875
0.025390625, 0.0576171875, 0.2392578125
0.0234375, 0.0517578125, 0.236328125
0.0234375, 0.0439453125, 0.2392578125
0.0234375, 0.0498046875, 0.240234375
0.0224609375, 0.0595703125, 0.2412109375
0.0234375, 0.0517578125, 0.23828125
0.0263671875, 0.0439453125, 0.23828125
0.0244140625, 0.0439453125, 0.2470703125
0.0263671875, 0.0546875, 0.2421875
0.0283203125, 0.0537109375, 0.240234375
0.0263671875, 0.0517578125, 0.2314453125
0.0244140625, 0.0537109375, 0.2353515625
0.0234375, 0.0546875, 0.2392578125
0.025390625, 0.060546875, 0.23828125
0.0234375, 0.0576171875, 0.2431640625
0.025390625, 0.052734375, 0.2412109375
0.0234375, 0.0556640625, 0.24609375
0.0234375, 0.0615234375, 0.240234375
0.0263671875, 0.0546875, 0.23046875
0.0224609375, 0.064453125, 0.251953125
0.0234375, 0.0673828125, 0.251953125
0.0244140625, 0.05078125, 0.2314453125
0.02734375, 0.0361328125, 0.2177734375
0.041015625, 0.013671875, 0.2451171875
0.060546875, 0.0712890625, 0.3515625
0.060546875, 0.0771484375, 0.396484375
0.0537109375, 0.00390625, 0.375
0.052734375, 0.015625, 0.3544921875
0.0498046875, 0.0986328125, 0.34375
0.0419921875, 0.169921875, 0.2724609375
0.03125, 0.2001953125, 0.1875
0.0107421875, 0.1630859375, 0.154296875
-0.01171875, 0.017578125, 0.23046875
-0.0126953125, -0.1015625, 0.4609375
-0.00390625, -0.060546875, 0.6025390625
-0.00390625, -0.03515625, 0.4873046875
0.0, -0.1484375, 0.3212890625
0.0146484375, -0.171875, 0.26171875
0.0185546875, -0.0966796875, 0.3564453125
0.015625, -0.0263671875, 0.4150390625
0.0009765625, -0.0380859375, 0.3623046875
-0.0048828125, -0.060546875, 0.2646484375
-0.013671875, -0.076171875, 0.2412109375
-0.025390625, -0.0634765625, 0.2861328125
-0.0361328125, -0.0322265625, 0.2568359375
-0.044921875, -0.0615234375, 0.2158203125
-0.05859375, -0.05078125, 0.2119140625
-0.078125, 0.025390625, 0.197265625
-0.080078125, 0.1083984375, 0.1494140625
-0.0771484375, 0.1171875, 0.1025390625
-0.0634765625, 0.1015625, 0.0634765625
-0.05859375, 0.078125, 0.009765625
-0.0625, 0.056640625, -0.0693359375
-0.060546875, 0.1220703125, -0.1259765625
-0.0537109375, 0.255859375, -0.1884765625
-0.037109375, 0.3681640625, -0.279296875
-0.0341796875, 0.369140625, -0.33984375
-0.048828125, 0.4208984375, -0.3125
-0.0830078125, 0.572265625, -0.240234375
-0.1328125, 0.68359375, -0.1962890625
-0.19140625, 0.6923828125, -0.1640625
-0.3095703125, 0.6884765625, -0.2529296875
-0.474609375, 0.65234375, -0.314453125
-0.6982421875, 0.62109375, -0.107421875
-0.85546875, 0.4892578125, 0.3662109375
-0.8359375, 0.2783203125, 0.8994140625
-0.7216796875, -0.1240234375, 0.9248046875
-0.5498046875, -0.4228515625, 0.513671875
-0.447265625, -0.421875, 0.1767578125
-0.4326171875, -0.3115234375, 0.25390625
-0.396484375, -0.5546875, 0.5009765625
-0.2744140625, -0.892578125, 0.5205078125
-0.216796875, -1.0, 0.6943359375
-0.15234375, -0.9912109375, 0.8359375
-0.1689453125, -0.8271484375, 0.6552734375
-0.2236328125, -0.6240234375, 0.4794921875
-0.29296875, -0.4345703125, 0.4619140625
-0.3505859375, -0.3662109375, 0.37109375
-0.43359375, -0.2978515625, 0.345703125
-0.52734375, -0.1337890625, 0.3701171875
-0.6083984375, 0.0341796875, 0.2880859375
-0.625, 0.3212890625, 0.2255859375
-0.49609375, 0.751953125, 0.1826171875
-0.2880859375, 0.9990234375, 0.0556640625
-0.134765625, 0.8115234375, -0.10546875
-0.0556640625, 0.44140625, -0.111328125
-0.0185546875, 0.2734375, 0.0146484375
0.0009765625, 0.2724609375, 0.1533203125
0.0009765625, 0.3046875, 0.1923828125
0.0, 0.30859375, 0.19140625
-0.0029296875, 0.2568359375, 0.193359375
-0.0009765625, 0.17578125, 0.1943359375
0.0009765625, 0.11328125, 0.22265625
0.0029296875, 0.0927734375, 0.2578125
0.0029296875, 0.068359375, 0.2568359375
0.0009765625, 0.07421875, 0.2431640625
0.0009765625, 0.052734375, 0.240234375
-0.0029296875, 0.0244140625, 0.2490234375
-0.0068359375, 0.0419921875, 0.236328125
-0.0029296875, 0.0615234375, 0.2109375
-0.001953125, 0.087890625, 0.197265625
-0.0107421875, 0.0966796875, 0.212890625
-0.017578125, 0.0830078125, 0.2197265625
-0.01953125, 0.083984375, 0.234375
-0.0322265625, 0.1005859375, 0.2294921875
-0.0322265625, 0.0908203125, 0.212890625
-0.0244140625, 0.017578125, 0.23046875
-0.0263671875, -0.017578125, 0.2490234375
-0.0244140625, -0.0009765625, 0.2568359375
-0.0234375, 0.0068359375, 0.2548828125
-0.029296875, 0.005859375, 0.2421875
-0.0283203125, -0.015625, 0.2275390625
-0.029296875, -0.0126953125, 0.234375
-0.0283203125, 0.0107421875, 0.2529296875
-0.0224609375, 0.0146484375, 0.2705078125
-0.01953125, -0.0283203125, 0.25390625
-0.017578125, -0.0361328125, 0.2275390625
-0.013671875, 0.0126953125, 0.228515625
-0.013671875, 0.0224609375, 0.2490234375
-0.013671875, 0.0107421875, 0.2529296875
-0.017578125, -0.009765625, 0.2705078125
-0.01953125, -0.017578125, 0.26953125
-0.025390625, -0.001953125, 0.28515625
-0.0224609375, 0.0244140625, 0.2822265625
-0.0185546875, 0.068359375, 0.3115234375
-0.01171875, 0.0810546875, 0.3828125
-0.0107421875, -0.0048828125, 0.388671875
-0.009765625, -0.0380859375, 0.2880859375
-0.009765625, -0.01953125, 0.2197265625
-0.0087890625, 0.021484375, 0.20703125
-0.009765625, 0.05859375, 0.2080078125
-0.0048828125, 0.0654296875, 0.212890625
-0.00390625, 0.05859375, 0.2333984375
-0.0009765625, 0.0166015625, 0.248046875
0.0, -0.025390625, 0.2607421875
0.0009765625, -0.05078125, 0.2734375
0.0009765625, -0.033203125, 0.2578125
0.0009765625, 0.001953125, 0.244140625
0.0078125, 0.02734375, 0.2158203125
0.009765625, 0.0419921875, 0.2080078125
0.0068359375, 0.0341796875, 0.2177734375
0.0048828125, 0.0322265625, 0.236328125
0.0, 0.0302734375, 0.2490234375
-0.0009765625, 0.0302734375, 0.26171875
0.0, 0.025390625, 0.2578125
-0.0048828125, 0.0234375, 0.2490234375
-0.001953125, 0.0341796875, 0.2451171875
-0.0009765625, 0.0439453125, 0.25
0.0, 0.0322265625, 0.2490234375
0.0009765625, 0.0263671875, 0.2470703125
0.0, 0.0341796875, 0.2568359375
0.0009765625, 0.056640625, 0.2451171875
0.0, 0.0478515625, 0.234375
0.0009765625, 0.0302734375, 0.23828125
0.001953125, 0.0224609375, 0.232421875
0.0029296875, 0.0146484375, 0.234375
0.00390625, 0.029296875, 0.2490234375
0.005859375, 0.0478515625, 0.25
0.00390625, 0.029296875, 0.240234375
0.005859375, 0.0146484375, 0.23046875
0.0029296875, 0.0224609375, 0.2412109375
0.00390625, 0.03125, 0.25
0.001953125, 0.03125, 0.2451171875
0.005859375, 0.025390625, 0.244140625
0.005859375, 0.03515625, 0.2451171875
0.005859375, 0.03125, 0.232421875
0.00390625, 0.029296875, 0.2421875
0.005859375, 0.0185546875, 0.2548828125
0.005859375, 0.02734375, 0.2548828125
0.0048828125, 0.0302734375, 0.25
0.0048828125, 0.0478515625, 0.2333984375
0.00390625, 0.033203125, 0.23828125
0.0048828125, 0.03125, 0.2353515625
0.005859375, 0.0341796875, 0.24609375
0.0078125, 0.03125, 0.2431640625
0.005859375, 0.0517578125, 0.23828125
0.0078125, 0.048828125, 0.2392578125
0.005859375, 0.0166015625, 0.2333984375
0.00390625, 0.03515625, 0.2333984375
0.0078125, 0.0498046875, 0.2431640625
0.0048828125, 0.0029296875, 0.263671875
0.0068359375, 0.0107421875, 0.2607421875
0.005859375, 0.046875, 0.2509765625
0.0048828125, 0.0419921875, 0.2333984375
0.0048828125, 0.033203125, 0.228515625
0.0078125, 0.029296875, 0.2529296875
0.005859375, 0.0205078125, 0.248046875
0.0048828125, 0.046875, 0.236328125
0.005859375, 0.0458984375, 0.2333984375
0.0048828125, 0.0244140625, 0.25
0.0078125, 0.01953125, 0.248046875
0.005859375, 0.0234375, 0.2509765625
0.0068359375, 0.04296875, 0.24609375
0.0078125, 0.037109375, 0.2451171875
0.0078125, 0.03125, 0.2412109375
0.009765625, 0.03515625, 0.240234375
0.00390625, 0.0322265625, 0.2451171875
0.0048828125, 0.0419921875, 0.2421875
0.005859375, 0.0498046875, 0.2353515625
0.0078125, 0.0244140625, 0.2470703125
0.0087890625, 0.0263671875, 0.2490234375
0.0087890625, 0.0302734375, 0.244140625
0.009765625, 0.0302734375, 0.2451171875
0.0078125, 0.0439453125, 0.2373046875
0.0078125, 0.029296875, 0.248046875
0.0126953125, 0.021484375, 0.248046875
0.0087890625, 0.0439453125, 0.2451171875
0.0087890625, 0.0537109375, 0.2412109375
0.0087890625, 0.0185546875, 0.24609375
0.0078125, 0.02734375, 0.24609375
0.0068359375, 0.03515625, 0.248046875
0.0068359375, 0.033203125, 0.2431640625
0.0078125, 0.0400390625, 0.2431640625
0.0078125, 0.044921875, 0.2412109375
0.009765625, 0.0244140625, 0.2392578125
0.005859375, 0.017578125, 0.2392578125
0.0087890625, 0.0400390625, 0.2451171875
0.0078125, 0.0380859375, 0.2470703125
0.0078125, 0.0361328125, 0.244140625
0.005859375, 0.02734375, 0.248046875
0.009765625, 0.0322265625, 0.248046875
0.0078125, 0.0458984375, 0.240234375
0.0078125, 0.03125, 0.2412109375
0.0078125, 0.0263671875, 0.248046875
0.0068359375, 0.0458984375, 0.2470703125
0.0087890625, 0.041015625, 0.24609375
0.0078125, 0.015625, 0.25
0.0068359375, 0.03125, 0.2451171875
0.0078125, 0.0439453125, 0.2373046875
0.0087890625, 0.0283203125, 0.2431640625
0.0087890625, 0.033203125, 0.2470703125
0.0078125, 0.041015625, 0.2451171875
0.005859375, 0.0361328125, 0.236328125
0.0087890625, 0.04296875, 0.23828125
0.0087890625, 0.0419921875, 0.2412109375
0.0078125, 0.0341796875, 0.24609375
0.0068359375, 0.0322265625, 0.2490234375
0.0068359375, 0.0390625, 0.248046875
0.0087890625, 0.0341796875, 0.2470703125
0.009765625, 0.0234375, 0.2353515625
0.01171875, 0.037109375, 0.234375
0.0078125, 0.01953125, 0.2509765625
0.0107421875, 0.029296875, 0.2509765625
0.0087890625, 0.05078125, 0.2421875
0.01171875, 0.037109375, 0.2265625
0.0078125, 0.0234375, 0.23828125
0.009765625, 0.04296875, 0.2412109375
0.0078125, 0.0361328125, 0.25390625
0.0107421875, 0.021484375, 0.251953125
0.0087890625, 0.0341796875, 0.2431640625
0.0087890625, 0.0419921875, 0.2392578125
0.0078125, 0.037109375, 0.23828125
0.0087890625, 0.029296875, 0.2431640625
0.005859375, 0.0380859375, 0.2431640625
0.0087890625, 0.041015625, 0.240234375
0.009765625, 0.03125, 0.2431640625
0.0126953125, 0.0185546875, 0.2509765625
0.0087890625, 0.03515625, 0.248046875
0.013671875, 0.03125, 0.244140625
0.0068359375, 0.021484375, 0.24609375
0.0087890625, 0.046875, 0.2421875
0.0078125, 0.0546875, 0.23828125
0.01171875, 0.01953125, 0.236328125
0.0068359375, 0.02734375, 0.2451171875
0.0087890625, 0.05078125, 0.2470703125
0.0078125, 0.0263671875, 0.2529296875
0.0087890625, 0.029296875, 0.2470703125
0.005859375, 0.0478515625, 0.2412109375
0.0107421875, 0.0498046875, 0.2392578125
0.0087890625, 0.0244140625, 0.2333984375
0.0107421875, 0.025390625, 0.24609375
0.0087890625, 0.0283203125, 0.251953125
0.0068359375, 0.033203125, 0.2529296875
0.009765625, 0.02734375, 0.25
0.0087890625, 0.0322265625, 0.248046875
0.0078125, 0.033203125, 0.2412109375
0.0087890625, 0.0419921875, 0.2353515625
0.009765625, 0.0390625, 0.2333984375
0.009765625, 0.0380859375, 0.2392578125
0.009765625, 0.0380859375, 0.2431640625
0.0107421875, 0.02734375, 0.248046875
0.0068359375, 0.037109375, 0.24609375
0.01171875, 0.02734375, 0.248046875
0.009765625, 0.033203125, 0.2431640625
0.0107421875, 0.03125, 0.23828125
0.0107421875, 0.0390625, 0.2392578125
0.0126953125, 0.033203125, 0.2451171875
0.009765625, 0.0361328125, 0.244140625
0.009765625, 0.0341796875, 0.248046875
0.0068359375, 0.0390625, 0.2490234375
0.0107421875, 0.03515625, 0.24609375
0.009765625, 0.0302734375, 0.2412109375
0.01171875, 0.03125, 0.24609375
0.013671875, 0.03515625, 0.2451171875
0.009765625, 0.0341796875, 0.2431640625
0.01171875, 0.037109375, 0.2373046875
0.0107421875, 0.0341796875, 0.2412109375
0.0107421875, 0.0419921875, 0.2412109375
0.0078125, 0.0244140625, 0.25
0.0087890625, 0.033203125, 0.2392578125
0.0107421875, 0.037109375, 0.2451171875
0.0107421875, 0.037109375, 0.248046875
0.009765625, 0.0341796875, 0.2451171875
0.009765625, 0.03515625, 0.240234375
0.0107421875, 0.044921875, 0.240234375
0.0107421875, 0.033203125, 0.2431640625
0.009765625, 0.03125, 0.2412109375
0.0107421875, 0.02734375, 0.2470703125
0.01171875, 0.0419921875, 0.244140625
0.01171875, 0.0390625, 0.2470703125
0.009765625, 0.0322265625, 0.2431640625
0.0068359375, 0.0458984375, 0.2431640625
0.009765625, 0.0283203125, 0.248046875
0.0087890625, 0.0302734375, 0.2412109375
0.009765625, 0.041015625, 0.2431640625
0.009765625, 0.029296875, 0.2470703125
0.0107421875, 0.0390625, 0.2412109375
0.0107421875, 0.041015625, 0.2412109375
0.0087890625, 0.03125, 0.2451171875
0.0126953125, 0.0322265625, 0.2392578125
0.0126953125, 0.03515625, 0.2451171875
0.0107421875, 0.037109375, 0.24609375
0.0087890625, 0.033203125, 0.240234375
0.009765625, 0.0380859375, 0.2421875
0.009765625, 0.0302734375, 0.2490234375
0.0078125, 0.048828125, 0.2412109375
0.009765625, 0.04296875, 0.2490234375
0.0078125, 0.0302734375, 0.2490234375
0.0078125, 0.0419921875, 0.2392578125
0.0087890625, 0.03125, 0.2470703125
0.009765625, 0.0302734375, 0.244140625
0.009765625, 0.029296875, 0.240234375
0.0087890625, 0.041015625, 0.240234375
0.0126953125, 0.0322265625, 0.2431640625
0.01171875, 0.0322265625, 0.24609375
0.0107421875, 0.03125, 0.244140625
0.0087890625, 0.0361328125, 0.24609375
0.0107421875, 0.0390625, 0.25
0.009765625, 0.0361328125, 0.2431640625
0.0068359375, 0.0322265625, 0.24609375
0.0087890625, 0.03515625, 0.2451171875
0.009765625, 0.041015625, 0.2412109375
0.0078125, 0.0380859375, 0.2421875
0.009765625, 0.03515625, 0.2431640625
0.0126953125, 0.033203125, 0.2431640625
0.01171875, 0.0283203125, 0.2451171875
0.009765625, 0.03515625, 0.248046875
0.009765625, 0.0341796875, 0.2470703125
0.0087890625, 0.033203125, 0.2451171875
0.009765625, 0.037109375, 0.23828125
0.0126953125, 0.041015625, 0.240234375
0.0126953125, 0.0400390625, 0.244140625
0.0087890625, 0.04296875, 0.23828125
0.009765625, 0.0419921875, 0.236328125
0.0087890625, 0.0322265625, 0.2451171875
