0.0732421875, 0.0185546875, 0.2392578125
0.0810546875, 0.0458984375, 0.216796875
0.080078125, 0.0791015625, 0.1943359375
0.076171875, 0.083984375, 0.20703125
0.072265625, 0.0302734375, 0.24609375
0.068359375, 0.0068359375, 0.27734375
0.0693359375, 0.0263671875, 0.263671875
0.0732421875, 0.029296875, 0.2255859375
0.07421875, 0.0224609375, 0.203125
0.0703125, 0.015625, 0.2197265625
0.0673828125, 0.0185546875, 0.2470703125
0.0654296875, 0.0244140625, 0.2509765625
0.06640625, 0.0224609375, 0.23828125
0.072265625, 0.01171875, 0.2373046875
0.072265625, 0.013671875, 0.232421875
0.0703125, 0.0361328125, 0.224609375
0.0703125, 0.0478515625, 0.2109375
0.0712890625, 0.0390625, 0.23046875
0.0751953125, 0.0439453125, 0.2333984375
0.076171875, 0.0537109375, 0.216796875
0.0703125, 0.0380859375, 0.2236328125
0.0703125, 0.0068359375, 0.2421875
0.0712890625, 0.0224609375, 0.26171875
0.0712890625, 0.029296875, 0.251953125
0.0712890625, 0.015625, 0.2421875
0.0693359375, 0.0244140625, 0.2265625
0.0693359375, 0.0283203125, 0.2236328125
0.0693359375, 0.03515625, 0.2333984375
0.0693359375, 0.01171875, 0.255859375
0.0703125, 0.001953125, 0.2509765625
0.0693359375, 0.005859375, 0.2392578125
0.06640625, 0.029296875, 0.2314453125
0.064453125, 0.0322265625, 0.2275390625
0.0654296875, 0.0380859375, 0.2158203125
0.068359375, 0.033203125, 0.2099609375
0.0654296875, 0.029296875, 0.2158203125
0.0654296875, 0.0302734375, 0.236328125
0.068359375, 0.0048828125, 0.2548828125
0.068359375, -0.0078125, 0.263671875
0.0693359375, 0.0087890625, 0.2578125
0.0703125, 0.0234375, 0.23828125
0.0673828125, 0.03125, 0.234375
0.0693359375, 0.03125, 0.2353515625
0.0693359375, 0.0283203125, 0.244140625
0.06640625, 0.0146484375, 0.244140625
0.0673828125, 0.005859375, 0.2421875
0.0703125, 0.0068359375, 0.23828125
0.0673828125, 0.0205078125, 0.23828125
0.06640625, 0.0263671875, 0.236328125
0.0693359375, 0.0361328125, 0.2265625
0.06640625, 0.0341796875, 0.224609375
0.068359375, 0.0380859375, 0.21875
0.06640625, 0.033203125, 0.2275390625
0.0712890625, 0.0302734375, 0.2265625
0.0673828125, 0.0234375, 0.2373046875
0.068359375, 0.0166015625, 0.244140625
0.072265625, 0.0302734375, 0.244140625
0.0693359375, 0.03125, 0.2373046875
0.0712890625, 0.0244140625, 0.2353515625
0.0703125, 0.0146484375, 0.240234375
0.0712890625, 0.029296875, 0.23828125
0.068359375, 0.0302734375, 0.240234375
0.0693359375, 0.0224609375, 0.2431640625
0.0693359375, 0.029296875, 0.236328125
0.0712890625, 0.03125, 0.2314453125
0.0703125, 0.0302734375, 0.2333984375
0.0673828125, 0.0185546875, 0.2275390625
0.0693359375, 0.0224609375, 0.2392578125
0.0703125, 0.0322265625, 0.2392578125
0.068359375, 0.0185546875, 0.23828125
0.0703125, 0.0283203125, 0.2353515625
0.0654296875, 0.046875, 0.224609375
0.0654296875, 0.046875, 0.220703125
0.0673828125, 0.01953125, 0.232421875
0.0673828125, 0.01171875, 0.2451171875
0.0703125, 0.0263671875, 0.2431640625
0.068359375, 0.0419921875, 0.232421875
0.072265625, 0.0400390625, 0.22265625
0.0712890625, 0.037109375, 0.23046875
0.0712890625, 0.0244140625, 0.23828125
0.072265625, 0.0244140625, 0.2421875
0.0693359375, 0.03515625, 0.2431640625
0.0693359375, 0.029296875, 0.2333984375
0.0712890625, 0.025390625, 0.2275390625
0.0712890625, 0.0498046875, 0.220703125
0.0693359375, 0.0634765625, 0.228515625
0.0703125, 0.078125, 0.232421875
0.0703125, 0.05859375, 0.2021484375
0.0673828125, 0.0595703125, 0.19921875
0.0654296875, 0.0615234375, 0.2021484375
0.064453125, 0.044921875, 0.2001953125
0.0625, 0.0380859375, 0.1923828125
0.0595703125, 0.0302734375, 0.1796875
0.0595703125, 0.015625, 0.166015625
0.0537109375, 0.0478515625, 0.1494140625
0.044921875, 0.0595703125, 0.1787109375
0.0341796875, 0.044921875, 0.2265625
0.0283203125, -0.0185546875, 0.2333984375
0.0205078125, -0.0263671875, 0.232421875
0.021484375, -0.0556640625, 0.2587890625
0.01953125, -0.0546875, 0.3046875
0.0146484375, -0.037109375, 0.30859375
0.01171875, -0.015625, 0.26953125
0.0078125, 0.0107421875, 0.2509765625
0.0009765625, -0.0068359375, 0.251953125
0.0009765625, -0.0341796875, 0.279296875
0.0, -0.021484375, 0.2978515625
-0.0048828125, -0.01171875, 0.2783203125
-0.0087890625, 0.0087890625, 0.2529296875
-0.0126953125, 0.0341796875, 0.24609375
-0.0126953125, 0.005859375, 0.25390625
-0.021484375, -0.0234375, 0.2509765625
-0.0166015625, -0.0400390625, 0.2578125
-0.0185546875, -0.033203125, 0.2607421875
-0.01953125, -0.03515625, 0.2509765625
-0.0205078125, -0.04296875, 0.2451171875
-0.0205078125, -0.033203125, 0.23828125
-0.021484375, -0.005859375, 0.228515625
-0.0224609375, 0.001953125, 0.2353515625
-0.02734375, 0.0078125, 0.24609375
-0.029296875, -0.0078125, 0.2431640625
-0.02734375, -0.0009765625, 0.2392578125
-0.029296875, 0.0078125, 0.234375
-0.0361328125, -0.009765625, 0.2373046875
-0.0380859375, -0.0107421875, 0.2685546875
-0.0419921875, -0.001953125, 0.3037109375
-0.04296875, 0.0, 0.376953125
-0.05859375, -0.0419921875, 0.4501953125
-0.060546875, -0.1455078125, 0.5
-0.068359375, -0.19140625, 0.546875
-0.0673828125, -0.1328125, 0.5263671875
-0.08203125, -0.0810546875, 0.505859375
-0.0869140625, -0.052734375, 0.52734375
-0.1064453125, -0.146484375, 0.5205078125
-0.12890625, -0.21484375, 0.4697265625
-0.1630859375, -0.2138671875, 0.2958984375
-0.1552734375, -0.166015625, 0.15234375
-0.1318359375, -0.189453125, 0.103515625
-0.1181640625, -0.2080078125, 0.0029296875
-0.0830078125, -0.2060546875, -0.0537109375
-0.0595703125, -0.1484375, -0.10546875
-0.0546875, -0.05859375, -0.1484375
-0.037109375, 0.0185546875, -0.181640625
-0.0263671875, 0.0224609375, -0.21484375
-0.005859375, -0.009765625, -0.193359375
-0.02734375, 0.015625, -0.1044921875
-0.025390625, 0.09375, -0.033203125
-0.0087890625, 0.19921875, 0.0087890625
0.0087890625, 0.294921875, 0.07421875
0.025390625, 0.3193359375, 0.19140625
0.046875, 0.248046875, 0.30859375
0.0537109375, 0.2705078125, 0.3671875
0.072265625, 0.3251953125, 0.4833984375
0.0615234375, 0.4462890625, 0.5263671875
0.07421875, 0.498046875, 0.3173828125
0.0703125, 0.4697265625, 0.1513671875
0.076171875, 0.2822265625, 0.0576171875
0.076171875, 0.2099609375, 0.12890625
0.0625, 0.337890625, 0.2353515625
0.0546875, 0.48828125, 0.251953125
0.0263671875, 0.4248046875, 0.169921875
-0.01171875, 0.220703125, 0.0654296875
-0.02734375, 0.1279296875, -0.0224609375
-0.0419921875, 0.1005859375, -0.0517578125
-0.0712890625, 0.0302734375, -0.0859375
-0.1044921875, -0.0791015625, -0.0517578125
-0.109375, -0.197265625, 0.0615234375
-0.109375, -0.2119140625, 0.142578125
-0.0849609375, -0.279296875, 0.1357421875
-0.0869140625, -0.3642578125, 0.1044921875
-0.12890625, -0.2939453125, 0.17578125
-0.1279296875, -0.1259765625, 0.3671875
-0.1162109375, -0.1103515625, 0.4814453125
-0.1103515625, -0.22265625, 0.552734375
-0.1044921875, -0.2646484375, 0.6904296875
-0.1025390625, -0.12109375, 0.8369140625
-0.1025390625, -0.01171875, 0.8154296875
-0.12109375, -0.037109375, 0.708984375
-0.134765625, 0.0126953125, 0.5380859375
-0.1484375, 0.0048828125, 0.455078125
-0.15625, -0.0166015625, 0.3466796875
-0.140625, 0.0087890625, 0.2412109375
-0.1298828125, 0.0908203125, 0.18359375
-0.0888671875, 0.166015625, 0.12890625
-0.0673828125, 0.203125, 0.08203125
-0.0185546875, 0.2001953125, 0.0439453125
0.009765625, 0.17578125, 0.0048828125
0.0439453125, 0.1865234375, -0.0166015625
0.0615234375, 0.208984375, 0.03125
0.0625, 0.15234375, 0.05859375
0.0732421875, 0.103515625, 0.0595703125
0.0791015625, 0.09375, 0.1103515625
0.0791015625, 0.091796875, 0.1689453125
0.0771484375, 0.0556640625, 0.17578125
0.080078125, 0.01953125, 0.1845703125
0.0810546875, 0.0, 0.1904296875
0.0869140625, -0.025390625, 0.24609375
0.0810546875, -0.0185546875, 0.3134765625
0.080078125, 0.0244140625, 0.2724609375
0.0791015625, 0.0546875, 0.21484375
0.0810546875, 0.076171875, 0.203125
0.080078125, 0.0341796875, 0.2265625
0.0791015625, 0.017578125, 0.255859375
0.08203125, 0.0380859375, 0.2685546875
0.0830078125, 0.0546875, 0.2509765625
0.0791015625, 0.0537109375, 0.2314453125
0.076171875, 0.0400390625, 0.2216796875
0.0791015625, 0.0263671875, 0.23828125
0.0771484375, 0.060546875, 0.2607421875
0.072265625, 0.0693359375, 0.2470703125
0.0712890625, 0.0625, 0.2138671875
0.0732421875, 0.04296875, 0.2021484375
0.0732421875, 0.037109375, 0.2099609375
0.0791015625, 0.0234375, 0.244140625
0.080078125, 0.0244140625, 0.2451171875
0.080078125, 0.044921875, 0.236328125
0.0810546875, 0.060546875, 0.2236328125
0.0771484375, 0.0517578125, 0.2373046875
0.0771484375, 0.037109375, 0.2490234375
0.0751953125, 0.029296875, 0.25
0.0732421875, 0.033203125, 0.2392578125
0.068359375, 0.0361328125, 0.2294921875
0.0673828125, 0.03125, 0.2333984375
0.0712890625, 0.0361328125, 0.2373046875
0.0693359375, 0.037109375, 0.2314453125
0.072265625, 0.041015625, 0.2177734375
0.078125, 0.044921875, 0.22265625
0.0810546875, 0.03515625, 0.2236328125
0.0830078125, 0.0166015625, 0.2197265625
0.0849609375, 0.01953125, 0.2275390625
0.0849609375, 0.025390625, 0.248046875
0.083984375, 0.0341796875, 0.24609375
0.0830078125, 0.0390625, 0.232421875
0.0810546875, 0.0380859375, 0.2177734375
0.0771484375, 0.0419921875, 0.23046875
0.0771484375, 0.048828125, 0.24609375
0.07421875, 0.048828125, 0.248046875
0.0732421875, 0.0390625, 0.23828125
0.0751953125, 0.02734375, 0.2197265625
0.076171875, 0.0380859375, 0.2138671875
0.0732421875, 0.0419921875, 0.212890625
0.076171875, 0.033203125, 0.2255859375
0.07421875, 0.0224609375, 0.2177734375
0.076171875, 0.0361328125, 0.2138671875
0.0732421875, 0.0556640625, 0.22265625
0.0751953125, 0.0458984375, 0.2314453125
0.07421875, 0.033203125, 0.2255859375
0.07421875, 0.03125, 0.2216796875
0.080078125, 0.02734375, 0.234375
0.083984375, 0.01953125, 0.2412109375
0.0830078125, 0.0146484375, 0.2421875
0.08203125, 0.0283203125, 0.23828125
0.0810546875, 0.0302734375, 0.251953125
0.0771484375, 0.03125, 0.2548828125
0.076171875, 0.033203125, 0.23046875
0.078125, 0.0390625, 0.23046875
0.07421875, 0.0361328125, 0.228515625
0.0751953125, 0.02734375, 0.2431640625
0.07421875, 0.0341796875, 0.234375
0.076171875, 0.0263671875, 0.23046875
0.0732421875, 0.017578125, 0.232421875
0.0771484375, 0.03125, 0.236328125
0.076171875, 0.0498046875, 0.22265625
0.076171875, 0.044921875, 0.212890625
0.0771484375, 0.025390625, 0.220703125
0.076171875, 0.021484375, 0.2353515625
0.0771484375, 0.0283203125, 0.2392578125
0.0751953125, 0.037109375, 0.2353515625
0.0751953125, 0.0390625, 0.2255859375
0.076171875, 0.0380859375, 0.21875
0.0751953125, 0.0341796875, 0.2265625
0.0751953125, 0.0283203125, 0.2431640625
0.0751953125, 0.0244140625, 0.2490234375
0.0751953125, 0.03515625, 0.2265625
0.0771484375, 0.046875, 0.2158203125
0.07421875, 0.0380859375, 0.21875
0.080078125, 0.0166015625, 0.2421875
0.07421875, 0.013671875, 0.251953125
0.0771484375, 0.0400390625, 0.2431640625
0.078125, 0.044921875, 0.2275390625
0.076171875, 0.0244140625, 0.2216796875
0.0771484375, 0.025390625, 0.2294921875
0.0751953125, 0.0283203125, 0.2412109375
0.0732421875, 0.0361328125, 0.240234375
0.076171875, 0.0439453125, 0.2373046875
0.076171875, 0.0400390625, 0.228515625
0.07421875, 0.0341796875, 0.2236328125
0.076171875, 0.0341796875, 0.224609375
0.07421875, 0.0302734375, 0.2392578125
0.0712890625, 0.0361328125, 0.240234375
0.07421875, 0.033203125, 0.2333984375
0.076171875, 0.0361328125, 0.2333984375
0.0751953125, 0.029296875, 0.22265625
0.076171875, 0.0166015625, 0.22265625
0.076171875, 0.0224609375, 0.2333984375
0.0771484375, 0.048828125, 0.232421875
0.07421875, 0.0498046875, 0.2353515625
0.078125, 0.03125, 0.2333984375
0.0751953125, 0.0205078125, 0.2353515625
0.076171875, 0.03125, 0.2177734375
0.078125, 0.041015625, 0.2255859375
0.0712890625, 0.04296875, 0.2421875
0.0751953125, 0.0390625, 0.2412109375
0.0751953125, 0.029296875, 0.2275390625
0.0751953125, 0.0234375, 0.2275390625
0.076171875, 0.0224609375, 0.236328125
0.0732421875, 0.0400390625, 0.23828125
0.0751953125, 0.0478515625, 0.2451171875
0.076171875, 0.03125, 0.2373046875
0.0751953125, 0.029296875, 0.2294921875
0.076171875, 0.0390625, 0.224609375
0.0732421875, 0.021484375, 0.2314453125
0.07421875, 0.0068359375, 0.2509765625
0.0712890625, 0.0458984375, 0.2392578125
0.07421875, 0.064453125, 0.2265625
0.07421875, 0.041015625, 0.212890625
0.072265625, 0.025390625, 0.224609375
0.07421875, 0.015625, 0.2373046875
0.0732421875, 0.009765625, 0.2392578125
0.0693359375, 0.02734375, 0.24609375
0.0703125, 0.0458984375, 0.2421875
0.0751953125, 0.041015625, 0.224609375
0.07421875, 0.0322265625, 0.216796875
0.0751953125, 0.0263671875, 0.220703125
0.07421875, 0.02734375, 0.2412109375
0.0703125, 0.04296875, 0.25
0.0712890625, 0.0546875, 0.248046875
0.0751953125, 0.05078125, 0.2275390625
0.078125, 0.0302734375, 0.2197265625
0.076171875, 0.01953125, 0.2177734375
0.0751953125, 0.0244140625, 0.2255859375
0.0732421875, 0.0439453125, 0.240234375
0.07421875, 0.052734375, 0.2490234375
0.0751953125, 0.0390625, 0.2470703125
0.076171875, 0.025390625, 0.2333984375
0.072265625, 0.0244140625, 0.2294921875
0.0751953125, 0.0234375, 0.234375
0.072265625, 0.0380859375, 0.240234375
0.0751953125, 0.04296875, 0.2353515625
0.0751953125, 0.0380859375, 0.2197265625
0.0732421875, 0.01953125, 0.220703125
0.072265625, 0.03125, 0.234375
0.0712890625, 0.0234375, 0.248046875
0.0751953125, 0.0283203125, 0.224609375
0.0751953125, 0.044921875, 0.2255859375
0.0751953125, 0.0302734375, 0.224609375
0.076171875, 0.0234375, 0.2314453125
0.07421875, 0.0419921875, 0.234375
0.0732421875, 0.041015625, 0.236328125
0.076171875, 0.0126953125, 0.2470703125
0.072265625, 0.0361328125, 0.2392578125
0.07421875, 0.046875, 0.2265625
0.0751953125, 0.0341796875, 0.2177734375
0.0771484375, 0.029296875, 0.2236328125
0.0751953125, 0.03515625, 0.2392578125
0.0732421875, 0.0283203125, 0.23828125
0.072265625, 0.0322265625, 0.234375
0.0712890625, 0.0302734375, 0.23828125
0.07421875, 0.02734375, 0.2353515625
0.0771484375, 0.0283203125, 0.23828125
0.0751953125, 0.046875, 0.220703125
0.0712890625, 0.041015625, 0.2265625
0.072265625, 0.0283203125, 0.2470703125
0.076171875, 0.03515625, 0.23828125
0.0732421875, 0.02734375, 0.220703125
0.0732421875, 0.0234375, 0.2265625
0.0732421875, 0.0341796875, 0.244140625
0.072265625, 0.037109375, 0.2353515625
0.0712890625, 0.033203125, 0.2265625
0.0732421875, 0.0361328125, 0.2294921875
0.072265625, 0.0390625, 0.234375
0.0732421875, 0.0224609375, 0.2353515625
0.076171875, 0.048828125, 0.2265625
0.0732421875, 0.0693359375, 0.21875
0.0703125, 0.052734375, 0.2314453125
0.072265625, 0.0234375, 0.2470703125
0.0751953125, 0.0185546875, 0.2509765625
0.068359375, 0.02734375, 0.2392578125
0.0703125, 0.0244140625, 0.2294921875
0.068359375, 0.03125, 0.2275390625
0.0654296875, 0.02734375, 0.228515625
0.0654296875, 0.01953125, 0.2275390625
0.06640625, 0.0283203125, 0.24609375
0.068359375, 0.0224609375, 0.25
0.0673828125, 0.0078125, 0.24609375
0.068359375, 0.0205078125, 0.2265625
0.0693359375, 0.0380859375, 0.21875
0.068359375, 0.04296875, 0.2294921875
0.0703125, 0.03515625, 0.236328125
0.072265625, 0.037109375, 0.23828125
0.07421875, 0.0361328125, 0.2265625
0.072265625, 0.0478515625, 0.2216796875
0.068359375, 0.0673828125, 0.220703125
0.0703125, 0.0625, 0.240234375
0.0712890625, 0.0390625, 0.2607421875
0.0712890625, 0.0234375, 0.259765625
0.0732421875, 0.017578125, 0.244140625
0.0712890625, 0.021484375, 0.23828125
0.0693359375, 0.033203125, 0.23828125
0.0673828125, 0.0302734375, 0.2275390625
0.0673828125, 0.0263671875, 0.23046875
0.068359375, 0.033203125, 0.21875
0.0673828125, 0.0439453125, 0.22265625
0.06640625, 0.02734375, 0.236328125
0.068359375, 0.01953125, 0.2392578125
0.06640625, 0.02734375, 0.236328125
0.0654296875, 0.04296875, 0.228515625
0.06640625, 0.01953125, 0.236328125
0.0673828125, 0.0146484375, 0.234375
0.0693359375, 0.04296875, 0.2314453125
0.0693359375, 0.0458984375, 0.23046875
0.0703125, 0.044921875, 0.2294921875
0.0703125, 0.0390625, 0.236328125
0.0712890625, 0.03125, 0.236328125
0.0712890625, 0.0224609375, 0.2412109375
0.0703125, 0.009765625, 0.2470703125
0.0693359375, 0.0380859375, 0.2392578125
0.0732421875, 0.0419921875, 0.2314453125
0.0712890625, 0.03515625, 0.2265625
0.0703125, 0.033203125, 0.2353515625
0.0712890625, 0.03125, 0.228515625
0.0693359375, 0.0185546875, 0.244140625
0.0693359375, 0.0126953125, 0.2421875
0.0732421875, 0.041015625, 0.23046875
0.068359375, 0.03515625, 0.2294921875
0.068359375, 0.037109375, 0.2255859375
0.068359375, 0.0390625, 0.2275390625
0.068359375, 0.0244140625, 0.2255859375
0.068359375, 0.0322265625, 0.2412109375
0.0703125, 0.0283203125, 0.2529296875
0.0703125, 0.0361328125, 0.2412109375
0.0712890625, 0.05078125, 0.224609375
0.0712890625, 0.0361328125, 0.2255859375
0.0703125, 0.0361328125, 0.2353515625
0.072265625, 0.04296875, 0.2216796875
0.0693359375, 0.0302734375, 0.2255859375
0.0673828125, 0.037109375, 0.2421875
0.0673828125, 0.0380859375, 0.232421875
0.06640625, 0.0224609375, 0.2451171875
0.0703125, 0.0244140625, 0.23828125
0.068359375, 0.0361328125, 0.2353515625
0.072265625, 0.029296875, 0.2236328125
0.0703125, 0.0244140625, 0.23828125
0.0673828125, 0.041015625, 0.2353515625
0.0703125, 0.04296875, 0.232421875
0.0693359375, 0.033203125, 0.232421875
0.0732421875, 0.033203125, 0.2353515625
0.0703125, 0.037109375, 0.234375
0.068359375, 0.0400390625, 0.224609375
0.0712890625, 0.0419921875, 0.2333984375
