-0.052734375, -0.0009765625, 0.2431640625
-0.0556640625, -0.015625, 0.265625
-0.056640625, -0.0078125, 0.2568359375
-0.0537109375, 0.0, 0.2431640625
-0.0517578125, -0.009765625, 0.2421875
-0.0498046875, -0.0146484375, 0.240234375
-0.0498046875, -0.0166015625, 0.2529296875
-0.0498046875, -0.0009765625, 0.255859375
-0.05078125, 0.0126953125, 0.2421875
-0.0537109375, 0.00390625, 0.2373046875
-0.0556640625, 0.0009765625, 0.2451171875
-0.0517578125, -0.0107421875, 0.236328125
-0.05078125, -0.0029296875, 0.2275390625
-0.052734375, 0.0, 0.2333984375
-0.05078125, -0.0068359375, 0.24609375
-0.048828125, 0.0, 0.2392578125
-0.0498046875, 0.001953125, 0.2314453125
-0.05078125, -0.001953125, 0.234375
-0.0478515625, 0.001953125, 0.2314453125
-0.05078125, 0.0, 0.2490234375
-0.048828125, -0.0029296875, 0.24609375
-0.048828125, -0.0068359375, 0.2431640625
-0.048828125, -0.0048828125, 0.2421875
-0.0458984375, 0.0029296875, 0.24609375
-0.046875, 0.0009765625, 0.24609375
-0.0478515625, -0.0009765625, 0.232421875
-0.0498046875, -0.013671875, 0.255859375
-0.048828125, 0.015625, 0.2451171875
-0.046875, 0.0029296875, 0.2392578125
-0.044921875, 0.0, 0.2255859375
-0.0478515625, 0.0009765625, 0.232421875
-0.0478515625, -0.02734375, 0.267578125
-0.0439453125, 0.009765625, 0.23828125
-0.048828125, 0.0107421875, 0.2314453125
-0.046875, -0.021484375, 0.2314453125
-0.044921875, -0.0009765625, 0.236328125
-0.0458984375, 0.0009765625, 0.2392578125
-0.046875, 0.00390625, 0.2236328125
-0.0458984375, -0.005859375, 0.234375
-0.048828125, -0.0107421875, 0.2509765625
-0.0439453125, 0.013671875, 0.2392578125
-0.046875, -0.009765625, 0.251953125
-0.0439453125, 0.0029296875, 0.2412109375
-0.0458984375, -0.0068359375, 0.232421875
-0.0478515625, -0.0107421875, 0.2431640625
-0.0478515625, 0.0078125, 0.234375
-0.046875, -0.00390625, 0.2529296875
-0.0478515625, 0.0, 0.2421875
-0.048828125, 0.0009765625, 0.236328125
-0.0478515625, -0.001953125, 0.2421875
-0.0458984375, 0.0009765625, 0.2392578125
-0.046875, -0.0009765625, 0.240234375
-0.0478515625, 0.001953125, 0.24609375
-0.048828125, -0.0009765625, 0.251953125
-0.0439453125, 0.005859375, 0.236328125
-0.044921875, -0.005859375, 0.2314453125
-0.04296875, 0.0, 0.2421875
-0.046875, 0.0009765625, 0.2568359375
-0.0458984375, 0.0009765625, 0.244140625
-0.046875, 0.013671875, 0.232421875
-0.0498046875, 0.001953125, 0.2373046875
-0.046875, 0.0009765625, 0.2392578125
-0.046875, -0.001953125, 0.2431640625
-0.046875, 0.0009765625, 0.248046875
-0.048828125, 0.0009765625, 0.2451171875
-0.0458984375, -0.0078125, 0.248046875
-0.046875, -0.0009765625, 0.2470703125
-0.0458984375, 0.0078125, 0.251953125
-0.0419921875, -0.00390625, 0.244140625
-0.0478515625, -0.0029296875, 0.23828125
-0.0458984375, -0.0009765625, 0.244140625
-0.0498046875, 0.0009765625, 0.24609375
-0.0498046875, 0.0029296875, 0.25390625
-0.046875, 0.005859375, 0.2529296875
-0.044921875, 0.001953125, 0.255859375
-0.044921875, 0.0029296875, 0.2431640625
-0.044921875, 0.0, 0.244140625
-0.046875, 0.0078125, 0.2490234375
-0.04296875, 0.0029296875, 0.248046875
-0.0439453125, 0.013671875, 0.2587890625
-0.04296875, 0.01171875, 0.2626953125
-0.0419921875, 0.001953125, 0.263671875
-0.0400390625, 0.0009765625, 0.2587890625
-0.037109375, 0.0078125, 0.2626953125
-0.033203125, 0.015625, 0.2734375
-0.0283203125, 0.0283203125, 0.283203125
-0.02734375, 0.048828125, 0.314453125
-0.0244140625, 0.0517578125, 0.3310546875
-0.0146484375, 0.0498046875, 0.33203125
-0.0029296875, 0.05078125, 0.3515625
0.0048828125, 0.044921875, 0.361328125
0.0068359375, 0.0439453125, 0.384765625
0.001953125, 0.044921875, 0.4130859375
0.0, 0.0654296875, 0.4052734375
0.0, 0.09765625, 0.353515625
0.0, 0.111328125, 0.2919921875
0.0, 0.12890625, 0.2822265625
-0.0048828125, 0.111328125, 0.30859375
-0.00390625, 0.1064453125, 0.298828125
-0.0068359375, 0.1318359375, 0.259765625
-0.0078125, 0.150390625, 0.2041015625
-0.005859375, 0.1630859375, 0.1806640625
-0.0126953125, 0.1337890625, 0.205078125
-0.0087890625, 0.046875, 0.22265625
-0.0048828125, 0.0283203125, 0.2021484375
0.00390625, 0.0693359375, 0.1611328125
0.0029296875, 0.0908203125, 0.1513671875
0.0048828125, 0.005859375, 0.1552734375
0.021484375, -0.0244140625, 0.1611328125
0.0263671875, -0.0087890625, 0.1611328125
0.029296875, -0.0498046875, 0.1484375
0.02734375, -0.080078125, 0.1416015625
0.0263671875, -0.078125, 0.1279296875
0.0263671875, -0.0947265625, 0.1171875
0.03515625, -0.1708984375, 0.1513671875
0.0400390625, -0.181640625, 0.16796875
0.0458984375, -0.2119140625, 0.1572265625
0.0419921875, -0.3017578125, 0.158203125
0.03515625, -0.365234375, 0.1455078125
0.0341796875, -0.3583984375, 0.142578125
0.025390625, -0.375, 0.1845703125
0.02734375, -0.4169921875, 0.234375
0.0302734375, -0.4384765625, 0.2314453125
0.03125, -0.4345703125, 0.1962890625
0.0234375, -0.416015625, 0.181640625
0.01953125, -0.375, 0.169921875
0.005859375, -0.3310546875, 0.1962890625
-0.009765625, -0.3095703125, 0.26171875
-0.0146484375, -0.2353515625, 0.2939453125
-0.025390625, -0.1298828125, 0.25390625
-0.044921875, -0.0791015625, 0.251953125
-0.05078125, -0.0263671875, 0.298828125
-0.05078125, 0.115234375, 0.2744140625
-0.0341796875, 0.2236328125, 0.197265625
-0.0078125, 0.26953125, 0.197265625
0.0126953125, 0.2744140625, 0.1943359375
0.0341796875, 0.296875, 0.1494140625
0.048828125, 0.314453125, 0.1162109375
0.064453125, 0.3330078125, 0.0859375
0.0732421875, 0.294921875, 0.052734375
0.0712890625, 0.2939453125, 0.0361328125
0.076171875, 0.3125, 0.07421875
0.07421875, 0.31640625, 0.0439453125
0.0791015625, 0.3232421875, -0.01953125
0.0751953125, 0.220703125, 0.01953125
0.0615234375, 0.208984375, 0.0625
0.046875, 0.22265625, 0.07421875
0.0419921875, 0.173828125, 0.1357421875
0.0419921875, 0.1298828125, 0.212890625
0.029296875, 0.19921875, 0.220703125
0.0185546875, 0.2158203125, 0.150390625
0.0009765625, 0.0224609375, 0.2587890625
0.005859375, 0.05078125, 0.3359375
0.0068359375, 0.111328125, 0.322265625
-0.0078125, -0.0771484375, 0.419921875
0.0029296875, -0.150390625, 0.4833984375
0.013671875, -0.0205078125, 0.4912109375
0.009765625, -0.0732421875, 0.4521484375
0.005859375, -0.1630859375, 0.41796875
0.0263671875, -0.087890625, 0.3564453125
0.0341796875, -0.0556640625, 0.298828125
0.02734375, -0.115234375, 0.306640625
0.0283203125, -0.1962890625, 0.3076171875
0.0380859375, -0.166015625, 0.302734375
0.0498046875, -0.0908203125, 0.2705078125
0.052734375, -0.0869140625, 0.2080078125
0.0478515625, -0.1357421875, 0.169921875
0.048828125, -0.169921875, 0.138671875
0.0537109375, -0.1640625, 0.142578125
0.05078125, -0.1728515625, 0.15234375
0.048828125, -0.1748046875, 0.1318359375
0.0341796875, -0.173828125, 0.111328125
0.0224609375, -0.1826171875, 0.0703125
0.00390625, -0.1875, 0.044921875
-0.017578125, -0.1279296875, 0.05859375
-0.03515625, -0.052734375, 0.1005859375
-0.052734375, -0.025390625, 0.1181640625
-0.0576171875, -0.0419921875, 0.1689453125
-0.0703125, -0.0478515625, 0.1728515625
-0.08984375, 0.0244140625, 0.2294921875
-0.0986328125, 0.048828125, 0.30859375
-0.109375, 0.083984375, 0.3681640625
-0.1064453125, 0.140625, 0.404296875
-0.099609375, 0.1748046875, 0.42578125
-0.08984375, 0.1640625, 0.4677734375
-0.0703125, 0.169921875, 0.443359375
-0.060546875, 0.1396484375, 0.40234375
-0.0546875, 0.0888671875, 0.35546875
-0.0537109375, 0.0673828125, 0.33203125
-0.046875, 0.0810546875, 0.3203125
-0.044921875, 0.0693359375, 0.3056640625
-0.05078125, 0.05078125, 0.287109375
-0.056640625, 0.0302734375, 0.296875
-0.0517578125, 0.0263671875, 0.2861328125
-0.0517578125, 0.037109375, 0.26171875
-0.0556640625, 0.01953125, 0.2490234375
-0.0546875, -0.009765625, 0.2529296875
-0.0537109375, -0.001953125, 0.2509765625
-0.0576171875, 0.0078125, 0.2353515625
-0.0556640625, 0.001953125, 0.2314453125
-0.052734375, 0.0029296875, 0.2275390625
-0.056640625, -0.00390625, 0.2373046875
-0.0546875, -0.001953125, 0.2236328125
-0.0537109375, -0.0244140625, 0.2333984375
-0.05078125, -0.021484375, 0.236328125
-0.056640625, -0.0029296875, 0.24609375
-0.0498046875, 0.0166015625, 0.220703125
-0.048828125, -0.0322265625, 0.228515625
-0.052734375, -0.009765625, 0.248046875
-0.0517578125, 0.0009765625, 0.224609375
-0.0556640625, -0.0380859375, 0.259765625
-0.0478515625, 0.00390625, 0.2412109375
-0.0498046875, -0.0009765625, 0.2236328125
-0.052734375, -0.013671875, 0.2353515625
-0.0517578125, 0.0185546875, 0.236328125
-0.0556640625, -0.021484375, 0.248046875
-0.0546875, -0.0029296875, 0.248046875
-0.0478515625, 0.0185546875, 0.2470703125
-0.0546875, -0.0048828125, 0.244140625
-0.046875, 0.005859375, 0.2353515625
-0.0439453125, -0.0087890625, 0.234375
-0.044921875, 0.0, 0.2412109375
-0.048828125, -0.0048828125, 0.255859375
-0.048828125, -0.001953125, 0.2451171875
-0.048828125, 0.0107421875, 0.2392578125
-0.0498046875, 0.0078125, 0.22265625
-0.046875, 0.009765625, 0.232421875
-0.048828125, 0.0029296875, 0.244140625
-0.046875, 0.0, 0.2373046875
-0.0498046875, -0.0205078125, 0.248046875
-0.0458984375, 0.0029296875, 0.2392578125
-0.0439453125, 0.0234375, 0.205078125
-0.0517578125, -0.02734375, 0.2431640625
-0.0498046875, -0.0009765625, 0.24609375
-0.046875, 0.0205078125, 0.2314453125
-0.0478515625, -0.0087890625, 0.2412109375
-0.0478515625, -0.0263671875, 0.25
-0.044921875, 0.015625, 0.2294921875
-0.048828125, 0.009765625, 0.251953125
-0.0478515625, -0.00390625, 0.2578125
-0.0478515625, 0.0029296875, 0.2490234375
-0.0478515625, 0.0048828125, 0.244140625
-0.05078125, -0.001953125, 0.2509765625
-0.046875, 0.0166015625, 0.2451171875
-0.0458984375, 0.0048828125, 0.2412109375
-0.046875, 0.005859375, 0.236328125
-0.048828125, -0.00390625, 0.2431640625
-0.048828125, -0.0009765625, 0.240234375
-0.044921875, 0.009765625, 0.2412109375
-0.04296875, 0.009765625, 0.23046875
-0.0478515625, -0.0029296875, 0.2451171875
-0.0478515625, 0.00390625, 0.2412109375
-0.0458984375, 0.0009765625, 0.2431640625
-0.044921875, 0.0029296875, 0.234375
-0.048828125, -0.0009765625, 0.23828125
-0.046875, 0.0087890625, 0.2529296875
-0.0439453125, 0.0234375, 0.23046875
-0.0498046875, -0.0205078125, 0.248046875
-0.044921875, 0.009765625, 0.2509765625
-0.044921875, 0.015625, 0.236328125
-0.0458984375, -0.009765625, 0.2412109375
-0.044921875, -0.001953125, 0.23046875
-0.04296875, 0.0263671875, 0.2314453125
-0.0498046875, -0.0107421875, 0.2587890625
-0.0498046875, -0.01171875, 0.2587890625
-0.0439453125, 0.0224609375, 0.2490234375
-0.0439453125, 0.00390625, 0.234375
-0.046875, 0.005859375, 0.224609375
-0.0458984375, 0.001953125, 0.2431640625
-0.0498046875, 0.0, 0.2578125
-0.046875, 0.0009765625, 0.2509765625
-0.0439453125, 0.0, 0.234375
-0.044921875, 0.0029296875, 0.232421875
-0.0439453125, -0.01953125, 0.24609375
-0.044921875, 0.0048828125, 0.25390625
-0.0478515625, 0.02734375, 0.2353515625
-0.048828125, 0.0185546875, 0.2265625
-0.052734375, 0.0166015625, 0.2265625
-0.0498046875, 0.0166015625, 0.2373046875
-0.0478515625, 0.0224609375, 0.23828125
-0.04296875, 0.025390625, 0.2333984375
-0.0439453125, 0.0078125, 0.23828125
-0.041015625, -0.00390625, 0.2509765625
-0.041015625, 0.001953125, 0.2548828125
-0.0439453125, 0.005859375, 0.24609375
-0.0458984375, 0.0, 0.25390625
-0.0439453125, -0.005859375, 0.25
-0.04296875, 0.0048828125, 0.236328125
-0.0439453125, 0.0107421875, 0.23046875
-0.0419921875, 0.0068359375, 0.234375
-0.04296875, 0.0009765625, 0.2314453125
-0.0458984375, -0.00390625, 0.2294921875
-0.0419921875, 0.009765625, 0.24609375
-0.0419921875, 0.0126953125, 0.2353515625
-0.0458984375, 0.005859375, 0.2451171875
-0.0439453125, 0.0048828125, 0.244140625
-0.04296875, 0.00390625, 0.2470703125
-0.0439453125, 0.0009765625, 0.2412109375
-0.044921875, -0.00390625, 0.2529296875
-0.0419921875, 0.017578125, 0.244140625
-0.044921875, 0.0068359375, 0.2412109375
-0.044921875, 0.017578125, 0.234375
-0.0478515625, 0.0087890625, 0.248046875
-0.0478515625, -0.0009765625, 0.2646484375
-0.0439453125, 0.025390625, 0.23046875
-0.04296875, 0.00390625, 0.2333984375
-0.044921875, 0.0029296875, 0.2431640625
-0.044921875, 0.0107421875, 0.25
-0.0458984375, 0.013671875, 0.236328125
-0.04296875, 0.0087890625, 0.23828125
-0.0458984375, 0.005859375, 0.2421875
-0.0458984375, 0.0, 0.248046875
-0.0458984375, 0.005859375, 0.2509765625
-0.0458984375, 0.01171875, 0.244140625
-0.0419921875, 0.013671875, 0.236328125
-0.0419921875, 0.0078125, 0.2314453125
-0.044921875, 0.001953125, 0.240234375
-0.0439453125, 0.01953125, 0.2431640625
-0.044921875, 0.0078125, 0.248046875
-0.0439453125, 0.0, 0.24609375
-0.044921875, 0.00390625, 0.232421875
-0.044921875, 0.0029296875, 0.244140625
-0.0419921875, 0.021484375, 0.2294921875
-0.046875, 0.0029296875, 0.2451171875
-0.04296875, 0.01953125, 0.2451171875
-0.0439453125, 0.01171875, 0.248046875
-0.0439453125, -0.005859375, 0.2470703125
-0.044921875, 0.0107421875, 0.2353515625
-0.044921875, 0.00390625, 0.240234375
-0.044921875, 0.009765625, 0.2490234375
-0.0439453125, 0.01953125, 0.2314453125
-0.044921875, 0.0029296875, 0.2431640625
-0.048828125, 0.0009765625, 0.2421875
-0.044921875, 0.0048828125, 0.2470703125
-0.0458984375, 0.0068359375, 0.23828125
-0.0458984375, 0.0146484375, 0.2275390625
-0.0458984375, 0.001953125, 0.2490234375
-0.048828125, 0.0048828125, 0.248046875
-0.0478515625, 0.005859375, 0.2451171875
-0.044921875, 0.01171875, 0.2392578125
-0.0458984375, 0.0107421875, 0.2392578125
-0.0419921875, 0.0087890625, 0.2373046875
-0.04296875, 0.0087890625, 0.2353515625
-0.046875, 0.0185546875, 0.236328125
-0.0458984375, 0.0078125, 0.240234375
-0.04296875, 0.0087890625, 0.2470703125
-0.0419921875, 0.0087890625, 0.2490234375
-0.0458984375, -0.001953125, 0.2490234375
-0.0458984375, 0.005859375, 0.25
-0.0439453125, 0.01953125, 0.23828125
-0.0419921875, 0.0205078125, 0.2236328125
-0.044921875, 0.0087890625, 0.234375
-0.044921875, -0.0068359375, 0.248046875
-0.04296875, -0.00390625, 0.2529296875
-0.046875, 0.0166015625, 0.2431640625
-0.0458984375, 0.017578125, 0.232421875
-0.044921875, 0.0166015625, 0.2265625
-0.0400390625, 0.0009765625, 0.23828125
-0.044921875, -0.00390625, 0.2490234375
-0.046875, 0.0, 0.2451171875
-0.044921875, 0.0166015625, 0.2236328125
-0.046875, 0.0205078125, 0.2197265625
-0.0458984375, 0.0078125, 0.2412109375
-0.04296875, 0.001953125, 0.251953125
-0.0439453125, 0.0029296875, 0.248046875
-0.0458984375, 0.0078125, 0.2421875
-0.0478515625, 0.01171875, 0.2470703125
-0.04296875, 0.013671875, 0.23828125
-0.0439453125, 0.017578125, 0.2314453125
-0.044921875, 0.0, 0.24609375
-0.04296875, 0.0029296875, 0.2548828125
-0.0458984375, 0.0078125, 0.2470703125
-0.044921875, 0.013671875, 0.232421875
-0.044921875, 0.0107421875, 0.236328125
-0.0419921875, 0.0078125, 0.23828125
-0.04296875, 0.0048828125, 0.2421875
-0.0458984375, 0.001953125, 0.2490234375
-0.046875, 0.0078125, 0.2490234375
-0.04296875, 0.005859375, 0.24609375
-0.0458984375, 0.009765625, 0.2353515625
-0.046875, 0.0146484375, 0.2373046875
-0.046875, 0.015625, 0.2412109375
-0.044921875, 0.017578125, 0.2373046875
-0.046875, 0.0126953125, 0.234375
-0.0439453125, 0.0048828125, 0.2431640625
-0.0439453125, 0.0068359375, 0.248046875
-0.0390625, 0.013671875, 0.2412109375
-0.044921875, 0.005859375, 0.2373046875
-0.0439453125, 0.0048828125, 0.2431640625
-0.0419921875, 0.0107421875, 0.244140625
-0.0419921875, 0.017578125, 0.240234375
-0.0439453125, 0.005859375, 0.244140625
-0.041015625, 0.0068359375, 0.2470703125
-0.0478515625, 0.00390625, 0.2470703125
-0.046875, 0.015625, 0.2431640625
-0.044921875, 0.009765625, 0.2412109375
-0.04296875, 0.013671875, 0.2373046875
-0.0458984375, 0.001953125, 0.2255859375
-0.0458984375, 0.015625, 0.2392578125
-0.0439453125, 0.0146484375, 0.2548828125
-0.0458984375, 0.001953125, 0.2509765625
-0.044921875, 0.001953125, 0.2421875
-0.0439453125, 0.0029296875, 0.2392578125
-0.0419921875, 0.017578125, 0.2431640625
-0.046875, 0.0166015625, 0.236328125
-0.0439453125, 0.013671875, 0.236328125
-0.0439453125, 0.00390625, 0.25
-0.04296875, 0.0009765625, 0.25
-0.0458984375, 0.01171875, 0.2412109375
-0.041015625, 0.0107421875, 0.23828125
-0.04296875, 0.0185546875, 0.236328125
-0.0458984375, 0.00390625, 0.2314453125
-0.046875, 0.0009765625, 0.25
-0.044921875, 0.0107421875, 0.2529296875
-0.04296875, 0.0087890625, 0.24609375
-0.0439453125, 0.0107421875, 0.240234375
-0.044921875, 0.0068359375, 0.240234375
-0.0419921875, 0.009765625, 0.244140625
-0.04296875, 0.01171875, 0.25
-0.0439453125, 0.0126953125, 0.2412109375
-0.0458984375, 0.0166015625, 0.234375
-0.0458984375, 0.0107421875, 0.236328125
-0.0458984375, 0.01171875, 0.244140625
-0.0439453125, 0.013671875, 0.25390625
-0.044921875, 0.009765625, 0.2392578125
-0.0458984375, 0.0068359375, 0.240234375
-0.0419921875, 0.005859375, 0.2470703125
-0.0419921875, 0.01171875, 0.2353515625
-0.044921875, 0.0107421875, 0.23046875
-0.04296875, 0.0078125, 0.2431640625
-0.0458984375, 0.0087890625, 0.2490234375
-0.044921875, 0.01171875, 0.2392578125
-0.044921875, 0.0078125, 0.2294921875
-0.0458984375, 0.0205078125, 0.244140625
-0.041015625, 0.0126953125, 0.2490234375
-0.04296875, 0.0126953125, 0.2490234375
-0.044921875, -0.001953125, 0.24609375
-0.0419921875, 0.009765625, 0.24609375
-0.0439453125, 0.017578125, 0.2412109375
-0.041015625, 0.00390625, 0.236328125
-0.0390625, 0.0048828125, 0.244140625
-0.0419921875, 0.015625, 0.2431640625
-0.0439453125, 0.01171875, 0.2431640625
-0.044921875, 0.0078125, 0.2509765625
-0.0400390625, 0.015625, 0.251953125
-0.0400390625, 0.01953125, 0.2470703125
-0.037109375, 0.0087890625, 0.244140625
-0.0390625, 0.005859375, 0.2509765625
-0.0400390625, 0.03125, 0.255859375
-0.0361328125, 0.044921875, 0.2666015625
